<?xml version="1.0" encoding="utf-8"?>
<COLLADA xmlns="http://www.collada.org/2005/11/COLLADASchema" version="1.4.1">
  <asset>
    <contributor>
      <author>Blender User</author>
      <authoring_tool>Blender 2.78.0</authoring_tool>
    </contributor>
    <created>2017-11-29T10:41:14</created>
    <modified>2017-11-29T10:41:14</modified>
    <unit name="meter" meter="1"/>
    <up_axis>Z_UP</up_axis>
  </asset>
  <library_images/>
  <library_effects/>
  <library_geometries>
    <geometry id="Cube_001-mesh" name="Cube.001">
      <mesh>
        <source id="Cube_001-mesh-positions">
          <float_array id="Cube_001-mesh-positions-array" count="36">-0.05045962 0.1638146 0.7725097 -0.05045962 0.1638146 1.386183 -0.05045962 0.3488622 0.8700009 -0.05045962 0.4362681 1.332394 0.05045962 0.1638146 0.7725097 0.05045962 0.1638146 1.386183 0.05045962 0.3488622 0.8700009 0.05045962 0.4362681 1.332394 -0.07306182 0.4448385 1.256904 0.07306182 0.4448385 1.256904 -0.05045962 0.3643051 1.382821 0.05045962 0.3643051 1.382821</float_array>
          <technique_common>
            <accessor source="#Cube_001-mesh-positions-array" count="12" stride="3">
              <param name="X" type="float"/>
              <param name="Y" type="float"/>
              <param name="Z" type="float"/>
            </accessor>
          </technique_common>
        </source>
        <source id="Cube_001-mesh-normals">
          <float_array id="Cube_001-mesh-normals-array" count="57">-0.9948068 -0.09581118 -0.03434759 0 0.9705832 -0.2407659 0.9948068 -0.09581118 -0.03434765 0 -1 0 0 0.4661122 -0.8847256 0 0.5738631 0.8189513 -0.9293733 0.2118367 0.3023087 0 0.9936172 0.1128053 0 0.01676499 0.9998595 0.9293732 0.2118368 0.3023087 -1 0 0 -0.9839299 0.002993524 0.1785305 0 0.9705832 -0.2407662 1 0 0 0.9839299 0.002993464 0.1785305 0 0.4661123 -0.8847256 0 0.5738635 0.818951 0 0.9936173 0.1128041 0 0.01676499 0.9998595</float_array>
          <technique_common>
            <accessor source="#Cube_001-mesh-normals-array" count="19" stride="3">
              <param name="X" type="float"/>
              <param name="Y" type="float"/>
              <param name="Z" type="float"/>
            </accessor>
          </technique_common>
        </source>
        <vertices id="Cube_001-mesh-vertices">
          <input semantic="POSITION" source="#Cube_001-mesh-positions"/>
        </vertices>
        <polylist count="20">
          <input semantic="VERTEX" source="#Cube_001-mesh-vertices" offset="0"/>
          <input semantic="NORMAL" source="#Cube_001-mesh-normals" offset="1"/>
          <vcount>3 3 3 3 3 3 3 3 3 3 3 3 3 3 3 3 3 3 3 3 </vcount>
          <p>1 0 8 0 2 0 8 1 6 1 2 1 9 2 5 2 6 2 5 3 0 3 4 3 6 4 0 4 2 4 3 5 11 5 7 5 8 6 10 6 3 6 8 7 7 7 9 7 10 8 5 8 11 8 11 9 9 9 7 9 2 10 0 10 1 10 1 11 10 11 8 11 8 12 9 12 6 12 4 13 6 13 5 13 9 14 11 14 5 14 5 3 1 3 0 3 6 15 4 15 0 15 3 16 10 16 11 16 8 17 3 17 7 17 10 18 1 18 5 18</p>
        </polylist>
      </mesh>
    </geometry>
    <geometry id="Cylinder-mesh" name="Cylinder">
      <mesh>
        <source id="Cylinder-mesh-positions">
          <float_array id="Cylinder-mesh-positions-array" count="288">0 0.21 -0.004999995 0 0.1491873 1.501556 0.105 0.1818653 -0.004999995 0.07459366 0.1292 1.501556 0.1818653 0.105 -0.004999995 0.1292 0.0745936 1.501556 0.21 0 -0.004999995 0.1491873 0 1.501556 0.1818653 -0.105 -0.004999995 0.1292 -0.07459366 1.501556 0.105 -0.1818653 -0.004999995 0.07459366 -0.1292 1.501556 0 -0.21 -0.004999995 0 -0.1491873 1.501556 -0.1049999 -0.1818653 -0.004999995 -0.0745936 -0.1292 1.501556 -0.1818653 -0.105 -0.004999995 -0.1292 -0.07459366 1.501556 -0.21 0 -0.004999995 -0.1491873 0 1.501556 -0.1818653 0.1049998 -0.004999995 -0.1292001 0.07459354 1.501556 -0.1050001 0.1818652 -0.004999995 -0.07459372 0.1291999 1.501556 0 0.21 0.01679903 0.105 0.1818653 0.01679903 0.1818653 0.105 0.01679903 0.21 0 0.01679903 0.1818653 -0.105 0.01679903 0.105 -0.1818653 0.01679903 0 -0.21 0.01679903 -0.1049999 -0.1818653 0.01679903 -0.1818653 -0.105 0.01679903 -0.21 0 0.01679903 -0.1818653 0.1049998 0.01679903 -0.1050001 0.1818652 0.01679903 0 0.03308433 0.07077944 0.01654219 0.02865189 0.07077944 0.02865189 0.01654213 0.07077944 0.03308439 0 0.07077944 0.02865189 -0.01654219 0.07077944 0.01654219 -0.02865189 0.07077944 0 -0.03308439 0.07077944 -0.01654213 -0.02865195 0.07077944 -0.02865189 -0.01654219 0.07077944 -0.03308439 0 0.07077944 -0.02865189 0.01654213 0.07077944 -0.01654219 0.02865183 0.07077944 0 0.2548649 0.8017207 0.1274324 0.2207195 0.8017207 0.2207195 0.1274324 0.8017207 0.2548649 0 0.8017207 0.2207195 -0.1274325 0.8017207 0.1274325 -0.2207195 0.8017207 0 -0.2548649 0.8017207 -0.1274324 -0.2207195 0.8017207 -0.2207194 -0.1274325 0.8017207 -0.2548649 0 0.8017207 -0.2207195 0.1274323 0.8017207 -0.1274326 0.2207194 0.8017207 0.01654219 0.02865189 0.733893 0.02865189 0.01654213 0.733893 0.03308439 0 0.733893 0.02865189 -0.01654219 0.733893 0.01654219 -0.02865189 0.733893 0 -0.03308439 0.733893 -0.01654213 -0.02865195 0.733893 -0.02865189 -0.01654219 0.733893 -0.03308439 0 0.733893 -0.02865189 0.01654213 0.733893 -0.01654219 0.02865183 0.733893 0 0.03308433 0.733893 0.09237372 0.159996 1.501556 0 0.1847475 1.501556 0.159996 0.09237372 1.501556 0.1847475 0 1.501556 0.159996 -0.09237372 1.501556 0.09237372 -0.159996 1.501556 0 -0.1847475 1.501556 -0.09237366 -0.159996 1.501556 -0.159996 -0.09237378 1.501556 -0.1847475 0 1.501556 -0.159996 0.0923736 1.501556 -0.09237384 0.1599959 1.501556 0.05231571 0.09061348 1.009899 0 0.1046314 1.009899 0.09061348 0.05231571 1.009899 0.1046314 0 1.009899 0.09061348 -0.05231571 1.009899 0.05231571 -0.09061348 1.009899 0 -0.1046314 1.009899 -0.05231571 -0.09061348 1.009899 -0.09061348 -0.05231577 1.009899 -0.1046314 0 1.009899 -0.09061354 0.05231565 1.009899 -0.05231577 0.09061348 1.009899</float_array>
          <technique_common>
            <accessor source="#Cylinder-mesh-positions-array" count="96" stride="3">
              <param name="X" type="float"/>
              <param name="Y" type="float"/>
              <param name="Z" type="float"/>
            </accessor>
          </technique_common>
        </source>
        <source id="Cylinder-mesh-normals">
          <float_array id="Cylinder-mesh-normals-array" count="456">0.2576154 0.9614341 0.09632742 0.7038186 0.7038186 0.09632742 0.9614341 0.2576153 0.09632742 0.961434 -0.2576157 0.09632736 0.7038185 -0.7038185 0.09632742 0.2576156 -0.9614341 0.0963273 -0.2576152 -0.9614341 0.09632736 -0.7038183 -0.7038188 0.0963273 -0.9614339 -0.2576162 0.09632742 -0.9614341 0.257615 0.09632736 -0.9622463 -0.2578333 0.08720254 -0.7038192 0.7038179 0.09632736 -0.2576158 0.961434 0.09632742 0 0 -1 -0.2588194 0.9659258 0 -0.7071073 0.7071063 0 -0.9659261 0.2588184 0 -0.9659258 -0.2588192 0 -0.7071066 -0.7071071 0 -0.2588189 -0.9659259 0 0.2588191 -0.9659259 0 0.7071068 -0.7071068 0 0.9659258 -0.2588191 0 0.9659259 0.2588191 0 0.7071067 0.7071068 0 0.2588191 0.9659259 0 -0.07795959 0.2909488 0.9535571 -0.2129895 0.2129892 0.9535571 -0.2909489 0.07795935 0.9535571 -0.2909488 -0.07795959 0.9535571 -0.2129893 -0.2129895 0.9535571 -0.07795947 -0.2909489 0.9535571 0.07795953 -0.2909489 0.9535571 0.2129894 -0.2129894 0.953557 0.2909489 -0.07795953 0.9535571 0.2909489 0.07795947 0.9535571 0.2129893 0.2129893 0.9535571 0.07795959 0.2909489 0.9535571 -0.0781247 0.2915667 -0.9533548 -0.2134407 0.2134417 -0.9533551 -0.2915667 0.07812505 -0.9533548 -0.291565 -0.07812559 -0.9533553 -0.213437 -0.2134419 -0.9533558 -0.07813322 -0.2915665 -0.9533542 0.07812476 -0.2915668 -0.9533548 0.2134436 -0.2134419 -0.9533544 0.2915654 -0.07812511 -0.9533552 0.2915667 0.07812505 -0.9533548 0.2134444 0.2134417 -0.9533541 0.07812559 0.2915671 -0.9533547 0.2588191 0.9659258 0 0.7071067 0.7071069 0 0.9659258 0.2588192 0 0.9659259 -0.2588189 0 0.7071064 -0.7071072 0 0.2588201 -0.9659256 0 -0.2588193 -0.9659258 0 -0.7071068 -0.7071068 0 -0.9659256 -0.25882 0 -0.9659259 0.2588189 0 -0.7071072 0.7071064 0 -0.2588197 0.9659257 0 0 0 1 9.07273e-6 0 1 2.80882e-6 0 1 -2.80882e-6 0 1 0.9622464 -0.2578328 0.08720254 0.257833 0.9622463 0.08720254 -0.9622461 0.2578336 0.08720254 0.7044137 -0.7044126 0.08720254 -0.257833 -0.9622464 0.08720254 0.7044129 0.7044134 0.08720254 -0.7044133 0.704413 0.08720254 0.2578332 -0.9622462 0.0872026 -0.7044132 -0.7044131 0.08720254 0.9622461 0.2578336 0.08720254 -0.2578328 0.9622464 0.08720266 0.2576156 0.961434 0.09632742 0.7038185 0.7038186 0.09632736 0.9614341 0.2576153 0.09632736 0.9614341 -0.2576153 0.09632736 0.7038187 -0.7038185 0.09632736 0.2576155 -0.9614341 0.09632742 -0.2576155 -0.961434 0.09632748 -0.7038185 -0.7038186 0.09632736 -0.9614339 -0.2576158 0.09632736 -0.9614341 0.257615 0.09632736 -0.9622462 -0.2578331 0.08720254 -0.7038189 0.7038182 0.09632736 -0.2576157 0.961434 0.09632736 0 0 -1 0 0 -1 0 0 -1 0 0 -1 0 0 -1 0 0 -1 0 0 -1 -0.9659259 0.2588188 0 -0.9659258 -0.2588196 0 -0.2588189 -0.9659259 0 0.2588192 -0.9659258 0 0.9659259 0.2588188 0 -0.07795971 0.2909487 0.9535572 -0.2129893 0.212989 0.9535572 -0.2909489 0.07795971 0.953557 -0.2909489 -0.07796001 0.953557 -0.2129892 -0.2129893 0.9535571 -0.07795971 -0.290949 0.953557 0.07795983 -0.2909488 0.9535571 0.2129892 -0.2129895 0.9535571 0.2909488 -0.07795935 0.9535571 0.2909489 0.07795971 0.9535571 0.2129894 0.2129894 0.9535571 0.07795935 0.2909487 0.9535573 -0.07812571 0.2915668 -0.9533547 -0.213442 0.2134416 -0.9533548 -0.2915664 0.078125 -0.953355 -0.2915674 -0.07812523 -0.9533545 -0.213442 -0.2134418 -0.9533547 -0.07812511 -0.2915669 -0.9533547 0.07812589 -0.2915669 -0.9533547 0.2134415 -0.2134418 -0.9533548 0.2915668 -0.07812505 -0.9533548 0.2915668 0.07812505 -0.9533548 0.2134414 0.2134417 -0.9533548 0.07812553 0.2915668 -0.9533547 0.7071068 0.7071067 0 0.9659259 0.2588189 0 0.9659258 -0.2588192 0 0.7071063 -0.7071073 0 0.25882 -0.9659256 0 -0.7071068 -0.7071068 0 -0.9659258 0.2588192 0 -0.7071073 0.7071064 0 -9.07273e-6 0 1 -5.61764e-6 0 1 -4.53637e-6 0 1 -9.07273e-6 0 1 5.07976e-6 0 1 5.07975e-6 0 1 -1.57168e-6 0 1 0.9622464 -0.2578326 0.08720254 0.2578328 0.9622464 0.08720254 -0.9622463 0.2578328 0.08720248 0.7044137 -0.7044126 0.0872026 -0.2578333 -0.9622462 0.08720254 0.7044127 0.7044135 0.08720254 -0.7044133 0.704413 0.08720254 0.2578334 -0.9622462 0.08720248 -0.7044134 -0.7044129 0.08720254 0.9622462 0.2578331 0.08720254 -0.257833 0.9622463 0.08720254</float_array>
          <technique_common>
            <accessor source="#Cylinder-mesh-normals-array" count="152" stride="3">
              <param name="X" type="float"/>
              <param name="Y" type="float"/>
              <param name="Z" type="float"/>
            </accessor>
          </technique_common>
        </source>
        <vertices id="Cylinder-mesh-vertices">
          <input semantic="POSITION" source="#Cylinder-mesh-positions"/>
        </vertices>
        <polylist count="188">
          <input semantic="VERTEX" source="#Cylinder-mesh-vertices" offset="0"/>
          <input semantic="NORMAL" source="#Cylinder-mesh-normals" offset="1"/>
          <vcount>3 3 3 3 3 3 3 3 3 3 3 3 3 3 3 3 3 3 3 3 3 3 3 3 3 3 3 3 3 3 3 3 3 3 3 3 3 3 3 3 3 3 3 3 3 3 3 3 3 3 3 3 3 3 3 3 3 3 3 3 3 3 3 3 3 3 3 3 3 3 3 3 3 3 3 3 3 3 3 3 3 3 3 3 3 3 3 3 3 3 3 3 3 3 3 3 3 3 3 3 3 3 3 3 3 3 3 3 3 3 3 3 3 3 3 3 3 3 3 3 3 3 3 3 3 3 3 3 3 3 3 3 3 3 3 3 3 3 3 3 3 3 3 3 3 3 3 3 3 3 3 3 3 3 3 3 3 3 3 3 3 3 3 3 3 3 3 3 3 3 3 3 3 3 3 3 3 3 3 3 3 3 3 3 3 3 3 3 </vcount>
          <p>73 0 49 0 48 0 72 1 50 1 49 1 74 2 51 2 50 2 75 3 52 3 51 3 76 4 53 4 52 4 77 5 54 5 53 5 78 6 55 6 54 6 79 7 56 7 55 7 80 8 57 8 56 8 81 9 58 9 57 9 5 10 87 10 7 10 82 11 59 11 58 11 83 12 48 12 59 12 6 13 14 13 22 13 35 14 0 14 22 14 34 15 22 15 20 15 33 16 20 16 18 16 32 17 18 17 16 17 31 18 16 18 14 18 30 19 14 19 12 19 29 20 12 20 10 20 28 21 10 21 8 21 27 22 8 22 6 22 26 23 6 23 4 23 25 24 4 24 2 24 24 25 2 25 0 25 35 26 36 26 24 26 34 27 47 27 35 27 33 28 46 28 34 28 32 29 45 29 33 29 31 30 44 30 32 30 42 31 31 31 30 31 29 32 42 32 30 32 40 33 29 33 28 33 39 34 28 34 27 34 38 35 27 35 26 35 37 36 26 36 25 36 36 37 25 37 24 37 59 38 71 38 70 38 58 39 70 39 69 39 57 40 69 40 68 40 56 41 68 41 67 41 55 42 67 42 66 42 65 43 55 43 66 43 53 44 65 44 64 44 63 45 53 45 64 45 62 46 52 46 63 46 61 47 51 47 62 47 49 48 61 48 60 48 71 49 49 49 60 49 71 50 37 50 36 50 60 51 38 51 37 51 61 52 39 52 38 52 62 53 40 53 39 53 63 54 41 54 40 54 64 55 42 55 41 55 65 56 43 56 42 56 66 57 44 57 43 57 67 58 45 58 44 58 68 59 46 59 45 59 69 60 47 60 46 60 70 61 36 61 47 61 3 62 73 62 1 62 5 62 72 62 3 62 7 62 74 62 5 62 7 63 76 63 75 63 11 64 76 64 9 64 11 62 78 62 77 62 13 62 79 62 78 62 17 62 79 62 15 62 19 64 80 64 17 64 19 62 82 62 81 62 23 65 82 65 21 65 23 62 73 62 83 62 94 62 90 62 86 62 19 66 94 66 21 66 13 67 91 67 15 67 7 68 88 68 9 68 21 69 95 69 23 69 1 70 84 70 3 70 15 71 92 71 17 71 9 72 89 72 11 72 23 73 85 73 1 73 3 74 86 74 5 74 17 75 93 75 19 75 11 76 90 76 13 76 73 77 72 77 49 77 72 78 74 78 50 78 74 79 75 79 51 79 75 80 76 80 52 80 76 81 77 81 53 81 77 82 78 82 54 82 78 83 79 83 55 83 79 84 80 84 56 84 80 85 81 85 57 85 81 86 82 86 58 86 5 87 86 87 87 87 82 88 83 88 59 88 83 89 73 89 48 89 22 90 0 90 2 90 2 91 4 91 6 91 6 92 8 92 10 92 10 93 12 93 6 93 14 93 16 93 18 93 18 94 20 94 14 94 22 93 2 93 6 93 6 95 12 95 14 95 14 96 20 96 22 96 35 14 24 14 0 14 34 15 35 15 22 15 33 97 34 97 20 97 32 98 33 98 18 98 31 18 32 18 16 18 30 99 31 99 14 99 29 100 30 100 12 100 28 21 29 21 10 21 27 22 28 22 8 22 26 101 27 101 6 101 25 51 26 51 4 51 24 25 25 25 2 25 35 102 47 102 36 102 34 103 46 103 47 103 33 104 45 104 46 104 32 105 44 105 45 105 31 106 43 106 44 106 42 107 43 107 31 107 29 108 41 108 42 108 40 109 41 109 29 109 39 110 40 110 28 110 38 111 39 111 27 111 37 112 38 112 26 112 36 113 37 113 25 113 59 114 48 114 71 114 58 115 59 115 70 115 57 116 58 116 69 116 56 117 57 117 68 117 55 118 56 118 67 118 65 119 54 119 55 119 53 120 54 120 65 120 63 121 52 121 53 121 62 122 51 122 52 122 61 123 50 123 51 123 49 124 50 124 61 124 71 125 48 125 49 125 71 50 60 50 37 50 60 126 61 126 38 126 61 127 62 127 39 127 62 128 63 128 40 128 63 129 64 129 41 129 64 130 65 130 42 130 65 56 66 56 43 56 66 131 67 131 44 131 67 58 68 58 45 58 68 132 69 132 46 132 69 133 70 133 47 133 70 61 71 61 36 61 3 62 72 62 73 62 5 62 74 62 72 62 7 134 75 134 74 134 7 135 9 135 76 135 11 136 77 136 76 136 11 62 13 62 78 62 13 62 15 62 79 62 17 62 80 62 79 62 19 137 81 137 80 137 19 64 21 64 82 64 23 62 83 62 82 62 23 62 1 62 73 62 86 62 84 62 85 62 85 62 95 62 94 62 94 62 93 62 92 62 92 138 91 138 90 138 90 62 89 62 88 62 88 139 87 139 86 139 86 62 85 62 94 62 94 62 92 62 90 62 90 140 88 140 86 140 19 141 93 141 94 141 13 142 90 142 91 142 7 143 87 143 88 143 21 144 94 144 95 144 1 145 85 145 84 145 15 146 91 146 92 146 9 147 88 147 89 147 23 148 95 148 85 148 3 149 84 149 86 149 17 150 92 150 93 150 11 151 89 151 90 151</p>
        </polylist>
      </mesh>
    </geometry>
    <geometry id="Cylinder_001-mesh" name="Cylinder.001">
      <mesh>
        <source id="Cylinder_001-mesh-positions">
          <float_array id="Cylinder_001-mesh-positions-array" count="189">-0.001823723 -0.1791521 1.269833 -0.001823723 -0.4560454 1.244481 0.0675919 -0.1791521 1.244568 0.05129599 -0.4560454 1.225147 0.1045272 -0.179152 1.180594 0.07956039 -0.4560454 1.176192 0.09169965 -0.179152 1.107846 0.06974422 -0.4560454 1.120522 0.03511148 -0.179152 1.060363 0.02644062 -0.4560454 1.084185 -0.03875899 -0.179152 1.060363 -0.03008812 -0.4560454 1.084185 -0.0953471 -0.179152 1.107846 -0.07339173 -0.4560454 1.120522 -0.1081746 -0.179152 1.180594 -0.08320784 -0.4560454 1.176192 -0.07123935 -0.1791521 1.244568 -0.05494344 -0.4560454 1.225147 -0.001823723 -0.3932351 1.267462 0.06606757 -0.3932351 1.242751 0.1021918 -0.3932351 1.180182 0.08964592 -0.3932351 1.109031 0.03430044 -0.3932351 1.062591 -0.03794795 -0.3932351 1.062591 -0.09329336 -0.3932351 1.109031 -0.1058392 -0.3932351 1.180182 -0.06971502 -0.3932351 1.242751 0.03602373 -0.2352126 1.212004 0.05616199 -0.2352126 1.177124 0.04916805 -0.2352126 1.137459 0.01831448 -0.2352126 1.11157 -0.02196192 -0.2352126 1.11157 -0.05281549 -0.2352126 1.137459 -0.05980944 -0.2352126 1.177124 -0.03967118 -0.2352126 1.212004 -0.001823723 -0.2352126 1.22578 -0.001823723 -0.3564839 1.220654 0.03430402 -0.3564839 1.207505 0.05352717 -0.3564839 1.174209 0.04685103 -0.3564839 1.136347 0.01739943 -0.3564839 1.111634 -0.02104687 -0.3564839 1.111634 -0.05049854 -0.3564839 1.136347 -0.05717468 -0.3564839 1.174209 -0.03795146 -0.3564839 1.207505 0.0656203 -0.4560454 1.242218 -0.001823723 -0.4560454 1.266766 0.1015065 -0.4560454 1.180061 0.08904337 -0.4560454 1.109379 0.03406244 -0.4560454 1.063245 -0.03770995 -0.4560454 1.063245 -0.09269082 -0.4560454 1.109379 -0.105154 -0.4560454 1.180061 -0.0692678 -0.4560454 1.242218 0.05129593 -0.2089711 1.225147 -0.001823723 -0.2089711 1.244481 0.07956033 -0.2089711 1.176192 0.06974422 -0.2089711 1.120522 0.02644056 -0.2089711 1.084185 -0.03008818 -0.2089711 1.084185 -0.07339173 -0.2089711 1.120522 -0.0832079 -0.2089711 1.176192 -0.0549435 -0.2089711 1.225147</float_array>
          <technique_common>
            <accessor source="#Cylinder_001-mesh-positions-array" count="63" stride="3">
              <param name="X" type="float"/>
              <param name="Y" type="float"/>
              <param name="Z" type="float"/>
            </accessor>
          </technique_common>
        </source>
        <source id="Cylinder_001-mesh-normals">
          <float_array id="Cylinder_001-mesh-normals-array" count="333">0.3420059 -0.01040947 0.9396402 0.8659786 -0.01040869 0.4999728 0.9847545 -0.01040828 -0.1736388 0.6427547 -0.01040935 -0.7660014 0 -0.01040953 -0.9999458 -0.6427546 -0.01040917 -0.7660014 -0.9847545 -0.01040822 -0.1736384 0.9848077 2.00044e-7 0.1736491 -0.8659784 -0.01040863 0.499973 -0.3420059 -0.01040947 0.9396402 0 1 2.54923e-7 -0.2193007 0.7673829 0.6025204 -0.5468422 0.7754247 0.3157218 -0.6075212 0.7870472 -0.1071202 -0.3885509 0.7966215 -0.4630576 0 0.8002457 -0.5996724 0.3885509 0.7966219 -0.4630569 0.6075211 0.7870472 -0.1071215 0.546842 0.7754247 0.3157221 0.2193007 0.767383 0.6025201 0.2751404 -0.5940248 0.7559314 0.6834928 -0.6140979 0.3946156 0.7544906 -0.6426859 -0.133037 0.4796057 -0.665795 -0.5715729 0 -0.6744264 -0.7383421 -0.4796057 -0.6657949 -0.571573 -0.7544906 -0.6426861 -0.1330364 -0.6834936 -0.6140973 0.394615 -0.2751404 -0.5940248 0.7559314 0.3417529 -0.03968286 0.9389517 0.865614 -0.03081637 0.4997626 0.9846616 -0.01722073 -0.1736235 0.6427819 -0.005255281 -0.7660313 0 -5.28852e-4 -1 -0.6427822 -0.005255103 -0.766031 -0.9846616 -0.01722055 -0.1736229 -0.8656141 -0.03081631 0.4997625 -0.3417528 -0.0396828 0.9389517 0 -1 -4.48494e-7 0 -1 0 0 -1 3.14699e-6 0 -1 -2.75363e-6 0 -1 -2.47861e-6 0 -1 6.19654e-7 0 -1 -4.95725e-6 0 -1 -3.35148e-7 -0.6427879 0 0.7660442 -0.3420217 0 -0.9396922 0.8660268 1.66702e-7 -0.4999976 0 0 1 -0.8660255 -1.66703e-7 -0.4999998 0.3420177 0 -0.9396936 0.6427907 0 0.7660419 -0.9848077 -2.00044e-7 0.1736488 0.3420003 -0.01040858 0.9396423 0.8659787 -0.01040899 0.4999727 0.9847543 -0.01040852 -0.1736397 0.6427555 -0.01040816 -0.7660007 0 -0.01040953 -0.9999459 -0.6427555 -0.01040816 -0.7660007 -0.9847543 -0.01040834 -0.1736394 0.9848078 2.00043e-7 0.173648 -0.8659788 -0.01040887 0.4999725 -0.3419997 -0.01040858 0.9396424 0 1 0 -3.09053e-7 1 1.32758e-7 0 1 0 0 1 1.32758e-7 2.0172e-7 1 0 -0.2192996 0.7673839 0.6025196 -0.5468463 0.7754223 0.3157205 -0.6075211 0.787047 -0.1071222 -0.3885527 0.7966215 -0.4630563 0 0.8002459 -0.599672 0.3885526 0.7966215 -0.4630564 0.6075209 0.7870472 -0.1071222 0.5468464 0.7754222 0.3157206 0.2192994 0.7673835 0.6025202 0.2751368 -0.5940239 0.7559335 0.6834931 -0.6140976 0.3946155 0.7544882 -0.6426885 -0.1330384 0.4796065 -0.665795 -0.5715721 0 -0.6744263 -0.7383422 -0.4796068 -0.6657953 -0.5715715 -0.7544883 -0.6426886 -0.1330376 -0.6834944 -0.6140969 0.3946145 -0.2751368 -0.594024 0.7559335 0.3417533 -0.03968167 0.9389516 0.8656143 -0.03081655 0.4997623 0.9846618 -0.01722049 -0.1736225 0.6427775 -0.005255222 -0.766035 0 -5.28852e-4 -1 -0.6427776 -0.005255222 -0.7660349 -0.9846618 -0.01722031 -0.1736222 -0.8656145 -0.03081637 0.4997621 -0.3417534 -0.03968161 0.9389516 0 -1 -2.47863e-6 0 -1 4.48494e-7 -1.4026e-7 -1 0 0 -1 -9.06819e-7 -2.63607e-7 -1 -9.06826e-7 0 -1 2.72046e-6 1.59498e-7 -1 0 0 -1 0 -0.6427904 0 0.7660421 -0.3420177 0 -0.9396935 0.8660257 2.00043e-7 -0.4999995 -0.8660262 -2.00043e-7 -0.4999986 0.3420214 0 -0.9396922 0.6427881 0 0.7660442 -0.9848077 -1.33362e-7 0.1736488</float_array>
          <technique_common>
            <accessor source="#Cylinder_001-mesh-normals-array" count="111" stride="3">
              <param name="X" type="float"/>
              <param name="Y" type="float"/>
              <param name="Z" type="float"/>
            </accessor>
          </technique_common>
        </source>
        <vertices id="Cylinder_001-mesh-vertices">
          <input semantic="POSITION" source="#Cylinder_001-mesh-positions"/>
        </vertices>
        <polylist count="122">
          <input semantic="VERTEX" source="#Cylinder_001-mesh-vertices" offset="0"/>
          <input semantic="NORMAL" source="#Cylinder_001-mesh-normals" offset="1"/>
          <vcount>3 3 3 3 3 3 3 3 3 3 3 3 3 3 3 3 3 3 3 3 3 3 3 3 3 3 3 3 3 3 3 3 3 3 3 3 3 3 3 3 3 3 3 3 3 3 3 3 3 3 3 3 3 3 3 3 3 3 3 3 3 3 3 3 3 3 3 3 3 3 3 3 3 3 3 3 3 3 3 3 3 3 3 3 3 3 3 3 3 3 3 3 3 3 3 3 3 3 3 3 3 3 3 3 3 3 3 3 3 3 3 3 3 3 3 3 3 3 3 3 3 3 </vcount>
          <p>46 0 19 0 18 0 45 1 20 1 19 1 47 2 21 2 20 2 21 3 49 3 22 3 49 4 23 4 22 4 50 5 24 5 23 5 24 6 52 6 25 6 13 7 61 7 15 7 25 8 53 8 26 8 26 9 46 9 18 9 2 10 10 10 16 10 44 11 18 11 36 11 43 12 26 12 44 12 42 13 25 13 43 13 41 14 24 14 42 14 22 15 41 15 40 15 21 16 40 16 39 16 20 17 39 17 38 17 19 18 38 18 37 18 18 19 37 19 36 19 0 20 27 20 2 20 2 21 28 21 4 21 4 22 29 22 6 22 6 23 30 23 8 23 8 24 31 24 10 24 31 25 12 25 10 25 32 26 14 26 12 26 33 27 16 27 14 27 34 28 0 28 16 28 36 29 27 29 35 29 37 30 28 30 27 30 38 31 29 31 28 31 39 32 30 32 29 32 40 33 31 33 30 33 31 34 42 34 32 34 32 35 43 35 33 35 33 36 44 36 34 36 34 37 36 37 35 37 3 38 46 38 1 38 5 39 45 39 3 39 7 39 47 39 5 39 9 40 48 40 7 40 11 41 49 41 9 41 11 42 51 42 50 42 13 43 52 43 51 43 15 39 53 39 52 39 17 44 46 44 53 44 61 45 59 45 57 45 9 46 57 46 58 46 1 47 54 47 3 47 15 48 62 48 17 48 11 49 58 49 59 49 3 50 56 50 5 50 17 51 55 51 1 51 13 52 59 52 60 52 5 53 57 53 7 53 46 54 45 54 19 54 45 55 47 55 20 55 47 56 48 56 21 56 21 57 48 57 49 57 49 58 50 58 23 58 50 59 51 59 24 59 24 60 51 60 52 60 13 61 60 61 61 61 25 62 52 62 53 62 26 63 53 63 46 63 16 64 0 64 2 64 2 65 4 65 6 65 6 66 8 66 2 66 10 67 12 67 14 67 14 68 16 68 10 68 2 64 8 64 10 64 44 69 26 69 18 69 43 70 25 70 26 70 42 71 24 71 25 71 41 72 23 72 24 72 22 73 23 73 41 73 21 74 22 74 40 74 20 75 21 75 39 75 19 76 20 76 38 76 18 77 19 77 37 77 0 78 35 78 27 78 2 79 27 79 28 79 4 80 28 80 29 80 6 81 29 81 30 81 8 82 30 82 31 82 31 83 32 83 12 83 32 84 33 84 14 84 33 85 34 85 16 85 34 86 35 86 0 86 36 87 37 87 27 87 37 88 38 88 28 88 38 89 39 89 29 89 39 90 40 90 30 90 40 91 41 91 31 91 31 92 41 92 42 92 32 93 42 93 43 93 33 94 43 94 44 94 34 95 44 95 36 95 3 96 45 96 46 96 5 39 47 39 45 39 7 39 48 39 47 39 9 42 49 42 48 42 11 39 50 39 49 39 11 39 13 39 51 39 13 39 15 39 52 39 15 39 17 39 53 39 17 97 1 97 46 97 56 98 54 98 55 98 55 99 62 99 61 99 61 100 60 100 59 100 59 101 58 101 57 101 57 102 56 102 55 102 55 103 61 103 57 103 9 104 7 104 57 104 1 105 55 105 54 105 15 106 61 106 62 106 11 49 9 49 58 49 3 107 54 107 56 107 17 108 62 108 55 108 13 109 11 109 59 109 5 110 56 110 57 110</p>
        </polylist>
      </mesh>
    </geometry>
  </library_geometries>
  <library_controllers/>
  <library_visual_scenes>
    <visual_scene id="Scene" name="Scene">
      <node id="Empty" name="Empty" type="NODE">
        <matrix sid="transform">1 0 0 0 0 1 0 -0.4308009 0 0 1 0.9841262 0 0 0 1</matrix>
        <node id="Cube" name="Cube" type="NODE">
          <matrix sid="transform">1 0 0 0 0 1 0 0.4308009 0 0 1 -0.9841262 0 0 0 1</matrix>
          <instance_geometry url="#Cube_001-mesh" name="Cube"/>
        </node>
        <node id="Cylinder" name="Cylinder" type="NODE">
          <matrix sid="transform">1 0 0 0 0 1 0 0.4308009 0 0 1 -0.9841262 0 0 0 1</matrix>
          <instance_geometry url="#Cylinder-mesh" name="Cylinder"/>
        </node>
        <node id="Cylinder_001" name="Cylinder_001" type="NODE">
          <matrix sid="transform">1 0 0 0 0 1 0 0.4308009 0 0 1 -0.9841262 0 0 0 1</matrix>
          <instance_geometry url="#Cylinder_001-mesh" name="Cylinder_001"/>
        </node>
      </node>
    </visual_scene>
  </library_visual_scenes>
  <scene>
    <instance_visual_scene url="#Scene"/>
  </scene>
</COLLADA>