<?xml version="1.0" encoding="utf-8"?>
<COLLADA xmlns="http://www.collada.org/2005/11/COLLADASchema" version="1.4.1">
  <asset>
    <contributor>
      <author>Blender User</author>
      <authoring_tool>Blender 2.78.0 commit date:2017-02-24, commit time:14:33, hash:e92f2352830</authoring_tool>
    </contributor>
    <created>2017-07-14T10:06:20</created>
    <modified>2017-07-14T10:06:20</modified>
    <unit name="meter" meter="1"/>
    <up_axis>Z_UP</up_axis>
  </asset>
  <library_images/>
  <library_effects>
    <effect id="Kunststoff_druckteile_011_002-effect">
      <profile_COMMON>
        <technique sid="common">
          <phong>
            <emission>
              <color sid="emission">0 0 0 1</color>
            </emission>
            <ambient>
              <color sid="ambient">0 0 0 1</color>
            </ambient>
            <diffuse>
              <color sid="diffuse">0.5 0.5 0.5 1</color>
            </diffuse>
            <specular>
              <color sid="specular">0.5 0.5 0.5 1</color>
            </specular>
            <shininess>
              <float sid="shininess">50</float>
            </shininess>
            <index_of_refraction>
              <float sid="index_of_refraction">1</float>
            </index_of_refraction>
          </phong>
        </technique>
      </profile_COMMON>
    </effect>
    <effect id="Gummi_015_002-effect">
      <profile_COMMON>
        <technique sid="common">
          <phong>
            <emission>
              <color sid="emission">0 0 0 1</color>
            </emission>
            <ambient>
              <color sid="ambient">0 0 0 1</color>
            </ambient>
            <diffuse>
              <color sid="diffuse">0.1 0.1 0.1 1</color>
            </diffuse>
            <specular>
              <color sid="specular">0.025 0.025 0.025 1</color>
            </specular>
            <shininess>
              <float sid="shininess">50</float>
            </shininess>
            <index_of_refraction>
              <float sid="index_of_refraction">1</float>
            </index_of_refraction>
          </phong>
        </technique>
      </profile_COMMON>
    </effect>
  </library_effects>
  <library_materials>
    <material id="Kunststoff_druckteile_011_002-material" name="Kunststoff_druckteile_011_002">
      <instance_effect url="#Kunststoff_druckteile_011_002-effect"/>
    </material>
    <material id="Gummi_015_002-material" name="Gummi_015_002">
      <instance_effect url="#Gummi_015_002-effect"/>
    </material>
  </library_materials>
  <library_geometries>
    <geometry id="Circle_044-mesh" name="Circle.044">
      <mesh>
        <source id="Circle_044-mesh-positions">
          <float_array id="Circle_044-mesh-positions-array" count="885">0.003530263 1.32776e-5 0.005997717 0.003180921 0.001543581 0.005995988 0.002202212 0.002770781 0.005995035 7.88001e-4 0.003451883 0.005994975 -7.81717e-4 0.003451824 0.005995929 -0.002195954 0.002770781 0.005997657 -0.003174662 0.001543581 0.005999743 -0.003523945 1.326e-5 0.006001949 -0.003174662 -0.001517057 0.006003677 -0.002195954 -0.002744257 0.006004631 -7.81714e-4 -0.0034253 0.006004691 7.88005e-4 -0.0034253 0.006003737 0.002202272 -0.002744257 0.006002008 0.003180921 -0.001516997 0.005999863 0.002389311 0.004472553 0.00599277 -0.001010835 0.004439592 0.005963623 -0.002830147 0.003560483 0.005963802 -0.004086256 0.001982867 0.005964457 -0.004536032 1.44516e-5 0.005964159 -0.004086434 -0.001954555 0.005963742 -0.002819955 -0.003526687 0.005959153 -0.001004099 -0.004413902 0.005963087 8.82029e-4 -0.004446029 0.006004989 0.007998585 -0.004499673 0.005999803 9.48296e-4 -0.005380392 0.005998551 0.004825115 -0.005380392 0.006003797 0.002617478 0.007192909 0.001989245 -0.001600325 0.007045328 0.002005159 -0.004502296 0.00564754 0.00201106 -0.00650531 0.003142356 0.002013981 -0.007220208 1.93316e-5 0.00201404 -0.006500959 -0.003124117 0.002011775 -0.004495918 -0.005632698 0.002009749 -0.001603782 -0.007014811 0.002009809 -2.78184e-7 -0.007166445 0.002009034 0.006029188 -1.22626e-4 0.006024718 0.004759311 -0.003638267 0.005989074 0.004825115 -0.004414141 0.006002604 0.007758736 -0.005221068 0.005831718 0.003559052 0.00366497 0.005993068 -5.97243e-6 -0.00638628 0.004013538 -0.001406252 -0.006186783 0.003892362 -0.003968179 -0.004964232 0.003890812 -0.005752503 -0.002751648 0.00389558 -0.006374478 5.74358e-6 0.003907442 -0.005753159 0.002777993 0.003895998 -0.003968417 0.004990518 0.003890991 -0.00140655 0.006213009 0.00389254 0.002010285 0.006362438 0.00398308 0.004467844 0.003678917 0.005992531 0.005971848 0.004942715 0.005990028 9.47741e-4 -0.006854355 0.004276752 0.004825115 -0.006861805 0.00428605 0.007711112 -0.006673276 0.004172742 9.43589e-4 -0.007813036 0.002081751 0.004825174 -0.007819473 0.002081751 0.007708847 -0.007604002 0.00204128 1.803e-4 -0.005776762 0.005576074 5.71937e-5 -0.006851613 0.004274904 5.71689e-5 -0.007811069 0.002077341 7.13402e-5 -0.004980921 0.005592107 0.009743392 -0.004504144 0.005993068 0.007994651 -0.006139636 0.004319429 0.007991373 -0.007249057 0.002098441 0.009751617 -0.00649935 0.003693997 0.009741485 -0.007175922 0.002075433 0.01495766 -0.006508648 0.003729641 0.01642781 -0.006492853 0.003471255 0.01767909 -0.006498336 0.002622485 0.01842468 -0.006485223 0.001576125 0.01347863 -0.004556059 0.005951225 0.01713097 -0.004510283 0.005545496 0.01923018 -0.004584252 0.004150092 0.02045822 -0.004520297 0.002396643 0.02184492 -0.001894235 0.002391815 0.02203404 8.4528e-4 0.002412438 0.02133512 0.003163695 0.002393007 0.01925498 0.005632162 0.00244528 0.01435941 0.007428348 0.002436518 0.008198797 0.008181035 0.002433776 0.01349455 -0.001992881 0.007719457 0.01704895 -0.001883506 0.006937384 0.0137484 4.10517e-4 0.007932066 0.01729899 4.15233e-4 0.007093787 0.0136367 0.002485692 0.007561326 0.01714599 0.002331972 0.006763935 0.01401144 0.005054235 0.005842864 0.01755356 0.00462985 0.005265116 0.01464045 0.006415009 0.004350602 0.01825094 0.005388557 0.004054069 0.0134803 -0.004477858 0.006629765 0.008000433 -0.004434823 0.006673514 0.00489664 -0.004419624 0.006579577 0.008582532 -4.16362e-4 0.008565485 0.009743511 -0.004435181 0.00667411 0.008364677 -0.001345753 0.008451938 0.007020831 0.004989802 0.006981134 0.008315205 0.002277553 0.008284866 0.006038606 0.005907475 0.006010115 0.0117383 -0.002203226 0.007959842 0.01171016 -3.77253e-4 0.008244931 0.007185816 0.006994426 0.005053043 0.01151371 0.002319753 0.007959187 0.01102632 0.004778325 0.006717979 0.01113015 0.007977843 0.002430438 0.00360614 0.003805935 0.00428158 0.01101589 0.006857156 0.004739701 0.002471327 0.004528105 0.004280567 0.00442785 0.003795146 0.00428003 0.005971848 0.004942715 0.004240095 0.006024003 0.005904614 0.004270613 0.002971529 0.007438361 0.00202322 0.003014445 0.007384777 0.003987431 0.004093825 0.007734358 0.002023518 0.004095494 0.0076496 0.00398606 0.005307257 0.007274389 0.002023696 0.005259394 0.007210791 0.003960311 0.006023645 0.00610125 0.001988649 0.004003226 -4.27847e-5 0.002997577 0.003584682 0.001739263 0.003001332 0.002475738 0.003128528 0.003001868 8.7164e-4 0.003896355 0.003002464 -9.07688e-4 0.003888309 0.00300306 -0.002507746 0.003105103 0.003005981 -0.003607749 0.001702547 0.003007709 -0.003989756 6.83777e-5 0.003007888 -0.003575265 -0.001711726 0.003004193 -0.002466619 -0.003099262 0.003005325 -8.63922e-4 -0.003865897 0.003005325 9.14424e-4 -0.003861188 0.003004252 0.002516627 -0.003080785 0.003002345 0.003620147 -0.001678168 0.002999901 0.003189742 -0.005185961 0.002004623 0.001692354 -0.005185961 0.002005517 0.01994168 -8.60609e-4 0.005524039 0.02001309 0.001418352 0.005352556 0.01932656 0.003850579 0.004744172 0.003530263 1.32776e-5 -0.005997717 0.003180921 0.001543581 -0.005995988 0.002202212 0.002770781 -0.005995035 7.88001e-4 0.003451883 -0.005994975 -7.81717e-4 0.003451824 -0.005995929 -0.002195954 0.002770781 -0.005997657 -0.003174662 0.001543581 -0.005999743 -0.003523945 1.326e-5 -0.006001949 -0.003174662 -0.001517057 -0.006003677 -0.002195954 -0.002744257 -0.006004631 -7.81714e-4 -0.0034253 -0.006004691 7.88005e-4 -0.0034253 -0.006003737 0.002202272 -0.002744257 -0.006002008 0.003180921 -0.001516997 -0.005999863 0.002389311 0.004472553 -0.00599277 -0.001010835 0.004439592 -0.005963623 -0.002830147 0.003560483 -0.005963802 -0.004086256 0.001982867 -0.005964457 -0.004536032 1.44516e-5 -0.005964159 -0.004086434 -0.001954555 -0.005963742 -0.002819955 -0.003526687 -0.005959153 -0.001004099 -0.004413902 -0.005963087 8.82029e-4 -0.004446029 -0.006004989 0.007998585 -0.004499673 -0.005999803 9.48296e-4 -0.005380392 -0.005998551 0.004825115 -0.005380392 -0.006003797 0.002617478 0.007192909 -0.001989245 -0.001600325 0.007045328 -0.002005159 -0.004502296 0.00564754 -0.00201106 -0.00650531 0.003142356 -0.002013981 -0.007220208 1.93316e-5 -0.00201404 -0.006500959 -0.003124117 -0.002011775 -0.004495918 -0.005632698 -0.002009749 -0.001603782 -0.007014811 -0.002009809 -2.78184e-7 -0.007166445 -0.002009034 0.006029188 -1.22626e-4 -0.006024718 0.004759311 -0.003638267 -0.005989074 0.004825115 -0.004414141 -0.006002604 0.007758736 -0.005221068 -0.005831718 0.003559052 0.00366497 -0.005993068 -5.97243e-6 -0.00638628 -0.004013538 -0.001406252 -0.006186783 -0.003892362 -0.003968179 -0.004964232 -0.003890812 -0.005752503 -0.002751648 -0.00389558 -0.006374478 5.74358e-6 -0.003907442 -0.005753159 0.002777993 -0.003895998 -0.003968417 0.004990518 -0.003890991 -0.00140655 0.006213009 -0.00389254 0.002010285 0.006362438 -0.00398308 0.004467844 0.003678917 -0.005992531 0.005971848 0.004942715 -0.005990028 9.47741e-4 -0.006854355 -0.004276752 0.004825115 -0.006861805 -0.00428605 0.007711112 -0.006673276 -0.004172742 9.43589e-4 -0.007813036 -0.002081751 0.004825174 -0.007819473 -0.002081751 0.007708847 -0.007604002 -0.00204128 0.003439366 -0.008092403 0 0.004825115 -0.008094906 0 0.007720649 -0.007868468 0 1.803e-4 -0.005776762 -0.005576074 5.71937e-5 -0.006851613 -0.004274904 5.71689e-5 -0.007811069 -0.002077341 7.13402e-5 -0.004980921 -0.005592107 0.009743392 -0.004504144 -0.005993068 0.007994651 -0.006139636 -0.004319429 0.007991373 -0.007249057 -0.002098441 0.007989585 -0.0075531 0 0.009751617 -0.00649935 -0.003693997 0.009741485 -0.007175922 -0.002075433 0.009739696 -0.007473886 0 0.009741425 -0.006530165 0 0.01495766 -0.006508648 -0.003729641 0.01383954 -0.005465209 0 0.01642781 -0.006492853 -0.003471255 0.01681154 -0.006136417 0 0.01767909 -0.006498336 -0.002622485 0.01766574 -0.006518244 0 0.01842468 -0.006485223 -0.001576125 0.01875388 -0.006507813 0 0.01347863 -0.004556059 -0.005951225 0.01713097 -0.004510283 -0.005545496 0.01923018 -0.004584252 -0.004150092 0.02045822 -0.004520297 -0.002396643 0.02094227 -0.004524171 0 0.02184492 -0.001894235 -0.002391815 0.02226197 -0.001889109 0 0.02203404 8.4528e-4 -0.002412438 0.02244871 8.71564e-4 0 0.02133512 0.003163695 -0.002393007 0.02165776 0.00343573 0 0.01925498 0.005632162 -0.00244528 0.0195229 0.005966722 0 0.01435941 0.007428348 -0.002436518 0.01443594 0.007812857 0 0.008198797 0.008181035 -0.002433776 0.008752107 0.008569061 0 0.01349455 -0.001992881 -0.007719457 0.01704895 -0.001883506 -0.006937384 0.0137484 4.10517e-4 -0.007932066 0.01729899 4.15233e-4 -0.007093787 0.0136367 0.002485692 -0.007561326 0.01714599 0.002331972 -0.006763935 0.01401144 0.005054235 -0.005842864 0.01755356 0.00462985 -0.005265116 0.01464045 0.006415009 -0.004350602 0.01825094 0.005388557 -0.004054069 0.0134803 -0.004477858 -0.006629765 0.008000433 -0.004434823 -0.006673514 0.00489664 -0.004419624 -0.006579577 0.008582532 -4.16362e-4 -0.008565485 0.009743511 -0.004435181 -0.00667411 0.008364677 -0.001345753 -0.008451938 0.007020831 0.004989802 -0.006981134 0.008315205 0.002277553 -0.008284866 0.006038606 0.005907475 -0.006010115 0.0117383 -0.002203226 -0.007959842 0.01171016 -3.77253e-4 -0.008244931 0.007185816 0.006994426 -0.005053043 0.01151371 0.002319753 -0.007959187 0.01102632 0.004778325 -0.006717979 0.01113015 0.007977843 -0.002430438 0.01196151 0.008237957 0 0.00360614 0.003805935 -0.00428158 0.01101589 0.006857156 -0.004739701 0.002471327 0.004528105 -0.004280567 0.00442785 0.003795146 -0.00428003 0.005971848 0.004942715 -0.004240095 0.006024003 0.005904614 -0.004270613 0.002971529 0.007438361 -0.00202322 0.003014445 0.007384777 -0.003987431 0.004093825 0.007734358 -0.002023518 0.004095494 0.0076496 -0.00398606 0.005307257 0.007274389 -0.002023696 0.005259394 0.007210791 -0.003960311 0.006023645 0.00610125 -0.001988649 0.004003226 -4.27847e-5 -0.002997577 0.006601512 0.006587803 0 0.003584682 0.001739263 -0.003001332 0.002475738 0.003128528 -0.003001868 8.7164e-4 0.003896355 -0.003002464 -9.07688e-4 0.003888309 -0.00300306 -0.002507746 0.003105103 -0.003005981 -0.003607749 0.001702547 -0.003007709 -0.003989756 6.83777e-5 -0.003007888 -0.003575265 -0.001711726 -0.003004193 -0.002466619 -0.003099262 -0.003005325 -8.63922e-4 -0.003865897 -0.003005325 9.14424e-4 -0.003861188 -0.003004252 0.002516627 -0.003080785 -0.003002345 0.003620147 -0.001678168 -0.002999901 0.003189742 -0.005185961 -0.002004623 0.00429511 -0.005495429 0 0.001692354 -0.005185961 -0.002005517 0.003259956 -0.005992412 0 0.01994168 -8.60609e-4 -0.005524039 0.02001309 0.001418352 -0.005352556 0.01932656 0.003850579 -0.004744172</float_array>
          <technique_common>
            <accessor source="#Circle_044-mesh-positions-array" count="295" stride="3">
              <param name="X" type="float"/>
              <param name="Y" type="float"/>
              <param name="Z" type="float"/>
            </accessor>
          </technique_common>
        </source>
        <source id="Circle_044-mesh-normals">
          <float_array id="Circle_044-mesh-normals-array" count="885">-0.1608052 0.6827433 0.7127435 -0.08432394 -0.07666367 0.9934849 -0.3846057 0.1207042 0.9151552 -0.1608979 -0.3661098 0.9165564 0.1530848 0.6685252 0.7277631 -0.1424319 -0.4320262 0.8905429 0.426775 0.5350558 0.7290943 -0.2945729 -0.3693453 0.8813687 0.6184378 0.2988729 0.7267804 -0.4231146 -0.2060639 0.8823332 0.6896678 0.001800596 0.7241237 -0.4691129 9.1558e-5 0.8831383 0.621654 -0.2997941 0.7236505 -0.4216271 0.2035346 0.8836314 0.4303885 -0.5389164 0.7241098 -0.2921293 0.3684577 0.8825528 0.1503083 -0.6748156 0.7225175 -0.1113024 0.4576307 0.8821485 -0.1561971 -0.6854299 0.7111881 0.3308038 0.5412377 0.7730658 -0.6337628 -0.3052231 0.7107629 -0.1971534 0.5584996 0.8057349 -0.4384985 -0.5494049 0.7112478 -0.636663 0.3054981 0.7080475 -0.4132234 0.07351958 0.9076571 -0.7096042 0.001556456 0.704599 -0.4368306 0.5493268 0.7123335 -0.7503718 -0.5493122 0.3676934 -0.2662493 -0.804394 0.5310947 -0.2292329 -0.7515459 -0.6185719 -0.5243882 -0.6628252 0.5344902 -0.4946494 -0.6258194 -0.6030524 -0.7617624 -0.3683378 0.5329591 -0.8456233 -0.001037597 0.5337791 -0.7170274 -0.345726 -0.6052647 -0.7622762 0.3688237 0.5318874 -0.7171658 0.3462074 -0.6048254 -0.5250259 0.664286 0.5320453 -0.2036516 0.8206796 0.5338644 -0.4970129 0.6234559 -0.6035571 -0.07141488 0.707191 0.7034066 -0.3466978 0.567565 -0.7467735 0.1712123 0.5708297 0.8030192 -0.8112633 0.234388 0.5356438 -0.3040342 -0.291857 0.9068533 0.02374404 -0.4268436 0.9040137 0.1115163 -0.8559045 0.5049669 -0.3379353 -0.4792682 0.8100011 -0.002929806 -0.8471758 0.5313046 0.484061 -0.5053937 0.7143264 0.03723275 -0.8458861 0.5320625 -0.2543756 -0.8646634 -0.4331862 0.4760433 -0.751726 0.4563887 0.03705078 -0.9629544 0.2671075 0.03753876 -0.9992952 0 0.4413098 -0.8652541 0.2378678 -0.5355245 -0.7335957 -0.4183909 -0.6405361 -0.6447173 0.4171969 -0.576293 -0.4718869 0.66724 -0.3665958 -0.1884861 -0.9110876 0.4442936 -0.8958814 0 0.4432621 -0.8511219 0.2812657 0.4494316 -0.7040261 0.5498716 0.05688726 -0.9007668 0.4305613 0.4543651 -0.8908156 0 0.6866214 -0.6974252 0.2053027 0.6921347 -0.7217684 0 0.7439085 -0.6682816 0 0.07016354 -0.9547311 0.2890775 0.07486426 -0.9971938 0 0.0990355 -0.9427145 0.3185617 -0.3199608 -0.9474309 0 -0.1568667 -0.9876199 0 0.2759259 -0.9184202 0.2834947 0.3754436 -0.9122409 0.1638866 0.7450969 -0.5776684 0.3333618 0.402176 -0.9155624 0 0.8032187 -0.5956844 0 0.3163266 -0.5926432 0.7407506 0.0199899 -0.9150205 0.4029118 -0.00463891 -0.9183615 0.3957155 -0.6185699 -0.5540821 0.5571035 -0.7068999 0.3861061 0.5926337 -0.2286476 0.7316603 0.6421788 0.6469092 0.5030737 0.573084 -0.3297011 0.72038 -0.6102049 -0.3788337 0.6719086 0.636415 0.04962432 0.7688111 0.6375477 0.03872907 0.7821198 -0.6219236 0.502658 0.6140241 -0.6085306 0.2057618 0.7295054 0.6522913 0.4922513 0.6196097 0.6113694 -0.6942839 0.5528573 0.4607806 -0.9123041 0.09030568 -0.3994325 -0.8754634 0.3372026 -0.3462057 -0.5039356 0.5974774 -0.6237545 -0.2075042 0.725517 -0.656176 0.1580298 0.7043896 -0.6919986 0.4486391 0.5650716 -0.6923996 0.7192971 -0.00225836 -0.694699 0.6505503 -0.3115109 -0.6926365 0.4529671 -0.5606392 -0.6931844 0.1652933 -0.7012454 -0.6934934 -0.1483522 -0.6971122 -0.7014459 -0.4726871 -0.559088 -0.6811664 -0.7964916 0.001556456 -0.6046476 0.6489663 0.3153273 -0.6923955 -0.1916315 0.7712263 -0.6070317 -0.5239914 0.6702719 -0.5255174 -0.826783 0.5625213 0 -0.4229947 0.6898233 -0.5875538 -0.7831533 0.6218288 0 -0.440907 0.4435317 -0.7803082 -0.3995841 -0.9166966 0 -0.6412474 -0.3080039 -0.7028055 -0.1608052 0.6827433 -0.7127435 -0.4368306 0.5493268 -0.7123335 -0.3846057 0.1207042 -0.9151552 -0.3040342 -0.291857 -0.9068533 -0.1608979 -0.3661098 -0.9165564 0.1530848 0.6685252 -0.7277631 -0.1424319 -0.4320262 -0.8905429 0.426775 0.5350558 -0.7290943 0.6184378 0.2988729 -0.7267804 -0.4231146 -0.2060639 -0.8823332 0.6896678 0.001800596 -0.7241237 -0.4691129 9.1558e-5 -0.8831383 0.621654 -0.2997941 -0.7236505 -0.4216271 0.2035346 -0.8836314 0.4303885 -0.5389164 -0.7241098 0.1503083 -0.6748156 -0.7225175 -0.2921293 0.3684577 -0.8825528 -0.1561971 -0.6854299 -0.7111881 0.3308038 0.5412377 -0.7730658 -0.6337628 -0.3052231 -0.7107629 -0.4384985 -0.5494049 -0.7112478 -0.1971534 0.5584996 -0.8057349 -0.636663 0.3054981 -0.7080475 -0.7096042 0.001556456 -0.704599 -0.4132234 0.07351958 -0.9076571 -0.7503718 -0.5493122 -0.3676934 -0.3665958 -0.1884861 0.9110876 -0.2292329 -0.7515459 0.6185719 -0.2662493 -0.804394 -0.5310947 -0.4946494 -0.6258194 0.6030524 -0.5243882 -0.6628252 -0.5344902 -0.7617624 -0.3683378 -0.5329591 -0.7170274 -0.345726 0.6052647 -0.8456233 -0.001037597 -0.5337791 -0.7964916 0.001556456 0.6046476 -0.7171658 0.3462074 0.6048254 -0.7622762 0.3688237 -0.5318874 -0.5250259 0.664286 -0.5320453 -0.4970129 0.6234559 0.6035571 -0.2036516 0.8206796 -0.5338644 -0.1916315 0.7712263 0.6070317 -0.3466978 0.567565 0.7467735 0.1712123 0.5708297 -0.8030192 0.1115163 -0.8559045 -0.5049669 0.02374404 -0.4268436 -0.9040137 -0.3379353 -0.4792682 -0.8100011 -0.2945729 -0.3693453 -0.8813687 -0.1113024 0.4576307 -0.8821485 0.03723275 -0.8458861 -0.5320625 -0.002929806 -0.8471758 -0.5313046 0.484061 -0.5053937 -0.7143264 0.4760433 -0.751726 -0.4563887 0.03705078 -0.9629544 -0.2671075 -0.2543756 -0.8646634 0.4331862 0.4413098 -0.8652541 -0.2378678 -0.5355245 -0.7335957 0.4183909 -0.6405361 -0.6447173 -0.4171969 -0.576293 -0.4718869 -0.66724 -0.08432394 -0.07666367 -0.9934849 0.4432621 -0.8511219 -0.2812657 0.4494316 -0.7040261 -0.5498716 -0.00463891 -0.9183615 -0.3957155 0.05688726 -0.9007668 -0.4305613 0.6866214 -0.6974252 -0.2053027 0.07016354 -0.9547311 -0.2890775 0.0990355 -0.9427145 -0.3185617 0.2759259 -0.9184202 -0.2834947 0.3754436 -0.9122409 -0.1638866 0.581696 -0.5657039 -0.5844732 0.7450969 -0.5776684 -0.3333618 0.3163266 -0.5926432 -0.7407506 0.0199899 -0.9150205 -0.4029118 -0.6185699 -0.5540821 -0.5571035 -0.2286476 0.7316603 -0.6421788 -0.7068999 0.3861061 -0.5926337 0.2057618 0.7295054 -0.6522913 0.6469092 0.5030737 -0.573084 -0.07141488 0.707191 -0.7034066 -0.3297011 0.72038 0.6102049 0.03872907 0.7821198 0.6219236 0.04962432 0.7688111 -0.6375477 0.502658 0.6140241 0.6085306 -0.5239914 0.6702719 0.5255174 -0.6942839 0.5528573 -0.4607806 0.4922513 0.6196097 -0.6113694 -0.8754634 0.3372026 0.3462057 -0.9123041 0.09030568 0.3994325 -0.5039356 0.5974774 0.6237545 -0.2075042 0.725517 0.656176 0.1580298 0.7043896 0.6919986 0.4486391 0.5650716 0.6923996 0.6489663 0.3153273 0.6923955 0.7192971 -0.00225836 0.694699 0.6505503 -0.3115109 0.6926365 0.4529671 -0.5606392 0.6931844 0.1652933 -0.7012454 0.6934934 -0.1483522 -0.6971122 0.7014459 -0.4726871 -0.559088 0.6811664 -0.6412474 -0.3080039 0.7028055 -0.4229947 0.6898233 0.5875538 -0.440907 0.4435317 0.7803082 -0.860174 0.5100007 0 0.581696 -0.5657039 0.5844732 -0.8112633 0.234388 -0.5356438 -0.3788337 0.6719086 -0.636415 0.1051366 -0.7929954 0.6000873 0.9648842 -0.2626758 0 0.8936355 -0.2592309 0.3663536 0.993496 0.1138676 0 0.9232316 0.1040394 0.3698908 0.8761438 0.48205 0 0.8310652 0.4254665 0.3582025 0.57529 0.8179495 0 0.5613771 0.7661941 0.3127341 0.2388433 0.9248234 0.2960668 0.1099902 0.9500243 0.2921578 0.1354755 0.9907808 0 -0.3494775 0.9220517 0.1663917 0.1949272 -0.2528834 0.9476568 0.3486573 -0.2780652 0.895052 0.3892469 0.05887228 0.9192502 0.1759445 0.05014336 0.9831222 0.1693198 0.360064 0.9174338 0.358327 0.3268006 0.8745303 0.319781 0.6040681 0.7299602 0.1807968 0.6183227 0.7648462 0.4220846 0.7603627 0.4936528 0.2259342 0.7927688 0.5661021 -0.01596164 -0.8398356 0.5426062 -0.2636564 0.02136349 0.9643802 -0.2923443 0.1970936 0.9357825 -0.002899289 -0.8381464 0.5454376 -0.2343243 -0.1948329 0.952435 -0.3141334 0.4287937 0.8470279 -0.6867132 0.517423 0.5105866 0.09363335 -0.3274727 0.9402098 0.1399912 -0.02658212 0.9897959 0.1332448 0.3011588 0.9442189 0.1247953 0.5792955 0.805508 0.2551677 0.9668969 0 0.1111809 0.7993553 0.5904828 -0.2675001 0.8348201 0.4811645 -0.2621256 0.9650338 0 0.6763356 -0.1439589 0.7223891 0.6785236 0.1877819 0.7101716 0.600593 0.4742119 0.6437477 0.1051366 -0.7929954 -0.6000873 0.8936355 -0.2592309 -0.3663536 0.9232316 0.1040394 -0.3698908 0.8310652 0.4254665 -0.3582025 0.5613771 0.7661941 -0.3127341 0.2388433 0.9248234 -0.2960668 0.1099902 0.9500243 -0.2921578 -0.3494775 0.9220517 -0.1663917 0.1949272 -0.2528834 -0.9476568 0.1759445 0.05014336 -0.9831222 0.3892469 0.05887228 -0.9192502 0.1693198 0.360064 -0.9174338 0.1807968 0.6183227 -0.7648462 0.319781 0.6040681 -0.7299602 0.2259342 0.7927688 -0.5661021 0.4220846 0.7603627 -0.4936528 -0.01596164 -0.8398356 -0.5426062 -0.2923443 0.1970936 -0.9357825 -0.2636564 0.02136349 -0.9643802 -0.002899289 -0.8381464 -0.5454376 -0.2343243 -0.1948329 -0.952435 -0.6867132 0.517423 -0.5105866 -0.3141334 0.4287937 -0.8470279 0.09363335 -0.3274727 -0.9402098 0.1399912 -0.02658212 -0.9897959 0.1247953 0.5792955 -0.805508 0.1332448 0.3011588 -0.9442189 0.1111809 0.7993553 -0.5904828 -0.2675001 0.8348201 -0.4811645 0.358327 0.3268006 -0.8745303 0.6785236 0.1877819 -0.7101716 0.6763356 -0.1439589 -0.7223891 0.600593 0.4742119 -0.6437477 0.3486573 -0.2780652 -0.895052</float_array>
          <technique_common>
            <accessor source="#Circle_044-mesh-normals-array" count="295" stride="3">
              <param name="X" type="float"/>
              <param name="Y" type="float"/>
              <param name="Z" type="float"/>
            </accessor>
          </technique_common>
        </source>
        <vertices id="Circle_044-mesh-vertices">
          <input semantic="POSITION" source="#Circle_044-mesh-positions"/>
        </vertices>
        <polylist material="Kunststoff_druckteile_011_002-material" count="416">
          <input semantic="VERTEX" source="#Circle_044-mesh-vertices" offset="0"/>
          <input semantic="NORMAL" source="#Circle_044-mesh-normals" offset="1"/>
          <vcount>3 3 3 3 3 3 3 3 3 3 3 3 3 3 3 3 3 3 3 3 3 3 3 3 3 3 3 3 3 3 3 3 3 3 3 3 3 3 3 3 3 3 3 3 3 3 3 3 3 3 3 3 3 3 3 3 3 3 3 3 3 3 3 3 3 3 3 3 3 3 3 3 3 3 3 3 3 3 3 3 3 3 3 3 3 3 3 3 3 3 3 3 3 3 3 3 3 3 3 3 3 3 3 3 3 3 3 3 3 3 3 3 3 3 3 3 3 3 3 3 3 3 3 3 3 3 3 3 3 3 3 3 3 3 3 3 3 3 3 3 3 3 3 3 3 3 3 3 3 3 3 3 3 3 3 3 3 3 3 3 3 3 3 3 3 3 3 3 3 3 3 3 3 3 3 3 3 3 3 3 3 3 3 3 3 3 3 3 3 3 3 3 3 3 3 3 3 3 3 3 3 3 3 3 3 3 3 3 3 3 3 3 3 3 3 3 3 3 3 3 3 3 3 3 3 3 3 3 3 3 3 3 3 3 3 3 3 3 3 3 3 3 3 3 3 3 3 3 3 3 3 3 3 3 3 3 3 3 3 3 3 3 3 3 3 3 3 3 3 3 3 3 3 3 3 3 3 3 3 3 3 3 3 3 3 3 3 3 3 3 3 3 3 3 3 3 3 3 3 3 3 3 3 3 3 3 3 3 3 3 3 3 3 3 3 3 3 3 3 3 3 3 3 3 3 3 3 3 3 3 3 3 3 3 3 3 3 3 3 3 3 3 3 3 3 3 3 3 3 3 3 3 3 3 3 3 3 3 3 3 3 3 3 3 3 3 3 3 3 3 3 3 3 3 3 3 3 3 3 3 3 3 3 3 3 3 3 3 3 3 3 3 3 3 3 3 3 3 3 3 3 3 3 3 3 3 3 3 3 3 3 3 3 3 3 3 </vcount>
          <p>11 0 22 1 36 2 36 2 22 1 24 3 10 4 21 5 11 0 9 6 20 7 21 5 8 8 19 9 9 6 7 10 18 11 8 8 6 12 17 13 7 10 5 14 16 15 17 13 4 16 15 17 16 15 3 18 14 19 4 16 1 20 49 21 2 22 13 23 35 24 0 25 12 26 36 2 13 23 40 27 41 28 33 29 41 28 42 30 32 31 42 30 43 32 32 31 43 32 44 33 31 34 44 33 45 35 29 36 45 35 46 37 29 36 46 37 47 38 28 39 47 38 48 40 26 41 2 22 39 42 3 18 0 25 50 43 49 21 37 44 25 45 23 46 37 44 24 3 25 45 60 47 41 28 40 27 21 5 20 7 42 30 20 7 19 9 43 32 19 9 18 11 43 32 18 11 17 13 45 35 17 13 16 15 45 35 16 15 15 17 47 38 15 17 14 19 47 38 25 45 24 3 51 48 38 49 25 45 52 50 52 50 51 48 54 51 53 52 52 50 55 53 55 53 54 51 195 54 56 55 55 53 195 54 54 51 51 48 59 56 51 48 24 3 58 57 24 3 22 1 57 58 58 57 57 58 60 47 34 59 59 56 40 27 56 55 196 60 63 61 53 52 56 55 62 62 23 46 62 62 64 63 38 49 53 52 23 46 63 61 204 64 65 65 62 62 63 61 65 65 207 66 208 67 65 65 64 63 208 67 66 68 66 68 210 69 67 70 67 70 212 71 214 72 68 73 214 72 69 74 68 73 69 74 73 75 69 74 216 76 221 77 67 70 68 73 71 78 66 68 67 70 70 79 64 63 66 68 61 80 36 2 37 44 92 81 49 21 50 43 109 82 39 42 49 21 108 83 14 19 39 42 107 84 14 19 107 84 48 40 26 41 48 40 111 85 111 85 112 86 114 87 113 88 114 87 115 89 105 90 112 86 48 40 115 89 116 91 110 92 108 83 114 87 105 90 109 82 116 91 108 83 110 92 116 91 109 82 13 23 0 25 118 93 12 26 13 23 131 94 11 0 12 26 130 95 10 4 11 0 129 96 9 6 10 4 128 97 8 8 9 6 127 98 7 10 8 8 125 99 6 12 7 10 124 100 5 14 6 12 124 100 4 16 5 14 123 101 3 18 4 16 122 102 2 22 3 18 121 103 1 20 2 22 120 104 0 25 1 20 118 93 29 36 124 100 30 105 30 105 125 99 31 34 31 34 126 106 127 98 32 31 127 98 128 97 33 29 128 97 129 96 28 39 123 101 124 100 27 107 122 102 123 101 26 41 121 103 122 102 117 108 274 109 132 110 132 110 289 111 133 112 194 113 54 51 133 112 130 95 132 110 129 96 59 56 34 59 54 51 129 96 133 112 54 51 130 95 131 94 132 110 118 93 117 108 131 94 118 93 119 114 117 108 113 88 115 89 117 108 26 41 111 85 117 108 119 114 120 104 26 41 121 103 26 41 120 104 148 115 149 116 173 117 173 117 174 118 161 119 147 120 148 115 158 121 146 122 147 120 158 121 145 123 146 122 156 124 144 125 145 123 155 126 143 127 144 125 154 128 142 129 143 127 154 128 141 130 142 129 153 131 140 132 141 130 151 133 138 134 139 135 186 136 150 137 137 138 172 139 149 116 150 137 173 117 177 140 171 141 170 142 178 143 170 142 169 144 179 145 169 144 180 146 180 146 168 147 181 148 181 148 167 149 166 150 182 151 166 150 183 152 183 152 165 153 184 154 184 154 164 155 163 156 139 135 140 132 176 157 137 138 138 134 186 136 174 118 160 158 162 159 174 118 162 159 161 119 200 160 177 140 178 143 158 121 178 143 179 145 157 161 179 145 180 146 156 124 180 146 155 126 155 126 181 148 182 151 154 128 182 151 153 131 153 131 183 152 184 154 152 162 184 154 151 133 162 159 189 163 188 164 175 165 190 166 189 163 189 163 192 167 191 168 190 166 193 169 192 167 192 167 195 54 191 168 193 169 196 60 195 54 191 168 199 170 188 164 188 164 198 171 161 119 161 119 197 172 159 173 198 171 177 140 200 160 171 141 177 140 199 170 193 169 203 174 196 60 190 166 202 175 193 169 160 158 201 176 205 177 175 165 160 158 190 166 203 174 206 178 204 64 202 175 205 177 206 178 207 66 206 178 208 67 205 177 209 179 208 67 209 179 211 180 210 69 211 180 213 181 214 72 213 181 215 182 214 72 213 181 219 183 220 184 215 182 220 184 221 77 211 180 218 185 213 181 209 179 217 186 211 180 205 177 201 176 209 179 173 117 246 187 174 118 186 136 263 188 264 189 176 157 260 190 263 188 151 133 262 191 176 157 151 133 185 192 262 191 163 156 266 193 185 192 266 193 268 194 269 195 268 194 270 196 269 195 260 190 262 191 185 192 270 196 272 197 265 198 263 188 260 190 269 195 264 189 263 188 271 199 265 198 264 189 271 199 150 137 287 200 273 201 149 116 286 202 287 200 148 115 285 203 286 202 147 120 284 204 285 203 146 122 283 205 284 204 145 123 282 206 283 205 144 125 281 207 145 123 143 127 280 208 144 125 142 129 279 209 280 208 141 130 278 210 279 209 140 132 277 211 278 210 139 135 276 212 277 211 138 134 275 213 276 212 137 138 273 201 138 134 166 150 167 149 280 208 167 149 168 147 281 207 168 147 169 144 283 205 169 144 170 142 284 204 170 142 171 141 285 203 165 153 166 150 280 208 164 155 165 153 279 209 163 156 164 155 278 210 272 197 288 214 274 109 288 214 290 215 289 111 194 113 291 216 290 215 286 202 285 203 288 214 199 170 191 168 171 141 285 203 171 141 191 168 286 202 288 214 287 200 273 201 287 200 272 197 273 201 272 197 275 213 268 194 266 193 272 197 163 156 272 197 266 193 275 213 272 197 163 156 277 211 276 212 163 156 12 26 11 0 36 2 37 44 36 2 24 3 21 5 22 1 11 0 10 4 9 6 21 5 19 9 20 7 9 6 18 11 19 9 8 8 17 13 18 11 7 10 6 12 5 14 17 13 5 14 4 16 16 15 14 19 15 17 4 16 49 21 39 42 2 22 35 24 50 43 0 25 36 2 35 24 13 23 34 59 40 27 33 29 33 29 41 28 32 31 43 32 31 34 32 31 44 33 30 105 31 34 30 105 44 33 29 36 46 37 28 39 29 36 47 38 27 107 28 39 27 107 47 38 26 41 39 42 14 19 3 18 1 20 0 25 49 21 25 45 38 49 23 46 22 1 21 5 60 47 21 5 41 28 60 47 41 28 21 5 42 30 42 30 20 7 43 32 18 11 44 33 43 32 44 33 18 11 45 35 16 15 46 37 45 35 46 37 16 15 47 38 14 19 48 40 47 38 52 50 25 45 51 48 53 52 38 49 52 50 55 53 52 50 54 51 56 55 53 52 55 53 54 51 194 113 195 54 196 60 56 55 195 54 51 48 58 57 59 56 24 3 57 58 58 57 22 1 60 47 57 58 40 27 58 57 60 47 59 56 58 57 40 27 196 60 204 64 63 61 56 55 63 61 62 62 61 80 23 46 64 63 53 52 62 62 23 46 204 64 207 66 65 65 64 63 62 62 65 65 208 67 64 63 65 65 208 67 210 69 66 68 210 69 212 71 67 70 68 73 67 70 214 72 214 72 216 76 69 74 72 217 68 73 73 75 73 75 69 74 221 77 68 73 72 217 71 78 67 70 71 78 70 79 66 68 70 79 61 80 108 83 49 21 109 82 105 90 39 42 108 83 39 42 105 90 107 84 48 40 112 86 111 85 113 88 111 85 114 87 114 87 116 91 115 89 107 84 105 90 48 40 117 108 115 89 110 92 114 87 112 86 105 90 116 91 114 87 108 83 131 94 13 23 118 93 130 95 12 26 131 94 129 96 11 0 130 95 128 97 10 4 129 96 127 98 9 6 128 97 126 106 8 8 127 98 8 8 126 106 125 99 7 10 125 99 124 100 123 101 5 14 124 100 122 102 4 16 123 101 121 103 3 18 122 102 120 104 2 22 121 103 119 114 1 20 120 104 1 20 119 114 118 93 124 100 125 99 30 105 125 99 126 106 31 34 32 31 31 34 127 98 33 29 32 31 128 97 34 59 33 29 129 96 29 36 28 39 124 100 28 39 27 107 123 101 27 107 26 41 122 102 274 109 289 111 132 110 289 111 291 216 133 112 291 216 194 113 133 112 132 110 133 112 129 96 34 59 129 96 54 51 117 108 132 110 131 94 111 85 113 88 117 108 117 108 119 114 26 41 159 173 148 115 173 117 159 173 173 117 161 119 148 115 159 173 158 121 157 161 146 122 158 121 146 122 157 161 156 124 145 123 156 124 155 126 144 125 155 126 154 128 153 131 142 129 154 128 152 162 141 130 153 131 141 130 152 162 151 133 139 135 176 157 186 136 137 138 187 218 172 139 150 137 172 139 173 117 178 143 177 140 170 142 179 145 178 143 169 144 169 144 168 147 180 146 168 147 167 149 181 148 182 151 181 148 166 150 166 150 165 153 183 152 165 153 164 155 184 154 185 192 184 154 163 156 140 132 151 133 176 157 187 218 137 138 186 136 160 158 175 165 162 159 159 173 200 160 158 121 200 160 178 143 158 121 157 161 158 121 179 145 156 124 157 161 180 146 180 146 181 148 155 126 154 128 155 126 182 151 182 151 183 152 153 131 152 162 153 131 184 154 184 154 185 192 151 133 161 119 162 159 188 164 162 159 175 165 189 163 188 164 189 163 191 168 189 163 190 166 192 167 195 54 194 113 191 168 192 167 193 169 195 54 199 170 198 171 188 164 198 171 197 172 161 119 197 172 200 160 159 173 197 172 198 171 200 160 177 140 198 171 199 170 203 174 204 64 196 60 202 175 203 174 193 169 202 175 160 158 205 177 160 158 202 175 190 166 206 178 207 66 204 64 203 174 202 175 206 178 206 178 205 177 208 67 209 179 210 69 208 67 211 180 212 71 210 69 212 71 211 180 214 72 215 182 216 76 214 72 215 182 213 181 220 184 216 76 215 182 221 77 218 185 219 183 213 181 217 186 218 185 211 180 201 176 217 186 209 179 187 218 186 136 264 189 186 136 176 157 263 188 262 191 260 190 176 157 266 193 267 219 185 192 267 219 266 193 269 195 270 196 271 199 269 195 267 219 260 190 185 192 271 199 270 196 265 198 260 190 267 219 269 195 263 188 269 195 271 199 137 138 150 137 273 201 150 137 149 116 287 200 149 116 148 115 286 202 148 115 147 120 285 203 147 120 146 122 284 204 146 122 145 123 283 205 281 207 282 206 145 123 280 208 281 207 144 125 143 127 142 129 280 208 142 129 141 130 279 209 141 130 140 132 278 210 140 132 139 135 277 211 139 135 138 134 276 212 273 201 275 213 138 134 167 149 281 207 280 208 168 147 282 206 281 207 282 206 168 147 283 205 283 205 169 144 284 204 284 204 170 142 285 203 279 209 165 153 280 208 278 210 164 155 279 209 277 211 163 156 278 210 288 214 289 111 274 109 290 215 291 216 289 111 191 168 194 113 290 215 285 203 290 215 288 214 290 215 285 203 191 168 287 200 288 214 272 197 270 196 268 194 272 197 276 212 275 213 163 156</p>
        </polylist>
        <polylist material="Gummi_015_002-material" count="178">
          <input semantic="VERTEX" source="#Circle_044-mesh-vertices" offset="0"/>
          <input semantic="NORMAL" source="#Circle_044-mesh-normals" offset="1"/>
          <vcount>3 3 3 3 3 3 3 3 3 3 3 3 3 3 3 3 3 3 3 3 3 3 3 3 3 3 3 3 3 3 3 3 3 3 3 3 3 3 3 3 3 3 3 3 3 3 3 3 3 3 3 3 3 3 3 3 3 3 3 3 3 3 3 3 3 3 3 3 3 3 3 3 3 3 3 3 3 3 3 3 3 3 3 3 3 3 3 3 3 3 3 3 3 3 3 3 3 3 3 3 3 3 3 3 3 3 3 3 3 3 3 3 3 3 3 3 3 3 3 3 3 3 3 3 3 3 3 3 3 3 3 3 3 3 3 3 3 3 3 3 3 3 3 3 3 3 3 3 3 3 3 3 3 3 3 3 3 3 3 3 3 3 3 3 3 3 3 3 3 3 3 3 3 3 3 3 3 3 </vcount>
          <p>70 79 71 78 90 220 73 75 221 77 223 221 74 222 223 221 225 223 75 224 225 223 227 225 76 226 227 225 229 227 77 228 229 227 78 229 104 230 259 231 79 232 90 220 71 78 80 233 80 233 81 234 83 235 82 236 83 235 84 237 84 237 85 238 87 239 86 240 87 239 89 241 78 229 88 242 77 228 37 44 23 46 91 243 23 46 61 80 91 243 35 24 93 244 97 245 35 24 36 2 93 244 61 80 70 79 94 246 36 2 92 81 95 247 50 43 96 248 98 249 92 81 91 243 95 247 90 220 99 250 94 246 94 246 99 250 91 243 90 220 80 233 99 250 100 251 102 252 97 245 103 253 96 248 102 252 82 236 84 237 100 251 86 240 103 253 102 252 99 250 100 251 93 244 80 233 82 236 99 250 78 229 231 254 104 230 88 242 106 255 103 253 50 43 98 249 109 82 106 255 101 256 98 249 96 248 103 253 98 249 106 255 104 230 101 256 88 242 78 229 104 230 98 249 101 256 79 232 117 108 233 257 274 109 233 257 117 108 110 92 85 238 83 235 134 258 75 224 135 259 74 222 87 239 85 238 135 259 76 226 136 260 75 224 89 241 87 239 136 260 76 226 77 228 89 241 83 235 81 234 134 258 72 217 134 258 71 78 72 217 73 75 134 258 217 186 244 261 218 185 220 184 222 262 223 221 222 262 224 263 225 223 224 263 226 264 227 225 226 264 228 265 229 227 228 265 230 266 229 227 258 267 232 268 259 231 244 261 234 269 218 185 234 269 236 270 237 271 236 270 238 272 237 271 238 272 240 273 241 274 240 273 242 275 243 276 230 266 228 265 242 275 174 118 246 187 245 277 160 158 245 277 201 176 172 139 251 278 247 279 172 139 247 279 173 117 201 176 248 280 217 186 173 117 249 281 246 187 187 218 252 282 250 283 246 187 249 281 245 277 244 261 248 280 253 284 248 280 245 277 253 284 244 261 253 284 234 269 254 285 247 279 251 278 257 286 256 287 250 283 236 270 254 285 238 272 240 273 238 272 256 287 253 284 249 281 247 279 234 269 253 284 236 270 230 266 258 267 231 254 242 275 240 273 257 286 187 218 264 189 252 282 261 288 257 286 252 282 250 283 252 282 257 286 261 288 255 289 258 267 242 275 261 288 258 267 252 282 265 198 232 268 272 197 274 109 233 257 233 257 232 268 265 198 239 290 293 291 292 292 224 263 222 262 293 291 241 274 294 293 293 291 226 264 224 263 294 293 243 276 294 293 241 274 226 264 294 293 243 276 237 271 292 292 235 294 219 183 218 185 292 292 219 183 292 292 220 184 74 222 73 75 223 221 75 224 74 222 225 223 76 226 75 224 227 225 77 228 76 226 229 227 229 227 231 254 78 229 259 231 233 257 79 232 71 78 81 234 80 233 82 236 80 233 83 235 83 235 85 238 84 237 86 240 84 237 87 239 88 242 86 240 89 241 88 242 89 241 77 228 92 81 37 44 91 243 61 80 94 246 91 243 50 43 35 24 96 248 35 24 97 245 96 248 36 2 95 247 93 244 70 79 90 220 94 246 99 250 95 247 91 243 93 244 100 251 97 245 96 248 97 245 102 252 84 237 102 252 100 251 84 237 86 240 102 252 95 247 99 250 93 244 82 236 100 251 99 250 231 254 259 231 104 230 86 240 88 242 103 253 98 249 110 92 109 82 103 253 106 255 98 249 104 230 79 232 101 256 106 255 88 242 104 230 110 92 98 249 79 232 79 232 233 257 110 92 135 259 85 238 134 258 135 259 134 258 74 222 136 260 87 239 135 259 136 260 135 259 75 224 136 260 76 226 89 241 134 258 81 234 71 78 73 75 74 222 134 258 221 77 220 184 223 221 223 221 222 262 225 223 225 223 224 263 227 225 227 225 226 264 229 227 230 266 231 254 229 227 232 268 233 257 259 231 234 269 235 294 218 185 235 294 234 269 237 271 238 272 239 290 237 271 239 290 238 272 241 274 241 274 240 273 243 276 228 265 243 276 242 275 160 158 174 118 245 277 245 277 248 280 201 176 187 218 250 283 172 139 250 283 251 278 172 139 247 279 249 281 173 117 248 280 244 261 217 186 245 277 249 281 253 284 256 287 254 285 251 278 256 287 251 278 250 283 254 285 256 287 238 272 257 286 240 273 256 287 254 285 253 284 247 279 253 284 254 285 236 270 258 267 259 231 231 254 261 288 242 275 257 286 264 189 265 198 252 282 255 289 261 288 252 282 255 289 232 268 258 267 230 266 242 275 258 267 255 289 252 282 232 268 272 197 233 257 265 198 237 271 239 290 292 292 222 262 292 292 293 291 239 290 241 274 293 291 224 263 293 291 294 293 228 265 226 264 243 276 218 185 235 294 292 292 292 292 222 262 220 184</p>
        </polylist>
      </mesh>
    </geometry>
  </library_geometries>
  <library_controllers/>
  <library_visual_scenes>
    <visual_scene id="Scene" name="Scene">
      <node id="VIS_hollie_right_hand_q" name="VIS_hollie_right_hand_q" type="NODE">
        <instance_geometry url="#Circle_044-mesh" name="VIS_hollie_right_hand_q">
          <bind_material>
            <technique_common>
              <instance_material symbol="Kunststoff_druckteile_011_002-material" target="#Kunststoff_druckteile_011_002-material"/>
              <instance_material symbol="Gummi_015_002-material" target="#Gummi_015_002-material"/>
            </technique_common>
          </bind_material>
        </instance_geometry>
      </node>
    </visual_scene>
  </library_visual_scenes>
  <scene>
    <instance_visual_scene url="#Scene"/>
  </scene>
</COLLADA>