<?xml version="1.0" encoding="utf-8"?>
<COLLADA xmlns="http://www.collada.org/2005/11/COLLADASchema" version="1.4.1">
  <asset>
    <contributor>
      <author>Blender User</author>
      <authoring_tool>Blender 2.78.0 commit date:2017-02-24, commit time:14:33, hash:e92f2352830</authoring_tool>
    </contributor>
    <created>2017-07-14T10:06:19</created>
    <modified>2017-07-14T10:06:19</modified>
    <unit name="meter" meter="1"/>
    <up_axis>Z_UP</up_axis>
  </asset>
  <library_images/>
  <library_effects>
    <effect id="Metall_Alu_003-effect">
      <profile_COMMON>
        <technique sid="common">
          <phong>
            <emission>
              <color sid="emission">0 0 0 1</color>
            </emission>
            <ambient>
              <color sid="ambient">0 0 0 1</color>
            </ambient>
            <diffuse>
              <color sid="diffuse">0.45 0.45 0.45 1</color>
            </diffuse>
            <specular>
              <color sid="specular">0.325 0.325 0.325 1</color>
            </specular>
            <shininess>
              <float sid="shininess">70</float>
            </shininess>
            <index_of_refraction>
              <float sid="index_of_refraction">1</float>
            </index_of_refraction>
          </phong>
        </technique>
      </profile_COMMON>
    </effect>
    <effect id="Gummi_003-effect">
      <profile_COMMON>
        <technique sid="common">
          <phong>
            <emission>
              <color sid="emission">0 0 0 1</color>
            </emission>
            <ambient>
              <color sid="ambient">0 0 0 1</color>
            </ambient>
            <diffuse>
              <color sid="diffuse">0.1 0.1 0.1 1</color>
            </diffuse>
            <specular>
              <color sid="specular">0.025 0.025 0.025 1</color>
            </specular>
            <shininess>
              <float sid="shininess">50</float>
            </shininess>
            <index_of_refraction>
              <float sid="index_of_refraction">1</float>
            </index_of_refraction>
          </phong>
        </technique>
      </profile_COMMON>
    </effect>
  </library_effects>
  <library_materials>
    <material id="Metall_Alu_003-material" name="Metall_Alu_003">
      <instance_effect url="#Metall_Alu_003-effect"/>
    </material>
    <material id="Gummi_003-material" name="Gummi_003">
      <instance_effect url="#Gummi_003-effect"/>
    </material>
  </library_materials>
  <library_geometries>
    <geometry id="Cylinder_006-mesh" name="Cylinder.006">
      <mesh>
        <source id="Cylinder_006-mesh-positions">
          <float_array id="Cylinder_006-mesh-positions-array" count="954">0.01398235 0.01036965 0.007143497 0.01398235 0.01036965 0.003696441 0.008018493 0.01035237 0.01156419 0.008018493 0.007777094 0.01345789 0.02451664 0.005042314 0.008558332 0.008018493 0.006642282 0.01400357 0.0259065 0.00355041 0.00890541 0.008018493 5.84303e-6 0.01400357 0.0259065 -0.003538727 0.00890541 0.0259065 -0.009542465 0.002555847 0.0259065 -0.008554935 0.004939973 0.008018493 -0.01030611 0.01152014 0.0259065 -0.006983995 0.006987333 0.008018493 -0.007765412 0.01345789 0.0259065 -0.004936754 0.008558332 0.008018493 -0.006630599 0.01400357 0.01197248 -0.005947172 0.01287662 0.01197248 0.01035088 0.003696441 0.01197248 0.01035088 0.007143497 0.01197248 0.009468078 0.01067996 0.01197248 0.007151842 0.01237487 0.01197248 0.005958855 0.01287662 0.01197248 -0.01324141 0.004945874 0.01197248 -0.01237136 0.007143497 0.0111345 -0.01002627 0.01063668 0.01197248 -0.007140159 0.01237487 0.01849412 0.00944364 0.007143497 0.01849412 0.00944364 0.003696441 0.02449983 0.005447804 0.007143497 0.01940602 0.005447804 0.003696441 0.02449983 0.005013048 0.007143497 0.02704799 4.4907e-4 0.007070958 0.01849412 0.00944364 0.005885601 0.01398235 0.01036965 0.005885601 0.01197248 0.01035088 0.005885601 0.02040964 0.005447804 0.005885601 -0.002915978 -0.006068944 0.01403582 9.4938e-6 -0.006736636 0.01403582 9.49195e-6 -0.003079056 0.009679913 9.49286e-6 -0.003079056 0.01403582 -0.001329004 -0.002773523 0.009679913 -0.001329004 -0.002773523 0.01403582 -0.002402424 -0.001917541 0.009679913 -0.002402424 -0.001917541 0.01403582 -0.002998113 -6.80612e-4 0.009679913 -0.002998113 -6.80612e-4 0.01403582 -0.002998113 6.92303e-4 0.009679913 -0.002998113 6.923e-4 0.01403582 -0.002402424 0.001929223 0.009679913 -0.002402424 0.001929223 0.01403582 -0.001329004 0.002785205 0.009679913 -0.001329004 0.002785205 0.01403582 9.4938e-6 0.003090739 0.009679913 9.49471e-6 0.003090739 0.01403582 0.001347959 0.002785205 0.009679913 0.001347959 0.002785205 0.01403582 0.002421379 0.001929223 0.009679913 0.002421379 0.001929223 0.01403582 0.003017067 6.923e-4 0.009679913 0.003017067 6.92298e-4 0.01403582 0.003017067 -6.80613e-4 0.009679913 0.003017067 -6.80616e-4 0.01403582 0.002421379 -0.001917541 0.009679913 0.002421379 -0.001917541 0.01403582 0.001347959 -0.002773523 0.009679913 0.001347959 -0.002773523 0.01403582 -0.005262076 -0.004198014 0.01403582 -0.00656408 -0.001494467 0.01403582 -0.00656408 0.001506149 0.01403582 -0.005262076 0.004209697 0.01403582 -0.002915978 0.006080627 0.01403582 9.49658e-6 0.006748318 0.01403582 0.008018493 -0.01030611 0.009749472 -0.00515604 -0.01068574 0.009723246 -7.18984e-6 -0.0118609 0.009723246 -0.009285151 -0.007392942 0.009723246 -0.01157665 -0.002634704 0.009723246 -0.01157665 0.002646446 0.009723246 -0.009285151 0.007404625 0.009723246 -0.00515604 0.01069742 0.009723305 -7.18336e-6 0.01187258 0.009723246 -0.004499673 -0.009367465 0.01187956 1.43426e-5 -0.01039773 0.0118795 -0.008119642 -0.006480634 0.01187956 -0.01012855 -0.002309143 0.01187956 -0.01012855 0.002320826 0.01187956 -0.008119642 0.006492376 0.01187956 -0.004499673 0.009379148 0.01187956 1.43491e-5 0.01040941 0.01187956 0.008018493 0.01035237 0.009839773 0.01163792 0.009468078 0.008955478 -9.49566e-6 -0.01186889 0.01002275 -0.005161821 -0.01069289 0.01002275 -0.009293675 -0.00739789 0.01002275 -0.01158672 -0.002636492 0.01002275 -0.01158666 0.002648174 0.01002275 -0.009293675 0.007409572 0.01002275 -0.005161821 0.01070457 0.01002275 -9.48733e-6 0.01188057 0.01002275 0.01849412 0.009094417 0.008132517 0.02449983 0.005447804 0.008400559 0.01197248 0.008988082 0.003768622 0.01197248 0.009038329 0.005958259 0.01197248 0.009208738 0.007345199 0.01163792 0.009786188 0.008955478 0.008018493 2.31098e-5 0.009794592 0.01066994 -0.01017999 0.009594261 0.01398235 0.01024222 0.008829593 0.01824456 0.006097078 0.01046663 0.01398235 0.00930798 0.009683489 0.01849412 0.008202314 0.008920848 0.03405046 0.005097985 0.007070958 0.0358566 0.002833187 0.007070958 0.0358566 0.002833187 0.008237123 0.03545087 9.03204e-6 0.009058892 0.03405046 0.005097985 0.008237123 0.03491026 -0.00235939 0.009058892 0.03144049 0.006354868 0.008237123 0.03339558 -0.004258692 0.009058892 0.02854365 0.006354868 0.008237123 0.03120678 -0.00531274 0.009058892 0.02593368 0.005097985 0.008237123 0.02877736 -0.00531274 0.009058892 0.02858448 -0.01009464 0.002496778 0.02152621 -0.003921866 0.002827167 0.02562475 -0.008231878 0.002827167 0.02861267 -0.008803546 0.004678249 0.02861267 -0.007778108 0.006267726 0.02929347 -0.007025361 0.007070958 0.02929347 -0.006458997 0.008237123 0.02658855 0.004276752 0.009058892 0.03144049 -0.006336748 0.008237123 0.02877736 0.005330801 0.009058892 0.03405046 -0.005079925 0.008237123 0.03120678 0.005330801 0.009058892 0.0358566 -0.002815127 0.008237123 0.03339558 0.004276752 0.009058892 0.03650122 9.03181e-6 0.008237123 0.03491026 0.00237745 0.009058892 0.03144049 0.006354868 0.007070958 0.02854365 0.006354868 0.007070958 0.02593368 0.005097985 0.007070958 0.02861267 -0.00944817 0.002827167 0.02858448 -0.008010029 0.006791472 0.02858448 -0.009289979 0.004807293 0.03144049 -0.006336748 0.007070958 0.03405046 -0.005079925 0.007070958 0.0358566 -0.002815127 0.007070958 0.03650122 9.03157e-6 0.007070958 0.02057433 -8.5609e-6 0.002827227 0.0212298 1.95145e-4 0.004845678 0.02591407 -0.007603585 0.004845678 0.02211272 -0.003516137 0.004845678 0.01398235 0.01036965 -0.007148861 0.01398235 0.01036965 -0.003701806 0.01398235 0.01036965 -2.67077e-6 0.008018493 0.01035237 -0.01156955 0.008018493 0.007777094 -0.01346325 0.02451664 0.005042314 -0.008563697 0.008018493 0.006642282 -0.01400887 0.0259065 0.00355041 -0.008910775 0.008018493 5.84813e-6 -0.01400887 0.0259065 -0.003538727 -0.008910775 0.0259065 -0.009879291 -2.68415e-6 0.0259065 -0.009542465 -0.002561211 0.0259065 -0.008554935 -0.004945397 0.008018493 -0.01030611 -0.01152551 0.0259065 -0.006983995 -0.006992697 0.008018493 -0.007765412 -0.01346325 0.0259065 -0.004936754 -0.008563697 0.008018493 -0.006630599 -0.01400887 0.01197248 0.01035088 -2.66892e-6 0.01197248 -0.005947172 -0.01288199 0.01197248 0.01035088 -0.003701806 0.01197248 0.01035088 -0.007148861 0.01197248 0.009468078 -0.01068532 0.01197248 0.007151842 -0.01238024 0.01197248 0.005958855 -0.01288199 0.01197248 -0.01324141 -2.67298e-6 0.01197248 -0.01324141 -0.004951238 0.01197248 -0.01237136 -0.007148861 0.0111345 -0.01002627 -0.01064205 0.01197248 -0.007140159 -0.01238024 0.01849406 0.00944364 -0.007148861 0.01849412 0.00944364 -0.003701806 0.01849412 0.00944364 -2.67453e-6 0.02449983 0.005447804 -0.007148861 0.01940602 0.005447804 -0.003701806 0.01872986 0.005447804 -2.67634e-6 0.02449983 0.005013048 -0.007148861 0.02704793 4.49074e-4 -0.007076382 0.01849412 0.00944364 -0.005890965 0.01398235 0.01036965 -0.005890905 0.01197248 0.01035088 -0.005890905 0.02040964 0.005447804 -0.005890965 -0.002916038 -0.006068944 -0.01404112 9.47712e-6 -0.006736636 -0.01404112 9.47897e-6 -0.003079056 -0.009685277 9.47619e-6 -0.003079056 -0.01404112 -0.001329004 -0.002773523 -0.009685277 -0.001329004 -0.002773523 -0.01404112 -0.002402424 -0.001917541 -0.009685277 -0.002402424 -0.001917541 -0.01404112 -0.002998113 -6.80609e-4 -0.009685277 -0.002998113 -6.80607e-4 -0.01404112 -0.002998113 6.92306e-4 -0.009685277 -0.002998113 6.92309e-4 -0.01404112 -0.002402424 0.001929223 -0.009685277 -0.002402424 0.001929223 -0.01404112 -0.001329004 0.002785205 -0.009685277 -0.001329004 0.002785205 -0.01404112 9.48082e-6 0.003090739 -0.009685277 9.47804e-6 0.003090739 -0.01404112 0.001347959 0.002785205 -0.009685277 0.001347959 0.002785205 -0.01404112 0.002421379 0.001929223 -0.009685277 0.002421379 0.001929223 -0.01404112 0.003017067 6.92305e-4 -0.009685277 0.003017067 6.92306e-4 -0.01404112 0.003017067 -6.8061e-4 -0.009685277 0.003017067 -6.8061e-4 -0.01404112 0.002421379 -0.001917541 -0.009685277 0.002421379 -0.001917541 -0.01404112 0.001347959 -0.002773523 -0.009685277 0.001347959 -0.002773523 -0.01404112 -0.005262076 -0.004198014 -0.01404112 -0.00656408 -0.001494467 -0.01404112 -0.00656408 0.001506149 -0.01404112 -0.005262076 0.004209697 -0.01404112 -0.002916038 0.006080627 -0.01404112 9.47897e-6 0.006748318 -0.01404112 0.008018493 -0.01030611 -0.009754836 -0.005156099 -0.01068574 -0.00972861 -7.20097e-6 -0.0118609 -0.00972861 -0.009285151 -0.007392942 -0.00972861 -0.01157665 -0.002634704 -0.00972861 -0.01157665 0.002646446 -0.00972861 -0.009285151 0.007404625 -0.00972861 -0.005156099 0.01069742 -0.00972861 -7.19447e-6 0.01187258 -0.00972861 -0.004499673 -0.009367406 -0.01188486 1.43268e-5 -0.01039773 -0.01188486 -0.008119642 -0.006480634 -0.01188486 -0.01012861 -0.002309143 -0.01188486 -0.01012861 0.002320826 -0.01188486 -0.008119642 0.006492376 -0.01188486 -0.004499673 0.009379148 -0.01188486 1.43333e-5 0.01040941 -0.01188486 0.008018493 0.01035237 -0.009845077 0.01163792 0.009468078 -0.008960843 -9.50864e-6 -0.01186883 -0.01002812 -0.005161821 -0.01069289 -0.01002812 -0.009293675 -0.00739789 -0.01002806 -0.01158672 -0.002636492 -0.01002806 -0.01158672 0.002648174 -0.01002806 -0.009293675 0.007409572 -0.01002806 -0.005161821 0.01070457 -0.01002812 -9.50122e-6 0.01188057 -0.01002812 0.01849406 0.009094417 -0.008137881 0.02449983 0.005447804 -0.008405983 0.01197248 0.008988082 -0.003773987 0.01197248 0.008988082 -2.66898e-6 0.01197248 0.009038329 -0.005963623 0.01197248 0.009208738 -0.007350564 0.01163792 0.009786188 -0.008960843 0.008018493 2.31135e-5 -0.009799957 0.01066994 -0.01017999 -0.009599626 0.01398229 0.01024222 -0.008834958 0.01824456 0.006097078 -0.01047199 0.01398229 0.00930798 -0.009688794 0.01849406 0.008202314 -0.008926212 0.03405046 0.005097985 -0.007076382 0.0358566 0.002833187 -0.007076382 0.0358566 0.002833187 -0.008242487 0.03545081 9.03516e-6 -0.009064257 0.03405046 0.005097985 -0.008242487 0.03491026 -0.00235939 -0.009064257 0.03144049 0.006354868 -0.008242487 0.03339558 -0.004258692 -0.009064257 0.02854365 0.006354868 -0.008242487 0.03120672 -0.00531274 -0.009064257 0.02593368 0.005097985 -0.008242487 0.02877736 -0.00531274 -0.009064257 0.02152621 -0.004141747 -2.68524e-6 0.02858448 -0.01009464 -0.002502143 0.02152621 -0.003921866 -0.002832591 0.02562475 -0.008231878 -0.002832591 0.02861267 -0.008803546 -0.004683613 0.02861267 -0.007778108 -0.00627315 0.02858448 -0.01036912 -2.69115e-6 0.02929347 -0.007025361 -0.007076382 0.02929347 -0.006458997 -0.008242487 0.02658855 0.004276752 -0.009064257 0.03144049 -0.006336748 -0.008242487 0.02877736 0.005330801 -0.009064257 0.03405046 -0.005079925 -0.008242487 0.03120672 0.005330801 -0.009064257 0.0358566 -0.002815127 -0.008242487 0.03339558 0.004276752 -0.009064257 0.03650122 9.03459e-6 -0.008242487 0.03491026 0.00237745 -0.009064257 0.03144049 0.006354868 -0.007076382 0.02854365 0.006354868 -0.007076382 0.02593368 0.005097985 -0.007076382 0.02861267 -0.009668052 -2.69057e-6 0.02861267 -0.00944817 -0.002832591 0.02858448 -0.008010029 -0.006796836 0.02858448 -0.009289979 -0.004812717 0.02562475 -0.0084517 -2.68902e-6 0.03144049 -0.006336748 -0.007076382 0.03405046 -0.005079925 -0.007076382 0.0358566 -0.002815127 -0.007076382 0.03650122 9.03482e-6 -0.007076382 0.02057433 -2.28426e-4 -2.6838e-6 0.02057433 -8.56056e-6 -0.002832591 0.0212298 1.95147e-4 -0.004851043 0.02591407 -0.007603585 -0.004851043 0.02211272 -0.003516137 -0.004851043</float_array>
          <technique_common>
            <accessor source="#Cylinder_006-mesh-positions-array" count="318" stride="3">
              <param name="X" type="float"/>
              <param name="Y" type="float"/>
              <param name="Z" type="float"/>
            </accessor>
          </technique_common>
        </source>
        <source id="Cylinder_006-mesh-normals">
          <float_array id="Cylinder_006-mesh-normals-array" count="918">0.2998822 0.191783 0.9344998 0.2965261 -0.189983 0.9359374 -0.0237134 0.06393766 0.9976721 0.3144067 0.4675205 0.8261798 0.3148712 0.4925872 0.8113039 -0.6186435 -0.785672 0 0.04611366 -0.9989362 0 -0.5603713 -0.8103578 0.1711847 0.05426281 -0.9654693 0.2548033 -0.5250262 -0.7830681 0.3333945 0.05581891 -0.8640186 0.5003562 0.1678858 -0.7838845 0.5977787 0.05786365 -0.7028176 0.7090129 0.116064 -0.4054456 0.9067211 0.3017148 -0.4650852 0.8322643 0.1029088 -0.1202129 0.9874 0.1754546 0.8557569 0.4867194 0.1418223 0.5068922 0.8502628 0.1459412 0.2318518 0.9617411 0.1413017 0 0.9899666 0.1402057 -0.8532588 0.5022867 0.9831372 0.1828694 0 0.9376089 0.2204092 -0.2689041 0.9701659 0.2424423 0 -0.2325873 -0.185435 0.9547341 -0.522584 -0.417353 0.7434531 -0.2899966 -0.6037681 0.7425404 0.2815749 0.5847272 0.7607955 -0.1290658 -0.2678977 0.9547632 0.001159727 0.6485361 0.761183 6.71425e-4 0.6464905 -0.7629218 0.2806254 0.582767 -0.7626481 -0.03173971 -0.6777343 0.7346217 0.5074117 0.4046536 0.7607818 0.5057039 0.4032813 -0.7626454 -0.290087 0.06619656 0.9547082 -0.6514135 0.1488448 0.7439798 -0.290087 -0.06619656 0.9547082 0.6327285 0.1444178 0.7607879 0.6306117 0.143927 -0.7626363 -0.2325873 0.185435 0.9547341 -0.522584 0.417353 0.7434531 0.6327285 -0.1444178 0.7607879 0.6306117 -0.143927 -0.7626363 -0.1290658 0.2678977 0.9547632 -0.2899966 0.6037681 0.7425404 0.5074117 -0.4046536 0.7607818 0.5057039 -0.4032813 -0.7626454 -0.03000003 0.2808957 0.9592694 -0.03173971 0.6777343 0.7346217 0.2815749 -0.5847272 0.7607955 0.2806254 -0.582767 -0.7626481 -0.02691775 0.9539036 0.2989036 -0.007141411 0.7394115 -0.673216 -0.4144515 0.8583237 0.3025069 0.001159727 -0.6485361 0.761183 0.003112912 -0.6453301 -0.7638975 -0.3215474 0.6694022 -0.6697074 -0.745652 0.5937565 0.3024175 -0.2789471 -0.5778234 -0.767013 -0.5795949 0.462858 -0.6706954 -0.9293422 0.2118647 0.3023849 -0.6297976 -0.14338 0.7634115 -0.5052109 -0.4037964 0.7626994 -0.4988968 -0.4014492 -0.7680759 -0.2809323 -0.5823736 0.7628356 -0.722611 0.1651107 -0.6712466 -0.9293422 -0.2118647 0.3023849 -0.6222683 -0.1407573 -0.7700452 -0.722611 -0.1651107 -0.6712466 -0.5795949 -0.462858 -0.6706954 -0.5052109 0.4037964 0.7626994 -0.6297976 0.14338 0.7634115 -0.6222564 0.1407241 -0.7700609 -0.745652 -0.5937565 0.3024175 -0.3215474 -0.6694022 -0.6697074 -0.03000003 -0.2808957 0.9592694 0.1459412 -0.2318518 0.9617411 -0.4998774 0.4048094 -0.7656709 -0.2809323 0.5823736 0.7628356 -0.2804368 0.5817179 -0.763518 -0.6514135 -0.1488448 0.7439798 -0.4144515 -0.8583237 0.3025069 -0.008850514 -0.7409418 -0.6715109 -1 0 0 0.2163532 0.8240589 0.5235632 -0.877369 0.2841653 -0.3866186 0.05914616 -0.6987067 -0.7129591 0.1434993 -0.5126852 0.8464998 -0.02523964 -0.9540722 0.2985119 -0.6116644 -0.7088983 -0.3511836 -0.9933927 0.001800596 -0.1147513 -0.6633828 0.7449895 0.0701012 0.09607446 0.7329189 -0.673498 -0.1084944 0.003875851 -0.9940896 -0.795847 0.5955196 0.109472 0.4682577 0.587161 -0.6602853 0.1849753 0.06662285 -0.9804823 0.1670934 0.7321898 -0.6602862 0.5671711 0.7112224 0.4153069 0.2024017 0.886881 0.415302 0.3299077 -0.1588806 0.9305472 0.8195918 -0.3947042 0.4153046 0.9096828 0 0.4153039 0.6766421 0.325854 -0.6602839 -0.2024017 0.886881 0.415302 0.2283097 -0.2862951 0.9305428 0.5671711 -0.7112224 0.4153069 -0.1670934 0.7321898 -0.6602862 -0.1519864 0.9081035 0.39019 0.08145421 -0.357007 0.9305436 0.2656995 -0.8497439 0.4553453 -0.01736509 -0.7121542 0.7018083 0.5561825 -0.7111592 -0.430016 -0.1828415 -0.3980031 0.8989786 0.4639471 -0.744293 0.4803968 0.5696429 -0.7370718 0.3636375 0.8588277 0.4646032 -0.2157751 -0.0925033 0.6960182 -0.7120407 0.7083881 0.2004215 -0.6767699 0.3690126 0.514347 -0.7741299 0.866006 0.2365524 -0.4405412 0.5865283 -0.7889352 0.18321 0.9594232 0.2255653 -0.1691969 0.6322389 0.2356094 -0.73808 0.5960913 -0.8029167 0 0.5543787 0.8098233 -0.1919649 0.8650895 0.4672753 -0.1824116 0.6525582 0.3522813 -0.6708695 0.8648224 0.492183 -0.09918737 0.853768 0.5206536 0 0.872504 0.4886071 0 0.2675312 -0.6706287 -0.6918701 0.4682577 -0.587161 -0.6602853 -0.08145511 0.3569803 0.9305537 0.5586801 0.8293833 0 0.08145511 0.3569803 0.9305537 0.7510167 0 -0.6602832 0.8195918 0.3947042 0.4153046 0.382195 0.6234208 0.6821097 -0.1401441 0.2503184 0.9579668 0.2283097 0.2862951 0.9305428 0.3299077 0.1588806 0.9305472 0.3661651 0 0.9305499 0.6766421 -0.325854 -0.6602839 0.5144658 0.6143254 -0.5982721 0.2998822 0.191783 -0.9344998 -0.0237134 0.06393766 -0.9976721 0.2965261 -0.189983 -0.9359374 0.3144067 0.4675205 -0.8261798 0.3148712 0.4925872 -0.8113039 -0.5603713 -0.8103578 -0.1711847 -0.5250262 -0.7830681 -0.3333945 0.05426281 -0.9654693 -0.2548033 0.1678858 -0.7838845 -0.5977787 0.05581891 -0.8640186 -0.5003562 0.3017148 -0.4650852 -0.8322643 0.116064 -0.4054456 -0.9067211 0.1029088 -0.1202129 -0.9874 0.1754546 0.8557569 -0.4867194 0.2163532 0.8240589 -0.5235632 0.1459412 0.2318518 -0.9617411 0.1418223 0.5068922 -0.8502628 0.1402057 -0.8532588 -0.5022867 0.1434993 -0.5126852 -0.8464998 0.9376089 0.2204092 0.2689041 -0.2325873 -0.185435 -0.9547341 -0.1290658 -0.2678977 -0.9547632 -0.2899966 -0.6037681 -0.7425404 0.2815749 0.5847272 -0.7607955 0.001159727 0.6485361 -0.761183 6.71425e-4 0.6464905 0.7629218 0.2806254 0.582767 0.7626481 -0.03000003 -0.2808957 -0.9592694 -0.03173971 -0.6777343 -0.7346217 0.5074117 0.4046536 -0.7607818 -0.290087 0.06619656 -0.9547082 -0.290087 -0.06619656 -0.9547082 -0.6514135 0.1488448 -0.7439798 0.6327285 0.1444178 -0.7607879 0.5057039 0.4032813 0.7626454 0.6306117 0.143927 0.7626363 -0.2325873 0.185435 -0.9547341 -0.522584 0.417353 -0.7434531 0.6327285 -0.1444178 -0.7607879 -0.1290658 0.2678977 -0.9547632 -0.2899966 0.6037681 -0.7425404 0.5074117 -0.4046536 -0.7607818 0.6306117 -0.143927 0.7626363 0.5057039 -0.4032813 0.7626454 -0.03000003 0.2808957 -0.9592694 -0.03173971 0.6777343 -0.7346217 0.2815749 -0.5847272 -0.7607955 0.2806254 -0.582767 0.7626481 -0.02691775 0.9539036 -0.2989036 -0.4144515 0.8583237 -0.3025069 -0.007141411 0.7394115 0.673216 0.001159727 -0.6485361 -0.761183 0.003112912 -0.6453301 0.7638975 -0.745652 0.5937565 -0.3024175 -0.3215474 0.6694022 0.6697074 -0.2789471 -0.5778234 0.767013 -0.9293422 0.2118647 -0.3023849 -0.5795949 0.462858 0.6706954 -0.6297976 -0.14338 -0.7634115 -0.5052109 -0.4037964 -0.7626994 0.1413017 0 -0.9899666 -0.2809323 -0.5823736 -0.7628356 -0.9293422 -0.2118647 -0.3023849 -0.722611 0.1651107 0.6712466 -0.4988968 -0.4014492 0.7680759 -0.6222683 -0.1407573 0.7700452 -0.745652 -0.5937565 -0.3024175 -0.5795949 -0.462858 0.6706954 -0.5052109 0.4037964 -0.7626994 -0.6297976 0.14338 -0.7634115 -0.6222564 0.1407241 0.7700609 -0.4144515 -0.8583237 -0.3025069 -0.3215474 -0.6694022 0.6697074 -0.2809323 0.5823736 -0.7628356 0.1459412 -0.2318518 -0.9617411 -0.2804368 0.5817179 0.763518 -0.4998774 0.4048094 0.7656709 -0.522584 -0.417353 -0.7434531 -0.02523964 -0.9540722 -0.2985119 -0.008850514 -0.7409418 0.6715109 -0.722611 -0.1651107 0.6712466 0.09607446 0.7329189 0.673498 -0.877369 0.2841653 0.3866186 -0.6514135 -0.1488448 -0.7439798 -0.6116644 -0.7088983 0.3511836 0.05914616 -0.6987067 0.7129591 -0.9933927 0.001800596 0.1147513 -0.6633828 0.7449895 -0.0701012 -0.1084642 0.003875851 0.9940928 -0.795847 0.5955196 -0.109472 0.3459625 0.6377541 -0.6881713 0.4682577 0.587161 0.6602853 0.1670934 0.7321898 0.6602862 0.1849753 0.06662285 0.9804823 0.5671711 0.7112224 -0.4153069 0.2024017 0.886881 -0.415302 0.3299077 -0.1588806 -0.9305472 0.3661651 0 -0.9305499 0.9096828 0 -0.4153039 0.6766421 0.325854 0.6602839 -0.2024017 0.886881 -0.415302 0.2283097 -0.2862951 -0.9305428 0.8195918 -0.3947042 -0.4153046 -0.1519864 0.9081035 -0.39019 -0.1670934 0.7321898 0.6602862 0.08145511 -0.3569803 -0.9305537 0.5671711 -0.7112224 -0.4153069 -0.01736509 -0.7121542 -0.7018083 0.2656995 -0.8497439 -0.4553453 0.5561825 -0.7111592 0.430016 -0.1828415 -0.3980031 -0.8989786 0.4639232 -0.7443036 -0.4804036 0.8660123 0.2365236 0.4405444 0.8588357 0.464591 0.2157694 -0.0925033 0.6960182 0.7120407 0.3690126 0.514347 0.7741299 0.7083881 0.2004215 0.6767699 0.5696429 -0.7370718 -0.3636375 0.5865141 -0.7889467 -0.1832056 0.9594232 0.2255653 0.1691969 0.6322389 0.2356094 0.73808 0.5543787 0.8098233 0.1919649 0.5144658 0.6143254 0.5982721 0.6525582 0.3522813 0.6708695 0.8648354 0.4921599 0.09918886 0.05786365 -0.7028176 -0.7090129 0.8650895 0.4672753 0.1824116 0.2675312 -0.6706287 0.6918701 -0.08145421 0.357007 -0.9305436 -0.1401441 0.2503184 -0.9579668 0.4682577 -0.587161 0.6602853 0.08145421 0.357007 -0.9305436 0.8195918 0.3947042 -0.4153046 0.7510167 0 0.6602832 0.382195 0.6234208 -0.6821097 0.2283097 0.2862951 -0.9305428 0.3299077 0.1588806 -0.9305472 0.6766421 -0.325854 0.6602839 0.3459625 0.6377541 0.6881713 -0.7103952 0.703803 0 0.0963788 0.9953448 0 0.07049906 0.9955937 0.06183165 0.7260875 0.6876024 0 0.5106763 0.8549624 -0.09082484 0.3829222 0.9143195 0.1318727 0.7751607 0.3778905 -0.5062853 0.6691935 0.7421036 -0.03824049 0.7355397 0.4956904 0.4618143 0.312056 0.5892288 0.745272 0.3640619 0.7813186 0.5069522 0.1135303 0.9215489 0.371293 0.5106763 0.8549624 0.09082484 0.07049906 0.9955937 -0.06183165 0.7751726 0.3778963 0.5062626 0.6691935 0.7421036 0.03824049 0.7355397 0.4956904 -0.4618143 0.3829222 0.9143195 -0.1318727 0.312056 0.5892288 -0.745272 0.3640619 0.7813186 -0.5069522 0.1135303 0.9215489 -0.371293</float_array>
          <technique_common>
            <accessor source="#Cylinder_006-mesh-normals-array" count="306" stride="3">
              <param name="X" type="float"/>
              <param name="Y" type="float"/>
              <param name="Z" type="float"/>
            </accessor>
          </technique_common>
        </source>
        <vertices id="Cylinder_006-mesh-vertices">
          <input semantic="POSITION" source="#Cylinder_006-mesh-positions"/>
        </vertices>
        <polylist material="Metall_Alu_003-material" count="558">
          <input semantic="VERTEX" source="#Cylinder_006-mesh-vertices" offset="0"/>
          <input semantic="NORMAL" source="#Cylinder_006-mesh-normals" offset="1"/>
          <vcount>3 3 3 3 3 3 3 3 3 3 3 3 3 3 3 3 3 3 3 3 3 3 3 3 3 3 3 3 3 3 3 3 3 3 3 3 3 3 3 3 3 3 3 3 3 3 3 3 3 3 3 3 3 3 3 3 3 3 3 3 3 3 3 3 3 3 3 3 3 3 3 3 3 3 3 3 3 3 3 3 3 3 3 3 3 3 3 3 3 3 3 3 3 3 3 3 3 3 3 3 3 3 3 3 3 3 3 3 3 3 3 3 3 3 3 3 3 3 3 3 3 3 3 3 3 3 3 3 3 3 3 3 3 3 3 3 3 3 3 3 3 3 3 3 3 3 3 3 3 3 3 3 3 3 3 3 3 3 3 3 3 3 3 3 3 3 3 3 3 3 3 3 3 3 3 3 3 3 3 3 3 3 3 3 3 3 3 3 3 3 3 3 3 3 3 3 3 3 3 3 3 3 3 3 3 3 3 3 3 3 3 3 3 3 3 3 3 3 3 3 3 3 3 3 3 3 3 3 3 3 3 3 3 3 3 3 3 3 3 3 3 3 3 3 3 3 3 3 3 3 3 3 3 3 3 3 3 3 3 3 3 3 3 3 3 3 3 3 3 3 3 3 3 3 3 3 3 3 3 3 3 3 3 3 3 3 3 3 3 3 3 3 3 3 3 3 3 3 3 3 3 3 3 3 3 3 3 3 3 3 3 3 3 3 3 3 3 3 3 3 3 3 3 3 3 3 3 3 3 3 3 3 3 3 3 3 3 3 3 3 3 3 3 3 3 3 3 3 3 3 3 3 3 3 3 3 3 3 3 3 3 3 3 3 3 3 3 3 3 3 3 3 3 3 3 3 3 3 3 3 3 3 3 3 3 3 3 3 3 3 3 3 3 3 3 3 3 3 3 3 3 3 3 3 3 3 3 3 3 3 3 3 3 3 3 3 3 3 3 3 3 3 3 3 3 3 3 3 3 3 3 3 3 3 3 3 3 3 3 3 3 3 3 3 3 3 3 3 3 3 3 3 3 3 3 3 3 3 3 3 3 3 3 3 3 3 3 3 3 3 3 3 3 3 3 3 3 3 3 3 3 3 3 3 3 3 3 3 3 3 3 3 3 3 3 3 3 3 3 3 3 3 3 3 3 3 3 3 3 3 3 3 3 3 3 3 3 3 3 3 3 3 3 3 3 3 3 3 3 3 3 3 3 3 3 3 3 3 3 3 3 3 3 3 3 3 3 3 3 3 3 3 3 3 3 3 3 3 </vcount>
          <p>21 0 16 1 6 2 20 3 21 0 108 4 178 5 163 6 22 7 22 7 9 8 23 9 23 9 10 10 24 11 24 11 12 12 14 13 25 14 14 13 8 15 2 16 3 17 20 3 5 18 7 19 16 1 3 17 5 18 21 0 11 20 24 11 25 14 188 21 29 22 313 23 66 24 83 25 81 26 41 27 36 28 39 29 38 30 40 31 41 27 36 28 81 26 82 32 43 33 66 24 41 27 40 31 42 34 41 27 68 35 85 36 67 37 45 38 67 37 43 33 42 34 44 39 45 38 69 40 86 41 68 35 47 42 68 35 45 38 44 39 46 43 45 38 70 44 87 45 69 40 49 46 69 40 68 35 46 43 48 47 47 42 71 48 88 49 70 44 51 50 70 44 69 40 48 47 50 51 49 46 98 52 80 53 97 54 53 55 71 48 70 44 50 51 52 56 51 50 97 54 79 57 96 58 52 56 54 59 53 55 96 58 78 60 95 61 59 62 7 19 57 63 54 59 56 64 55 65 95 61 77 66 94 67 56 64 58 68 57 63 94 67 76 69 75 70 63 71 7 19 61 72 58 68 60 73 59 62 93 74 75 70 73 75 39 29 37 76 15 77 60 73 62 78 61 72 65 79 15 77 63 71 64 80 38 30 65 79 62 78 64 80 65 79 67 37 84 81 83 25 92 82 73 75 74 83 101 84 261 84 22 7 102 84 101 84 22 7 38 30 74 83 73 75 40 31 73 75 75 70 42 34 75 70 76 69 44 39 76 69 46 43 46 43 77 66 48 47 48 47 78 60 50 51 50 51 79 57 52 56 2 16 19 85 90 86 88 49 98 52 97 54 87 45 97 54 96 58 86 41 96 58 95 61 85 36 95 61 84 81 84 81 94 67 83 25 83 25 93 74 81 26 81 26 92 82 82 32 98 52 2 16 80 53 5 18 3 17 88 49 3 17 2 16 98 52 55 65 5 18 53 55 61 72 7 19 59 62 57 63 7 19 5 18 74 83 72 87 11 20 15 77 37 76 82 32 13 88 82 32 91 89 24 11 106 90 23 9 72 87 106 90 11 20 103 91 90 86 18 92 89 93 90 86 105 94 54 59 52 56 89 93 64 80 72 87 38 30 23 9 106 90 103 91 60 73 105 94 62 78 64 80 62 78 72 87 60 73 58 68 105 94 58 68 56 64 105 94 54 59 89 93 56 64 103 91 106 90 90 86 90 86 19 85 104 95 19 85 20 3 108 4 111 96 31 97 139 98 115 99 111 96 117 100 116 101 135 102 137 103 112 104 31 97 111 96 117 100 139 98 119 105 118 106 133 107 135 102 119 105 140 108 121 109 120 110 131 111 133 107 129 112 128 113 131 111 122 114 129 112 131 111 143 115 144 116 126 117 13 88 25 14 16 1 141 118 150 119 30 120 129 112 143 115 127 121 144 116 123 122 126 117 149 123 29 22 35 124 14 13 12 12 143 115 9 8 163 6 289 125 125 126 124 127 152 128 123 122 289 125 142 129 10 10 9 8 123 122 142 129 304 130 125 126 12 12 10 10 144 116 124 127 283 131 149 123 131 111 145 132 146 133 132 134 119 105 121 109 125 126 308 135 124 127 133 107 146 133 135 102 134 136 117 100 132 134 137 103 148 137 113 138 4 139 6 2 130 140 136 141 115 99 134 136 4 139 121 109 141 118 138 142 113 138 136 141 114 143 137 103 138 142 124 127 149 123 150 119 113 138 112 104 115 99 135 102 147 144 137 103 146 133 31 97 147 144 145 132 31 97 146 133 128 113 31 97 145 132 140 108 31 97 141 118 139 98 31 97 140 108 148 137 31 97 112 104 147 144 31 97 148 137 142 129 125 126 151 145 152 128 150 119 141 118 126 117 151 145 127 121 127 121 151 145 128 113 152 128 31 97 151 145 122 114 120 110 132 134 120 110 118 106 134 136 118 106 116 101 136 141 114 143 138 142 116 101 15 77 16 1 7 19 6 2 8 15 130 140 8 15 14 13 129 112 8 15 122 114 130 140 177 146 160 147 172 148 176 149 268 150 177 146 178 5 179 151 163 6 179 151 180 152 164 153 180 152 181 154 165 155 181 154 182 156 169 157 182 156 172 148 162 158 156 159 175 160 176 149 159 161 177 146 172 148 157 162 176 149 177 146 166 163 168 164 182 156 188 21 313 23 187 165 225 166 195 167 240 168 200 169 198 170 195 167 197 171 198 170 199 172 195 167 196 173 241 174 202 175 200 169 225 166 199 172 200 169 202 175 227 176 226 177 244 178 204 179 202 175 226 177 201 180 202 175 203 181 228 182 227 176 245 183 206 184 204 179 227 176 203 181 204 179 206 184 229 185 228 182 246 186 208 187 206 184 227 176 205 188 206 184 207 189 230 190 229 185 247 191 210 192 208 187 228 182 207 189 208 187 209 193 257 194 256 195 239 196 212 197 210 192 229 185 209 193 210 192 211 198 256 195 255 199 238 200 211 198 212 197 213 201 255 199 254 202 237 203 218 204 216 205 161 206 213 201 214 207 216 205 254 202 253 208 236 209 215 210 216 205 217 211 253 208 252 212 234 213 222 214 220 215 161 206 217 211 218 204 219 216 252 212 251 217 232 218 198 170 224 219 170 220 219 216 220 215 222 214 224 219 222 214 170 220 223 221 224 219 197 171 221 222 222 214 223 221 226 177 225 166 242 223 251 217 250 224 233 225 260 84 179 151 261 84 262 84 180 152 179 151 197 171 199 172 232 218 199 172 201 180 234 213 201 180 203 181 235 226 203 181 205 188 235 226 205 188 207 189 236 209 207 189 209 193 237 203 209 193 211 198 238 200 156 159 248 227 249 228 247 191 246 186 256 195 246 186 245 183 255 199 245 183 244 178 254 202 244 178 243 229 253 208 243 229 242 223 253 208 242 223 240 168 252 212 240 168 241 174 251 217 257 194 239 196 156 159 159 161 230 190 247 191 157 162 247 191 257 194 214 207 212 197 159 161 220 215 218 204 161 206 216 205 214 207 159 161 233 225 250 224 166 163 170 220 168 164 241 174 168 164 166 163 250 224 181 154 180 152 266 230 231 231 166 163 266 230 263 232 174 233 249 228 248 227 265 234 249 228 213 201 248 227 211 198 223 221 197 171 231 231 180 152 262 84 263 232 219 216 221 222 265 234 223 221 231 231 221 222 219 216 265 234 217 211 217 211 265 234 215 210 213 201 215 210 248 227 263 232 249 228 266 230 249 228 264 235 175 160 175 160 269 236 268 150 271 237 301 238 190 239 275 240 277 241 271 237 276 242 274 243 299 244 272 245 271 237 190 239 277 241 279 246 301 238 278 247 276 242 297 248 279 246 281 249 302 250 280 251 278 247 295 252 291 253 293 254 290 255 282 256 280 251 293 254 306 257 288 258 287 259 168 164 170 220 172 148 303 260 189 261 315 262 291 253 290 255 288 258 307 263 287 259 284 264 314 265 315 262 194 266 169 157 291 253 306 257 164 153 284 264 289 125 286 267 316 268 317 269 284 264 305 270 289 125 165 155 307 263 284 264 305 270 286 267 304 130 167 271 306 257 307 263 285 272 314 265 283 131 293 254 295 252 309 273 294 274 292 275 281 249 286 267 285 272 308 135 295 252 297 248 310 276 296 277 294 274 277 241 299 244 273 278 312 279 158 280 281 249 292 275 298 281 296 277 275 240 158 280 189 261 303 260 300 282 298 281 273 278 274 243 300 282 299 244 285 272 317 269 315 262 273 278 275 240 271 237 297 248 299 244 311 283 310 276 311 283 190 239 309 273 310 276 190 239 290 255 309 273 190 239 302 250 303 260 190 239 301 238 302 250 190 239 312 279 272 245 190 239 311 283 312 279 190 239 305 270 287 259 316 268 317 269 190 239 303 260 287 259 288 258 316 268 288 258 290 255 316 268 317 269 316 268 190 239 282 256 294 274 280 251 280 251 296 277 278 247 278 247 298 281 276 242 274 243 276 242 300 282 170 220 161 206 172 148 160 147 292 275 162 158 162 158 282 256 291 253 162 158 292 275 282 256 16 1 8 15 6 2 21 0 6 2 108 4 6 2 4 139 108 4 163 6 9 8 22 7 9 8 10 10 23 9 10 10 12 12 24 11 25 14 24 11 14 13 16 1 25 14 8 15 19 85 2 16 20 3 21 0 5 18 16 1 20 3 3 17 21 0 13 88 11 20 25 14 29 22 149 123 313 23 36 28 66 24 81 26 36 28 37 76 39 29 39 29 38 30 41 27 37 76 36 28 82 32 66 24 36 28 41 27 42 34 43 33 41 27 85 36 84 81 67 37 67 37 66 24 43 33 43 33 42 34 45 38 86 41 85 36 68 35 68 35 67 37 45 38 46 43 47 42 45 38 87 45 86 41 69 40 47 42 49 46 68 35 48 47 49 46 47 42 88 49 87 45 70 44 49 46 51 50 69 40 50 51 51 50 49 46 80 53 79 57 97 54 51 50 53 55 70 44 52 56 53 55 51 50 79 57 78 60 96 58 54 59 55 65 53 55 78 60 77 66 95 61 56 64 57 63 55 65 77 66 76 69 94 67 58 68 59 62 57 63 93 74 94 67 75 70 60 73 61 72 59 62 92 82 93 74 73 75 65 79 39 29 15 77 62 78 63 71 61 72 15 77 7 19 63 71 38 30 39 29 65 79 63 71 62 78 65 79 66 24 67 37 83 25 91 89 92 82 74 83 261 84 178 5 22 7 23 9 102 84 22 7 40 31 38 30 73 75 42 34 40 31 75 70 44 39 42 34 76 69 76 69 77 66 46 43 77 66 78 60 48 47 78 60 79 57 50 51 79 57 80 53 52 56 89 93 2 16 90 86 87 45 88 49 97 54 86 41 87 45 96 58 85 36 86 41 95 61 95 61 94 67 84 81 94 67 93 74 83 25 93 74 92 82 81 26 92 82 91 89 82 32 2 16 89 93 80 53 71 48 5 18 88 49 88 49 3 17 98 52 5 18 71 48 53 55 55 65 57 63 5 18 91 89 74 83 11 20 13 88 15 77 82 32 11 20 13 88 91 89 106 90 24 11 11 20 90 86 104 95 18 92 90 86 106 90 72 87 105 94 90 86 72 87 52 56 80 53 89 93 72 87 74 83 38 30 102 84 23 9 103 91 62 78 105 94 72 87 89 93 105 94 56 64 109 284 19 85 108 4 111 96 139 98 117 100 114 143 116 101 137 103 139 98 140 108 119 105 116 101 118 106 135 102 140 108 141 118 121 109 118 106 120 110 133 107 128 113 145 132 131 111 120 110 122 114 131 111 127 121 143 115 126 117 15 77 13 88 16 1 150 119 35 124 30 120 128 113 129 112 127 121 123 122 142 129 126 117 150 119 149 123 35 124 129 112 14 13 143 115 123 122 9 8 289 125 151 145 125 126 152 128 289 125 304 130 142 129 144 116 10 10 123 122 304 130 308 135 125 126 143 115 12 12 144 116 283 131 313 23 149 123 133 107 131 111 146 133 130 140 132 134 121 109 308 135 283 131 124 127 146 133 147 144 135 102 117 100 119 105 132 134 148 137 112 104 113 138 121 109 4 139 130 140 115 99 117 100 134 136 30 120 4 139 141 118 113 138 115 99 136 141 137 103 113 138 138 142 152 128 124 127 150 119 112 104 111 96 115 99 147 144 148 137 137 103 126 117 142 129 151 145 31 97 152 128 141 118 31 97 128 113 151 145 120 110 134 136 132 134 118 106 136 141 134 136 116 101 138 142 136 141 122 114 8 15 129 112 122 114 132 134 130 140 160 147 162 158 172 148 268 150 158 280 160 147 177 146 268 150 160 147 179 151 164 153 163 6 180 152 165 155 164 153 181 154 167 271 165 155 167 271 181 154 169 157 169 157 182 156 162 158 157 162 156 159 176 149 161 206 159 161 172 148 159 161 157 162 177 146 181 154 166 163 182 156 313 23 314 265 187 165 242 223 225 166 240 168 198 170 196 173 195 167 198 170 200 169 199 172 240 168 195 167 241 174 200 169 195 167 225 166 201 180 199 172 202 175 226 177 243 229 244 178 202 175 225 166 226 177 202 175 204 179 203 181 227 176 244 178 245 183 204 179 226 177 227 176 205 188 203 181 206 184 228 182 245 183 246 186 228 182 208 187 227 176 206 184 208 187 207 189 229 185 246 186 247 191 229 185 210 192 228 182 208 187 210 192 209 193 256 195 238 200 239 196 230 190 212 197 229 185 210 192 212 197 211 198 255 199 237 203 238 200 212 197 214 207 213 201 254 202 236 209 237 203 215 210 213 201 216 205 253 208 235 226 236 209 216 205 218 204 217 211 235 226 253 208 234 213 218 204 220 215 219 216 234 213 252 212 232 218 196 173 198 170 170 220 221 222 219 216 222 214 222 214 161 206 170 220 224 219 198 170 197 171 222 214 224 219 223 221 243 229 226 177 242 223 232 218 251 217 233 225 179 151 178 5 261 84 260 84 262 84 179 151 233 225 197 171 232 218 232 218 199 172 234 213 234 213 201 180 235 226 205 188 236 209 235 226 207 189 237 203 236 209 209 193 238 200 237 203 211 198 239 196 238 200 175 160 156 159 249 228 257 194 247 191 256 195 256 195 246 186 255 199 255 199 245 183 254 202 254 202 244 178 253 208 242 223 252 212 253 208 240 168 251 217 252 212 241 174 250 224 251 217 239 196 248 227 156 159 157 162 159 161 247 191 156 159 157 162 257 194 212 197 230 190 159 161 161 206 216 205 159 161 231 231 233 225 166 163 196 173 170 220 241 174 241 174 168 164 250 224 166 163 181 154 266 230 174 233 264 235 249 228 265 234 231 231 249 228 231 231 266 230 249 228 248 227 239 196 211 198 197 171 233 225 231 231 266 230 180 152 263 232 231 231 265 234 221 222 215 210 265 234 248 227 176 149 175 160 268 150 277 241 301 238 271 237 297 248 276 242 299 244 279 246 302 250 301 238 295 252 278 247 297 248 281 249 303 260 302 250 293 254 280 251 295 252 293 254 309 273 290 255 291 253 282 256 293 254 307 263 306 257 287 259 182 156 168 164 172 148 189 261 194 266 315 262 306 257 291 253 288 258 287 259 305 270 284 264 187 165 314 265 194 266 167 271 169 157 306 257 163 6 164 153 289 125 285 272 286 267 317 269 305 270 304 130 289 125 164 153 165 155 284 264 286 267 308 135 304 130 165 155 167 271 307 263 314 265 313 23 283 131 295 252 310 276 309 273 279 246 294 274 281 249 285 272 283 131 308 135 297 248 311 283 310 276 294 274 279 246 277 241 273 278 272 245 312 279 160 147 158 280 292 275 296 277 277 241 275 240 281 249 158 280 303 260 298 281 275 240 273 278 300 282 273 278 299 244 314 265 285 272 315 262 272 245 273 278 271 237 299 244 312 279 311 283 286 267 305 270 316 268 315 262 317 269 303 260 316 268 290 255 190 239 294 274 296 277 280 251 296 277 298 281 278 247 298 281 300 282 276 242 169 157 162 158 291 253 292 275 294 274 282 256</p>
        </polylist>
        <polylist material="Gummi_003-material" count="82">
          <input semantic="VERTEX" source="#Cylinder_006-mesh-vertices" offset="0"/>
          <input semantic="NORMAL" source="#Cylinder_006-mesh-normals" offset="1"/>
          <vcount>3 3 3 3 3 3 3 3 3 3 3 3 3 3 3 3 3 3 3 3 3 3 3 3 3 3 3 3 3 3 3 3 3 3 3 3 3 3 3 3 3 3 3 3 3 3 3 3 3 3 3 3 3 3 3 3 3 3 3 3 3 3 3 3 3 3 3 3 3 3 3 3 3 3 3 3 3 3 3 3 3 3 </vcount>
          <p>171 285 17 285 155 286 34 285 18 92 0 287 155 286 1 286 185 288 33 286 0 287 32 289 32 289 26 290 28 291 185 288 27 292 29 22 17 285 34 285 1 286 1 286 33 286 27 292 27 292 32 289 35 124 103 91 18 92 34 285 28 291 26 290 100 293 28 291 100 293 4 139 17 285 171 285 101 84 34 285 17 285 102 84 4 139 110 294 108 4 99 295 110 294 4 139 26 290 0 287 107 296 99 295 107 296 110 294 107 296 104 95 19 85 18 92 104 95 0 287 110 294 109 284 108 4 35 124 28 291 30 120 171 285 155 286 173 285 193 285 192 286 174 233 155 286 185 288 154 286 192 286 191 297 153 298 191 297 194 266 186 299 185 288 188 21 187 165 173 285 154 286 193 285 154 286 184 300 192 286 184 300 187 165 194 266 263 232 262 84 193 285 186 299 259 301 183 302 186 299 189 261 158 280 173 285 260 84 171 285 193 285 262 84 173 285 158 280 268 150 270 303 258 304 259 301 158 280 183 302 258 304 267 305 258 304 270 303 267 305 267 305 269 236 175 160 174 233 153 298 264 235 270 303 268 150 269 236 194 266 189 261 186 299 17 285 1 286 155 286 33 286 34 285 0 287 1 286 27 292 185 288 0 287 26 290 32 289 35 124 32 289 28 291 188 21 185 288 29 22 34 285 33 286 1 286 33 286 32 289 27 292 29 22 27 292 35 124 102 84 103 91 34 285 26 290 99 295 100 293 30 120 28 291 4 139 171 285 261 84 101 84 17 285 101 84 102 84 100 293 99 295 4 139 99 295 26 290 107 296 107 296 109 284 110 294 109 284 107 296 19 85 104 95 107 296 0 287 155 286 154 286 173 285 192 286 153 298 174 233 185 288 184 300 154 286 191 297 183 302 153 298 183 302 191 297 186 299 184 300 185 288 187 165 154 286 192 286 193 285 184 300 191 297 192 286 191 297 184 300 194 266 174 233 263 232 193 285 259 301 258 304 183 302 259 301 186 299 158 280 260 84 261 84 171 285 262 84 260 84 173 285 270 303 258 304 158 280 153 298 183 302 267 305 270 303 269 236 267 305 264 235 267 305 175 160 153 298 267 305 264 235</p>
        </polylist>
      </mesh>
    </geometry>
  </library_geometries>
  <library_controllers/>
  <library_visual_scenes>
    <visual_scene id="Scene" name="Scene">
      <node id="VIS_hollie_left_hand_b" name="VIS_hollie_left_hand_b" type="NODE">
        <instance_geometry url="#Cylinder_006-mesh" name="VIS_hollie_left_hand_b">
          <bind_material>
            <technique_common>
              <instance_material symbol="Metall_Alu_003-material" target="#Metall_Alu_003-material"/>
              <instance_material symbol="Gummi_003-material" target="#Gummi_003-material"/>
            </technique_common>
          </bind_material>
        </instance_geometry>
      </node>
    </visual_scene>
  </library_visual_scenes>
  <scene>
    <instance_visual_scene url="#Scene"/>
  </scene>
</COLLADA>