<?xml version="1.0" encoding="utf-8"?>
<COLLADA xmlns="http://www.collada.org/2005/11/COLLADASchema" version="1.4.1">
  <asset>
    <contributor>
      <author>Blender User</author>
      <authoring_tool>Blender 2.78.0 commit date:2017-02-24, commit time:14:33, hash:e92f2352830</authoring_tool>
    </contributor>
    <created>2017-07-14T10:06:20</created>
    <modified>2017-07-14T10:06:20</modified>
    <unit name="meter" meter="1"/>
    <up_axis>Z_UP</up_axis>
  </asset>
  <library_images/>
  <library_effects>
    <effect id="Metall_Daumen_002_002-effect">
      <profile_COMMON>
        <technique sid="common">
          <phong>
            <emission>
              <color sid="emission">0 0 0 1</color>
            </emission>
            <ambient>
              <color sid="ambient">0 0 0 1</color>
            </ambient>
            <diffuse>
              <color sid="diffuse">0.35 0.35 0.35 1</color>
            </diffuse>
            <specular>
              <color sid="specular">0.1 0.1 0.1 1</color>
            </specular>
            <shininess>
              <float sid="shininess">50</float>
            </shininess>
            <index_of_refraction>
              <float sid="index_of_refraction">1</float>
            </index_of_refraction>
          </phong>
        </technique>
      </profile_COMMON>
    </effect>
    <effect id="Metall_goeldlich_002_002-effect">
      <profile_COMMON>
        <technique sid="common">
          <phong>
            <emission>
              <color sid="emission">0 0 0 1</color>
            </emission>
            <ambient>
              <color sid="ambient">0 0 0 1</color>
            </ambient>
            <diffuse>
              <color sid="diffuse">0.831 0.686 0.216 1</color>
            </diffuse>
            <specular>
              <color sid="specular">0.075 0.075 0.075 1</color>
            </specular>
            <shininess>
              <float sid="shininess">80</float>
            </shininess>
            <index_of_refraction>
              <float sid="index_of_refraction">1</float>
            </index_of_refraction>
          </phong>
        </technique>
      </profile_COMMON>
    </effect>
  </library_effects>
  <library_materials>
    <material id="Metall_Daumen_002_002-material" name="Metall_Daumen_002_002">
      <instance_effect url="#Metall_Daumen_002_002-effect"/>
    </material>
    <material id="Metall_goeldlich_002_002-material" name="Metall_goeldlich_002_002">
      <instance_effect url="#Metall_goeldlich_002_002-effect"/>
    </material>
  </library_materials>
  <library_geometries>
    <geometry id="Cylinder_020-mesh" name="Cylinder.020">
      <mesh>
        <source id="Cylinder_020-mesh-positions">
          <float_array id="Cylinder_020-mesh-positions-array" count="726">-0.01313406 -5.42727e-6 0.003433406 -0.01288169 0.00255686 0.003433406 -0.01127529 0.002237319 0.001794219 -0.01149618 -5.42661e-6 0.001794219 -0.01127529 -0.002248167 0.001794219 -0.01288169 -0.002567708 0.003433406 -0.01515311 -5.42958e-6 0.01083713 -0.01213431 0.005020737 0.003433406 -0.01062107 0.004393935 0.001794219 -0.01213431 -0.005031585 0.003433406 -0.01062107 -0.004404783 0.001794219 -0.01092058 0.007291436 0.003433406 -0.009558737 0.006381452 0.001794219 -0.0150209 -0.002993226 0.01143145 -0.009558737 -0.0063923 0.001794219 -0.01092058 -0.007302284 0.003433406 -0.01463049 -0.004574179 0.01174592 -0.01446837 0.005987524 0.01269757 -0.009287178 0.009281694 0.003433406 -0.008129 0.008123517 0.001794219 -0.01446837 -0.005998373 0.01269757 -0.01420384 -0.008530914 0.01439422 -0.007652223 -0.008535742 0.001798331 -0.01116544 0.01015317 0.01082032 -0.005184233 0.0104826 0.001794219 -0.009287178 -0.009292542 0.003433406 -0.009125113 0.01012307 0.007719218 -0.007652223 0.01054334 0.003433406 -0.007652223 -0.008535742 0.00683856 -0.0130437 0.01102459 0.01820725 -0.00982356 0.01012307 0.009450197 -0.007652223 0.01054334 0.00683856 -0.005184233 0.0104826 0.00683856 -0.005184233 -0.009008765 0.001798331 -0.009125113 -0.008535742 0.007719218 -0.005184233 -0.009008765 0.00683856 -0.00982356 -0.008535742 0.009450197 -0.009837985 -5.42826e-6 0.01872164 -0.009838402 0.001546084 0.01903021 -0.009838402 -0.001556932 0.01903021 -0.009844064 -0.004059791 0.02277606 -0.00984174 -0.003751218 0.02122449 -0.00984174 0.00374031 0.02122449 -0.009839773 -0.002872288 0.01990914 -0.009839773 0.00286144 0.01990914 -0.009843587 -5.42991e-6 0.03471493 -0.01516592 -5.42892e-6 0.03471493 -0.01513338 0.004563331 0.03380614 -0.009843587 0.004563331 0.03380614 -0.01513338 -0.004574179 0.03380614 -0.009843587 -0.004574179 0.03380614 -0.01516598 -5.42909e-6 0.02682113 -0.01515495 0.001542508 0.02651321 -0.0151391 0.003731667 0.02432399 -0.01514524 0.002854824 0.02563631 -0.01480531 0.00843656 0.03121811 -0.009843587 0.00843656 0.03121811 -0.0151391 -0.003742575 0.02432399 -0.01515495 -0.001553356 0.02651321 -0.01514524 -0.002865672 0.02563631 -0.01480531 -0.008447468 0.03121811 -0.009843587 -0.008447468 0.03121811 -0.01514291 0.002854824 0.01991575 -0.01513338 0.004563331 0.01174592 -0.01513779 0.004039585 0.02277606 -0.0151391 0.003731667 0.02122807 -0.01480531 0.00843656 0.01433396 -0.01420384 0.01102459 0.02734488 -0.009843587 0.01102459 0.02734488 -0.01513338 -0.004574179 0.01174592 -0.01514291 -0.002865672 0.01991575 -0.01513779 -0.004050493 0.02277606 -0.0151391 -0.003742575 0.02122807 -0.0151509 0.001542508 0.01903885 -0.01516163 -5.42933e-6 0.01873093 -0.01420384 -0.01124942 0.02734488 -0.009843587 -0.01124942 0.02734488 -0.0150209 0.002982378 0.01143145 -0.01429116 0.01102459 0.01820725 -0.01463049 0.004563331 0.01174592 -0.01384294 0.01193338 0.02277606 -0.009843587 0.01193338 0.02277606 -0.0151509 -0.001553356 0.01903885 -0.01366287 0.00843656 0.01433396 -0.01361447 0.009091377 0.01531398 -0.01372849 0.01174974 0.02185279 -0.009844064 -5.42802e-6 0.02683049 -0.009844064 0.001546084 0.02652186 -0.009844064 -0.001556932 0.02652186 -0.009844064 0.004048943 0.02277606 -0.009844064 -0.003751218 0.02432763 -0.009844064 0.00374031 0.02432763 -0.009844064 -0.002872288 0.02564299 -0.009844064 0.00286144 0.02564299 -0.009843587 -0.007494032 0.03471493 -0.01516592 -0.007494032 0.03471493 -0.01513338 -0.009891748 0.03408932 -0.009843587 -0.009891748 0.03408932 -0.01480531 -0.01143664 0.03247672 -0.009843587 -0.01143664 0.03247672 -0.01420384 -0.01185357 0.02986204 -0.009843587 -0.01185357 0.02986204 -0.009843587 -0.008530914 0.01439422 -0.003698289 -0.00509566 3.07964e-4 -0.003698289 -0.00509566 0.001815736 -0.005983948 -0.001949727 3.07964e-4 -0.005983948 -0.001949727 0.001815736 -0.005983948 0.001938819 3.07964e-4 -0.005983948 0.001938819 0.001815736 -0.003698289 0.005084812 3.07964e-4 -0.003698289 0.005084812 0.001815736 -0.01498979 -0.005998373 0.01269757 -0.01214689 -0.009891748 0.03408932 -0.01214689 -0.01124942 0.02734488 -0.01214689 -0.01143664 0.03247672 -0.01214689 -0.01185357 0.02986204 -0.01214689 -0.007494032 0.03471493 0.01313412 -5.42331e-6 0.003433406 0.01288169 0.00255686 0.003433406 0.01127529 0.002237319 0.001794219 0.01149618 -5.42315e-6 0.001794219 0.01127529 -0.002248167 0.001794219 0.01288169 -0.002567708 0.003433406 0.01515316 -5.42513e-6 0.01083713 0.01213431 0.005020737 0.003433406 0.01062107 0.004393935 0.001794219 0.01213431 -0.005031585 0.003433406 0.01062113 -0.004404783 0.001794219 0.01092058 0.007291436 0.003433406 0.009558737 0.006381452 0.001794219 0.01502096 -0.002993226 0.01143145 0.009558737 -0.0063923 0.001794219 0.01092058 -0.007302284 0.003433406 0.01463055 -0.004574179 0.01174592 0.01446837 0.005987524 0.01269757 0.009287178 0.009281694 0.003433406 0.008129 0.008123517 0.001794219 0.01446837 -0.005998373 0.01269757 0.01420384 -0.008530914 0.01439422 0.007652223 -0.008535683 0.001798331 0.01116544 0.01015317 0.01082032 0.005184233 0.0104826 0.001794219 0.009287178 -0.009292542 0.003433406 0.009125113 0.01012307 0.007719218 0.007652223 0.01054334 0.003433406 0.007652223 -0.008535683 0.00683856 0.0130437 0.01102459 0.01820725 0.00982356 0.01012307 0.009450197 0.007652223 0.01054334 0.00683856 0.005184233 0.0104826 0.00683856 0.005184233 -0.009008765 0.001798331 0.009125113 -0.008535683 0.007719218 0.005184233 -0.009008765 0.00683856 0.00982362 -0.008535683 0.009450197 0 0.0104826 0.001794219 0 0.0104826 0.00683856 0 -0.009008765 0.001798331 0 -0.009008765 0.00683856 0.009837985 -5.42529e-6 0.01872164 0.009838461 0.001546084 0.01903021 0.009838461 -0.001556932 0.01903021 0.009844064 -0.004059791 0.02277606 0.00984174 -0.003751218 0.02122449 0.00984174 0.00374037 0.02122449 0.009839773 -0.002872288 0.01990914 0.009839773 0.00286144 0.01990914 0.009843587 -5.42694e-6 0.03471493 0.01516592 -5.4243e-6 0.03471493 0.01513338 0.004563331 0.03380614 0.009843587 0.004563331 0.03380614 0.01513338 -0.004574179 0.03380614 0.009843587 -0.004574179 0.03380614 0.01516598 -5.42446e-6 0.02682113 0.01515495 0.001542508 0.02651321 0.0151391 0.003731727 0.02432399 0.01514524 0.002854824 0.02563631 0.01480531 0.00843656 0.03121811 0.009843587 0.00843656 0.03121811 0.0151391 -0.003742575 0.02432399 0.01515495 -0.001553356 0.02651321 0.01514524 -0.002865672 0.02563631 0.01480531 -0.008447408 0.03121811 0.009843587 -0.008447408 0.03121811 0.01514291 0.002854824 0.01991575 0.01513338 0.004563331 0.01174592 0.01513779 0.004039585 0.02277606 0.0151391 0.003731727 0.02122807 0.01480531 0.00843656 0.01433396 0.01420384 0.01102459 0.02734488 0.009843587 0.01102459 0.02734488 0.01513338 -0.004574179 0.01174592 0.01514291 -0.002865672 0.01991575 0.01513779 -0.004050433 0.02277606 0.0151391 -0.003742575 0.02122807 0.01515096 0.001542508 0.01903885 0.01516163 -5.42472e-6 0.01873093 0.01420384 -0.01124942 0.02734488 0.009843587 -0.01124942 0.02734488 0.01502096 0.002982378 0.01143145 0.01429116 0.01102459 0.01820725 0.01463055 0.004563331 0.01174592 0.01384294 0.01193338 0.02277606 0.009843587 0.01193338 0.02277606 0.01515096 -0.001553356 0.01903885 0.01366287 0.00843656 0.01433396 0.01361447 0.009091377 0.01531398 0.01372849 0.01174974 0.02185279 0.009844064 -5.42504e-6 0.02683049 0.009844064 0.001546084 0.02652186 0.009844064 -0.001556932 0.02652186 0.009844064 0.004048943 0.02277606 0.009844064 -0.003751218 0.02432763 0.009844064 0.00374037 0.02432763 0.009844064 -0.002872288 0.02564299 0.009844064 0.00286144 0.02564299 0.009843587 -0.007494032 0.03471493 0.01516592 -0.007494032 0.03471493 0.01513338 -0.009891748 0.03408932 0.009843587 -0.009891748 0.03408932 0.01480531 -0.01143658 0.03247672 0.009843587 -0.01143658 0.03247672 0.01420384 -0.01185351 0.02986204 0.009843587 -0.01185357 0.02986204 0.009843587 -0.008530914 0.01439422 0 -0.00629729 3.07964e-4 0 -0.00629729 0.001815736 0.003698289 -0.00509566 3.07964e-4 0.003698289 -0.00509566 0.001815736 0.005983948 -0.001949667 3.07964e-4 0.005983948 -0.001949667 0.001815736 0.005983948 0.001938819 3.07964e-4 0.005983948 0.001938819 0.001815736 0.003698289 0.005084812 3.07964e-4 0.003698289 0.005084812 0.001815736 0 0.006286442 3.07964e-4 0 0.006286442 0.001815736 0.01498979 -0.005998373 0.01269757 0.01214694 -0.009891748 0.03408932 0.01214694 -0.01124942 0.02734488 0.01214694 -0.01143658 0.03247672 0.01214694 -0.01185351 0.02986204 0.01214694 -0.007494032 0.03471493</float_array>
          <technique_common>
            <accessor source="#Cylinder_020-mesh-positions-array" count="242" stride="3">
              <param name="X" type="float"/>
              <param name="Y" type="float"/>
              <param name="Z" type="float"/>
            </accessor>
          </technique_common>
        </source>
        <source id="Cylinder_020-mesh-normals">
          <float_array id="Cylinder_020-mesh-normals-array" count="708">-0.8689354 0 -0.4949257 -0.8522424 0.1695024 -0.4949262 -0.3951637 0.07858717 -0.915243 -0.8028011 0.332504 -0.4949259 -0.7224866 0.4827564 -0.4949337 -0.3722423 0.1541828 -0.9152395 -0.5927363 0.6694301 -0.4478026 -0.3350101 0.2238283 -0.9152426 -0.3600958 0.8852089 -0.2945101 -0.08407998 0.7009618 -0.7082254 0.008667469 0.7042669 0.7098824 0 0.7071068 0.7071068 -0.043154 0.8173935 0.5744614 -0.4719516 0.8545731 -0.2167181 -0.987021 0 -0.1605919 -0.4029135 0 -0.915238 -0.8522424 -0.1695024 -0.4949262 -0.3951637 -0.07858717 -0.915243 -0.3722423 -0.1541828 -0.9152395 -0.8012285 -0.3240866 -0.502992 -0.705978 -0.5419355 -0.4559619 -0.3325999 -0.2334425 -0.9137188 -0.1448749 -0.6373335 -0.7568469 -0.2800428 -0.9176164 -0.2820571 -0.5599954 -0.5013987 -0.6595488 -0.6197804 -0.7662717 -0.1694111 -0.6853656 -0.4755473 -0.5514786 -0.6131638 -0.4074025 -0.6767965 -0.5614403 -0.2452563 -0.790338 -0.06872856 -0.7239394 0.6864315 0.1754867 -0.7179087 0.6736555 0.6128906 -0.6430438 0.4591949 -0.06876027 -0.7240124 -0.6863514 0 -0.7071068 0.7071068 0.3234101 0.8733325 0.3642751 0.6669679 0.7370096 0.1094115 -0.1080995 0.95672 -0.2701876 0.5723182 -0.8173533 0.06622564 0.753856 0.2509903 0.607211 0.7539744 0.4638903 0.4651111 0.7541327 0.606297 0.2523643 0.7542927 0.6565383 3.66236e-4 0.7541327 -0.606297 0.2523643 0.7539851 -0.4638664 0.4651177 0 -0.7071831 -0.7070305 0 0.7070305 -0.7071831 -0.2838564 0.2874271 -0.9147739 -0.6684271 0.3010088 0.6801463 -0.687314 0.07113933 0.7228684 0.6657225 0.2855407 0.6894056 -0.6435029 0.571355 0.5093699 0.6657159 0.5276469 0.5276469 -0.5809032 0.7680472 0.2695459 0.6657395 0.6893917 0.2855349 -0.4946256 0.8690969 0.003997981 0.6657721 0.7460982 0.009216725 0 0.9807879 -0.1950772 -0.6001371 0.7544137 -0.2658866 -0.6433818 0.5703182 -0.510683 -0.4097795 0.789101 -0.4576029 -0.6689501 0.2999731 -0.6800896 -0.6131638 0.4074025 -0.6767965 -0.5614268 0.2452504 -0.7903496 -0.7548277 -0.4608072 -0.466789 -0.7547727 -0.6054113 -0.2525777 -0.7541012 -0.246138 -0.6088904 -0.7559791 -0.6545959 0 -0.7546469 0 -0.6561312 -0.7547854 -0.6054826 0.2523683 -0.7543329 -0.4622375 0.4661744 -0.9943309 -0.08713096 -0.06094586 -0.6558583 -0.7120442 0.250685 -0.9995022 -0.01843357 -0.02560555 -0.7548277 0.4608072 -0.466789 -0.7547727 0.6054113 -0.2525777 -0.7559791 0.6545959 0 -0.6696501 -0.3024138 -0.6783176 -0.7547854 0.6054826 0.2523683 -0.7543329 0.4622375 0.4661744 -0.7541012 0.246138 -0.6088904 0.7542874 0.2512358 -0.6065734 0.7103622 -0.6866794 -0.154457 0.7543119 0.4642271 -0.4642271 0.7543119 -0.4642271 -0.4642271 0.7542874 -0.2512358 -0.6065734 0.753856 -0.2509903 0.607211 0.7543144 -0.6065402 -0.2512347 1 0 0 0.685707 0.07132351 0.7243749 0.7543144 0.6065402 -0.2512347 -0.5440981 0.6584844 -0.5199573 -0.4950234 0.5679035 -0.6575998 0.7538232 0 0.6570774 0.7541643 -0.6566855 6.10388e-4 -0.7543513 -0.2465673 0.6084069 -0.755001 0 0.6557238 -0.7543456 0.2465959 0.6084023 0.7540363 0 -0.6568328 -0.6484756 -0.7428415 -0.1663305 -0.5883529 -0.8046743 -0.07962507 -0.7082529 -0.4049862 0.5782422 -0.6982982 -0.09527933 0.7094375 0.6795427 -0.09335851 0.7276717 0.6506467 -0.3845771 0.6547973 0.7287483 -0.6814429 -0.06753998 0 -0.7652688 -0.6437109 0 -1 0 -0.4497972 -0.6191197 -0.6437184 -0.587767 -0.8090303 0 -0.7278208 -0.2364624 -0.64371 -0.9510608 -0.309004 0 -0.7278208 0.2364624 -0.64371 -0.9510608 0.309004 0 -0.4497972 0.6191197 -0.6437184 -0.587767 0.8090303 0 0 0.7652688 -0.6437109 0 -0.89559 0.4448804 0 -0.1272644 0.9918689 0 -0.5064305 0.8622809 0 -0.9756281 -0.2194308 0 -0.999251 -0.03869795 0.8689354 0 -0.4949257 0.4029135 0 -0.915238 0.8522424 0.1695024 -0.4949262 0.3951637 0.07858717 -0.915243 0.3722423 0.1541828 -0.9152395 0.8027929 0.3325311 -0.4949209 0.7224866 0.4827564 -0.4949337 0.3350101 0.2238283 -0.9152426 0.5927363 0.6694301 -0.4478026 0.2838564 0.2874271 -0.9147739 0.08407998 0.7009618 -0.7082254 -0.008667469 0.7042669 0.7098824 0.3600958 0.8852089 -0.2945101 0.043154 0.8173935 0.5744614 0.4719516 0.8545731 -0.2167181 0.987021 0 -0.1605919 0.8522424 -0.1695024 -0.4949262 0.3951637 -0.07858717 -0.915243 0.8012285 -0.3240866 -0.502992 0.705978 -0.5419355 -0.4559619 0.3722423 -0.1541828 -0.9152395 0.1448749 -0.6373335 -0.7568469 0.3325999 -0.2334425 -0.9137188 0.2800428 -0.9176164 -0.2820571 0.5599954 -0.5013987 -0.6595488 0.6853656 -0.4755473 -0.5514786 0.6197804 -0.7662717 -0.1694111 0.6131638 -0.4074025 -0.6767965 0.5614403 -0.2452563 -0.790338 0.06872856 -0.7239394 0.6864315 -0.1754867 -0.7179087 0.6736555 -0.6128906 -0.6430438 0.4591949 0.06876027 -0.7240124 -0.6863514 -0.3234065 0.8733228 0.3643016 -0.6669679 0.7370096 0.1094115 0.1080995 0.95672 -0.2701876 -0.5723182 -0.8173533 0.06622564 -0.7539744 0.4638903 0.4651111 -0.753856 0.2509903 0.607211 -0.7541327 0.606297 0.2523643 -0.7542927 0.6565383 3.66236e-4 -0.7541327 -0.606297 0.2523643 -0.7539851 -0.4638664 0.4651177 0.6684271 0.3010088 0.6801463 -0.6657225 0.2855407 0.6894056 0.687314 0.07113933 0.7228684 0.6435029 0.571355 0.5093699 -0.6657159 0.5276469 0.5276469 0.5809032 0.7680472 0.2695459 -0.6657395 0.6893917 0.2855349 0.4946256 0.8690969 0.003997981 -0.6657721 0.7460982 0.009216725 0.6001371 0.7544137 -0.2658866 0.6433818 0.5703182 -0.510683 0.5440981 0.6584844 -0.5199573 0.4097795 0.789101 -0.4576029 0.6689501 0.2999731 -0.6800896 0.5614268 0.2452504 -0.7903496 0.6131638 0.4074025 -0.6767965 0.7548277 -0.4608072 -0.466789 0.7547727 -0.6054113 -0.2525777 0.7541012 -0.246138 -0.6088904 0.7559791 -0.6545959 0 0.7546469 0 -0.6561312 0.7547854 -0.6054826 0.2523683 0.7543329 -0.4622375 0.4661744 0.9943309 -0.08713096 -0.06094586 0.999503 -0.01843357 -0.02557504 0.6558583 -0.7120442 0.250685 0.7547727 0.6054113 -0.2525777 0.7548277 0.4608072 -0.466789 0.7559791 0.6545959 0 0.6696501 -0.3024138 -0.6783176 0.7543197 0.4622482 0.4661852 0.7547854 0.6054826 0.2523683 0.7541012 0.246138 -0.6088904 -0.7542874 0.2512358 -0.6065734 -0.7543119 0.4642271 -0.4642271 -0.7103622 -0.6866794 -0.154457 -0.7543119 -0.4642271 -0.4642271 -0.7542874 -0.2512358 -0.6065734 -0.753856 -0.2509903 0.607211 -0.7543144 -0.6065402 -0.2512347 -1 0 0 -0.685707 0.07132351 0.7243749 -0.7543144 0.6065402 -0.2512347 0.4950234 0.5679035 -0.6575998 -0.7538232 0 0.6570774 -0.7541643 -0.6566855 6.10388e-4 0.7543513 -0.2465673 0.6084069 0.755001 0 0.6557238 0.7543513 0.2465673 0.6084069 -0.7540363 0 -0.6568328 0.6484756 -0.7428415 -0.1663305 0.5883529 -0.8046743 -0.07962507 0.7082529 -0.4049862 0.5782422 0.6983133 -0.09528136 0.7094223 -0.6506467 -0.3845771 0.6547973 -0.7287483 -0.6814429 -0.06753998 0.4497972 -0.6191197 -0.6437184 0.7278208 -0.2364624 -0.64371 0.587767 -0.8090303 0 0.7278208 0.2364624 -0.64371 0.9510608 -0.309004 0 0.4497972 0.6191197 -0.6437184 0.9510608 0.309004 0 0.587767 0.8090303 0 0 -0.9756346 -0.2194018 0 -0.9992522 -0.0386675 0 1 0 -0.6795427 -0.09335851 0.7276717 0.6457301 -0.6838489 0.3396813 0.6656199 -0.7457323 -0.02887099 -0.6656199 -0.7457323 -0.02887099 -0.6457301 -0.6838489 0.3396813</float_array>
          <technique_common>
            <accessor source="#Cylinder_020-mesh-normals-array" count="236" stride="3">
              <param name="X" type="float"/>
              <param name="Y" type="float"/>
              <param name="Z" type="float"/>
            </accessor>
          </technique_common>
        </source>
        <vertices id="Cylinder_020-mesh-vertices">
          <input semantic="POSITION" source="#Cylinder_020-mesh-positions"/>
        </vertices>
        <polylist material="Metall_Daumen_002_002-material" count="452">
          <input semantic="VERTEX" source="#Cylinder_020-mesh-vertices" offset="0"/>
          <input semantic="NORMAL" source="#Cylinder_020-mesh-normals" offset="1"/>
          <vcount>3 3 3 3 3 3 3 3 3 3 3 3 3 3 3 3 3 3 3 3 3 3 3 3 3 3 3 3 3 3 3 3 3 3 3 3 3 3 3 3 3 3 3 3 3 3 3 3 3 3 3 3 3 3 3 3 3 3 3 3 3 3 3 3 3 3 3 3 3 3 3 3 3 3 3 3 3 3 3 3 3 3 3 3 3 3 3 3 3 3 3 3 3 3 3 3 3 3 3 3 3 3 3 3 3 3 3 3 3 3 3 3 3 3 3 3 3 3 3 3 3 3 3 3 3 3 3 3 3 3 3 3 3 3 3 3 3 3 3 3 3 3 3 3 3 3 3 3 3 3 3 3 3 3 3 3 3 3 3 3 3 3 3 3 3 3 3 3 3 3 3 3 3 3 3 3 3 3 3 3 3 3 3 3 3 3 3 3 3 3 3 3 3 3 3 3 3 3 3 3 3 3 3 3 3 3 3 3 3 3 3 3 3 3 3 3 3 3 3 3 3 3 3 3 3 3 3 3 3 3 3 3 3 3 3 3 3 3 3 3 3 3 3 3 3 3 3 3 3 3 3 3 3 3 3 3 3 3 3 3 3 3 3 3 3 3 3 3 3 3 3 3 3 3 3 3 3 3 3 3 3 3 3 3 3 3 3 3 3 3 3 3 3 3 3 3 3 3 3 3 3 3 3 3 3 3 3 3 3 3 3 3 3 3 3 3 3 3 3 3 3 3 3 3 3 3 3 3 3 3 3 3 3 3 3 3 3 3 3 3 3 3 3 3 3 3 3 3 3 3 3 3 3 3 3 3 3 3 3 3 3 3 3 3 3 3 3 3 3 3 3 3 3 3 3 3 3 3 3 3 3 3 3 3 3 3 3 3 3 3 3 3 3 3 3 3 3 3 3 3 3 3 3 3 3 3 3 3 3 3 3 3 3 3 3 3 3 3 3 3 3 3 3 3 3 3 3 3 3 3 3 3 3 3 3 3 3 3 3 3 3 3 3 3 3 3 3 3 3 3 3 3 </vcount>
          <p>0 0 1 1 2 2 2 2 1 1 7 3 7 3 11 4 8 5 11 4 18 6 12 7 18 6 27 8 24 9 32 10 155 11 24 9 27 8 31 12 24 9 18 6 11 4 23 13 1 1 0 0 6 14 0 0 3 15 5 16 4 17 10 18 9 19 9 19 10 18 15 20 15 20 14 21 22 22 15 20 22 22 25 23 20 24 21 25 111 26 9 19 20 24 16 27 9 19 16 27 13 28 6 14 5 16 13 28 32 10 35 29 155 11 32 10 31 12 35 29 28 30 34 31 25 23 28 30 25 23 22 22 35 29 33 32 157 33 28 30 31 12 34 31 26 34 30 35 34 31 30 35 23 13 29 36 26 34 18 6 23 13 26 34 23 13 30 35 18 6 26 34 31 12 18 6 31 12 27 8 36 37 39 38 43 39 41 40 40 41 36 37 43 39 41 40 36 37 42 42 44 43 30 35 28 30 22 22 35 29 156 44 33 32 154 45 22 22 19 46 24 9 22 22 24 9 33 32 14 21 12 7 19 46 14 21 19 46 22 22 10 18 2 2 14 21 4 17 2 2 10 18 8 5 12 7 14 21 4 17 3 15 2 2 47 47 46 48 48 49 55 50 47 47 56 51 67 52 55 50 68 53 80 54 67 52 81 55 80 54 85 56 78 57 81 55 85 56 80 54 66 58 78 57 84 59 63 60 79 61 77 62 54 63 47 47 53 64 52 65 47 47 54 63 47 47 64 66 53 64 47 47 52 65 51 67 65 68 63 60 62 69 63 60 64 66 47 47 80 54 78 57 67 52 55 50 67 52 66 58 55 50 66 58 47 47 60 70 98 71 49 72 49 72 59 73 57 74 71 75 49 72 57 74 69 76 72 77 70 78 49 72 58 79 59 73 88 80 76 81 92 82 93 83 68 53 87 84 36 37 30 35 38 85 68 53 93 83 91 86 68 53 91 86 81 55 56 51 61 87 76 81 48 49 50 87 56 51 48 49 45 88 50 87 64 66 63 60 65 68 92 82 76 81 90 89 71 75 69 76 49 72 72 77 69 76 71 75 84 59 29 36 23 13 11 4 84 59 23 13 11 4 83 90 84 59 11 4 7 3 83 90 7 3 79 61 17 91 7 3 1 1 77 62 77 62 1 1 6 14 0 0 5 16 6 14 30 35 29 36 81 55 36 37 38 85 37 92 36 37 37 92 39 38 30 35 81 55 89 93 78 57 85 56 29 36 84 59 78 57 29 36 66 58 83 90 17 91 63 60 17 91 79 61 73 94 6 14 74 95 74 95 6 14 82 96 62 69 63 60 6 14 69 76 70 78 6 14 6 14 73 94 62 69 63 60 77 62 6 14 69 76 13 28 16 27 82 96 6 14 70 78 58 79 49 72 51 67 51 67 49 72 46 48 69 76 6 14 13 28 29 36 85 56 81 55 76 81 86 97 68 53 68 53 86 97 87 84 30 35 89 93 42 42 86 97 76 81 88 80 51 67 52 65 87 84 93 83 87 84 52 65 91 86 93 83 54 63 89 93 91 86 53 64 42 42 89 93 64 66 65 68 62 69 42 42 62 69 73 94 44 43 73 94 74 95 38 85 74 95 82 96 39 38 43 39 39 38 82 96 41 40 43 39 70 78 40 41 41 40 71 75 90 89 40 41 57 74 86 97 88 80 51 67 59 73 58 79 92 82 57 74 59 73 90 89 75 98 100 99 60 70 49 72 96 100 46 48 46 48 95 101 45 88 45 88 94 102 97 103 111 26 21 25 60 70 21 25 102 104 76 81 76 81 102 104 40 41 40 41 102 104 36 37 21 25 15 20 36 37 15 20 25 23 36 37 224 105 225 106 103 107 103 107 104 108 105 109 105 109 106 110 107 111 107 111 108 112 109 113 109 113 110 114 234 115 103 107 105 109 109 113 224 105 103 107 234 115 15 20 21 25 9 19 16 27 20 24 69 76 49 72 69 76 111 26 98 71 114 116 96 100 116 117 95 101 112 118 113 119 115 120 75 98 114 116 98 71 115 120 117 121 120 122 118 123 119 124 125 125 118 123 124 126 125 125 128 127 128 127 129 128 135 129 135 129 136 130 141 131 149 132 141 131 155 11 144 133 141 131 148 134 135 129 140 135 128 127 118 123 123 136 117 121 117 121 122 137 121 138 121 138 122 137 126 139 126 139 132 140 127 141 132 140 139 142 131 143 132 140 142 144 139 142 137 145 236 146 138 147 126 139 133 148 137 145 126 139 122 137 130 149 123 136 130 149 122 137 149 132 155 11 152 150 149 132 152 150 148 134 145 151 142 144 151 152 145 151 139 142 142 144 152 150 157 33 150 153 145 151 151 152 148 134 143 154 151 152 147 155 147 155 146 156 140 135 143 154 140 135 135 129 143 154 147 155 140 135 135 129 148 134 143 154 135 129 144 133 148 134 153 157 164 158 160 159 162 160 153 157 161 161 164 158 153 157 162 160 163 162 147 155 165 163 145 151 152 150 139 142 156 44 154 45 150 153 139 142 141 131 136 130 139 142 150 153 141 131 131 143 136 130 129 128 131 143 139 142 136 130 127 141 131 143 119 124 121 138 127 141 119 124 125 125 131 143 129 128 121 138 119 124 120 122 168 164 169 165 167 166 176 167 177 168 168 164 188 169 189 170 176 167 201 171 202 172 188 169 201 171 199 173 206 56 202 172 201 171 206 56 187 174 204 175 205 176 184 177 198 178 200 179 175 180 174 181 168 164 173 182 175 180 168 164 168 164 174 181 185 183 168 164 167 166 172 184 186 185 183 186 184 177 184 177 168 164 185 183 201 171 188 169 199 173 176 167 187 174 188 169 176 167 168 164 187 174 181 187 170 188 219 189 170 188 178 190 180 191 192 192 178 190 170 188 190 193 191 194 193 195 170 188 180 191 179 196 209 197 213 198 197 199 214 200 208 201 189 170 153 157 159 202 147 155 189 170 212 203 214 200 189 170 202 172 212 203 177 168 189 170 197 199 169 165 177 168 171 204 169 165 171 204 166 205 185 183 186 185 184 177 213 198 211 206 197 199 192 192 170 188 190 193 193 195 192 192 190 193 205 176 140 135 146 156 128 127 140 135 205 176 128 127 205 176 204 175 128 127 204 175 124 126 124 126 134 207 200 179 124 126 200 179 198 178 198 178 123 136 118 123 117 121 123 136 122 137 147 155 202 172 146 156 153 157 158 208 159 202 153 157 160 159 158 208 147 155 210 209 202 172 199 173 146 156 206 56 205 176 146 156 199 173 187 174 184 177 134 207 184 177 200 179 134 207 194 210 195 211 123 136 195 211 203 212 123 136 183 186 123 136 184 177 190 193 123 136 191 194 123 136 183 186 194 210 184 177 123 136 198 178 190 193 133 148 130 149 203 212 191 194 123 136 179 196 172 184 170 188 172 184 167 166 170 188 190 193 130 149 123 136 146 156 202 172 206 56 197 199 189 170 207 213 189 170 208 201 207 213 147 155 163 162 210 209 207 213 209 197 197 199 172 184 207 213 208 201 214 200 175 180 173 182 212 203 174 181 175 180 210 209 185 183 174 181 163 162 186 185 185 183 186 185 163 162 183 186 183 186 165 163 194 210 194 210 159 202 195 211 195 211 158 208 160 159 164 158 191 194 203 212 162 160 193 195 191 194 161 161 192 192 162 160 211 206 178 190 161 161 207 213 172 184 209 197 180 191 213 198 179 196 178 190 211 206 180 191 196 214 181 187 221 215 170 188 167 166 217 216 167 166 166 205 216 217 166 205 171 204 218 218 236 146 181 187 138 147 138 147 197 199 223 219 197 199 211 206 161 161 161 161 153 157 223 219 138 147 223 219 153 157 132 140 153 157 142 144 224 105 226 220 225 106 226 220 228 221 227 222 228 221 230 223 229 224 230 223 232 225 231 226 232 225 234 115 233 227 226 220 232 225 228 221 224 105 234 115 226 220 132 140 126 139 138 147 133 148 190 193 137 145 170 188 181 187 236 146 219 189 217 216 239 116 241 117 237 118 216 217 238 228 196 214 240 229 239 116 240 229 219 189 3 15 0 0 2 2 8 5 2 2 7 3 11 4 12 7 8 5 18 6 19 46 12 7 19 46 18 6 24 9 155 11 154 45 24 9 31 12 32 10 24 9 3 15 4 17 5 16 5 16 4 17 9 19 10 18 14 21 15 20 5 16 9 19 13 28 35 29 157 33 155 11 31 12 28 30 35 29 33 32 156 44 157 33 31 12 26 34 34 31 30 35 36 37 34 31 22 22 33 32 35 29 33 32 24 9 154 45 2 2 8 5 14 21 46 48 45 88 48 49 47 47 48 49 56 51 55 50 56 51 68 53 67 52 68 53 81 55 83 90 66 58 84 59 46 48 47 47 51 67 67 52 78 57 66 58 66 58 63 60 47 47 98 71 96 100 49 72 30 35 44 43 38 85 91 86 89 93 81 55 68 53 56 51 76 81 50 87 61 87 56 51 7 3 17 91 83 90 79 61 7 3 77 62 63 60 66 58 17 91 86 97 51 67 87 84 54 63 93 83 52 65 53 64 91 86 54 63 64 66 89 93 53 64 65 68 42 42 64 66 62 69 44 43 42 42 73 94 38 85 44 43 74 95 37 92 38 85 37 92 74 95 39 38 70 78 43 39 82 96 72 77 41 40 70 78 41 40 72 77 71 75 40 41 71 75 57 74 88 80 58 79 51 67 58 79 88 80 92 82 59 73 92 82 90 89 100 99 98 71 60 70 96 100 95 101 46 48 95 101 116 117 45 88 116 117 94 102 45 88 50 87 45 88 97 103 21 25 75 98 60 70 75 98 21 25 113 119 21 25 76 81 113 119 90 89 76 81 40 41 102 104 21 25 36 37 25 23 34 31 36 37 225 106 104 108 103 107 104 108 106 110 105 109 106 110 108 112 107 111 108 112 110 114 109 113 110 114 235 230 234 115 105 109 107 111 109 113 103 107 109 113 234 115 21 25 20 24 9 19 20 24 111 26 69 76 60 70 49 72 111 26 114 116 112 118 96 100 95 101 96 100 112 118 115 120 100 99 75 98 98 71 100 99 115 120 120 122 119 124 118 123 125 125 124 126 118 123 125 125 129 128 128 127 129 128 136 130 135 129 144 133 135 129 141 131 141 131 154 45 155 11 141 131 149 132 148 134 120 122 117 121 121 138 127 141 121 138 126 139 132 140 131 143 127 141 133 148 126 139 130 149 155 11 157 33 152 150 152 150 145 151 148 134 157 33 156 44 150 153 151 152 143 154 148 134 151 152 153 157 147 155 152 150 150 153 139 142 154 45 141 131 150 153 131 143 125 125 119 124 169 165 166 205 167 166 177 168 169 165 168 164 189 170 177 168 176 167 202 172 189 170 188 169 199 173 187 174 205 176 173 182 168 164 172 184 187 174 199 173 188 169 168 164 184 177 187 174 170 188 217 216 219 189 159 202 165 163 147 155 202 172 210 209 212 203 182 204 177 168 197 199 177 168 182 204 171 204 204 175 134 207 124 126 118 123 124 126 198 178 204 175 187 174 134 207 173 182 172 184 208 201 208 201 214 200 173 182 214 200 212 203 175 180 212 203 210 209 174 181 210 209 163 162 185 183 163 162 165 163 183 186 165 163 159 202 194 210 159 202 158 208 195 211 203 212 195 211 160 159 160 159 164 158 203 212 164 158 162 160 191 194 192 192 193 195 162 160 178 190 192 192 161 161 172 184 179 196 209 197 213 198 209 197 179 196 211 206 213 198 180 191 181 187 219 189 221 215 167 166 216 217 217 216 166 205 215 231 241 117 216 217 166 205 241 117 215 231 166 205 218 218 181 187 196 214 138 147 196 214 238 228 138 147 238 228 197 199 138 147 223 219 197 199 161 161 132 140 138 147 153 157 153 157 151 152 142 144 226 220 227 222 225 106 228 221 229 224 227 222 230 223 231 226 229 224 232 225 233 227 231 226 234 115 235 230 233 227 232 225 230 223 228 221 234 115 232 225 226 220 126 139 137 145 138 147 190 193 236 146 137 145 190 193 170 188 236 146 217 216 237 118 239 116 237 118 217 216 216 217 196 214 221 215 240 229 240 229 221 215 219 189</p>
        </polylist>
        <polylist material="Metall_goeldlich_002_002-material" count="24">
          <input semantic="VERTEX" source="#Cylinder_020-mesh-vertices" offset="0"/>
          <input semantic="NORMAL" source="#Cylinder_020-mesh-normals" offset="1"/>
          <vcount>3 3 3 3 3 3 3 3 3 3 3 3 3 3 3 3 3 3 3 3 3 3 3 3 </vcount>
          <p>61 87 99 232 101 233 76 81 101 233 113 119 94 102 116 117 97 103 99 232 114 116 101 233 114 116 99 232 112 118 50 87 97 103 99 232 182 204 197 199 222 234 197 199 238 228 222 234 215 231 218 218 241 117 220 235 222 234 239 116 239 116 237 118 220 235 171 204 182 204 220 235 76 81 61 87 101 233 101 233 115 120 113 119 116 117 112 118 97 103 114 116 115 120 101 233 99 232 97 103 112 118 61 87 50 87 99 232 220 235 182 204 222 234 238 228 240 229 222 234 218 218 237 118 241 117 222 234 240 229 239 116 237 118 218 218 220 235 218 218 171 204 220 235</p>
        </polylist>
      </mesh>
    </geometry>
  </library_geometries>
  <library_controllers/>
  <library_visual_scenes>
    <visual_scene id="Scene" name="Scene">
      <node id="VIS_hollie_right_hand_z" name="VIS_hollie_right_hand_z" type="NODE">
        <instance_geometry url="#Cylinder_020-mesh" name="VIS_hollie_right_hand_z">
          <bind_material>
            <technique_common>
              <instance_material symbol="Metall_Daumen_002_002-material" target="#Metall_Daumen_002_002-material"/>
              <instance_material symbol="Metall_goeldlich_002_002-material" target="#Metall_goeldlich_002_002-material"/>
            </technique_common>
          </bind_material>
        </instance_geometry>
      </node>
    </visual_scene>
  </library_visual_scenes>
  <scene>
    <instance_visual_scene url="#Scene"/>
  </scene>
</COLLADA>