<?xml version="1.0" encoding="utf-8"?>
<COLLADA xmlns="http://www.collada.org/2005/11/COLLADASchema" version="1.4.1">
  <asset>
    <contributor>
      <author>Blender User</author>
      <authoring_tool>Blender 2.78.0 commit date:2017-02-24, commit time:14:33, hash:e92f2352830</authoring_tool>
    </contributor>
    <created>2017-07-14T10:06:20</created>
    <modified>2017-07-14T10:06:20</modified>
    <unit name="meter" meter="1"/>
    <up_axis>Z_UP</up_axis>
  </asset>
  <library_images/>
  <library_effects>
    <effect id="Kunststoff_druckteile_006_002-effect">
      <profile_COMMON>
        <technique sid="common">
          <phong>
            <emission>
              <color sid="emission">0 0 0 1</color>
            </emission>
            <ambient>
              <color sid="ambient">0 0 0 1</color>
            </ambient>
            <diffuse>
              <color sid="diffuse">0.5 0.5 0.5 1</color>
            </diffuse>
            <specular>
              <color sid="specular">0.5 0.5 0.5 1</color>
            </specular>
            <shininess>
              <float sid="shininess">50</float>
            </shininess>
            <index_of_refraction>
              <float sid="index_of_refraction">1</float>
            </index_of_refraction>
          </phong>
        </technique>
      </profile_COMMON>
    </effect>
    <effect id="Gummi_010_002-effect">
      <profile_COMMON>
        <technique sid="common">
          <phong>
            <emission>
              <color sid="emission">0 0 0 1</color>
            </emission>
            <ambient>
              <color sid="ambient">0 0 0 1</color>
            </ambient>
            <diffuse>
              <color sid="diffuse">0.1 0.1 0.1 1</color>
            </diffuse>
            <specular>
              <color sid="specular">0.025 0.025 0.025 1</color>
            </specular>
            <shininess>
              <float sid="shininess">50</float>
            </shininess>
            <index_of_refraction>
              <float sid="index_of_refraction">1</float>
            </index_of_refraction>
          </phong>
        </technique>
      </profile_COMMON>
    </effect>
  </library_effects>
  <library_materials>
    <material id="Kunststoff_druckteile_006_002-material" name="Kunststoff_druckteile_006_002">
      <instance_effect url="#Kunststoff_druckteile_006_002-effect"/>
    </material>
    <material id="Gummi_010_002-material" name="Gummi_010_002">
      <instance_effect url="#Gummi_010_002-effect"/>
    </material>
  </library_materials>
  <library_geometries>
    <geometry id="Circle_038-mesh" name="Circle.038">
      <mesh>
        <source id="Circle_038-mesh-positions">
          <float_array id="Circle_038-mesh-positions-array" count="885">0.003518462 4.499e-6 0.005999922 0.003169178 0.001534879 0.005999922 0.00219047 0.002762138 0.005999922 7.76243e-4 0.003443241 0.005999922 -7.93453e-4 0.003443241 0.005999922 -0.002207696 0.002762138 0.005999922 -0.003186345 0.001534879 0.005999922 -0.003535628 4.49853e-6 0.005999922 -0.003186345 -0.001525878 0.005999922 -0.002207696 -0.002753138 0.005999922 -7.93453e-4 -0.00343424 0.005999922 7.76244e-4 -0.00343424 0.005999922 0.00219047 -0.002753138 0.005999922 0.003169178 -0.001525878 0.005999922 0.00237751 0.00446397 0.005999922 -0.001022398 0.004429936 0.005962371 -0.002841234 0.003550887 0.00596255 -0.004097998 0.001974225 0.005964636 -0.004548013 5.66819e-6 0.005964636 -0.004098832 -0.001963794 0.005964696 -0.002832353 -0.003536522 0.005960285 -0.001015782 -0.004422664 0.005962967 8.70266e-4 -0.00445497 0.005999922 0.007988452 -0.004503011 0.005999922 9.37816e-4 -0.005389392 0.005990505 0.004813313 -0.005389392 0.005999922 0.002605676 0.007184445 0.001999974 -0.001612424 0.007038414 0.002003431 -0.00451374 0.005638718 0.002004265 -0.006518602 0.003134608 0.002004742 -0.007234334 1.04517e-5 0.002004444 -0.006513893 -0.003133594 0.002003908 -0.004508376 -0.005642592 0.002003192 -0.001615941 -0.007026135 0.002002239 -1.20153e-5 -0.007175445 0.001999974 0.00601387 -1.31272e-4 0.006028294 0.00474739 -0.003647089 0.005999922 0.004813253 -0.004423141 0.005999922 0.007747054 -0.005230188 0.005831956 0.003547251 0.003656387 0.005999922 -2.77287e-7 -0.006395339 0.004013597 -0.001417875 -0.006195604 0.003892302 -0.003979861 -0.004973232 0.003890872 -0.005764484 -0.002760648 0.003895819 -0.006385505 -3.05248e-6 0.003907144 -0.005764186 0.002769052 0.00389558 -0.00398004 0.004981875 0.003890931 -0.001418352 0.006204783 0.003892779 0.001998484 0.006358921 0.003986179 0.004456043 0.003670156 0.005999922 0.005960047 0.004934191 0.005999922 9.35985e-4 -0.006861269 0.004275381 0.004813313 -0.006861269 0.004280328 0.007699549 -0.006682574 0.004172921 9.35246e-4 -0.007819235 0.002081215 0.004813313 -0.007815301 0.002077758 0.00769782 -0.007613837 0.002041459 1.82162e-4 -0.005785763 0.005567371 4.54471e-5 -0.006860196 0.004274666 4.54232e-5 -0.007819414 0.002077102 5.96094e-5 -0.004989445 0.00559163 0.009731531 -0.004493296 0.005990803 0.007999241 -0.006148695 0.004319429 0.008000671 -0.007258176 0.002098441 0.009736776 -0.006507635 0.003694057 0.009731292 -0.007184982 0.002075433 0.01494562 -0.006476163 0.003711938 0.01640856 -0.006474256 0.003453254 0.01765167 -0.006472647 0.002605438 0.0183947 -0.00646466 0.001568138 0.01346665 -0.004551231 0.005935609 0.01711893 -0.004522264 0.005545556 0.01920288 -0.004573345 0.004136204 0.02044612 -0.004519641 0.002396643 0.02182072 -0.001898884 0.00238806 0.02203863 8.38799e-4 0.002419352 0.02133947 0.003161907 0.0024001 0.0192644 0.005652904 0.002458572 0.01435387 0.007457435 0.002450644 0.008162438 0.008197128 0.002433896 0.01348197 -0.002000808 0.007716298 0.01703584 -0.001891493 0.006934285 0.01373791 4.02388e-4 0.007940471 0.01728993 4.07012e-4 0.00710231 0.01362782 0.002482295 0.007578432 0.01714116 0.002329409 0.00678265 0.0139994 0.005060851 0.005831122 0.01754677 0.004631757 0.005276024 0.01463633 0.006434619 0.004371881 0.0182538 0.005405366 0.004075109 0.01346498 -0.004478037 0.006615757 0.007988512 -0.004439353 0.006665885 0.004883468 -0.004412829 0.006590425 0.00855416 -4.23238e-4 0.008570492 0.00973159 -0.004438757 0.006664931 0.008338391 -0.001343667 0.008452892 0.006987571 0.004981398 0.007002711 0.008294165 0.002269268 0.008295834 0.006010353 0.005898952 0.006026685 0.01172637 -0.002207338 0.007951676 0.0117008 -3.86184e-4 0.008262932 0.00717467 0.007002174 0.005063951 0.01150381 0.002315521 0.007973551 0.0110144 0.004779517 0.006710469 0.01111936 0.007979512 0.002433478 0.003594636 0.003798246 0.004281699 0.01100695 0.006872713 0.004756033 0.002449333 0.004512608 0.004280507 0.004411935 0.003798305 0.004280149 0.005960047 0.004934191 0.00424993 0.00599277 0.005894303 0.004270732 0.002948224 0.007445335 0.002023339 0.002989172 0.007392942 0.003992438 0.004082441 0.007734715 0.002023518 0.004083514 0.007651805 0.003989338 0.005291521 0.007261693 0.002023756 0.005245923 0.007200419 0.003959536 0.006011843 0.006092727 0.001999974 0.003986239 -5.0939e-5 0.002999961 0.00356996 0.00172913 0.003001391 0.002461612 0.003116786 0.003001928 8.59202e-4 0.003884196 0.003002524 -9.18714e-4 0.003877222 0.00300318 -0.002518951 0.003095924 0.003003656 -0.003620803 0.001694321 0.003003895 -0.004001498 5.96162e-5 0.003003895 -0.003586947 -0.001720547 0.003003597 -0.002478301 -0.003108143 0.00300306 -8.75743e-4 -0.003875315 0.003002464 9.0207e-4 -0.003868043 0.003001809 0.002502024 -0.003086686 0.003001332 0.003603577 -0.001685261 0.003001093 0.00317794 -0.005194962 0.001999974 0.001680552 -0.005194962 0.001999974 0.01993101 -8.69635e-4 0.005525588 0.02001261 0.001413941 0.005366206 0.01932203 0.003858625 0.00476545 0.003518462 4.499e-6 -0.005999922 0.003169178 0.001534879 -0.005999922 0.00219047 0.002762138 -0.005999922 7.76243e-4 0.003443241 -0.005999922 -7.93453e-4 0.003443241 -0.005999922 -0.002207696 0.002762138 -0.005999922 -0.003186345 0.001534879 -0.005999922 -0.003535628 4.49853e-6 -0.005999922 -0.003186345 -0.001525878 -0.005999922 -0.002207696 -0.002753138 -0.005999922 -7.93453e-4 -0.00343424 -0.005999922 7.76244e-4 -0.00343424 -0.005999922 0.00219047 -0.002753138 -0.005999922 0.003169178 -0.001525878 -0.005999922 0.00237751 0.00446397 -0.005999922 -0.001022398 0.004429936 -0.005962371 -0.002841234 0.003550887 -0.00596255 -0.004097998 0.001974225 -0.005964636 -0.004548013 5.66819e-6 -0.005964636 -0.004098832 -0.001963794 -0.005964696 -0.002832353 -0.003536522 -0.005960285 -0.001015782 -0.004422664 -0.005962967 8.70266e-4 -0.00445497 -0.005999922 0.007988452 -0.004503011 -0.005999922 9.37816e-4 -0.005389392 -0.005990505 0.004813313 -0.005389392 -0.005999922 0.002605676 0.007184445 -0.001999974 -0.001612424 0.007038414 -0.002003431 -0.00451374 0.005638718 -0.002004265 -0.006518602 0.003134608 -0.002004742 -0.007234334 1.04517e-5 -0.002004444 -0.006513893 -0.003133594 -0.002003908 -0.004508376 -0.005642592 -0.002003192 -0.001615941 -0.007026135 -0.002002239 -1.20153e-5 -0.007175445 -0.001999974 0.00601387 -1.31272e-4 -0.006028294 0.00474739 -0.003647089 -0.005999922 0.004813253 -0.004423141 -0.005999922 0.007747054 -0.005230188 -0.005831956 0.003547251 0.003656387 -0.005999922 -2.77287e-7 -0.006395339 -0.004013597 -0.001417875 -0.006195604 -0.003892302 -0.003979861 -0.004973232 -0.003890872 -0.005764484 -0.002760648 -0.003895819 -0.006385505 -3.05248e-6 -0.003907144 -0.005764186 0.002769052 -0.00389558 -0.00398004 0.004981875 -0.003890931 -0.001418352 0.006204783 -0.003892779 0.001998484 0.006358921 -0.003986179 0.004456043 0.003670156 -0.005999922 0.005960047 0.004934191 -0.005999922 9.35985e-4 -0.006861269 -0.004275381 0.004813313 -0.006861269 -0.004280328 0.007699549 -0.006682574 -0.004172921 9.35246e-4 -0.007819235 -0.002081215 0.004813313 -0.007815301 -0.002077758 0.00769782 -0.007613837 -0.002041459 0.003427565 -0.008091151 0 0.004813313 -0.008089363 0 0.007708966 -0.007877767 0 1.82162e-4 -0.005785763 -0.005567371 4.54471e-5 -0.006860196 -0.004274666 4.54232e-5 -0.007819414 -0.002077102 5.96094e-5 -0.004989445 -0.00559163 0.009731531 -0.004493296 -0.005990803 0.007999241 -0.006148695 -0.004319429 0.008000671 -0.007258176 -0.002098441 0.007984697 -0.00756222 0 0.009736776 -0.006507635 -0.003694057 0.009731292 -0.007184982 -0.002075433 0.00973159 -0.007482945 0 0.00974971 -0.006539225 0 0.01494562 -0.006476163 -0.003711938 0.0138148 -0.005461454 0 0.01640856 -0.006474256 -0.003453254 0.01683485 -0.006110131 0 0.01765167 -0.006472647 -0.002605438 0.01765376 -0.006472647 0 0.0183947 -0.00646466 -0.001568138 0.01871508 -0.006471216 0 0.01346665 -0.004551231 -0.005935609 0.01711893 -0.004522264 -0.005545556 0.01920288 -0.004573345 -0.004136204 0.02044612 -0.004519641 -0.002396643 0.02093011 -0.004545927 0 0.02182072 -0.001898884 -0.00238806 0.02223753 -0.001894474 0 0.02203863 8.38799e-4 -0.002419352 0.02244263 8.63683e-4 0 0.02133947 0.003161907 -0.0024001 0.02166479 0.003436744 0 0.0192644 0.005652904 -0.002458572 0.01953411 0.005987226 0 0.01435387 0.007457435 -0.002450644 0.01443195 0.007843673 0 0.008162438 0.008197128 -0.002433896 0.008741915 0.008586764 0 0.01348197 -0.002000808 -0.007716298 0.01703584 -0.001891493 -0.006934285 0.01373791 4.02388e-4 -0.007940471 0.01728993 4.07012e-4 -0.00710231 0.01362782 0.002482295 -0.007578432 0.01714116 0.002329409 -0.00678265 0.0139994 0.005060851 -0.005831122 0.01754677 0.004631757 -0.005276024 0.01463633 0.006434619 -0.004371881 0.0182538 0.005405366 -0.004075109 0.01346498 -0.004478037 -0.006615757 0.007988512 -0.004439353 -0.006665885 0.004883468 -0.004412829 -0.006590425 0.00855416 -4.23238e-4 -0.008570492 0.00973159 -0.004438757 -0.006664931 0.008338391 -0.001343667 -0.008452892 0.006987571 0.004981398 -0.007002711 0.008294165 0.002269268 -0.008295834 0.006010353 0.005898952 -0.006026685 0.01172637 -0.002207338 -0.007951676 0.0117008 -3.86184e-4 -0.008262932 0.00717467 0.007002174 -0.005063951 0.01150381 0.002315521 -0.007973551 0.0110144 0.004779517 -0.006710469 0.01111936 0.007979512 -0.002433478 0.01192104 0.008244097 0 0.003594636 0.003798246 -0.004281699 0.01100695 0.006872713 -0.004756033 0.002449333 0.004512608 -0.004280507 0.004411935 0.003798305 -0.004280149 0.005960047 0.004934191 -0.00424993 0.00599277 0.005894303 -0.004270732 0.002948224 0.007445335 -0.002023339 0.002989172 0.007392942 -0.003992438 0.004082441 0.007734715 -0.002023518 0.004083514 0.007651805 -0.003989338 0.005291521 0.007261693 -0.002023756 0.005245923 0.007200419 -0.003959536 0.006011843 0.006092727 -0.001999974 0.003986239 -5.0939e-5 -0.002999961 0.006569266 0.006599724 0 0.00356996 0.00172913 -0.003001391 0.002461612 0.003116786 -0.003001928 8.59202e-4 0.003884196 -0.003002524 -9.18714e-4 0.003877222 -0.00300318 -0.002518951 0.003095924 -0.003003656 -0.003620803 0.001694321 -0.003003895 -0.004001498 5.96162e-5 -0.003003895 -0.003586947 -0.001720547 -0.003003597 -0.002478301 -0.003108143 -0.00300306 -8.75743e-4 -0.003875315 -0.003002464 9.0207e-4 -0.003868043 -0.003001809 0.002502024 -0.003086686 -0.003001332 0.003603577 -0.001685261 -0.003001093 0.00317794 -0.005194962 -0.001999974 0.00428313 -0.00550419 0 0.001680552 -0.005194962 -0.001999974 0.003248155 -0.005998313 0 0.01993101 -8.69635e-4 -0.005525588 0.02001261 0.001413941 -0.005366206 0.01932203 0.003858625 -0.00476545</float_array>
          <technique_common>
            <accessor source="#Circle_038-mesh-positions-array" count="295" stride="3">
              <param name="X" type="float"/>
              <param name="Y" type="float"/>
              <param name="Z" type="float"/>
            </accessor>
          </technique_common>
        </source>
        <source id="Circle_038-mesh-normals">
          <float_array id="Circle_038-mesh-normals-array" count="885">-0.1618429 0.6825298 0.7127132 -0.08468955 -0.07947087 0.9932332 -0.3901312 0.1181716 0.9131447 -0.1639816 -0.3670893 0.9156176 0.1531451 0.6705362 0.725898 -0.1414564 -0.4305037 0.8914351 0.4285293 0.5368137 0.7267693 -0.2930116 -0.3679964 0.8824528 0.6202743 0.2994248 0.724986 -0.4216215 -0.2051799 0.8832535 0.6905746 0.001373291 0.7232599 -0.4681962 1.52596e-4 0.8836245 0.6212465 -0.3008877 0.7235465 -0.4218099 0.2036871 0.8835089 0.4292203 -0.5381429 0.7253773 -0.2928916 0.3694639 0.8818793 0.1486303 -0.6729564 0.7245955 -0.1128004 0.4590452 0.8812229 -0.1565345 -0.6853764 0.7111654 0.3322376 0.5417554 0.7720877 -0.6333456 -0.3057773 0.7108963 -0.1963314 0.5562164 0.8075132 -0.438287 -0.5495297 0.7112818 -0.6372439 0.3051323 0.7076825 -0.4149711 0.07324635 0.9068815 -0.7088438 0.001220762 0.7053645 -0.4383841 0.5502691 0.7106499 -0.7624344 -0.5392769 0.3575952 -0.2655182 -0.8047949 0.5308533 -0.2290467 -0.7513833 -0.6188383 -0.5244419 -0.6631823 0.5339944 -0.4943267 -0.6255001 -0.6036481 -0.7622146 -0.368335 0.5323143 -0.8459082 -8.85065e-4 0.5333278 -0.7163112 -0.3456276 -0.6061682 -0.7624718 0.3688907 0.5315603 -0.716439 0.3462101 -0.6056846 -0.5252624 0.6643984 0.5316713 -0.2045409 0.8203915 0.5339671 -0.4957277 0.6233296 -0.6047433 -0.07507669 0.7045617 0.7056604 -0.3631495 0.5475168 -0.7538886 0.1687396 0.5707972 0.8035656 -0.8179194 0.2247142 0.5296333 -0.29512 -0.297653 0.9079136 0.02328592 -0.4286379 0.9031763 0.1153643 -0.8550088 0.5056195 -0.3295825 -0.4841954 0.8105123 -0.001190245 -0.8471205 0.5313997 0.4835261 -0.5050122 0.7149582 0.03692823 -0.8469086 0.5304547 -0.2495855 -0.8664078 -0.4324867 0.4634645 -0.7571507 0.4603515 0.03610408 -0.9631521 0.2665233 0.03646981 -0.9993348 0 0.4251945 -0.872668 0.2401256 -0.53723 -0.7360932 -0.4117654 -0.6499704 -0.6384035 0.4122858 -0.5639923 -0.4776538 0.6736168 -0.3623903 -0.1935251 -0.9117135 0.4356279 -0.9001269 0 0.4269937 -0.8586264 0.2836146 0.4348401 -0.7077139 0.5568261 0.06192308 -0.8993654 0.4327904 0.4500923 -0.8929821 0 0.6832572 -0.6999205 0.2080168 0.6866146 -0.7270216 0 0.7395174 -0.6731376 0 0.06692802 -0.9551208 0.2885566 0.08060032 -0.9967465 0 0.09680682 -0.9450877 0.3121502 -0.3141304 -0.9493799 0 -0.1604087 -0.9870508 0 0.2725349 -0.921339 0.2772349 0.362991 -0.9181895 0.1586369 0.7413809 -0.5802987 0.3370578 0.3885017 -0.921448 0 0.8006771 -0.5990963 0 0.3166351 -0.5979597 0.7363331 0.01764029 -0.9181507 0.3958388 -0.001098632 -0.9214958 0.3883869 -0.6201021 -0.5431616 0.566082 -0.6918741 0.5096735 0.511413 -0.712812 0.3821339 0.5881096 -0.2294409 0.7281805 0.6458406 0.6481758 0.5022614 0.572365 -0.3441663 0.7061866 -0.6187487 -0.3806986 0.6719756 0.6352302 0.05755889 0.7684391 0.6373293 0.04641884 0.7799347 -0.6241371 0.5048481 0.6065075 -0.6142289 0.1977364 0.7315547 0.6524784 0.4999406 0.615274 0.6095058 -0.6995328 0.5425415 0.4650835 -0.8748915 0.3371447 -0.3477043 -0.5040206 0.598019 -0.6231666 -0.2078965 0.7257762 -0.6557652 0.1576324 0.7046612 -0.6918125 0.4488469 0.5655527 -0.691872 0.7198816 -0.002319395 -0.6940931 0.6509802 -0.3114206 -0.692273 0.4535515 -0.56095 -0.6925505 0.165934 -0.7013969 -0.6931872 -0.1485669 -0.6963236 -0.7021833 -0.4719151 -0.558528 -0.6821604 -0.9111441 0.09064131 -0.401996 -0.7959378 0.001434385 -0.6053767 0.6500063 0.3153895 -0.6913909 -0.1906843 0.7713438 -0.6071807 -0.5300306 0.6717933 -0.5174567 -0.8254615 0.5644586 0 -0.4231454 0.6897591 -0.5875206 -0.783343 0.6215898 0 -0.4419172 0.4431074 -0.7799777 -0.3974524 -0.9176228 0 -0.6399321 -0.3078193 -0.704084 -0.1618429 0.6825298 -0.7127132 -0.4383841 0.5502691 -0.7106499 -0.3901312 0.1181716 -0.9131447 -0.29512 -0.297653 -0.9079136 -0.1639816 -0.3670893 -0.9156176 0.1531451 0.6705362 -0.725898 -0.1414564 -0.4305037 -0.8914351 0.4285293 0.5368137 -0.7267693 0.6202743 0.2994248 -0.724986 -0.4216215 -0.2051799 -0.8832535 0.6905746 0.001373291 -0.7232599 -0.4681962 1.52596e-4 -0.8836245 0.6212465 -0.3008877 -0.7235465 -0.4218099 0.2036871 -0.8835089 0.4292203 -0.5381429 -0.7253773 0.1486303 -0.6729564 -0.7245955 -0.2928916 0.3694639 -0.8818793 -0.1565345 -0.6853764 -0.7111654 0.3322376 0.5417554 -0.7720877 -0.6333456 -0.3057773 -0.7108963 -0.438287 -0.5495297 -0.7112818 -0.1963314 0.5562164 -0.8075132 -0.6372439 0.3051323 -0.7076825 -0.7088438 0.001220762 -0.7053645 -0.4149711 0.07324635 -0.9068815 -0.7624344 -0.5392769 -0.3575952 -0.3623903 -0.1935251 0.9117135 -0.2290467 -0.7513833 0.6188383 -0.2655182 -0.8047949 -0.5308533 -0.4943267 -0.6255001 0.6036481 -0.5244419 -0.6631823 -0.5339944 -0.7622146 -0.368335 -0.5323143 -0.7163112 -0.3456276 0.6061682 -0.8459082 -8.85065e-4 -0.5333278 -0.7959378 0.001434385 0.6053767 -0.716439 0.3462101 0.6056846 -0.7624718 0.3688907 -0.5315603 -0.5252624 0.6643984 -0.5316713 -0.4957277 0.6233296 0.6047433 -0.2045409 0.8203915 -0.5339671 -0.1906843 0.7713438 0.6071807 -0.3631495 0.5475168 0.7538886 0.1687396 0.5707972 -0.8035656 0.1153643 -0.8550088 -0.5056195 0.02328592 -0.4286379 -0.9031763 -0.3295825 -0.4841954 -0.8105123 -0.2930116 -0.3679964 -0.8824528 -0.1128004 0.4590452 -0.8812229 0.03692823 -0.8469086 -0.5304547 -0.001190245 -0.8471205 -0.5313997 0.4835261 -0.5050122 -0.7149582 0.4634645 -0.7571507 -0.4603515 0.03610408 -0.9631521 -0.2665233 -0.2495855 -0.8664078 0.4324867 0.4251945 -0.872668 -0.2401256 -0.53723 -0.7360932 0.4117654 -0.6499704 -0.6384035 -0.4122858 -0.5639923 -0.4776538 -0.6736168 -0.08468955 -0.07947087 -0.9932332 0.4269937 -0.8586264 -0.2836146 0.4348401 -0.7077139 -0.5568261 -0.001098632 -0.9214958 -0.3883869 0.06192308 -0.8993654 -0.4327904 0.6832572 -0.6999205 -0.2080168 0.06692802 -0.9551208 -0.2885566 0.09680682 -0.9450877 -0.3121502 0.2725349 -0.921339 -0.2772349 0.362991 -0.9181895 -0.1586369 0.5795253 -0.5703086 -0.5821499 0.7413809 -0.5802987 -0.3370578 0.3166351 -0.5979597 -0.7363331 0.01764029 -0.9181507 -0.3958388 -0.6201021 -0.5431616 -0.566082 -0.8179194 0.2247142 -0.5296333 -0.712812 0.3821339 -0.5881096 -0.6918741 0.5096735 -0.511413 -0.2294409 0.7281805 -0.6458406 0.1977364 0.7315547 -0.6524784 0.6481758 0.5022614 -0.572365 -0.07507669 0.7045617 -0.7056604 -0.3441663 0.7061866 0.6187487 0.04641884 0.7799347 0.6241371 0.05755889 0.7684391 -0.6373293 0.5048481 0.6065075 0.6142289 -0.5300306 0.6717933 0.5174567 -0.6995328 0.5425415 -0.4650835 0.4999406 0.615274 -0.6095058 -0.8748915 0.3371447 0.3477043 -0.5040206 0.598019 0.6231666 -0.2078965 0.7257762 0.6557652 0.1576324 0.7046612 0.6918125 0.4488469 0.5655527 0.691872 0.6500063 0.3153895 0.6913909 0.7198816 -0.002319395 0.6940931 0.6509802 -0.3114206 0.692273 0.4535515 -0.56095 0.6925505 0.165934 -0.7013969 0.6931872 -0.1485669 -0.6963236 0.7021833 -0.4719151 -0.558528 0.6821604 -0.6399321 -0.3078193 0.704084 -0.9111441 0.09064131 0.401996 -0.4231454 0.6897591 0.5875206 -0.4419172 0.4431074 0.7799777 -0.8591741 0.5116835 0 0.5795253 -0.5703086 0.5821499 -0.3806986 0.6719756 -0.6352302 0.1023315 -0.796587 0.5957998 0.9645509 -0.2638972 0 0.8935356 -0.2619752 0.3646411 0.9942918 0.1066958 0 0.924396 0.09726464 0.3688246 0.8779679 0.4787195 0 0.8321972 0.423118 0.3583563 0.5777803 0.8161924 0 0.5638374 0.7639501 0.3137957 0.2342677 0.9254734 0.2976872 0.1080365 0.9506607 0.2908136 0.1297984 0.9915404 0 -0.3549736 0.9205937 0.1627916 0.1927275 -0.2570921 0.9469741 0.3480733 -0.2797099 0.8947668 0.3891738 0.05334657 0.9196184 0.1784455 0.04477161 0.9829307 0.1684952 0.3614667 0.917034 0.3582953 0.3248767 0.8752598 0.3162688 0.600401 0.7345017 0.180157 0.6137179 0.7686962 0.4218941 0.7568396 0.4991986 0.2244727 0.7886304 0.5724284 -0.01254308 -0.8411827 0.5406056 -0.2660944 0.01754838 0.9637873 -0.2930431 0.1943448 0.9361388 -0.002441525 -0.8437634 0.53671 -0.2329514 -0.1985259 0.952009 -0.3190146 0.4281504 0.8455276 0.09354037 -0.3332663 0.9381811 0.1415185 -0.03497523 0.9893176 0.1325154 0.3037906 0.9434782 0.1258023 0.578654 0.8058123 0.25062 0.9680855 0 0.1093512 0.7990606 0.5912231 -0.2631044 0.8331387 0.4864731 -0.2593529 0.9657827 0 0.6765496 -0.1486895 0.7212297 0.6787201 0.1832687 0.7111622 0.5984847 0.4708833 0.6481398 0.1023315 -0.796587 -0.5957998 0.8935356 -0.2619752 -0.3646411 0.924396 0.09726464 -0.3688246 0.8321972 0.423118 -0.3583563 0.5638374 0.7639501 -0.3137957 0.2342677 0.9254734 -0.2976872 0.1080365 0.9506607 -0.2908136 -0.3549736 0.9205937 -0.1627916 0.1927275 -0.2570921 -0.9469741 0.1784455 0.04477161 -0.9829307 0.3891738 0.05334657 -0.9196184 0.1684952 0.3614667 -0.917034 0.180157 0.6137179 -0.7686962 0.3162688 0.600401 -0.7345017 0.2244727 0.7886304 -0.5724284 0.4218941 0.7568396 -0.4991986 -0.01254308 -0.8411827 -0.5406056 -0.2930431 0.1943448 -0.9361388 -0.2660944 0.01754838 -0.9637873 -0.002441525 -0.8437634 -0.53671 -0.2329514 -0.1985259 -0.952009 -0.3190146 0.4281504 -0.8455276 0.09354037 -0.3332663 -0.9381811 0.1415185 -0.03497523 -0.9893176 0.1258023 0.578654 -0.8058123 0.1325154 0.3037906 -0.9434782 0.1093512 0.7990606 -0.5912231 -0.2631044 0.8331387 -0.4864731 0.3582953 0.3248767 -0.8752598 0.6787201 0.1832687 -0.7111622 0.6765496 -0.1486895 -0.7212297 0.5984847 0.4708833 -0.6481398 0.3480733 -0.2797099 -0.8947668</float_array>
          <technique_common>
            <accessor source="#Circle_038-mesh-normals-array" count="295" stride="3">
              <param name="X" type="float"/>
              <param name="Y" type="float"/>
              <param name="Z" type="float"/>
            </accessor>
          </technique_common>
        </source>
        <vertices id="Circle_038-mesh-vertices">
          <input semantic="POSITION" source="#Circle_038-mesh-positions"/>
        </vertices>
        <polylist material="Kunststoff_druckteile_006_002-material" count="420">
          <input semantic="VERTEX" source="#Circle_038-mesh-vertices" offset="0"/>
          <input semantic="NORMAL" source="#Circle_038-mesh-normals" offset="1"/>
          <vcount>3 3 3 3 3 3 3 3 3 3 3 3 3 3 3 3 3 3 3 3 3 3 3 3 3 3 3 3 3 3 3 3 3 3 3 3 3 3 3 3 3 3 3 3 3 3 3 3 3 3 3 3 3 3 3 3 3 3 3 3 3 3 3 3 3 3 3 3 3 3 3 3 3 3 3 3 3 3 3 3 3 3 3 3 3 3 3 3 3 3 3 3 3 3 3 3 3 3 3 3 3 3 3 3 3 3 3 3 3 3 3 3 3 3 3 3 3 3 3 3 3 3 3 3 3 3 3 3 3 3 3 3 3 3 3 3 3 3 3 3 3 3 3 3 3 3 3 3 3 3 3 3 3 3 3 3 3 3 3 3 3 3 3 3 3 3 3 3 3 3 3 3 3 3 3 3 3 3 3 3 3 3 3 3 3 3 3 3 3 3 3 3 3 3 3 3 3 3 3 3 3 3 3 3 3 3 3 3 3 3 3 3 3 3 3 3 3 3 3 3 3 3 3 3 3 3 3 3 3 3 3 3 3 3 3 3 3 3 3 3 3 3 3 3 3 3 3 3 3 3 3 3 3 3 3 3 3 3 3 3 3 3 3 3 3 3 3 3 3 3 3 3 3 3 3 3 3 3 3 3 3 3 3 3 3 3 3 3 3 3 3 3 3 3 3 3 3 3 3 3 3 3 3 3 3 3 3 3 3 3 3 3 3 3 3 3 3 3 3 3 3 3 3 3 3 3 3 3 3 3 3 3 3 3 3 3 3 3 3 3 3 3 3 3 3 3 3 3 3 3 3 3 3 3 3 3 3 3 3 3 3 3 3 3 3 3 3 3 3 3 3 3 3 3 3 3 3 3 3 3 3 3 3 3 3 3 3 3 3 3 3 3 3 3 3 3 3 3 3 3 3 3 3 3 3 3 3 3 3 3 3 3 3 3 3 3 3 3 3 3 </vcount>
          <p>11 0 22 1 36 2 36 2 22 1 24 3 10 4 21 5 11 0 9 6 20 7 21 5 8 8 19 9 9 6 7 10 18 11 8 8 6 12 17 13 7 10 5 14 16 15 17 13 4 16 15 17 16 15 3 18 14 19 4 16 1 20 49 21 2 22 13 23 35 24 0 25 12 26 36 2 13 23 40 27 41 28 33 29 41 28 42 30 32 31 42 30 43 32 32 31 43 32 44 33 31 34 44 33 45 35 29 36 45 35 46 37 29 36 46 37 47 38 28 39 47 38 48 40 26 41 2 22 39 42 3 18 0 25 50 43 49 21 37 44 25 45 23 46 37 44 24 3 25 45 60 47 41 28 40 27 21 5 20 7 42 30 20 7 19 9 43 32 19 9 18 11 43 32 18 11 17 13 45 35 17 13 16 15 45 35 16 15 15 17 47 38 15 17 14 19 47 38 25 45 24 3 51 48 38 49 25 45 52 50 52 50 51 48 54 51 53 52 52 50 55 53 55 53 54 51 195 54 56 55 55 53 195 54 54 51 51 48 59 56 51 48 24 3 58 57 24 3 22 1 57 58 58 57 57 58 60 47 34 59 59 56 40 27 56 55 196 60 63 61 53 52 56 55 62 62 23 46 62 62 64 63 38 49 53 52 23 46 63 61 204 64 65 65 62 62 63 61 65 65 207 66 208 67 65 65 64 63 208 67 66 68 66 68 210 69 67 70 67 70 212 71 214 72 68 73 214 72 69 74 68 73 69 74 73 75 69 74 216 76 221 77 67 70 68 73 71 78 66 68 67 70 70 79 64 63 66 68 61 80 36 2 37 44 92 81 50 43 98 82 109 83 49 21 50 43 109 83 39 42 49 21 108 84 14 19 39 42 107 85 14 19 107 85 48 40 26 41 48 40 111 86 111 86 112 87 114 88 113 89 114 88 115 90 105 91 112 87 48 40 115 90 116 92 110 93 108 84 114 88 105 91 109 83 116 92 108 84 110 93 116 92 109 83 13 23 0 25 131 94 12 26 13 23 131 94 11 0 12 26 130 95 10 4 11 0 129 96 9 6 10 4 128 97 8 8 9 6 127 98 7 10 8 8 125 99 6 12 7 10 124 100 5 14 6 12 124 100 4 16 5 14 123 101 3 18 4 16 122 102 2 22 3 18 121 103 1 20 2 22 120 104 0 25 1 20 118 105 29 36 124 100 30 106 30 106 125 99 31 34 31 34 126 107 127 98 32 31 127 98 128 97 33 29 128 97 129 96 28 39 123 101 124 100 27 108 122 102 123 101 26 41 121 103 122 102 117 109 274 110 132 111 132 111 289 112 133 113 194 114 54 51 133 113 130 95 132 111 129 96 59 56 34 59 54 51 129 96 133 113 54 51 130 95 131 94 132 111 118 105 117 109 131 94 118 105 119 115 117 109 113 89 115 90 117 109 26 41 111 86 117 109 119 115 120 104 26 41 121 103 26 41 120 104 148 116 149 117 173 118 173 118 174 119 161 120 147 121 148 116 158 122 146 123 147 121 158 122 145 124 146 123 156 125 144 126 145 124 155 127 143 128 144 126 154 129 142 130 143 128 154 129 141 131 142 130 153 132 140 133 141 131 151 134 138 135 139 136 186 137 150 138 137 139 172 140 149 117 150 138 173 118 177 141 171 142 170 143 178 144 170 143 169 145 179 146 169 145 180 147 180 147 168 148 181 149 181 149 167 150 166 151 182 152 166 151 183 153 183 153 165 154 184 155 184 155 164 156 163 157 139 136 140 133 176 158 137 139 138 135 186 137 174 119 160 159 162 160 174 119 162 160 161 120 200 161 177 141 178 144 158 122 178 144 179 146 157 162 179 146 180 147 156 125 180 147 155 127 155 127 181 149 182 152 154 129 182 152 153 132 153 132 183 153 184 155 152 163 184 155 151 134 162 160 189 164 188 165 175 166 190 167 189 164 189 164 192 168 191 169 190 167 193 170 192 168 192 168 195 54 191 169 193 170 196 60 195 54 191 169 199 171 188 165 188 165 198 172 161 120 161 120 197 173 159 174 198 172 177 141 200 161 171 142 177 141 199 171 193 170 203 175 196 60 190 167 202 176 193 170 160 159 201 177 205 178 175 166 160 159 190 167 203 175 206 179 204 64 202 176 205 178 206 179 207 66 206 179 208 67 205 178 209 180 208 67 209 180 211 181 210 69 211 181 213 182 214 72 213 182 215 183 214 72 213 182 219 184 220 185 215 183 220 185 221 77 211 181 218 186 213 182 209 180 217 187 211 181 205 178 201 177 209 180 173 118 246 188 174 119 187 189 264 190 252 191 186 137 263 192 264 190 176 158 260 193 263 192 151 134 262 194 176 158 151 134 185 195 262 194 163 157 266 196 185 195 266 196 268 197 269 198 268 197 270 199 269 198 260 193 262 194 185 195 270 199 272 200 265 201 263 192 260 193 269 198 264 190 263 192 271 202 265 201 264 190 271 202 150 138 287 203 137 139 149 117 286 204 287 203 148 116 285 205 286 204 147 121 284 206 285 205 146 123 283 207 284 206 145 124 282 208 283 207 144 126 281 209 145 124 143 128 280 210 144 126 142 130 279 211 280 210 141 131 278 212 279 211 140 133 277 213 278 212 139 136 276 214 277 213 138 135 275 215 276 214 137 139 273 216 138 135 166 151 167 150 280 210 167 150 168 148 281 209 168 148 169 145 283 207 169 145 170 143 284 206 170 143 171 142 285 205 165 154 166 151 280 210 164 156 165 154 279 211 163 157 164 156 278 212 272 200 288 217 274 110 288 217 290 218 289 112 194 114 291 219 290 218 286 204 285 205 288 217 199 171 191 169 171 142 285 205 171 142 191 169 286 204 288 217 287 203 273 216 287 203 272 200 273 216 272 200 275 215 268 197 266 196 272 200 163 157 272 200 266 196 275 215 272 200 163 157 277 213 276 214 163 157 12 26 11 0 36 2 37 44 36 2 24 3 21 5 22 1 11 0 10 4 9 6 21 5 19 9 20 7 9 6 18 11 19 9 8 8 17 13 18 11 7 10 6 12 5 14 17 13 5 14 4 16 16 15 14 19 15 17 4 16 49 21 39 42 2 22 35 24 50 43 0 25 36 2 35 24 13 23 34 59 40 27 33 29 33 29 41 28 32 31 43 32 31 34 32 31 44 33 30 106 31 34 30 106 44 33 29 36 46 37 28 39 29 36 47 38 27 108 28 39 27 108 47 38 26 41 39 42 14 19 3 18 1 20 0 25 49 21 25 45 38 49 23 46 22 1 21 5 60 47 21 5 41 28 60 47 41 28 21 5 42 30 42 30 20 7 43 32 18 11 44 33 43 32 44 33 18 11 45 35 16 15 46 37 45 35 46 37 16 15 47 38 14 19 48 40 47 38 52 50 25 45 51 48 53 52 38 49 52 50 55 53 52 50 54 51 56 55 53 52 55 53 54 51 194 114 195 54 196 60 56 55 195 54 51 48 58 57 59 56 24 3 57 58 58 57 22 1 60 47 57 58 40 27 58 57 60 47 59 56 58 57 40 27 196 60 204 64 63 61 56 55 63 61 62 62 61 80 23 46 64 63 53 52 62 62 23 46 204 64 207 66 65 65 64 63 62 62 65 65 208 67 64 63 65 65 208 67 210 69 66 68 210 69 212 71 67 70 68 73 67 70 214 72 214 72 216 76 69 74 72 220 68 73 73 75 73 75 69 74 221 77 68 73 72 220 71 78 67 70 71 78 70 79 66 68 70 79 61 80 98 82 110 93 109 83 108 84 49 21 109 83 105 91 39 42 108 84 39 42 105 91 107 85 48 40 112 87 111 86 113 89 111 86 114 88 114 88 116 92 115 90 107 85 105 91 48 40 117 109 115 90 110 93 114 88 112 87 105 91 116 92 114 88 108 84 0 25 118 105 131 94 130 95 12 26 131 94 129 96 11 0 130 95 128 97 10 4 129 96 127 98 9 6 128 97 126 107 8 8 127 98 8 8 126 107 125 99 7 10 125 99 124 100 123 101 5 14 124 100 122 102 4 16 123 101 121 103 3 18 122 102 120 104 2 22 121 103 119 115 1 20 120 104 1 20 119 115 118 105 124 100 125 99 30 106 125 99 126 107 31 34 32 31 31 34 127 98 33 29 32 31 128 97 34 59 33 29 129 96 29 36 28 39 124 100 28 39 27 108 123 101 27 108 26 41 122 102 274 110 289 112 132 111 289 112 291 219 133 113 291 219 194 114 133 113 132 111 133 113 129 96 34 59 129 96 54 51 117 109 132 111 131 94 111 86 113 89 117 109 117 109 119 115 26 41 159 174 148 116 173 118 159 174 173 118 161 120 148 116 159 174 158 122 157 162 146 123 158 122 146 123 157 162 156 125 145 124 156 125 155 127 144 126 155 127 154 129 153 132 142 130 154 129 152 163 141 131 153 132 141 131 152 163 151 134 139 136 176 158 186 137 137 139 187 189 172 140 150 138 172 140 173 118 178 144 177 141 170 143 179 146 178 144 169 145 169 145 168 148 180 147 168 148 167 150 181 149 182 152 181 149 166 151 166 151 165 154 183 153 165 154 164 156 184 155 185 195 184 155 163 157 140 133 151 134 176 158 187 189 137 139 186 137 160 159 175 166 162 160 159 174 200 161 158 122 200 161 178 144 158 122 157 162 158 122 179 146 156 125 157 162 180 147 180 147 181 149 155 127 154 129 155 127 182 152 182 152 183 153 153 132 152 163 153 132 184 155 184 155 185 195 151 134 161 120 162 160 188 165 162 160 175 166 189 164 188 165 189 164 191 169 189 164 190 167 192 168 195 54 194 114 191 169 192 168 193 170 195 54 199 171 198 172 188 165 198 172 197 173 161 120 197 173 200 161 159 174 197 173 198 172 200 161 177 141 198 172 199 171 203 175 204 64 196 60 202 176 203 175 193 170 202 176 160 159 205 178 160 159 202 176 190 167 206 179 207 66 204 64 203 175 202 176 206 179 206 179 205 178 208 67 209 180 210 69 208 67 211 181 212 71 210 69 212 71 211 181 214 72 215 183 216 76 214 72 215 183 213 182 220 185 216 76 215 183 221 77 218 186 219 184 213 182 217 187 218 186 211 181 201 177 217 187 209 180 264 190 265 201 252 191 187 189 186 137 264 190 186 137 176 158 263 192 262 194 260 193 176 158 266 196 267 221 185 195 267 221 266 196 269 198 270 199 271 202 269 198 267 221 260 193 185 195 271 202 270 199 265 201 260 193 267 221 269 198 263 192 269 198 271 202 287 203 273 216 137 139 150 138 149 117 287 203 149 117 148 116 286 204 148 116 147 121 285 205 147 121 146 123 284 206 146 123 145 124 283 207 281 209 282 208 145 124 280 210 281 209 144 126 143 128 142 130 280 210 142 130 141 131 279 211 141 131 140 133 278 212 140 133 139 136 277 213 139 136 138 135 276 214 273 216 275 215 138 135 167 150 281 209 280 210 168 148 282 208 281 209 282 208 168 148 283 207 283 207 169 145 284 206 284 206 170 143 285 205 279 211 165 154 280 210 278 212 164 156 279 211 277 213 163 157 278 212 288 217 289 112 274 110 290 218 291 219 289 112 191 169 194 114 290 218 285 205 290 218 288 217 290 218 285 205 191 169 287 203 288 217 272 200 270 199 268 197 272 200 276 214 275 215 163 157</p>
        </polylist>
        <polylist material="Gummi_010_002-material" count="174">
          <input semantic="VERTEX" source="#Circle_038-mesh-vertices" offset="0"/>
          <input semantic="NORMAL" source="#Circle_038-mesh-normals" offset="1"/>
          <vcount>3 3 3 3 3 3 3 3 3 3 3 3 3 3 3 3 3 3 3 3 3 3 3 3 3 3 3 3 3 3 3 3 3 3 3 3 3 3 3 3 3 3 3 3 3 3 3 3 3 3 3 3 3 3 3 3 3 3 3 3 3 3 3 3 3 3 3 3 3 3 3 3 3 3 3 3 3 3 3 3 3 3 3 3 3 3 3 3 3 3 3 3 3 3 3 3 3 3 3 3 3 3 3 3 3 3 3 3 3 3 3 3 3 3 3 3 3 3 3 3 3 3 3 3 3 3 3 3 3 3 3 3 3 3 3 3 3 3 3 3 3 3 3 3 3 3 3 3 3 3 3 3 3 3 3 3 3 3 3 3 3 3 3 3 3 3 3 3 3 3 3 3 3 3 </vcount>
          <p>70 79 71 78 90 222 73 75 221 77 223 223 74 224 223 223 225 225 75 226 225 225 227 227 76 228 227 227 229 229 77 230 229 229 78 231 104 232 259 233 79 234 90 222 71 78 80 235 80 235 81 236 83 237 82 238 83 237 84 239 84 239 85 240 87 241 86 242 87 241 89 243 78 231 88 244 77 230 37 44 23 46 91 245 23 46 61 80 91 245 35 24 93 246 97 247 35 24 36 2 93 246 61 80 70 79 94 248 36 2 92 81 95 249 50 43 96 250 98 82 92 81 91 245 95 249 90 222 99 251 94 248 94 248 99 251 91 245 90 222 80 235 99 251 100 252 102 253 97 247 103 254 96 250 102 253 82 238 84 239 100 252 86 242 103 254 102 253 99 251 100 252 93 246 80 235 82 238 99 251 78 231 231 255 104 232 88 244 106 256 103 254 106 256 101 257 98 82 96 250 103 254 98 82 106 256 104 232 101 257 88 244 78 231 104 232 98 82 101 257 79 234 117 109 233 258 274 110 233 258 117 109 110 93 85 240 83 237 134 259 75 226 135 260 74 224 87 241 85 240 135 260 76 228 136 261 75 226 89 243 87 241 136 261 76 228 77 230 89 243 83 237 81 236 134 259 72 220 134 259 71 78 72 220 73 75 134 259 217 187 244 262 218 186 220 185 222 263 223 223 222 263 224 264 225 225 224 264 226 265 227 227 226 265 228 266 229 229 228 266 230 267 229 229 258 268 232 269 259 233 244 262 234 270 218 186 234 270 236 271 237 272 236 271 238 273 237 272 238 273 240 274 241 275 240 274 242 276 243 277 230 267 228 266 242 276 174 119 246 188 245 278 160 159 245 278 201 177 172 140 251 279 247 280 172 140 247 280 173 118 201 177 248 281 217 187 173 118 249 282 246 188 187 189 252 191 250 283 246 188 249 282 245 278 244 262 248 281 253 284 248 281 245 278 253 284 244 262 253 284 234 270 254 285 247 280 251 279 257 286 256 287 250 283 236 271 254 285 238 273 240 274 238 273 256 287 253 284 249 282 247 280 234 270 253 284 236 271 230 267 258 268 231 255 242 276 240 274 257 286 261 288 257 286 252 191 250 283 252 191 257 286 261 288 255 289 258 268 242 276 261 288 258 268 252 191 265 201 232 269 272 200 274 110 233 258 233 258 232 269 265 201 239 290 293 291 292 292 224 264 222 263 293 291 241 275 294 293 293 291 226 265 224 264 294 293 243 277 294 293 241 275 226 265 294 293 243 277 237 272 292 292 235 294 219 184 218 186 292 292 219 184 292 292 220 185 74 224 73 75 223 223 75 226 74 224 225 225 76 228 75 226 227 227 77 230 76 228 229 229 229 229 231 255 78 231 259 233 233 258 79 234 71 78 81 236 80 235 82 238 80 235 83 237 83 237 85 240 84 239 86 242 84 239 87 241 88 244 86 242 89 243 88 244 89 243 77 230 92 81 37 44 91 245 61 80 94 248 91 245 50 43 35 24 96 250 35 24 97 247 96 250 36 2 95 249 93 246 70 79 90 222 94 248 99 251 95 249 91 245 93 246 100 252 97 247 96 250 97 247 102 253 84 239 102 253 100 252 84 239 86 242 102 253 95 249 99 251 93 246 82 238 100 252 99 251 231 255 259 233 104 232 86 242 88 244 103 254 103 254 106 256 98 82 104 232 79 234 101 257 106 256 88 244 104 232 110 93 98 82 79 234 79 234 233 258 110 93 135 260 85 240 134 259 135 260 134 259 74 224 136 261 87 241 135 260 136 261 135 260 75 226 136 261 76 228 89 243 134 259 81 236 71 78 73 75 74 224 134 259 221 77 220 185 223 223 223 223 222 263 225 225 225 225 224 264 227 227 227 227 226 265 229 229 230 267 231 255 229 229 232 269 233 258 259 233 234 270 235 294 218 186 235 294 234 270 237 272 238 273 239 290 237 272 239 290 238 273 241 275 241 275 240 274 243 277 228 266 243 277 242 276 160 159 174 119 245 278 245 278 248 281 201 177 187 189 250 283 172 140 250 283 251 279 172 140 247 280 249 282 173 118 248 281 244 262 217 187 245 278 249 282 253 284 256 287 254 285 251 279 256 287 251 279 250 283 254 285 256 287 238 273 257 286 240 274 256 287 254 285 253 284 247 280 253 284 254 285 236 271 258 268 259 233 231 255 261 288 242 276 257 286 255 289 261 288 252 191 255 289 232 269 258 268 230 267 242 276 258 268 255 289 252 191 232 269 272 200 233 258 265 201 237 272 239 290 292 292 222 263 292 292 293 291 239 290 241 275 293 291 224 264 293 291 294 293 228 266 226 265 243 277 218 186 235 294 292 292 292 292 222 263 220 185</p>
        </polylist>
      </mesh>
    </geometry>
  </library_geometries>
  <library_controllers/>
  <library_visual_scenes>
    <visual_scene id="Scene" name="Scene">
      <node id="VIS_hollie_right_hand_s" name="VIS_hollie_right_hand_s" type="NODE">
        <instance_geometry url="#Circle_038-mesh" name="VIS_hollie_right_hand_s">
          <bind_material>
            <technique_common>
              <instance_material symbol="Kunststoff_druckteile_006_002-material" target="#Kunststoff_druckteile_006_002-material"/>
              <instance_material symbol="Gummi_010_002-material" target="#Gummi_010_002-material"/>
            </technique_common>
          </bind_material>
        </instance_geometry>
      </node>
    </visual_scene>
  </library_visual_scenes>
  <scene>
    <instance_visual_scene url="#Scene"/>
  </scene>
</COLLADA>