<?xml version="1.0" encoding="utf-8"?>
<COLLADA xmlns="http://www.collada.org/2005/11/COLLADASchema" version="1.4.1">
  <asset>
    <contributor>
      <author>Blender User</author>
      <authoring_tool>Blender 2.78.0 commit date:2017-02-24, commit time:14:33, hash:e92f2352830</authoring_tool>
    </contributor>
    <created>2017-07-17T14:52:56</created>
    <modified>2017-07-17T14:52:56</modified>
    <unit name="meter" meter="1"/>
    <up_axis>Z_UP</up_axis>
  </asset>
  <library_images/>
  <library_geometries>
    <geometry id="VIS_gelenkhuelse_1-mesh" name="VIS gelenkhuelse 1">
      <mesh>
        <source id="VIS_gelenkhuelse_1-mesh-positions">
          <float_array id="VIS_gelenkhuelse_1-mesh-positions-array" count="420">12.32595 538.4248 -96.68119 13.01298 539.1627 -95.19115 12.78815 535.8348 -95.39128 15.81114 541.5574 -96.93344 16.05535 541.2244 -94.48761 19.27303 540.5903 -95.284 19.40083 540.3592 -97.59442 20.73895 538.068 -96.47071 20.54226 537.8973 -97.99329 20.16596 534.8043 -96.61283 20.04836 535.2713 -98.15543 16.97389 533.1072 -97.87864 16.92928 532.9135 -95.26815 14.40008 533.7746 -95.16539 13.43054 534.4505 -97.21159 35.66149 538.6197 -82.7122 23.03822 537.3778 -80.7325 20.14455 539.916 -81.08368 19.44063 542.6906 -82.98625 19.09499 544.356 -86.43244 35.0199 543.7597 -86.37558 34.17575 544.8035 -91.80364 18.61422 544.4603 -89.43676 18.03397 543.4264 -92.24132 33.64014 543.0822 -95.50122 33.3008 539.7517 -98.082 36.77877 536.5045 -75.60604 36.64468 530.3514 -77.14035 35.70054 529.8912 -83.38437 36.21374 525.5653 -80.47698 35.45898 526.3792 -85.34294 35.07706 521.6965 -88.34702 34.81254 523.9586 -89.84211 33.94741 525.1299 -95.39427 33.66751 523.2329 -97.43263 33.3384 530.2627 -98.84449 32.77635 527.9909 -102.7741 32.36442 532.8619 -104.959 32.20145 538.1146 -105.4698 32.3406 543.1882 -104.0171 32.76052 547.8405 -100.7669 33.63554 551.253 -94.66243 34.7714 551.5849 -87.17394 35.7325 548.4721 -81.19853 36.42284 543.5928 -77.18771 22.48689 533.2438 -81.03266 18.9531 531.7052 -81.66027 17.92904 529.9806 -83.27961 17.33841 528.6809 -85.98996 16.71039 528.5906 -89.7582 16.36717 530.3754 -93.12734 -1.497292 535.5144 -93.24701 -1.215122 531.9361 -92.06108 -0.8333561 529.8073 -90.14661 -0.4470914 528.4649 -87.50753 0.1005091 528.2366 -84.01364 0.4229884 529.2479 -81.32118 0.8290742 531.3485 -78.93891 16.32343 532.6571 -80.67316 0.93917 534.6547 -77.49144 15.13501 534.7543 -79.70907 6.993357 534.5236 -71.25787 4.34641 537.729 -73.28067 3.097677 532.292 -75.18909 6.941469 539.8692 -71.62413 2.150568 542.5877 -77.20611 6.51533 543.3714 -72.96694 6.105977 546.5536 -75.18303 2.435568 548.7114 -84.57619 2.7477 547.8828 -81.65296 4.974914 550.961 -82.73179 2.88888 529.7571 -99.5778 0.4507149 532.4635 -97.20175 2.478287 535.2145 -100.9003 2.720561 543.5537 -99.08017 0.2860299 542.3571 -95.86114 3.145211 547.8117 -95.65439 1.640741 546.5139 -94.16393 0.6182268 538.6564 -98.06687 2.567863 539.071 -100.7125 3.359725 525.9213 -96.87422 1.090818 527.8789 -94.87569 3.85493 523.1984 -93.46385 1.017002 525.9652 -90.94552 1.974223 524.1773 -87.5316 5.334737 521.4987 -83.33507 3.163637 524.3975 -81.77788 3.410945 527.51 -77.40649 6.108436 523.1629 -78.88495 6.516893 525.6036 -75.60255 4.785194 521.2961 -87.9915 6.826395 529.3652 -72.90162 7.081716 532.4141 -71.70774 -0.9465169 541.5195 -92.89574 0.5939021 546.2008 -91.20311 3.654634 550.3442 -91.3524 1.83912 548.4183 -87.55744 4.433178 551.3126 -86.72082 5.62558 548.9575 -78.0907 2.709415 546.0325 -79.18405 1.148052 538.4313 -77.16775 17.53592 539.6774 -80.32915 15.43572 537.7398 -79.45784 10.87259 539.7697 -101.8494 11.32169 535.1309 -102.2097 15.06235 532.6231 -102.3018 19.32188 534.239 -103.301 20.71296 538.4691 -103.5952 18.88532 541.7692 -102.4526 15.03875 542.8641 -101.3662 15.22622 534.5606 -72.58173 15.7945 537.7247 -72.59555 19.30982 540.3472 -73.60905 24.16771 538.5125 -73.92403 25.11701 534.184 -74.15258 22.88477 530.958 -74.71533 19.55071 530.2283 -74.52606 16.52246 531.5166 -73.49071 11.49559 536.6912 -96.71065 12.45106 540.4978 -96.51249 17.13988 542.5285 -97.0498 21.17321 539.4893 -97.946 20.70923 534.4022 -98.33592 16.48589 532.2296 -97.88307 12.91043 533.6879 -97.20071 15.20391 536.7288 -77.97721 16.30849 532.7544 -78.50753 19.21605 531.4683 -79.07156 21.79034 532.3563 -79.38713 23.5434 535.153 -79.40328 22.27881 538.663 -78.89038 18.68908 539.8613 -78.22936 14.4344 536.4197 -77.88681 16.14918 539.643 -77.85836 19.90884 540.6751 -78.34327 23.36005 538.9318 -79.0324 24.33314 535.1566 -79.52446 22.93239 532.1075 -79.58542 19.36404 530.5335 -79.17911 15.13088 532.569 -78.34315</float_array>
          <technique_common>
            <accessor source="#VIS_gelenkhuelse_1-mesh-positions-array" count="140" stride="3">
              <param name="X" type="float"/>
              <param name="Y" type="float"/>
              <param name="Z" type="float"/>
            </accessor>
          </technique_common>
        </source>
        <source id="VIS_gelenkhuelse_1-mesh-normals">
          <float_array id="VIS_gelenkhuelse_1-mesh-normals-array" count="864">0.9144163 -0.03754121 -0.4030305 0.6696851 -0.740382 0.05793541 0.5792525 -0.7979686 -0.1664712 -0.2183771 -0.9696227 -0.1101967 -0.3026606 -0.9498808 0.0782504 -0.8640596 -0.5033835 0.002526104 -0.8847048 -0.4366341 0.1632429 -0.9799815 0.167353 0.1078392 -0.9761351 0.1757128 0.1276142 -0.5351455 0.7963349 0.2819041 -0.4860302 0.8721196 0.05641019 0.3241385 0.9429886 0.07554382 0.3724275 0.9193094 0.1271539 0.7846122 0.5946717 -0.1753549 0.9574661 0.2459804 0.1508391 -0.1228978 -0.272154 -0.9543733 -0.03220069 -0.9011755 -0.4322568 -0.03613162 -0.982394 -0.1832936 0.01636433 -0.9991706 -0.03728622 0.06627798 -0.9082234 0.4132041 0.1100262 -0.6157687 0.7802072 0.1661713 -0.325659 0.9307703 0.1643522 -0.3401178 0.9259094 -0.1336156 -0.5861945 -0.7990764 -0.132826 -0.5831989 -0.8013966 0.07124114 -0.9405914 0.331983 0.1170976 -0.7588159 0.6406922 0.9884583 0.01602226 -0.1506432 0.9884586 0.01602238 -0.1506419 0.9884585 0.01601999 -0.1506428 0.9884592 0.01602125 -0.1506381 0.9884592 0.01602077 -0.1506385 0.9884593 0.01601898 -0.1506376 0.9884601 0.01601725 -0.1506332 0.9884586 0.01601916 -0.1506419 0.9884585 0.01602172 -0.1506426 0.9884584 0.01601994 -0.1506429 0.9884594 0.01602059 -0.1506364 0.9884583 0.01601964 -0.150644 0.9884593 0.01602101 -0.1506375 0.9884588 0.01602238 -0.1506409 0.9884588 0.01602017 -0.1506403 0.9884587 0.01602053 -0.1506413 0.9884586 0.01602131 -0.1506418 0.9884591 0.01602202 -0.1506386 0.9884587 0.01602166 -0.1506415 0.9884589 0.01602101 -0.1506399 0.9884591 0.01602101 -0.1506389 0.9884586 0.0160225 -0.1506414 0.9884585 0.0160163 -0.1506428 0.9884585 0.01601982 -0.1506423 -0.03126555 0.4884493 -0.872032 0.04978084 0.6677978 -0.7426763 0.1211387 0.8667928 -0.4837312 0.1382936 0.8809251 -0.452599 0.247102 0.966851 -0.06434202 0.2452747 0.9555864 0.1633862 0.3087767 0.8531402 0.4204862 0.272884 0.5842522 0.7643191 0.2617778 0.5596156 0.7863224 0.2444026 0.2482628 0.9373542 -0.04640442 0.4668208 -0.8831337 0.1402129 0.2156614 0.9663491 0.1480536 0.3216312 0.9352184 0.1478659 0.3227313 0.9348691 0.1025287 0.6279906 0.7714375 0.1042193 0.6752876 0.7301542 0.05109542 0.8846774 0.4633955 0.0520547 0.8931561 0.4467242 0.001220405 0.9978831 0.06502366 -0.02796864 0.9994227 -0.01928472 -0.06361043 0.9367375 -0.3442044 -0.08441674 0.9054999 -0.4158651 -0.1040496 0.7547305 -0.647731 -0.1174284 0.7159276 -0.6882285 -0.1379856 0.5033674 -0.8529838 -0.1352806 0.4011299 -0.9059769 -0.1473336 0.3429871 -0.9277137 -0.6777873 -0.1000177 0.7284235 -0.7560889 -0.05525493 0.6521323 -0.5668201 0.05083662 0.8222717 -0.6831395 0.3561082 0.6375794 -0.6413211 0.2054159 0.7392641 -0.7384657 0.6239299 0.2556951 -0.7886943 -0.2001978 -0.5812764 -0.7896562 0.430489 -0.4371755 -0.7947903 0.4327289 -0.4255047 -0.8150778 0.2408821 -0.5269004 -0.8004292 0.228989 -0.5539649 -0.7764502 -0.4239322 -0.4662691 -0.786307 -0.5495361 -0.2823678 -0.7394744 -0.6493059 0.1777065 -0.68276 -0.5763913 0.4490121 -0.6452215 -0.5724563 0.5059477 -0.6409893 -0.6756811 0.3641261 -0.748971 -0.6496814 -0.1302176 -0.7661888 -0.5518267 -0.3293055 -0.7201417 -0.6841607 -0.1154132 -0.7020474 -0.7030361 0.113445 -0.7867331 -0.4809653 0.3869411 -0.8232701 -0.4918571 0.2833777 -0.8183887 -0.5423695 0.1899352 -0.8707008 -0.4916321 -0.01335048 -0.6730446 -0.3469598 0.6531692 -0.8118273 -0.2112598 0.5443397 -0.8076146 -0.1551553 0.5689338 -0.9284685 0.1059792 -0.35597 -0.9044799 -0.4188237 -0.08064001 -0.8856521 0.38519 -0.2593244 -0.7887236 0.574766 -0.2180804 -0.8029116 0.5900564 -0.08465498 -0.7163886 0.6797586 0.1572121 -0.7542197 0.6508423 0.0869323 -0.7423989 0.6697843 -0.01525741 -0.6879108 0.6262899 0.3667966 -0.7178992 0.5623623 0.4103287 -0.7145438 0.431906 0.5503493 -0.69309 0.495168 0.5238655 -0.7422192 0.1849709 0.6441246 -0.7788686 -0.3051186 0.5479656 -0.6339683 -0.4159626 0.6519657 -0.8113938 -0.3628297 0.4582518 -0.8076488 0.04738473 -0.5877568 -0.935087 0.115724 -0.334993 -0.7731698 -0.01158368 0.6340934 -0.6989028 0.2310168 0.6768798 -0.7646203 0.590891 -0.2573009 -0.8781428 0.3958608 -0.2686256 -0.8605489 -0.0475685 -0.5071418 -0.9067512 -0.03418362 -0.4202781 -0.8228122 -0.3442901 -0.4521555 -0.9303296 -0.1793789 -0.3198595 -0.9015668 -0.2891529 -0.3218199 -0.904946 -0.3756483 -0.1999028 -0.8926339 -0.3792273 -0.2437037 -0.8658031 -0.4895228 0.1036937 -0.6287403 -0.2175385 0.7465673 -0.2421599 -0.2850429 -0.9274207 -0.2285923 -0.1822586 -0.9563093 -0.2515038 -0.4509258 -0.8563947 -0.2891657 -0.5901788 -0.7537057 -0.2841281 -0.765102 -0.5778324 -0.3017439 -0.8699244 -0.3901057 -0.270306 -0.9334704 -0.2357281 -0.2522194 -0.9676463 0.006789147 -0.2128177 -0.9673447 0.1376699 -0.1734715 -0.9118716 0.3720187 -0.1004857 -0.8344259 0.541882 -0.06538742 -0.6832026 0.7272955 0.06345367 -0.4049074 0.9121533 0.0907585 -0.3648911 0.9266162 -0.1405842 0.06311547 -0.9880549 -0.145802 0.0515055 -0.9879722 -0.1457036 -0.1815773 -0.9725226 -0.1567855 -0.2437259 -0.9570873 -0.1408174 -0.2989217 -0.9438306 -0.1453806 -0.2139828 -0.9659585 -0.1358696 -0.1000671 -0.9856603 -0.1614894 -0.01553452 -0.9867523 -0.1484718 0.2491339 -0.9570206 -0.1396859 0.2761113 -0.9509209 -0.1466974 0.3876477 -0.9100599 -0.1464301 0.3931838 -0.907725 -0.1528278 0.3427211 -0.9269229 -0.1560316 0.3540793 -0.9221073 0.1588198 -0.02421212 0.9870107 0.1253191 0.06902652 0.9897124 0.1493623 0.1758326 0.973023 0.1272296 0.3685572 0.9208574 0.1098878 0.5774866 0.808971 0.0772832 0.7746415 0.6276607 0.039101 0.9194002 0.3913753 -0.007612168 0.9960168 0.08884072 -0.1327989 0.6292974 -0.7657344 0.1395274 0.303557 0.942542 0.154058 0.2435125 0.9575845 0.1636373 0.2226648 0.9610636 0.1283825 -0.02419245 0.9914296 0.1741758 -0.2849475 0.9425857 0.1580353 -0.2421487 0.957282 0.1408197 -0.4096099 0.9013267 0.1424559 -0.3807411 0.9136426 0.1426473 -0.3943089 0.9078394 0.1381407 -0.3711377 0.9182451 0.1609601 -0.2188525 0.9623906 0.1564357 -0.1997212 0.9672846 0.130591 -0.5853189 0.8002174 0.09520131 -0.8044657 0.5863204 0.0635094 -0.9383302 0.3398573 -0.08092433 -0.7846221 -0.6146702 0.1127808 0.640446 0.7596773 0.06114071 0.8892081 0.4533992 -0.009605646 0.999037 -0.0428121 -0.05133306 0.9792282 -0.1961562 -0.07926458 0.8749331 -0.4777124 -0.08676558 0.8629682 -0.4977527 -0.1275094 0.5757369 -0.8076315 -0.1209603 -0.4147685 -0.9018514 -0.1204044 -0.5817422 -0.8044122 -0.07868677 -0.7508749 -0.6557403 -0.04173785 -0.9459105 -0.3217317 0.01105189 -0.9856584 -0.1683909 0.01369619 -0.9990298 0.0418573 0.09436172 -0.8987513 0.4281846 0.1337667 -0.5748276 0.8072668 -0.1513333 0.08925098 -0.9844453 -0.1514824 0.08925193 -0.9844223 -0.1514748 0.08933335 -0.9844161 -0.1514614 0.08928424 -0.9844226 -0.1513944 0.08929568 -0.9844319 -0.1514661 0.08927482 -0.9844228 -0.1514556 0.08926492 -0.9844252 -0.151447 0.08926528 -0.9844266 -0.1514601 0.08926481 -0.9844245 -0.1514344 0.0891664 -0.9844374 -0.1515061 0.08920657 -0.9844228 -0.1514822 0.08927834 -0.98442 -0.151474 0.08927112 -0.9844218 -0.1514586 0.08928036 -0.9844233 0.9930946 0.1008071 -0.06000959 0.8840906 0.4414834 -0.1532198 0.5568488 0.8282973 0.06199449 0.3713386 0.9277587 -0.03703355 -0.3108386 0.9326381 0.1832096 -0.4472113 0.8892894 0.09574204 -0.9157103 0.3182016 0.2454029 -0.9941675 0.08565503 0.0655303 -0.8383162 -0.5204703 0.1622857 -0.6117964 -0.7862019 -0.08713203 -0.2599259 -0.9642521 0.05154269 0.3613756 -0.8994285 -0.2458378 0.5999915 -0.7970485 -0.06873136 0.9425227 -0.2236596 -0.2482485 0.9908809 -0.1067267 0.08224779 0.8809594 0.2942857 -0.3705491 0.8666486 0.498649 -0.01641982 0.3979841 0.916584 -0.03850418 0.3562218 0.9331007 0.04928785 -0.3108951 0.9431068 0.1178715 -0.4247064 0.8596747 0.2838733 -0.8452766 0.5294232 -0.07224082 -0.8776532 0.08276915 0.4720957 -0.9350638 -0.3124088 -0.1675008 -0.6573932 -0.7176727 0.2297391 -0.3423976 -0.9196923 -0.1921714 0.1002308 -0.9944467 0.03208988 0.5943759 -0.7610662 -0.2597995 0.6017158 -0.700356 -0.3839787 0.9632516 -0.1738967 -0.2047104 0.8778232 -0.4660158 -0.1107052 0.5284472 -0.8084739 -0.2590628 0.2605111 -0.9648768 -0.03386437 -0.3574081 -0.9275094 -0.1094803 -0.4511836 -0.8924291 -0.001928746 -0.9559798 -0.2632955 0.1295303 -0.9705381 -0.218243 0.1021069 -0.8912292 0.405367 0.2034414 -0.8260185 0.5503228 0.1218131 -0.3745623 0.9032232 0.2095015 -0.2093137 0.9751678 0.07235699 0.4037133 0.9138398 0.04373437 0.4430826 0.8939862 0.06683158 0.8894307 0.4272463 -0.1623995 0.9791024 0.1866607 -0.08072322 0.1515169 -0.08926194 0.984416 0.1514691 -0.08926212 0.9844233 0.1514887 -0.08929693 0.9844173 0.1514857 -0.08928567 0.9844187 0.1514864 -0.08928138 0.984419 0.1514347 -0.08925431 0.9844294 0.151493 -0.08926594 0.9844194 0.1514324 -0.08925646 0.9844296 0.1514304 -0.08926957 0.9844287 0.151495 -0.08926904 0.9844188 0.1514746 -0.08923709 0.9844248 0.1514918 -0.08925652 0.9844204 0.1514683 -0.08922201 0.9844272 0.1514632 -0.08927547 0.9844232 0.1515007 -0.089289 0.9844161 0.1500837 -0.07144659 0.9860885 0.1496074 -0.06942307 0.9863053 -0.1568441 0.0287199 -0.9872058 -0.1542686 0.09826683 -0.9831302 -0.1532021 0.09279733 -0.9838282 0.1357539 -0.06687772 0.9884829 0.1400632 -0.07875496 0.9870056 -0.1562142 0.07514381 -0.9848607 -0.1631957 0.09308218 -0.9821929</float_array>
          <technique_common>
            <accessor source="#VIS_gelenkhuelse_1-mesh-normals-array" count="288" stride="3">
              <param name="X" type="float"/>
              <param name="Y" type="float"/>
              <param name="Z" type="float"/>
            </accessor>
          </technique_common>
        </source>
        <vertices id="VIS_gelenkhuelse_1-mesh-vertices">
          <input semantic="POSITION" source="#VIS_gelenkhuelse_1-mesh-positions"/>
        </vertices>
        <polylist count="288">
          <input semantic="VERTEX" source="#VIS_gelenkhuelse_1-mesh-vertices" offset="0"/>
          <input semantic="NORMAL" source="#VIS_gelenkhuelse_1-mesh-normals" offset="1"/>
          <vcount>3 3 3 3 3 3 3 3 3 3 3 3 3 3 3 3 3 3 3 3 3 3 3 3 3 3 3 3 3 3 3 3 3 3 3 3 3 3 3 3 3 3 3 3 3 3 3 3 3 3 3 3 3 3 3 3 3 3 3 3 3 3 3 3 3 3 3 3 3 3 3 3 3 3 3 3 3 3 3 3 3 3 3 3 3 3 3 3 3 3 3 3 3 3 3 3 3 3 3 3 3 3 3 3 3 3 3 3 3 3 3 3 3 3 3 3 3 3 3 3 3 3 3 3 3 3 3 3 3 3 3 3 3 3 3 3 3 3 3 3 3 3 3 3 3 3 3 3 3 3 3 3 3 3 3 3 3 3 3 3 3 3 3 3 3 3 3 3 3 3 3 3 3 3 3 3 3 3 3 3 3 3 3 3 3 3 3 3 3 3 3 3 3 3 3 3 3 3 3 3 3 3 3 3 3 3 3 3 3 3 3 3 3 3 3 3 3 3 3 3 3 3 3 3 3 3 3 3 3 3 3 3 3 3 3 3 3 3 3 3 3 3 3 3 3 3 3 3 3 3 3 3 3 3 3 3 3 3 3 3 3 3 3 3 3 3 3 3 3 3 3 3 3 3 3 3 3 3 3 3 3 3 3 3 3 3 3 3 </vcount>
          <p>0 0 1 0 2 0 1 1 0 1 3 1 1 2 3 2 4 2 4 3 3 3 5 3 5 4 3 4 6 4 5 5 6 5 7 5 7 6 6 6 8 6 7 7 8 7 9 7 9 8 8 8 10 8 9 9 10 9 11 9 9 10 11 10 12 10 12 11 11 11 13 11 13 12 11 12 14 12 13 13 14 13 2 13 2 14 14 14 0 14 15 15 16 15 17 15 18 16 19 16 20 16 20 17 19 17 21 17 19 18 22 18 21 18 23 19 24 19 21 19 4 20 25 20 24 20 25 21 4 21 5 21 5 22 7 22 25 22 20 23 15 23 18 23 18 24 15 24 17 24 23 25 21 25 22 25 4 26 24 26 23 26 26 27 27 27 15 27 15 28 27 28 28 28 28 29 27 29 29 29 28 30 29 30 30 30 30 31 29 31 31 31 30 32 31 32 32 32 32 33 31 33 33 33 33 34 31 34 34 34 33 35 34 35 35 35 35 36 34 36 36 36 35 37 36 37 37 37 35 38 37 38 38 38 35 39 38 39 25 39 25 40 38 40 39 40 25 41 39 41 40 41 25 42 40 42 24 42 24 43 40 43 41 43 24 44 41 44 21 44 21 45 41 45 42 45 21 46 42 46 20 46 20 47 42 47 43 47 20 48 43 48 44 48 20 49 44 49 15 49 15 50 44 50 26 50 30 51 45 51 28 51 46 52 30 52 47 52 47 53 30 53 32 53 47 54 32 54 48 54 48 55 32 55 49 55 49 56 32 56 33 56 49 57 33 57 50 57 50 58 33 58 12 58 12 59 33 59 35 59 9 60 12 60 35 60 30 61 46 61 45 61 2 62 51 62 13 62 13 63 51 63 52 63 13 64 52 64 12 64 12 65 52 65 50 65 50 66 52 66 53 66 50 67 53 67 49 67 49 68 53 68 54 68 49 69 54 69 55 69 49 70 55 70 48 70 48 71 55 71 56 71 48 72 56 72 47 72 47 73 56 73 57 73 47 74 57 74 46 74 46 75 57 75 58 75 58 76 57 76 59 76 58 77 59 77 60 77 61 78 62 78 63 78 63 79 62 79 59 79 61 80 64 80 62 80 65 81 66 81 67 81 62 82 64 82 66 82 68 83 69 83 70 83 71 84 72 84 73 84 74 85 75 85 76 85 76 86 75 86 77 86 75 87 74 87 78 87 74 88 79 88 78 88 71 89 80 89 81 89 81 90 82 90 83 90 84 91 85 91 86 91 87 92 86 92 88 92 87 93 88 93 89 93 88 94 86 94 85 94 84 95 83 95 82 95 81 96 80 96 82 96 84 97 82 97 90 97 84 98 90 98 85 98 86 99 87 99 56 99 86 100 56 100 55 100 86 101 55 101 84 101 84 102 54 102 83 102 87 103 91 103 63 103 57 104 63 104 59 104 91 105 92 105 61 105 93 106 75 106 51 106 53 107 83 107 54 107 75 108 93 108 94 108 77 109 94 109 95 109 94 110 96 110 95 110 68 111 70 111 97 111 68 112 97 112 96 112 96 113 97 113 95 113 69 114 98 114 70 114 98 115 69 115 99 115 65 116 67 116 99 116 99 117 67 117 98 117 65 118 100 118 62 118 63 119 57 119 87 119 91 120 87 120 89 120 87 121 57 121 56 121 79 122 73 122 78 122 78 123 51 123 75 123 59 124 62 124 100 124 65 125 62 125 66 125 95 126 76 126 77 126 94 127 77 127 75 127 78 128 73 128 72 128 78 129 72 129 51 129 81 130 72 130 71 130 51 131 72 131 52 131 52 132 72 132 81 132 52 133 81 133 83 133 83 134 53 134 52 134 54 135 84 135 55 135 91 136 61 136 63 136 17 137 101 137 65 137 101 138 102 138 65 138 65 139 99 139 17 139 17 140 99 140 18 140 18 141 99 141 69 141 18 142 69 142 19 142 19 143 69 143 68 143 19 144 68 144 22 144 22 145 68 145 96 145 22 146 96 146 23 146 23 147 96 147 94 147 23 148 94 148 4 148 4 149 94 149 1 149 93 150 1 150 94 150 79 151 103 151 104 151 79 152 104 152 73 152 104 153 105 153 73 153 73 154 105 154 71 154 71 155 105 155 37 155 37 156 105 156 106 156 37 157 106 157 38 157 38 158 106 158 107 158 38 159 107 159 108 159 38 160 108 160 39 160 108 161 109 161 39 161 39 162 109 162 74 162 74 163 109 163 79 163 79 164 109 164 103 164 61 165 110 165 111 165 61 166 111 166 64 166 64 167 111 167 112 167 64 168 44 168 66 168 66 169 44 169 67 169 67 170 43 170 98 170 98 171 42 171 70 171 97 172 70 172 42 172 76 173 40 173 74 173 64 174 112 174 44 174 112 175 113 175 44 175 44 176 113 176 26 176 26 177 113 177 114 177 114 178 115 178 26 178 26 179 115 179 27 179 115 180 116 180 27 180 27 181 116 181 91 181 91 182 116 182 117 182 91 183 117 183 92 183 117 184 110 184 92 184 92 185 110 185 61 185 29 186 91 186 89 186 29 187 89 187 88 187 31 188 88 188 85 188 34 189 82 189 80 189 67 190 44 190 43 190 98 191 43 191 42 191 97 192 42 192 41 192 97 193 41 193 95 193 95 194 41 194 40 194 95 195 40 195 76 195 74 196 40 196 39 196 71 197 37 197 36 197 71 198 36 198 80 198 80 199 36 199 34 199 82 200 34 200 90 200 90 201 34 201 31 201 90 202 31 202 85 202 88 203 31 203 29 203 29 204 27 204 91 204 0 205 118 205 119 205 0 206 119 206 3 206 3 207 119 207 120 207 3 208 120 208 6 208 6 209 120 209 121 209 6 210 121 210 8 210 8 211 121 211 122 211 8 212 122 212 10 212 10 213 122 213 11 213 11 214 122 214 123 214 11 215 123 215 124 215 11 216 124 216 14 216 14 217 124 217 118 217 14 218 118 218 0 218 103 219 118 219 104 219 104 220 118 220 124 220 104 221 124 221 105 221 105 222 124 222 123 222 105 223 123 223 106 223 106 224 123 224 122 224 106 225 122 225 107 225 107 226 122 226 121 226 107 227 121 227 108 227 108 228 121 228 120 228 108 229 120 229 109 229 109 230 120 230 119 230 109 231 119 231 103 231 103 232 119 232 118 232 125 233 60 233 102 233 60 234 125 234 126 234 60 235 126 235 58 235 58 236 126 236 127 236 58 237 127 237 46 237 46 238 127 238 128 238 46 239 128 239 45 239 45 240 128 240 129 240 45 241 129 241 16 241 16 242 129 242 130 242 16 243 130 243 17 243 17 244 130 244 131 244 17 245 131 245 101 245 101 246 131 246 102 246 102 247 131 247 125 247 110 248 132 248 111 248 111 249 132 249 133 249 111 250 133 250 112 250 112 251 133 251 134 251 112 252 134 252 113 252 113 253 134 253 135 253 113 254 135 254 136 254 113 255 136 255 114 255 114 256 136 256 137 256 114 257 137 257 115 257 115 258 137 258 138 258 115 259 138 259 116 259 116 260 138 260 117 260 117 261 138 261 139 261 117 262 139 262 110 262 110 263 139 263 132 263 125 264 132 264 139 264 125 265 139 265 126 265 126 266 139 266 127 266 127 267 139 267 138 267 127 268 138 268 128 268 128 269 138 269 137 269 128 270 137 270 129 270 129 271 137 271 136 271 129 272 136 272 135 272 129 273 135 273 130 273 130 274 135 274 134 274 130 275 134 275 131 275 131 276 134 276 133 276 131 277 133 277 125 277 125 278 133 278 132 278 1 279 93 279 51 279 1 280 51 280 2 280 65 281 102 281 100 281 60 282 59 282 102 282 102 283 59 283 100 283 25 284 7 284 9 284 9 285 35 285 25 285 28 286 45 286 15 286 15 287 45 287 16 287</p>
        </polylist>
      </mesh>
    </geometry>
  </library_geometries>
  <library_controllers/>
  <library_visual_scenes>
    <visual_scene id="Scene" name="Scene">
      <node id="VIS_gelenkhuelse_1" name="VIS_gelenkhuelse_1" type="NODE">
        <matrix sid="transform">1 0 0 0 0 1 0 0 0 0 1 0 0 0 0 1</matrix>
        <instance_geometry url="#VIS_gelenkhuelse_1-mesh" name="VIS_gelenkhuelse_1"/>
      </node>
    </visual_scene>
  </library_visual_scenes>
  <scene>
    <instance_visual_scene url="#Scene"/>
  </scene>
</COLLADA>