<?xml version="1.0" encoding="utf-8"?>
<COLLADA xmlns="http://www.collada.org/2005/11/COLLADASchema" version="1.4.1">
  <asset>
    <contributor>
      <author>Blender User</author>
      <authoring_tool>Blender 2.77.0 commit date:2016-04-05, commit time:18:12, hash:abf6f08</authoring_tool>
    </contributor>
    <created>2016-09-28T15:46:28</created>
    <modified>2016-09-28T15:46:28</modified>
    <unit name="meter" meter="1"/>
    <up_axis>Z_UP</up_axis>
  </asset>
  <library_lights>
    <light id="Sun-light" name="Sun">
      <technique_common>
        <directional>
          <color sid="color">1 1 1</color>
        </directional>
      </technique_common>
      <extra>
        <technique profile="blender">
          <adapt_thresh>0.000999987</adapt_thresh>
          <area_shape>0</area_shape>
          <area_size>0.1</area_size>
          <area_sizey>0.1</area_sizey>
          <area_sizez>0.1</area_sizez>
          <atm_distance_factor>1</atm_distance_factor>
          <atm_extinction_factor>1</atm_extinction_factor>
          <atm_turbidity>2</atm_turbidity>
          <att1>0</att1>
          <att2>1</att2>
          <backscattered_light>1</backscattered_light>
          <bias>1</bias>
          <blue>1</blue>
          <buffers>1</buffers>
          <bufflag>0</bufflag>
          <bufsize>512</bufsize>
          <buftype>2</buftype>
          <clipend>40</clipend>
          <clipsta>0.5</clipsta>
          <compressthresh>0.04999995</compressthresh>
          <dist sid="blender_dist">25</dist>
          <energy sid="blender_energy">1</energy>
          <falloff_type>2</falloff_type>
          <filtertype>0</filtertype>
          <flag>0</flag>
          <gamma sid="blender_gamma">1</gamma>
          <green>1</green>
          <halo_intensity sid="blnder_halo_intensity">1</halo_intensity>
          <horizon_brightness>1</horizon_brightness>
          <mode>1</mode>
          <ray_samp>1</ray_samp>
          <ray_samp_method>1</ray_samp_method>
          <ray_samp_type>0</ray_samp_type>
          <ray_sampy>1</ray_sampy>
          <ray_sampz>1</ray_sampz>
          <red>1</red>
          <samp>3</samp>
          <shadhalostep>0</shadhalostep>
          <shadow_b sid="blender_shadow_b">0</shadow_b>
          <shadow_g sid="blender_shadow_g">0</shadow_g>
          <shadow_r sid="blender_shadow_r">0</shadow_r>
          <sky_colorspace>2</sky_colorspace>
          <sky_exposure>1</sky_exposure>
          <skyblendfac>1</skyblendfac>
          <skyblendtype>1</skyblendtype>
          <soft>3</soft>
          <spotblend>0.15</spotblend>
          <spotsize>45</spotsize>
          <spread>1</spread>
          <sun_brightness>1</sun_brightness>
          <sun_effect_type>0</sun_effect_type>
          <sun_intensity>1</sun_intensity>
          <sun_size>1</sun_size>
          <type>1</type>
        </technique>
      </extra>
    </light>
  </library_lights>
  <library_images>
    <image id="PBR_pillar-material_Base_Color_png" name="PBR_pillar-material_Base_Color_png">
      <init_from>PBR_pillar-material_Base_Color.jpg</init_from>
    </image>
    <image id="PBR_pillar-material_Metallic_png" name="PBR_pillar-material_Metallic_png">
      <init_from>PBR_pillar-material_Metallic.jpg</init_from>
    </image>
    <image id="PBR_pillar-material_Mixed_AO_png" name="PBR_pillar-material_Mixed_AO_png">
      <init_from>PBR_pillar-material_Mixed_AO.jpg</init_from>
    </image>
    <image id="PBR_pillar-material_Normal_DirectX_png" name="PBR_pillar-material_Normal_DirectX_png">
      <init_from>PBR_pillar-material_Normal_DirectX.png</init_from>
    </image>
    <image id="PBR_pillar-material_Roughness_png" name="PBR_pillar-material_Roughness_png">
      <init_from>PBR_pillar-material_Roughness.jpg</init_from>
    </image>
  </library_images>
  <library_effects>
    <effect id="PBR_pillar-effect">
      <profile_COMMON>
        <newparam sid="PBR_pillar-material_Mixed_AO_png-surface">
          <surface type="2D">
            <init_from>PBR_pillar-material_Mixed_AO_png</init_from>
          </surface>
        </newparam>
        <newparam sid="PBR_pillar-material_Mixed_AO_png-sampler">
          <sampler2D>
            <source>PBR_pillar-material_Mixed_AO_png-surface</source>
          </sampler2D>
        </newparam>
        <newparam sid="PBR_pillar-material_Base_Color_png-surface">
          <surface type="2D">
            <init_from>PBR_pillar-material_Base_Color_png</init_from>
          </surface>
        </newparam>
        <newparam sid="PBR_pillar-material_Base_Color_png-sampler">
          <sampler2D>
            <source>PBR_pillar-material_Base_Color_png-surface</source>
          </sampler2D>
        </newparam>
        <newparam sid="PBR_pillar-material_Metallic_png-surface">
          <surface type="2D">
            <init_from>PBR_pillar-material_Metallic_png</init_from>
          </surface>
        </newparam>
        <newparam sid="PBR_pillar-material_Metallic_png-sampler">
          <sampler2D>
            <source>PBR_pillar-material_Metallic_png-surface</source>
          </sampler2D>
        </newparam>
        <newparam sid="PBR_pillar-material_Roughness_png-surface">
          <surface type="2D">
            <init_from>PBR_pillar-material_Roughness_png</init_from>
          </surface>
        </newparam>
        <newparam sid="PBR_pillar-material_Roughness_png-sampler">
          <sampler2D>
            <source>PBR_pillar-material_Roughness_png-surface</source>
          </sampler2D>
        </newparam>
        <newparam sid="PBR_pillar-material_Normal_DirectX_png-surface">
          <surface type="2D">
            <init_from>PBR_pillar-material_Normal_DirectX_png</init_from>
          </surface>
        </newparam>
        <newparam sid="PBR_pillar-material_Normal_DirectX_png-sampler">
          <sampler2D>
            <source>PBR_pillar-material_Normal_DirectX_png-surface</source>
          </sampler2D>
        </newparam>
        <technique sid="common">
          <phong>
            <emission>
              <color sid="emission">0 0 0 1</color>
            </emission>
            <ambient>
              <texture texture="PBR_pillar-material_Mixed_AO_png-sampler"/>
            </ambient>
            <diffuse>
              <texture texture="PBR_pillar-material_Base_Color_png-sampler"/>
            </diffuse>
            <specular>
              <texture texture="PBR_pillar-material_Metallic_png-sampler"/>
            </specular>
            <shininess>
              <float sid="shininess">50</float>
            </shininess>
            <reflective>
              <texture texture="PBR_pillar-material_Roughness_png-sampler"/>
            </reflective>
            <index_of_refraction>
              <float sid="index_of_refraction">1</float>
            </index_of_refraction>
          </phong>
          <extra>
            <technique profile="FCOLLADA">
              <bump>
                <texture texture="PBR_pillar-material_Normal_DirectX_png-sampler"/>
              </bump>
            </technique>
          </extra>
        </technique>
      </profile_COMMON>
    </effect>
  </library_effects>
  <library_materials>
    <material id="PBR_pillar-material" name="PBR_pillar">
      <instance_effect url="#PBR_pillar-effect"/>
    </material>
  </library_materials>
  <library_geometries>
    <geometry id="Plane_000-mesh" name="Plane.000">
      <mesh>
        <source id="Plane_000-mesh-positions">
          <float_array id="Plane_000-mesh-positions-array" count="552">-0.02771615 -0.03734105 0.001206576 -0.02771615 0.03431636 0.001206576 0.02422314 0.03431636 0.001206576 0.02422314 -0.03734105 0.001206576 -0.02771615 -0.03734105 0.04582381 -0.02771615 0.03431636 0.04582381 0.02422314 0.03431636 0.04582381 0.02422314 -0.03734105 0.04582381 -0.007820725 0.01351827 0.4250256 -0.007820725 0.01351827 0.04514974 -0.008113682 -0.007583737 0.04514974 -0.008113682 -0.007583737 0.4250256 -0.006302833 -0.008973419 0.04514974 -0.006302833 -0.008973419 0.4250256 -0.006302833 -0.01175278 0.04514974 -0.006302833 -0.01175278 0.4250256 -0.008113682 -0.0131424 0.04514974 -0.008113682 -0.0131424 0.4250256 -0.00992453 -0.01175278 0.04514974 -0.00992453 -0.01175278 0.4250256 -0.00992453 -0.008973419 0.04514974 -0.00992453 -0.008973419 0.4250256 -0.006009936 0.01212859 0.04514974 -0.006009936 0.01212859 0.4250256 -0.006009936 0.009349226 0.04514974 -0.006009936 0.009349226 0.4250256 -0.007820725 0.007959604 0.04514974 -0.007820725 0.007959604 0.4250256 -0.009631633 0.009349226 0.04514974 -0.009631633 0.009349226 0.4250256 -0.009631633 0.01212859 0.04514974 -0.009631633 0.01212859 0.4250256 0.008347868 0.01336252 0.4250256 0.008347868 0.01336252 0.04514974 0.01015871 0.01197284 0.04514974 0.01015871 0.01197284 0.4250256 0.01015871 0.009193539 0.04514974 0.01015871 0.009193539 0.4250256 0.008347868 0.007803916 0.04514974 0.008347868 0.007803916 0.4250256 0.00653696 0.009193539 0.04514974 0.00653696 0.009193539 0.4250256 0.00653696 0.01197284 0.04514974 0.00653696 0.01197284 0.4250256 0.008054912 -0.007973074 0.4250256 0.008054912 -0.007973074 0.04514974 0.00986576 -0.009362757 0.04514974 0.00986576 -0.009362757 0.4250256 0.00986576 -0.01214212 0.04514974 0.00986576 -0.01214212 0.4250256 0.008054912 -0.01353174 0.04514974 0.008054912 -0.01353174 0.4250256 0.006244063 -0.01214212 0.04514974 0.006244063 -0.01214212 0.4250256 0.006244063 -0.009362757 0.04514974 0.006244063 -0.009362757 0.4250256 -0.0088467 -0.01066839 0.07998114 0.007042586 -0.01066839 0.05354607 -0.007202625 -0.01066839 0.08182376 0.008686602 -0.01066839 0.05538868 -0.009070873 -0.01066839 0.1273094 0.006818354 -0.01066839 0.1008744 -0.007426857 -0.01066839 0.1291521 0.008462488 -0.01066839 0.102717 -0.0088467 -0.01066839 0.1743343 0.007042586 -0.01066839 0.1478992 -0.007202625 -0.01066839 0.1761769 0.008686602 -0.01066839 0.1497418 -0.009070873 -0.01066839 0.2216625 0.006818354 -0.01066839 0.1952274 -0.007426857 -0.01066839 0.2235052 0.008462488 -0.01066839 0.1970701 -0.0088467 -0.01066839 0.2735128 0.007042586 -0.01066839 0.2470777 -0.007202625 -0.01066839 0.2753554 0.008686602 -0.01066839 0.2489203 -0.009070873 -0.01066839 0.3208411 0.006818354 -0.01066839 0.294406 -0.007426857 -0.01066839 0.3226837 0.008462488 -0.01066839 0.2962486 -0.0088467 -0.01066839 0.367866 0.007042586 -0.01066839 0.3414309 -0.007202625 -0.01066839 0.3697086 0.008686602 -0.01066839 0.3432735 -0.009070873 -0.01066839 0.4151942 0.006818354 -0.01066839 0.3887591 -0.007426857 -0.01066839 0.4170369 0.008462488 -0.01066839 0.3906018 0.00802344 -0.01171165 0.07998114 0.00802344 0.009408473 0.05354607 0.00802344 -0.009526312 0.08182382 0.00802344 0.01159375 0.05538874 0.00802344 -0.01200962 0.1273094 0.00802344 0.00911045 0.1008744 0.00802344 -0.009824275 0.1291521 0.00802344 0.01129579 0.102717 0.00802344 -0.01171165 0.1743343 0.00802344 0.009408473 0.1478992 0.00802344 -0.009526312 0.1761769 0.00802344 0.01159375 0.1497418 0.00802344 -0.01200962 0.2216625 0.00802344 0.00911045 0.1952275 0.00802344 -0.009824275 0.2235052 0.00802344 0.01129579 0.1970701 0.00802344 -0.01171165 0.2735128 0.00802344 0.009408473 0.2470777 0.00802344 -0.009526312 0.2753554 0.00802344 0.01159375 0.2489203 0.00802344 -0.01200962 0.3208411 0.00802344 0.00911045 0.294406 0.00802344 -0.009824275 0.3226837 0.00802344 0.01129579 0.2962486 0.00802344 -0.01171165 0.367866 0.00802344 0.009408473 0.3414309 0.00802344 -0.009526312 0.3697086 0.00802344 0.01159375 0.3432735 0.00802344 -0.01200962 0.4151942 0.00802344 0.00911045 0.3887591 0.00802344 -0.009824275 0.4170369 0.00802344 0.01129579 0.3906018 0.009111166 0.01085585 0.07998114 -0.00677812 0.01085585 0.05354607 0.007467031 0.01085585 0.08182382 -0.008422195 0.01085585 0.05538874 0.009335339 0.01085585 0.1273094 -0.006553947 0.01085585 0.1008744 0.007691204 0.01085585 0.1291521 -0.008198022 0.01085585 0.102717 0.009111166 0.01085585 0.1743343 -0.00677812 0.01085585 0.1478992 0.007467031 0.01085585 0.1761769 -0.008422195 0.01085585 0.1497418 0.009335339 0.01085585 0.2216625 -0.006553947 0.01085585 0.1952275 0.007691204 0.01085585 0.2235052 -0.008198022 0.01085585 0.1970701 0.009111166 0.01085585 0.2735128 -0.00677812 0.01085585 0.2470777 0.007467031 0.01085585 0.2753554 -0.008422195 0.01085585 0.2489203 0.009335339 0.01085585 0.3208411 -0.006553947 0.01085585 0.294406 0.007691204 0.01085585 0.3226837 -0.008198022 0.01085585 0.2962486 0.009111166 0.01085585 0.367866 -0.00677812 0.01085585 0.3414309 0.007467031 0.01085585 0.3697086 -0.008422195 0.01085585 0.3432735 0.009335339 0.01085585 0.4151942 -0.006553947 0.01085585 0.3887591 0.007691204 0.01085585 0.4170369 -0.008198022 0.01085585 0.3906018 -0.008026957 0.01182466 0.0799812 -0.008026957 -0.009295403 0.05354613 -0.008026957 0.009639382 0.08182382 -0.008026957 -0.01148068 0.05538874 -0.008026957 0.01212263 0.1273094 -0.008026957 -0.00899744 0.1008744 -0.008026957 0.009937345 0.1291521 -0.008026957 -0.01118272 0.102717 -0.008026957 0.01182466 0.1743343 -0.008026957 -0.009295403 0.1478992 -0.008026957 0.009639382 0.1761769 -0.008026957 -0.01148068 0.1497419 -0.008026957 0.01212263 0.2216625 -0.008026957 -0.00899744 0.1952275 -0.008026957 0.009937345 0.2235052 -0.008026957 -0.01118272 0.1970701 -0.008026957 0.01182466 0.2735128 -0.008026957 -0.009295403 0.2470777 -0.008026957 0.009639382 0.2753554 -0.008026957 -0.01148068 0.2489203 -0.008026957 0.01212263 0.3208411 -0.008026957 -0.00899744 0.294406 -0.008026957 0.009937345 0.3226837 -0.008026957 -0.01118272 0.2962486 -0.008026957 0.01182466 0.367866 -0.008026957 -0.009295403 0.3414309 -0.008026957 0.009639382 0.3697086 -0.008026957 -0.01148068 0.3432735 -0.008026957 0.01212263 0.4151942 -0.008026957 -0.00899744 0.3887591 -0.008026957 0.009937345 0.4170369 -0.008026957 -0.01118272 0.3906018</float_array>
          <technique_common>
            <accessor source="#Plane_000-mesh-positions-array" count="184" stride="3">
              <param name="X" type="float"/>
              <param name="Y" type="float"/>
              <param name="Z" type="float"/>
            </accessor>
          </technique_common>
        </source>
        <source id="Plane_000-mesh-normals">
          <float_array id="Plane_000-mesh-normals-array" count="183">-1 0 0 0 1 0 1 0 0 0 -1 0 0 0 -1 0 0 1 -0.6087906 -0.793331 0 -0.6087896 -0.7933318 0 0.6088102 0.793316 0 0.6087917 -0.7933302 0 0.608793 -0.7933291 0 -0.6088094 0.7933166 0 0.6088125 0.7933142 0 -0.6087917 -0.7933302 0 -0.60881 0.7933162 0 -0.6088063 0.7933191 0 0.608807 0.7933183 0 -0.6087896 -0.7933317 0 0.6087896 -0.7933317 0 -0.6088078 0.7933178 0 0.6088081 0.7933176 0 0 -1 1.50042e-7 0 -1 2.00056e-7 0 -1 1.50043e-7 0 -1 2.00052e-7 0 -1 2.00056e-7 0 -1 2.0005e-7 1 0 0 1 0 0 1 -2.25762e-7 0 1 2.44577e-7 0 1 2.44574e-7 0 1 2.44575e-7 0 1 -2.82188e-7 0 0 1 -2.50066e-7 0 1 -2.5007e-7 0 1 -2.5007e-7 -1 0 0 -1 0 0 -1 0 0 -1 1.31698e-7 0 -1 0 0 -1 0 0 -1 0 0 -1 1.88132e-7 0 -0.6087909 -0.7933308 0 -0.6087899 -0.7933316 0 0.608793 -0.7933292 0 -0.6088091 0.7933167 0 -0.6087914 -0.7933304 0 -0.6088102 0.793316 0 -0.6088061 0.7933191 0 0.6088071 0.7933183 0 -0.6087894 -0.793332 0 0.6087896 -0.7933318 0 -0.6088082 0.7933176 0 0.6088082 0.7933176 0 1 -3.01013e-7 0 1 -3.0101e-7 0 1 -3.01019e-7 0 -1 -3.01013e-7 0</float_array>
          <technique_common>
            <accessor source="#Plane_000-mesh-normals-array" count="61" stride="3">
              <param name="X" type="float"/>
              <param name="Y" type="float"/>
              <param name="Z" type="float"/>
            </accessor>
          </technique_common>
        </source>
        <source id="Plane_000-mesh-map-0">
          <float_array id="Plane_000-mesh-map-0-array" count="936">0.6249087 0.4825579 0.6249087 0.5749613 0.5097864 0.5749613 0.1561068 0.5976809 0.08913034 0.5976809 0.08913034 0.4825586 0.2508872 0.5761505 0.3432906 0.5761504 0.3432906 0.6912728 0.5097864 0.5761498 0.5767629 0.5761498 0.5767629 0.6912721 0.2913103 0.4825586 0.2913103 0.574962 0.1572954 0.574962 0.2496987 0.7101653 0.1572954 0.7101653 0.1572954 0.5761504 0.9621359 0.5505661 0.962136 5.94278e-4 0.9673818 5.94222e-4 0.973816 0.5505667 0.973816 5.94222e-4 0.9790618 5.94222e-4 0.9270954 0.5505715 0.9270954 5.94222e-4 0.9323413 5.94222e-4 0.9568901 0.5505661 0.9568901 5.94222e-4 0.962136 5.94278e-4 0.9685702 0.5505667 0.9685703 5.94222e-4 0.973816 5.94222e-4 0.3663507 0.4825568 0.3663507 0.9724127 0.3591793 0.9724127 0.3579909 0.4825568 0.3579909 0.9724121 0.3508194 0.9724121 0.4509391 0.9724134 0.4509391 0.4825571 0.4581104 0.4825571 0.9802503 0.5505666 0.9802504 5.94222e-4 0.9854962 5.94222e-4 0.9206612 5.94222e-4 0.9206611 0.5505719 0.9154152 0.5505719 0.9154153 5.94222e-4 0.9154152 0.5505719 0.9101694 0.5505719 0.9854961 0.5505666 0.9854962 5.94222e-4 0.9907419 5.94222e-4 0.3402862 0.4843488 0.3449586 0.4825568 0.349631 0.4843488 0.9218496 0.5505716 0.9218496 5.94222e-4 0.9270954 5.94222e-4 0.8901295 0.9392902 0.8901296 0.4494342 0.897301 0.4494342 0.031762 0.4843508 0.03643441 0.4825587 0.04110682 0.4843506 0.4236863 0.4843491 0.4283587 0.4825571 0.4330311 0.4843491 0.3296642 0.4925646 0.3263179 0.4888437 0.3263179 0.4838394 0.4425793 0.9724119 0.4425793 0.4825571 0.4497506 0.4825571 0.4413908 0.4825571 0.4413909 0.9724119 0.4342196 0.9724119 0.9557016 5.94222e-4 0.9557016 0.5505703 0.9504557 0.5505702 0.9504558 5.94222e-4 0.9504557 0.5505702 0.9452099 0.5505703 0.009939014 0.4879345 0.005266606 0.4897266 5.94222e-4 0.4879345 0.3217831 0.4825561 0.3251294 0.486277 0.3251294 0.4912812 0.9037352 0.9994057 0.9037353 0.4494342 0.908981 0.4494342 0.8984894 0.9994057 0.8984894 0.4494342 0.9037353 0.4494342 0.3675391 0.9724119 0.3675391 0.4825568 0.3747106 0.4825568 0.8817696 0.9392894 0.8817697 0.4494342 0.8889411 0.4494342 0.9335297 0.5505703 0.9335298 5.94222e-4 0.9387756 5.94222e-4 0.9387756 0.5505703 0.9387756 5.94222e-4 0.9440214 5.94222e-4 0.3079035 0.4843482 0.3125759 0.4825561 0.3172484 0.4843482 0.3067151 0.4879322 0.3020427 0.4897241 0.2973703 0.4879322 0.4998104 0.4929372 0.4998104 0.9302057 0.4663748 0.9198234 0.7716716 0.8867037 0.7716714 0.449435 0.805107 0.4598171 0.3829754 0.9198268 0.3829755 0.4825559 0.4164106 0.4929381 0.7716723 0.4378637 0.7716714 5.94222e-4 0.8051076 0.01097726 0.701232 0.4598166 0.701232 0.8970857 0.6677964 0.8867034 0.8062976 0.8867021 0.8062961 0.4494357 0.8397324 0.4598178 0.840921 0.8867027 0.8409208 0.4494341 0.8743565 0.4598165 0.7012333 0.01097756 0.7012333 0.4482458 0.6677964 0.4378616 0.1662093 0.001665234 0.1662093 0.4813698 0.1256981 0.4802981 0.08280789 0.001665532 0.08280789 0.4813677 0.04229587 0.480297 0.417599 0.4802983 0.4175997 5.94222e-4 0.4581104 0.001665174 0.1245087 0.001665532 0.1245087 0.4813685 0.08399742 0.4802983 0.4164106 0.001664519 0.4164106 0.4813675 0.3758992 0.4802964 0.2496102 0.001664757 0.2496103 0.4813696 0.2090991 0.4802994 0.4998105 0.001664459 0.4998104 0.4813665 0.4592989 0.4802954 5.94645e-4 0.4802992 5.94222e-4 5.94222e-4 0.04110682 0.001666069 0.8743569 0.01097714 0.8743569 0.4482457 0.8409208 0.4378628 0.770483 0.01097726 0.770483 0.4482465 0.7370476 0.4378644 0.7358573 0.4598159 0.7358573 0.8970865 0.7024222 0.8867046 0.8062961 0.4378625 0.8062973 5.94222e-4 0.8397324 0.01097607 0.08280789 0.4929382 0.08280783 0.9302073 0.04937231 0.9198252 0.9089809 0.01097625 0.908981 0.4482458 0.8755454 0.4378633 0.7704823 0.4598163 0.7704823 0.8970854 0.7370467 0.886703 0.7024222 0.4378633 0.7024217 5.94222e-4 0.7358582 0.0109775 0.5415099 0.001665234 0.5415099 0.481369 0.5009989 0.4802979 0.3747106 0.001666367 0.3747105 0.4813684 0.3341994 0.4802973 0.2507994 0.4802994 0.2507987 5.94222e-4 0.2913103 0.001665949 0.3330105 0.001666247 0.3330105 0.4813677 0.2924997 0.4802969 0.6249087 0.001665472 0.6249086 0.4813694 0.5843977 0.4802984 0.6666079 0.001665711 0.6666079 0.4813699 0.6260972 0.4802983 0.5832093 0.001665711 0.5832092 0.4813694 0.5426983 0.480298 0.1673986 0.4802972 0.1673978 5.94222e-4 0.20791 0.001666426 0.5097864 0.4825579 0.6249087 0.4825579 0.5097864 0.5749613 0.1561069 0.4825586 0.1561068 0.5976809 0.08913034 0.4825586 0.2508872 0.6912728 0.2508872 0.5761505 0.3432906 0.6912728 0.5097864 0.6912721 0.5097864 0.5761498 0.5767629 0.6912721 0.1572954 0.4825586 0.2913103 0.4825586 0.1572954 0.574962 0.2496987 0.5761504 0.2496987 0.7101653 0.1572954 0.5761504 0.9673817 0.5505661 0.9621359 0.5505661 0.9673818 5.94222e-4 0.9790618 0.5505667 0.973816 0.5505667 0.9790618 5.94222e-4 0.9323412 0.5505716 0.9270954 0.5505715 0.9323413 5.94222e-4 0.9621359 0.5505661 0.9568901 0.5505661 0.962136 5.94278e-4 0.973816 0.5505667 0.9685702 0.5505667 0.973816 5.94222e-4 0.3591793 0.4825568 0.3663507 0.4825568 0.3591793 0.9724127 0.3508195 0.4825568 0.3579909 0.4825568 0.3508194 0.9724121 0.4581104 0.9724134 0.4509391 0.9724134 0.4581104 0.4825571 0.9854961 0.5505666 0.9802503 0.5505666 0.9854962 5.94222e-4 0.9154153 5.94222e-4 0.9206612 5.94222e-4 0.9154152 0.5505719 0.9101695 5.94222e-4 0.9154153 5.94222e-4 0.9101694 0.5505719 0.9907419 0.5505666 0.9854961 0.5505666 0.9907419 5.94222e-4 0.349631 0.4879328 0.3402862 0.4843488 0.349631 0.4843488 0.9270954 0.5505715 0.9218496 0.5505716 0.9270954 5.94222e-4 0.349631 0.4879328 0.3449586 0.4897248 0.3402862 0.4879328 0.349631 0.4879328 0.3402862 0.4879328 0.3402862 0.4843488 0.8973009 0.9392902 0.8901295 0.9392902 0.897301 0.4494342 0.4330311 0.4879331 0.4236863 0.4843491 0.4330311 0.4843491 0.04110682 0.4879346 0.03643453 0.4897267 0.03176206 0.4879348 0.04110682 0.4879346 0.031762 0.4843508 0.04110682 0.4843506 0.04110682 0.4879346 0.03176206 0.4879348 0.031762 0.4843508 0.4497506 0.9724119 0.4425793 0.9724119 0.4497506 0.4825571 0.4330311 0.4879331 0.4283588 0.4897251 0.4236864 0.4879331 0.4330311 0.4879331 0.4236864 0.4879331 0.4236863 0.4843491 0.3296643 0.4825561 0.3330105 0.486277 0.3330105 0.4912812 0.3296643 0.4825561 0.3296642 0.4925646 0.3263179 0.4838394 0.3296643 0.4825561 0.3330105 0.4912812 0.3296642 0.4925646 0.4342195 0.4825571 0.4413908 0.4825571 0.4342196 0.9724119 0.9504558 5.94222e-4 0.9557016 5.94222e-4 0.9504557 0.5505702 0.9452099 5.94222e-4 0.9504558 5.94222e-4 0.9452099 0.5505703 0.3217832 0.4925646 0.3217831 0.4825561 0.3251294 0.4912812 5.94222e-4 0.4843506 0.005266606 0.4825587 0.009939014 0.4843506 5.94222e-4 0.4843506 0.009939014 0.4879345 5.94222e-4 0.4879345 5.94222e-4 0.4843506 0.009939014 0.4843506 0.009939014 0.4879345 0.9089809 0.9994057 0.9037352 0.9994057 0.908981 0.4494342 0.3217832 0.4925646 0.3184368 0.4888437 0.3184369 0.4838395 0.3217832 0.4925646 0.3184369 0.4838395 0.3217831 0.4825561 0.9037352 0.9994057 0.8984894 0.9994057 0.9037353 0.4494342 0.3747106 0.9724119 0.3675391 0.9724119 0.3747106 0.4825568 0.888941 0.9392894 0.8817696 0.9392894 0.8889411 0.4494342 0.9387756 0.5505703 0.9335297 0.5505703 0.9387756 5.94222e-4 0.9440214 0.5505703 0.9387756 0.5505703 0.9440214 5.94222e-4 0.2973703 0.4843482 0.3067151 0.4879322 0.2973703 0.4879322 0.3172484 0.4879323 0.3125759 0.4897241 0.3079035 0.4879322 0.3172484 0.4879323 0.3079035 0.4843482 0.3172484 0.4843482 0.3172484 0.4879323 0.3079035 0.4879322 0.3079035 0.4843482 0.4663749 0.4825549 0.4998104 0.4929372 0.4663748 0.9198234 0.2973703 0.4843482 0.3020427 0.4825561 0.3067151 0.4843482 0.2973703 0.4843482 0.3067151 0.4843482 0.3067151 0.4879322 0.805107 0.8970875 0.7716716 0.8867037 0.805107 0.4598171 0.4164106 0.9302088 0.3829754 0.9198268 0.4164106 0.4929381 0.8051076 0.4482472 0.7716723 0.4378637 0.8051076 0.01097726 0.6677967 0.4494342 0.701232 0.4598166 0.6677964 0.8867034 0.8397324 0.8970844 0.8062976 0.8867021 0.8397324 0.4598178 0.8743565 0.8970848 0.840921 0.8867027 0.8743565 0.4598165 0.6677981 5.94222e-4 0.7012333 0.01097756 0.6677964 0.4378616 0.1256972 5.94222e-4 0.1662093 0.001665234 0.1256981 0.4802981 0.04229527 5.94222e-4 0.08280789 0.001665532 0.04229587 0.480297 0.4581104 0.4813687 0.417599 0.4802983 0.4581104 0.001665174 0.08399629 5.94222e-4 0.1245087 0.001665532 0.08399742 0.4802983 0.375899 5.94222e-4 0.4164106 0.001664519 0.3758992 0.4802964 0.2090985 5.94222e-4 0.2496102 0.001664757 0.2090991 0.4802994 0.4592989 5.94222e-4 0.4998105 0.001664459 0.4592989 0.4802954 0.04110682 0.4813702 5.94645e-4 0.4802992 0.04110682 0.001666069 0.840921 5.94222e-4 0.8743569 0.01097714 0.8409208 0.4378628 0.7370467 5.94222e-4 0.770483 0.01097726 0.7370476 0.4378644 0.7024217 0.4494342 0.7358573 0.4598159 0.7024222 0.8867046 0.8397324 0.4482456 0.8062961 0.4378625 0.8397324 0.01097607 0.04937237 0.4825561 0.08280789 0.4929382 0.04937231 0.9198252 0.8755453 5.94222e-4 0.9089809 0.01097625 0.8755454 0.4378633 0.7370468 0.4494342 0.7704823 0.4598163 0.7370467 0.886703 0.7358582 0.4482458 0.7024222 0.4378633 0.7358582 0.0109775 0.5009989 5.94222e-4 0.5415099 0.001665234 0.5009989 0.4802979 0.334199 5.94222e-4 0.3747106 0.001666367 0.3341994 0.4802973 0.2913103 0.4813702 0.2507994 0.4802994 0.2913103 0.001665949 0.2924987 5.94222e-4 0.3330105 0.001666247 0.2924997 0.4802969 0.584398 5.94222e-4 0.6249087 0.001665472 0.5843977 0.4802984 0.6260972 5.94222e-4 0.6666079 0.001665711 0.6260972 0.4802983 0.5426986 5.94222e-4 0.5832093 0.001665711 0.5426983 0.480298 0.20791 0.4813694 0.1673986 0.4802972 0.20791 0.001666426</float_array>
          <technique_common>
            <accessor source="#Plane_000-mesh-map-0-array" count="468" stride="2">
              <param name="S" type="float"/>
              <param name="T" type="float"/>
            </accessor>
          </technique_common>
        </source>
        <vertices id="Plane_000-mesh-vertices">
          <input semantic="POSITION" source="#Plane_000-mesh-positions"/>
        </vertices>
        <polylist material="PBR_pillar-material" count="156">
          <input semantic="VERTEX" source="#Plane_000-mesh-vertices" offset="0"/>
          <input semantic="NORMAL" source="#Plane_000-mesh-normals" offset="1"/>
          <input semantic="TEXCOORD" source="#Plane_000-mesh-map-0" offset="2" set="0"/>
          <vcount>3 3 3 3 3 3 3 3 3 3 3 3 3 3 3 3 3 3 3 3 3 3 3 3 3 3 3 3 3 3 3 3 3 3 3 3 3 3 3 3 3 3 3 3 3 3 3 3 3 3 3 3 3 3 3 3 3 3 3 3 3 3 3 3 3 3 3 3 3 3 3 3 3 3 3 3 3 3 3 3 3 3 3 3 3 3 3 3 3 3 3 3 3 3 3 3 3 3 3 3 3 3 3 3 3 3 3 3 3 3 3 3 3 3 3 3 3 3 3 3 3 3 3 3 3 3 3 3 3 3 3 3 3 3 3 3 3 3 3 3 3 3 3 3 3 3 3 3 3 3 3 3 3 3 3 3 </vcount>
          <p>4 0 0 5 0 1 1 0 2 5 1 3 6 1 4 2 1 5 6 2 6 7 2 7 3 2 8 7 3 9 4 3 10 0 3 11 0 4 12 1 4 13 2 4 14 7 5 15 6 5 16 5 5 17 38 6 18 39 6 19 41 6 20 26 7 21 27 7 22 29 7 23 10 8 24 11 8 25 13 8 26 36 9 27 37 9 28 39 9 29 24 10 30 25 10 31 27 10 32 12 2 33 13 2 34 15 2 35 28 0 36 29 0 37 31 0 38 22 2 39 23 2 40 25 2 41 14 9 42 15 9 43 17 9 44 30 11 45 31 11 46 8 11 47 9 12 48 8 12 49 23 12 50 16 13 51 17 13 52 19 13 53 19 5 54 17 5 55 15 5 56 20 14 57 21 14 58 11 14 59 18 0 60 19 0 61 21 0 62 30 4 63 9 4 64 22 4 65 29 5 66 27 5 67 25 5 68 20 4 69 10 4 70 12 4 71 40 0 72 41 0 73 43 0 74 34 2 75 35 2 76 37 2 77 42 15 78 43 15 79 32 15 80 33 16 81 32 16 82 35 16 83 42 4 84 33 4 85 34 4 86 41 5 87 39 5 88 37 5 89 50 17 90 51 17 91 53 17 92 48 18 93 49 18 94 51 18 95 52 0 96 53 0 97 55 0 98 46 2 99 47 2 100 49 2 101 54 19 102 55 19 103 44 19 104 45 20 105 44 20 106 47 20 107 54 4 108 45 4 109 46 4 110 53 5 111 51 5 112 49 5 113 56 21 114 57 21 115 59 21 116 60 22 117 61 22 118 63 22 119 64 23 120 65 23 121 67 23 122 68 24 123 69 24 124 71 24 125 72 21 126 73 21 127 75 21 128 76 25 129 77 25 130 79 25 131 80 21 132 81 21 133 83 21 134 84 26 135 85 26 136 87 26 137 88 27 138 89 27 139 91 27 140 92 28 141 93 28 142 95 28 143 96 2 144 97 2 145 99 2 146 100 29 147 101 29 148 103 29 149 104 30 150 105 30 151 107 30 152 108 31 153 109 31 154 111 31 155 112 32 156 113 32 157 115 32 158 116 33 159 117 33 160 119 33 161 120 34 162 121 34 163 123 34 164 124 1 165 125 1 166 127 1 167 128 35 168 129 35 169 131 35 170 132 1 171 133 1 172 135 1 173 136 36 174 137 36 175 139 36 176 140 1 177 141 1 178 143 1 179 144 36 180 145 36 181 147 36 182 148 1 183 149 1 184 151 1 185 152 37 186 153 37 187 155 37 188 156 38 189 157 38 190 159 38 191 160 39 192 161 39 193 163 39 194 164 40 195 165 40 196 167 40 197 168 41 198 169 41 199 171 41 200 172 42 201 173 42 202 175 42 203 176 43 204 177 43 205 179 43 206 180 44 207 181 44 208 183 44 209 0 0 210 4 0 211 1 0 212 1 1 213 5 1 214 2 1 215 2 2 216 6 2 217 3 2 218 3 3 219 7 3 220 0 3 221 3 4 222 0 4 223 2 4 224 4 5 225 7 5 226 5 5 227 40 45 228 38 45 229 41 45 230 28 46 231 26 46 232 29 46 233 12 8 234 10 8 235 13 8 236 38 9 237 36 9 238 39 9 239 26 47 240 24 47 241 27 47 242 14 2 243 12 2 244 15 2 245 30 0 246 28 0 247 31 0 248 24 2 249 22 2 250 25 2 251 16 9 252 14 9 253 17 9 254 9 48 255 30 48 256 8 48 257 22 12 258 9 12 259 23 12 260 18 49 261 16 49 262 19 49 263 13 5 264 19 5 265 15 5 266 10 50 267 20 50 268 11 50 269 13 5 270 11 5 271 21 5 272 13 5 273 21 5 274 19 5 275 20 0 276 18 0 277 21 0 278 23 5 279 29 5 280 25 5 281 24 4 282 26 4 283 28 4 284 24 4 285 30 4 286 22 4 287 24 4 288 28 4 289 30 4 290 42 0 291 40 0 292 43 0 293 23 5 294 8 5 295 31 5 296 23 5 297 31 5 298 29 5 299 14 4 300 16 4 301 18 4 302 14 4 303 20 4 304 12 4 305 14 4 306 18 4 307 20 4 308 36 2 309 34 2 310 37 2 311 33 51 312 42 51 313 32 51 314 34 52 315 33 52 316 35 52 317 35 5 318 41 5 319 37 5 320 36 4 321 38 4 322 40 4 323 36 4 324 42 4 325 34 4 326 36 4 327 40 4 328 42 4 329 52 53 330 50 53 331 53 53 332 35 5 333 32 5 334 43 5 335 35 5 336 43 5 337 41 5 338 50 54 339 48 54 340 51 54 341 54 0 342 52 0 343 55 0 344 48 2 345 46 2 346 49 2 347 45 55 348 54 55 349 44 55 350 46 56 351 45 56 352 47 56 353 47 5 354 53 5 355 49 5 356 48 4 357 50 4 358 52 4 359 48 4 360 54 4 361 46 4 362 48 4 363 52 4 364 54 4 365 58 3 366 56 3 367 59 3 368 47 5 369 44 5 370 55 5 371 47 5 372 55 5 373 53 5 374 62 3 375 60 3 376 63 3 377 66 3 378 64 3 379 67 3 380 70 3 381 68 3 382 71 3 383 74 3 384 72 3 385 75 3 386 78 3 387 76 3 388 79 3 389 82 3 390 80 3 391 83 3 392 86 3 393 84 3 394 87 3 395 90 2 396 88 2 397 91 2 398 94 2 399 92 2 400 95 2 401 98 2 402 96 2 403 99 2 404 102 2 405 100 2 406 103 2 407 106 57 408 104 57 409 107 57 410 110 58 411 108 58 412 111 58 413 114 59 414 112 59 415 115 59 416 118 2 417 116 2 418 119 2 419 122 1 420 120 1 421 123 1 422 126 1 423 124 1 424 127 1 425 130 1 426 128 1 427 131 1 428 134 1 429 132 1 430 135 1 431 138 1 432 136 1 433 139 1 434 142 1 435 140 1 436 143 1 437 146 1 438 144 1 439 147 1 440 150 1 441 148 1 442 151 1 443 154 0 444 152 0 445 155 0 446 158 0 447 156 0 448 159 0 449 162 0 450 160 0 451 163 0 452 166 0 453 164 0 454 167 0 455 170 0 456 168 0 457 171 0 458 174 0 459 172 0 460 175 0 461 178 0 462 176 0 463 179 0 464 182 60 465 180 60 466 183 60 467</p>
        </polylist>
      </mesh>
    </geometry>
  </library_geometries>
  <library_controllers/>
  <library_visual_scenes>
    <visual_scene id="Scene" name="Scene">
      <node id="columns" name="columns" type="NODE">
        <matrix sid="transform">-14.26879 -1.62092e-6 0 0 2.15453e-6 -10.73484 0 0 0 0 10.5434 0 0 0 0 1</matrix>
        <instance_geometry url="#Plane_000-mesh" name="columns">
          <bind_material>
            <technique_common>
              <instance_material symbol="PBR_pillar-material" target="#PBR_pillar-material"/>
            </technique_common>
          </bind_material>
        </instance_geometry>
      </node>
      <node id="Sun" name="Sun" type="NODE">
        <matrix sid="transform">1 0 0 14.19508 0 1 0 10.58329 0 0 1 31.29208 0 0 0 1</matrix>
        <instance_light url="#Sun-light"/>
      </node>
    </visual_scene>
  </library_visual_scenes>
  <scene>
    <instance_visual_scene url="#Scene"/>
  </scene>
</COLLADA>