<?xml version="1.0" encoding="utf-8"?>
<COLLADA xmlns="http://www.collada.org/2005/11/COLLADASchema" version="1.4.1">
  <asset>
    <contributor>
      <author>Blender User</author>
      <authoring_tool>Blender 2.77.0 commit date:2016-04-05, commit time:18:12, hash:abf6f08</authoring_tool>
    </contributor>
    <created>2017-05-12T15:43:01</created>
    <modified>2017-05-12T15:43:01</modified>
    <unit name="meter" meter="1"/>
    <up_axis>Z_UP</up_axis>
  </asset>
  <library_images>
    <image id="PBRFULL_Hip-material_Base_Color_jpg" name="PBRFULL_Hip-material_Base_Color_jpg">
      <init_from>PBRFULL_Hip-material_Base_Color.jpg</init_from>
    </image>
  </library_images>
  <library_effects>
    <effect id="PBRFULL_Neck1-effect">
      <profile_COMMON>
        <newparam sid="PBRFULL_Hip-material_Base_Color_jpg-surface">
          <surface type="2D">
            <init_from>PBRFULL_Hip-material_Base_Color_jpg</init_from>
          </surface>
        </newparam>
        <newparam sid="PBRFULL_Hip-material_Base_Color_jpg-sampler">
          <sampler2D>
            <source>PBRFULL_Hip-material_Base_Color_jpg-surface</source>
          </sampler2D>
        </newparam>
        <technique sid="common">
          <phong>
            <emission>
              <color sid="emission">0 0 0 1</color>
            </emission>
            <ambient>
              <color sid="ambient">0 0 0 1</color>
            </ambient>
            <diffuse>
              <texture texture="PBRFULL_Hip-material_Base_Color_jpg-sampler"/>
            </diffuse>
            <specular>
              <color sid="specular">0.5 0.5 0.5 1</color>
            </specular>
            <shininess>
              <float sid="shininess">50</float>
            </shininess>
            <index_of_refraction>
              <float sid="index_of_refraction">1</float>
            </index_of_refraction>
          </phong>
        </technique>
      </profile_COMMON>
    </effect>
  </library_effects>
  <library_materials>
    <material id="PBRFULL_Neck1-material" name="PBRFULL_Neck1">
      <instance_effect url="#PBRFULL_Neck1-effect"/>
    </material>
  </library_materials>
  <library_geometries>
    <geometry id="Cylinder_004-mesh" name="Cylinder.004">
      <mesh>
        <source id="Cylinder_004-mesh-positions">
          <float_array id="Cylinder_004-mesh-positions-array" count="198">0 0 -0.03849995 0.005740225 0.01385802 -0.03849995 0 0.01499986 -0.03849995 -0.005740225 0.01385807 -0.03849995 -0.01060646 0.01060646 -0.03849995 -0.01385802 0.005740225 -0.03849995 -0.01499986 0 -0.03849995 -0.01385802 -0.005740225 -0.03849995 -0.01060646 -0.01060646 -0.03849995 -0.005740225 -0.01385807 -0.03849995 0 -0.01499986 -0.03849995 0.005740225 -0.01385802 -0.03849995 0.01060646 -0.01060646 -0.03849995 0.01385802 -0.005740225 -0.03849995 0.01499986 0 -0.03849995 0.01385802 0.005740225 -0.03849995 0.01060646 0.01060646 -0.03849995 0 0 0.03849995 0.005740225 0.01385802 0.03849995 0 0.01499986 0.03849995 -0.005740106 0.01385807 0.03849995 -0.0106064 0.01060646 0.03849995 -0.01385802 0.005740225 0.03849995 -0.01499986 0 0.03849995 -0.01385807 -0.005740106 0.03849995 -0.01060646 -0.0106064 0.03849995 -0.005740225 -0.01385802 0.03849995 0 -0.01499986 0.03849995 0.005740225 -0.01385807 0.03849995 0.01060646 -0.01060646 0.03849995 0.01385802 -0.005740225 0.03849995 0.01499986 0 0.03849995 0.01385807 0.005740225 0.03849995 0.01060646 0.01060646 0.03849995 0.01060646 0.01060646 -0.03849995 0.01385802 0.005740225 -0.03849995 0.01499986 0 -0.03849995 0.01385802 -0.005740225 -0.03849995 0.01060646 -0.01060646 -0.03849995 0.005740225 -0.01385802 -0.03849995 0 -0.01499986 -0.03849995 -0.005740225 -0.01385807 -0.03849995 -0.01060646 -0.01060646 -0.03849995 -0.01385802 -0.005740225 -0.03849995 -0.01499986 0 -0.03849995 -0.01385802 0.005740225 -0.03849995 -0.01060646 0.01060646 -0.03849995 -0.005740225 0.01385807 -0.03849995 0 0.01499986 -0.03849995 0.005740225 0.01385802 -0.03849995 0.01060646 0.01060646 0.03849995 0.01385807 0.005740225 0.03849995 0.01499986 0 0.03849995 0.01385802 -0.005740225 0.03849995 0.01060646 -0.01060646 0.03849995 0.005740225 -0.01385807 0.03849995 0 -0.01499986 0.03849995 -0.005740225 -0.01385802 0.03849995 -0.01060646 -0.0106064 0.03849995 -0.01385807 -0.005740106 0.03849995 -0.01499986 0 0.03849995 -0.01385802 0.005740225 0.03849995 -0.0106064 0.01060646 0.03849995 -0.005740106 0.01385807 0.03849995 0 0.01499986 0.03849995 0.005740225 0.01385802 0.03849995</float_array>
          <technique_common>
            <accessor source="#Cylinder_004-mesh-positions-array" count="66" stride="3">
              <param name="X" type="float"/>
              <param name="Y" type="float"/>
              <param name="Z" type="float"/>
            </accessor>
          </technique_common>
        </source>
        <source id="Cylinder_004-mesh-normals">
          <float_array id="Cylinder_004-mesh-normals-array" count="105">0.7071068 0.7071068 0 0.9238803 0.3826816 0 1 0 0 0.9238803 -0.3826816 0 0.7071068 -0.7071068 0 0.3826816 -0.9238803 0 0 -1 0 -0.3826816 -0.9238803 0 -0.7071068 -0.7071068 0 -0.9238803 -0.3826816 0 -1 0 0 -0.9238803 0.3826816 0 -0.7071068 0.7071068 0 -0.3826816 0.9238803 0 0 1 0 0.3826816 0.9238803 0 0 0 -1 0 0 -1 0 0 -1 -6.76026e-7 0 -1 3.38015e-7 0 -1 6.76031e-7 0 -1 -3.38015e-7 0 -1 6.76031e-7 0 1 0 0 1 0 0 1 -6.76022e-7 0 1 3.38014e-7 0 1 0 0 1 3.38011e-7 0 1 -6.76028e-7 0 1 0 0 1 6.76026e-7 0 1 -3.38015e-7 0 1 -3.38013e-7 0 1</float_array>
          <technique_common>
            <accessor source="#Cylinder_004-mesh-normals-array" count="35" stride="3">
              <param name="X" type="float"/>
              <param name="Y" type="float"/>
              <param name="Z" type="float"/>
            </accessor>
          </technique_common>
        </source>
        <source id="Cylinder_004-mesh-map-0">
          <float_array id="Cylinder_004-mesh-map-0-array" count="384">0.2017754 0.862946 0.04684185 0.7434908 0.08506947 0.7059859 0.2148759 0.8438341 0.02604192 0.792831 0.04684185 0.7434908 0.2201096 0.8211676 0.02604192 0.8464478 0.02604192 0.792831 0.2164105 0.7981871 0.04686087 0.8959056 0.02604192 0.8464478 0.2043087 0.7783415 0.08518213 0.9334984 0.04686087 0.8959056 0.1856044 0.7646528 0.1349936 0.9535111 0.08518213 0.9334984 0.1631487 0.7592615 0.1886509 0.9530445 0.1349936 0.9535111 0.140452 0.7630624 0.238095 0.9323163 0.1886509 0.9530445 0.121163 0.7755064 0.2759866 0.8945101 0.238095 0.9323163 0.1084823 0.7946179 0.2966578 0.8453165 0.2759866 0.8945101 0.1046015 0.8172574 0.2968648 0.7922781 0.2966578 0.8453165 0.1079286 0.8402202 0.2761334 0.7432673 0.2968648 0.7922781 0.1194685 0.8602536 0.2379279 0.7059723 0.2761334 0.7432673 0.1376824 0.8742042 0.188318 0.6858348 0.2379279 0.7059723 0.1599443 0.8795917 0.1347238 0.6858123 0.188318 0.6858348 0.08506947 0.7059859 0.1825378 0.875601 0.2017754 0.862946 0.3025481 0.7339161 0.1720376 0.821119 0.2592426 0.6906101 0.1720376 0.821119 0.2026607 0.6671721 0.2592426 0.6906101 0.1720376 0.821119 0.1414168 0.6671715 0.2026607 0.6671721 0.1720376 0.821119 0.08483487 0.6906086 0.1414168 0.6671715 0.1720376 0.821119 0.04152882 0.733914 0.08483487 0.6906086 0.1720376 0.821119 0.01809084 0.7904958 0.04152882 0.733914 0.1720376 0.821119 0.01809084 0.8517398 0.01809084 0.7904958 0.1720376 0.821119 0.04152727 0.9083217 0.01809084 0.8517398 0.1720376 0.821119 0.08483254 0.9516283 0.04152727 0.9083217 0.1720376 0.821119 0.1414145 0.9750658 0.08483254 0.9516283 0.1720376 0.821119 0.2026585 0.9750658 0.1414145 0.9750658 0.1720376 0.821119 0.2592404 0.9516293 0.2026585 0.9750658 0.1720376 0.821119 0.3025465 0.9083238 0.2592404 0.9516293 0.1720376 0.821119 0.3259844 0.851742 0.3025465 0.9083238 0.1720376 0.821119 0.3259844 0.790498 0.3259844 0.851742 0.1720376 0.821119 0.3025481 0.7339161 0.3259844 0.790498 0.16896 0.8260794 0.2994697 0.9132833 0.256164 0.9565889 0.16896 0.8260794 0.256164 0.9565889 0.1995819 0.9800264 0.16896 0.8260794 0.1995819 0.9800264 0.1383392 0.9800262 0.16896 0.8260794 0.1383392 0.9800262 0.08175683 0.9565889 0.16896 0.8260794 0.08175683 0.9565889 0.03845053 0.9132833 0.16896 0.8260794 0.03845053 0.9132833 0.01501297 0.8567013 0.16896 0.8260794 0.01501297 0.8567013 0.01501315 0.7954585 0.16896 0.8260794 0.01501315 0.7954585 0.03845053 0.7388761 0.16896 0.8260794 0.03845053 0.7388761 0.08175623 0.6955698 0.16896 0.8260794 0.08175623 0.6955698 0.1383382 0.6721323 0.16896 0.8260794 0.1383382 0.6721323 0.1995822 0.6721322 0.16896 0.8260794 0.1995822 0.6721322 0.256164 0.6955698 0.16896 0.8260794 0.256164 0.6955698 0.2994696 0.7388755 0.16896 0.8260794 0.2994696 0.7388755 0.3229071 0.7954575 0.16896 0.8260794 0.3229071 0.7954575 0.3229072 0.8567015 0.16896 0.8260794 0.3229072 0.8567015 0.2994697 0.9132833 0.2017754 0.862946 0.2148759 0.8438341 0.04684185 0.7434908 0.2148759 0.8438341 0.2201096 0.8211676 0.02604192 0.792831 0.2201096 0.8211676 0.2164105 0.7981871 0.02604192 0.8464478 0.2164105 0.7981871 0.2043087 0.7783415 0.04686087 0.8959056 0.2043087 0.7783415 0.1856044 0.7646528 0.08518213 0.9334984 0.1856044 0.7646528 0.1631487 0.7592615 0.1349936 0.9535111 0.1631487 0.7592615 0.140452 0.7630624 0.1886509 0.9530445 0.140452 0.7630624 0.121163 0.7755064 0.238095 0.9323163 0.121163 0.7755064 0.1084823 0.7946179 0.2759866 0.8945101 0.1084823 0.7946179 0.1046015 0.8172574 0.2966578 0.8453165 0.1046015 0.8172574 0.1079286 0.8402202 0.2968648 0.7922781 0.1079286 0.8402202 0.1194685 0.8602536 0.2761334 0.7432673 0.1194685 0.8602536 0.1376824 0.8742042 0.2379279 0.7059723 0.1376824 0.8742042 0.1599443 0.8795917 0.188318 0.6858348 0.1599443 0.8795917 0.1825378 0.875601 0.1347238 0.6858123 0.08506947 0.7059859 0.1347238 0.6858123 0.1825378 0.875601</float_array>
          <technique_common>
            <accessor source="#Cylinder_004-mesh-map-0-array" count="192" stride="2">
              <param name="S" type="float"/>
              <param name="T" type="float"/>
            </accessor>
          </technique_common>
        </source>
        <vertices id="Cylinder_004-mesh-vertices">
          <input semantic="POSITION" source="#Cylinder_004-mesh-positions"/>
        </vertices>
        <polylist material="PBRFULL_Neck1-material" count="64">
          <input semantic="VERTEX" source="#Cylinder_004-mesh-vertices" offset="0"/>
          <input semantic="NORMAL" source="#Cylinder_004-mesh-normals" offset="1"/>
          <input semantic="TEXCOORD" source="#Cylinder_004-mesh-map-0" offset="2" set="0"/>
          <vcount>3 3 3 3 3 3 3 3 3 3 3 3 3 3 3 3 3 3 3 3 3 3 3 3 3 3 3 3 3 3 3 3 3 3 3 3 3 3 3 3 3 3 3 3 3 3 3 3 3 3 3 3 3 3 3 3 3 3 3 3 3 3 3 3 </vcount>
          <p>50 0 0 35 1 1 34 0 2 51 1 3 36 2 4 35 1 5 52 2 6 37 3 7 36 2 8 53 3 9 38 4 10 37 3 11 54 4 12 39 5 13 38 4 14 55 5 15 40 6 16 39 5 17 56 6 18 41 7 19 40 6 20 57 7 21 42 8 22 41 7 23 58 8 24 43 9 25 42 8 26 59 9 27 44 10 28 43 9 29 60 10 30 45 11 31 44 10 32 61 11 33 46 12 34 45 11 35 62 12 36 47 13 37 46 12 38 63 13 39 48 14 40 47 13 41 64 14 42 49 15 43 48 14 44 34 0 45 65 15 46 50 0 47 16 16 48 0 16 49 1 16 50 0 17 51 2 17 52 1 17 53 0 18 54 3 18 55 2 18 56 0 19 57 4 19 58 3 19 59 0 20 60 5 20 61 4 20 62 0 16 63 6 16 64 5 16 65 0 16 66 7 16 67 6 16 68 0 20 69 8 20 70 7 20 71 0 19 72 9 19 73 8 19 74 0 18 75 10 18 76 9 18 77 0 17 78 11 17 79 10 17 80 0 21 81 12 21 82 11 21 83 0 22 84 13 22 85 12 22 86 0 16 87 14 16 88 13 16 89 0 16 90 15 16 91 14 16 92 0 22 93 16 22 94 15 22 95 17 23 96 33 23 97 18 23 98 17 24 99 18 24 100 19 24 101 17 25 102 19 25 103 20 25 104 17 26 105 20 26 106 21 26 107 17 27 108 21 27 109 22 27 110 17 28 111 22 28 112 23 28 113 17 28 114 23 28 115 24 28 116 17 29 117 24 29 118 25 29 119 17 30 120 25 30 121 26 30 122 17 31 123 26 31 124 27 31 125 17 24 126 27 24 127 28 24 128 17 32 129 28 32 130 29 32 131 17 33 132 29 33 133 30 33 134 17 28 135 30 28 136 31 28 137 17 28 138 31 28 139 32 28 140 17 34 141 32 34 142 33 34 143 50 0 144 51 1 145 35 1 146 51 1 147 52 2 148 36 2 149 52 2 150 53 3 151 37 3 152 53 3 153 54 4 154 38 4 155 54 4 156 55 5 157 39 5 158 55 5 159 56 6 160 40 6 161 56 6 162 57 7 163 41 7 164 57 7 165 58 8 166 42 8 167 58 8 168 59 9 169 43 9 170 59 9 171 60 10 172 44 10 173 60 10 174 61 11 175 45 11 176 61 11 177 62 12 178 46 12 179 62 12 180 63 13 181 47 13 182 63 13 183 64 14 184 48 14 185 64 14 186 65 15 187 49 15 188 34 0 189 49 15 190 65 15 191</p>
        </polylist>
      </mesh>
    </geometry>
  </library_geometries>
  <library_controllers/>
  <library_visual_scenes>
    <visual_scene id="Scene" name="Scene">
      <node id="neck_1" name="neck_1" type="NODE">
        <matrix sid="transform">1 0 0 0 0 1 0 0 0 0 1 0 0 0 0 1</matrix>
        <node id="neck_1_mesh" name="neck_1_mesh" type="NODE">
          <matrix sid="transform">1 0 0 0 0 1 0 0 0 0 1 0 0 0 0 1</matrix>
          <instance_geometry url="#Cylinder_004-mesh" name="neck_1_mesh">
            <bind_material>
              <technique_common>
                <instance_material symbol="PBRFULL_Neck1-material" target="#PBRFULL_Neck1-material"/>
              </technique_common>
            </bind_material>
          </instance_geometry>
        </node>
      </node>
    </visual_scene>
  </library_visual_scenes>
  <scene>
    <instance_visual_scene url="#Scene"/>
  </scene>
</COLLADA>