<?xml version="1.0" encoding="utf-8"?>
<COLLADA xmlns="http://www.collada.org/2005/11/COLLADASchema" version="1.4.1">
  <asset>
    <contributor>
      <author>Blender User</author>
      <authoring_tool>Blender 2.78.0</authoring_tool>
    </contributor>
    <created>2017-08-30T16:14:23</created>
    <modified>2017-08-30T16:14:23</modified>
    <unit name="meter" meter="1"/>
    <up_axis>Z_UP</up_axis>
  </asset>
  <library_images>
    <image id="PBRFULL_CenterWheel-material_Base_Color_jpg" name="PBRFULL_CenterWheel-material_Base_Color_jpg">
      <init_from>PBRFULL_CenterWheel-material_Base_Color.jpg</init_from>
    </image>
  </library_images>
  <library_effects>
    <effect id="PBRFULL_CenterWheel-effect">
      <profile_COMMON>
        <newparam sid="PBRFULL_CenterWheel-material_Base_Color_jpg-surface">
          <surface type="2D">
            <init_from>PBRFULL_CenterWheel-material_Base_Color_jpg</init_from>
          </surface>
        </newparam>
        <newparam sid="PBRFULL_CenterWheel-material_Base_Color_jpg-sampler">
          <sampler2D>
            <source>PBRFULL_CenterWheel-material_Base_Color_jpg-surface</source>
          </sampler2D>
        </newparam>
        <technique sid="common">
          <phong>
            <emission>
              <color sid="emission">0 0 0 1</color>
            </emission>
            <ambient>
              <color sid="ambient">0 0 0 1</color>
            </ambient>
            <diffuse>
              <texture texture="PBRFULL_CenterWheel-material_Base_Color_jpg-sampler"/>
            </diffuse>
            <specular>
              <color sid="specular">0.5 0.5 0.5 1</color>
            </specular>
            <shininess>
              <float sid="shininess">50</float>
            </shininess>
            <index_of_refraction>
              <float sid="index_of_refraction">1</float>
            </index_of_refraction>
          </phong>
        </technique>
      </profile_COMMON>
    </effect>
  </library_effects>
  <library_materials>
    <material id="PBRFULL_CenterWheel-material" name="PBRFULL_CenterWheel">
      <instance_effect url="#PBRFULL_CenterWheel-effect"/>
    </material>
  </library_materials>
  <library_geometries>
    <geometry id="Center_Wheel-mesh" name="Center Wheel">
      <mesh>
        <source id="Center_Wheel-mesh-positions">
          <float_array id="Center_Wheel-mesh-positions-array" count="438">0.02790611 -0.01587706 0.01155906 0.02135843 -0.01587706 0.02135843 0 -0.01587706 0 0.03020536 -0.01587706 0 0.02790611 -0.01587706 -0.01155906 0.02135843 -0.01587706 -0.02135843 0.01155906 -0.01587706 -0.02790611 0 -0.01587706 -0.03020542 -0.01155906 -0.01587706 -0.02790617 -0.02135843 -0.01587706 -0.02135843 -0.02790611 -0.01587706 -0.01155906 -0.03020536 -0.01587706 0 -0.02790611 -0.01587706 0.01155906 -0.02135843 -0.01587706 0.02135843 -0.011559 -0.01587706 0.02790611 0 -0.01587706 0.03020536 0.01155906 -0.01587706 0.02790611 0.02701038 -0.007840573 0.02701032 0.03529071 -0.007840573 0.01461786 0.03529071 0 0.01461786 0.02701038 0 0.02701032 0.03819841 -0.007840573 0 0.03819841 0 0 0.03529065 -0.007840573 -0.01461786 0.03529065 0 -0.01461786 0.02701032 -0.007840573 -0.02701038 0.02701032 0 -0.02701038 0.01461786 -0.007840573 -0.03529071 0.0146178 0 -0.03529071 0 -0.007840573 -0.03819841 0 0 -0.03819841 -0.01461786 -0.007840573 -0.03529065 -0.01461791 0 -0.03529065 -0.02701038 -0.007840573 -0.02701032 -0.02701044 0 -0.02701026 -0.03529071 -0.007840573 -0.01461786 -0.03529071 0 -0.0146178 -0.03819841 -0.007840573 0 -0.03819841 0 0 -0.03529065 -0.007840573 0.01461786 -0.03529065 0 0.01461791 -0.02701032 -0.007840573 0.02701038 -0.02701026 0 0.02701044 -0.0146178 -0.007840573 0.03529071 -0.0146178 0 0.03529071 0 -0.007840573 0.03819841 1.24675e-7 0 0.03819841 0.01461791 -0.007840573 0.03529065 0.01461797 0 0.03529065 0.03296601 -0.01323091 0.01365488 0.02523118 -0.01323091 0.02523112 0.03568226 -0.01323091 0 0.03296601 -0.01323091 -0.01365494 0.02523112 -0.01323091 -0.02523118 0.01365488 -0.01323091 -0.03296601 0 -0.01323091 -0.03568226 -0.01365494 -0.01323091 -0.03296601 -0.02523118 -0.01323091 -0.02523112 -0.03296601 -0.01323091 -0.01365494 -0.03568226 -0.01323091 0 -0.03296601 -0.01323091 0.01365494 -0.02523112 -0.01323091 0.02523118 -0.01365488 -0.01323091 0.03296601 0 -0.01323091 0.0356822 0.01365494 -0.01323091 0.03296601 0 0.01587706 0 0.02135843 0.01587706 0.02135843 0.02790611 0.01587706 0.01155906 0.03020536 0.01587706 0 0.02790611 0.01587706 -0.01155906 0.02135843 0.01587706 -0.02135843 0.01155906 0.01587706 -0.02790611 0 0.01587706 -0.03020536 -0.01155906 0.01587706 -0.02790611 -0.02135843 0.01587706 -0.02135843 -0.02790611 0.01587706 -0.01155906 -0.03020536 0.01587706 0 -0.02790611 0.01587706 0.01155906 -0.02135843 0.01587706 0.02135843 -0.011559 0.01587706 0.02790617 0 0.01587706 0.03020542 0.01155906 0.01587706 0.02790611 0.02701038 0.007840573 0.02701038 0.03529071 0.007840573 0.01461786 0.03819841 0.007840573 0 0.03529065 0.007840573 -0.01461786 0.02701032 0.007840573 -0.02701038 0.01461786 0.007840573 -0.03529071 0 0.007840573 -0.03819841 -0.01461786 0.007840573 -0.03529065 -0.02701038 0.007840573 -0.02701032 -0.03529071 0.007840573 -0.01461786 -0.03819841 0.007840573 0 -0.03529065 0.007840573 0.01461786 -0.02701032 0.007840573 0.02701044 -0.0146178 0.007840573 0.03529071 0 0.007840573 0.03819841 0.01461791 0.007840573 0.03529065 0.02523118 0.01323091 0.02523112 0.03296601 0.01323091 0.01365494 0.03568226 0.01323091 0 0.03296601 0.01323091 -0.01365494 0.02523112 0.01323091 -0.02523112 0.01365488 0.01323091 -0.03296601 0 0.01323091 -0.0356822 -0.01365494 0.01323091 -0.03296601 -0.02523118 0.01323091 -0.02523112 -0.03296601 0.01323091 -0.01365488 -0.03568226 0.01323091 0 -0.03296601 0.01323091 0.01365494 -0.02523112 0.01323091 0.02523118 -0.01365488 0.01323091 0.03296607 0 0.01323091 0.03568226 0.01365494 0.01323091 0.03296601 -0.02523118 0.01323091 -0.02523112 -0.03296601 0.01323091 -0.01365488 0.02523118 0.01323091 0.02523112 0.03296601 0.01323091 0.01365494 0.01365488 -0.01323091 -0.03296601 0 -0.01323091 -0.03568226 -0.01365488 -0.01323091 0.03296601 0 -0.01323091 0.0356822 -0.03568226 0.01323091 0 0.03568226 0.01323091 0 -0.01365494 -0.01323091 -0.03296601 0.01365494 -0.01323091 0.03296601 0.01365494 0.01323091 0.03296601 -0.03296601 0.01323091 0.01365494 0.03296601 0.01323091 -0.01365494 0.03296601 -0.01323091 0.01365488 0.03568226 -0.01323091 0 0.03296601 -0.01323091 -0.01365494 0.02523112 -0.01323091 -0.02523118 -0.03296601 -0.01323091 0.01365494 -0.02523112 -0.01323091 0.02523118 0.02523118 -0.01323091 0.02523112 -0.01365494 0.01323091 -0.03296601 -0.02523118 -0.01323091 -0.02523112 -0.03296601 -0.01323091 -0.01365494 -0.02523112 0.01323091 0.02523118 -0.01365488 0.01323091 0.03296607 0.02523112 0.01323091 -0.02523112 0.01365488 0.01323091 -0.03296601 -0.03568226 -0.01323091 0 0 0.01323091 -0.0356822 0 0.01323091 0.03568226</float_array>
          <technique_common>
            <accessor source="#Center_Wheel-mesh-positions-array" count="146" stride="3">
              <param name="X" type="float"/>
              <param name="Y" type="float"/>
              <param name="Z" type="float"/>
            </accessor>
          </technique_common>
        </source>
        <source id="Center_Wheel-mesh-normals">
          <float_array id="Center_Wheel-mesh-normals-array" count="438">0.2303261 -0.9684257 0.09540206 0.1762775 -0.9684279 0.1762775 0 -1 0 0.2492798 -0.9684315 0 0.2303261 -0.9684257 -0.09540206 0.1762775 -0.9684279 -0.1762775 0.09540206 -0.9684257 -0.2303261 0 -0.9684315 -0.2492798 -0.09540206 -0.9684257 -0.2303261 -0.1762775 -0.9684279 -0.1762775 -0.2303261 -0.9684257 -0.09540206 -0.2492798 -0.9684315 0 -0.2303261 -0.9684257 0.09540206 -0.1762775 -0.9684279 0.1762775 -0.09540206 -0.9684257 0.2303261 0 -0.9684315 0.2492798 0.09540206 -0.9684257 0.2303261 0.6911669 -0.2111313 0.6911669 0.9030596 -0.211131 0.3740419 0.9238803 0 0.3826816 0.7071068 0 0.7071068 0.9774581 -0.2111294 0 1 0 0 0.9030596 -0.211131 -0.3740419 0.9238803 0 -0.3826816 0.6911669 -0.2111313 -0.6911669 0.7071068 0 -0.7071068 0.3740418 -0.2111309 -0.9030595 0.3826816 0 -0.9238803 0 -0.2111294 -0.9774581 0 0 -1 -0.3740418 -0.2111309 -0.9030595 -0.3826816 0 -0.9238803 -0.6911669 -0.2111313 -0.6911669 -0.7071068 0 -0.7071068 -0.9030596 -0.211131 -0.3740419 -0.9238803 0 -0.3826816 -0.9774581 -0.2111294 0 -1 0 0 -0.9030596 -0.211131 0.3740419 -0.9238803 0 0.3826816 -0.6911669 -0.2111313 0.6911669 -0.7071068 0 0.7071068 -0.3740418 -0.2111309 0.9030595 -0.3826816 0 0.9238803 0 -0.2111294 0.9774581 0 0 1 0.3740418 -0.2111309 0.9030595 0.3826816 0 0.9238803 0.4019113 -0.9004169 0.1664839 0.3076071 -0.9004198 0.3076071 0.6407434 -0.4229608 0.6407434 0.8371726 -0.4229658 0.3467593 0.4350256 -0.9004182 0 0.9061458 -0.4229657 0 0.4019113 -0.9004169 -0.1664839 0.8371726 -0.4229658 -0.3467593 0.3076071 -0.9004198 -0.3076071 0.6407434 -0.4229608 -0.6407434 0.1664839 -0.9004169 -0.4019113 0.3467593 -0.4229658 -0.8371726 0 -0.9004182 -0.4350256 0 -0.4229657 -0.9061458 -0.1664839 -0.9004169 -0.4019113 -0.3467593 -0.4229658 -0.8371726 -0.3076071 -0.9004198 -0.3076071 -0.6407434 -0.4229608 -0.6407434 -0.4019113 -0.9004169 -0.1664839 -0.8371726 -0.4229658 -0.3467593 -0.4350256 -0.9004182 0 -0.9061458 -0.4229657 0 -0.4019113 -0.9004169 0.1664839 -0.8371726 -0.4229658 0.3467593 -0.3076071 -0.9004198 0.3076071 -0.6407434 -0.4229608 0.6407434 -0.1664839 -0.9004169 0.4019113 -0.3467593 -0.4229658 0.8371726 0 -0.9004182 0.4350256 0 -0.4229657 0.9061458 0.1664839 -0.9004169 0.4019113 0.3467593 -0.4229658 0.8371726 0 1 0 0.1762775 0.9684279 0.1762775 0.2303261 0.9684257 0.09540206 0.2492798 0.9684315 0 0.2303261 0.9684257 -0.09540206 0.1762775 0.9684279 -0.1762775 0.09540206 0.9684257 -0.2303261 0 0.9684315 -0.2492798 -0.09540206 0.9684257 -0.2303261 -0.1762775 0.9684279 -0.1762775 -0.2303261 0.9684257 -0.09540206 -0.2492798 0.9684315 0 -0.2303261 0.9684257 0.09540206 -0.1762775 0.9684279 0.1762775 -0.09540206 0.9684257 0.2303261 0 0.9684315 0.2492798 0.09540206 0.9684257 0.2303261 0.6911669 0.2111313 0.6911669 0.9030596 0.211131 0.3740419 0.9774581 0.2111294 0 0.9030596 0.211131 -0.3740419 0.6911669 0.2111313 -0.6911669 0.3740418 0.2111309 -0.9030595 0 0.2111294 -0.9774581 -0.3740418 0.2111309 -0.9030595 -0.6911669 0.2111313 -0.6911669 -0.9030596 0.211131 -0.3740419 -0.9774581 0.2111294 0 -0.9030596 0.211131 0.3740419 -0.6911669 0.2111313 0.6911669 -0.3740418 0.2111309 0.9030595 0 0.2111294 0.9774581 0.3740418 0.2111309 0.9030595 0.3076071 0.9004198 0.3076071 0.4019113 0.9004169 0.1664839 0.6407559 0.4229691 0.6407254 0.8371726 0.4229658 0.3467593 0.4350256 0.9004182 0 0.9061458 0.4229657 0 0.4019113 0.9004169 -0.1664839 0.8371726 0.4229658 -0.3467593 0.3076071 0.9004198 -0.3076071 0.6407434 0.4229608 -0.6407434 0.1664839 0.9004169 -0.4019113 0.3467593 0.4229658 -0.8371726 0 0.9004182 -0.4350256 0 0.4229657 -0.9061458 -0.1664839 0.9004169 -0.4019113 -0.3467593 0.4229658 -0.8371726 -0.3076071 0.9004198 -0.3076071 -0.6407434 0.4229608 -0.6407434 -0.4019113 0.9004169 -0.1664839 -0.8371726 0.4229658 -0.3467593 -0.4350256 0.9004182 0 -0.9061458 0.4229657 0 -0.4019113 0.9004169 0.1664839 -0.8371726 0.4229658 0.3467593 -0.3076071 0.9004198 0.3076071 -0.6407434 0.4229608 0.6407434 -0.1664839 0.9004169 0.4019113 -0.3467593 0.4229658 0.8371726 0 0.9004182 0.4350256 0 0.4229657 0.9061458 0.1664839 0.9004169 0.4019113 0.3467593 0.4229658 0.8371726</float_array>
          <technique_common>
            <accessor source="#Center_Wheel-mesh-normals-array" count="146" stride="3">
              <param name="X" type="float"/>
              <param name="Y" type="float"/>
              <param name="Z" type="float"/>
            </accessor>
          </technique_common>
        </source>
        <source id="Center_Wheel-mesh-map-0">
          <float_array id="Center_Wheel-mesh-map-0-array" count="1344">0.3698776 0.4294095 0.2920955 0.4616281 0.25 0.25 0.25 0.25 0.4294095 0.3698775 0.3698776 0.4294095 0.25 0.25 0.4616279 0.2920953 0.4294095 0.3698775 0.25 0.25 0.4616281 0.2079045 0.4616279 0.2920953 0.25 0.25 0.4294095 0.1301224 0.4616281 0.2079045 0.25 0.25 0.3698778 0.07059007 0.4294095 0.1301224 0.25 0.25 0.2920956 0.03837168 0.3698778 0.07059007 0.25 0.25 0.2079045 0.03837186 0.2920956 0.03837168 0.25 0.25 0.1301224 0.07059049 0.2079045 0.03837186 0.25 0.25 0.07059043 0.1301224 0.1301224 0.07059049 0.25 0.25 0.03837203 0.2079046 0.07059043 0.1301224 0.25 0.25 0.03837186 0.2920955 0.03837203 0.2079046 0.25 0.25 0.07059085 0.3698778 0.03837186 0.2920955 0.25 0.25 0.1301224 0.4294095 0.07059085 0.3698778 0.25 0.25 0.2079046 0.4616279 0.1301224 0.4294095 0.25 0.25 0.2920955 0.4616281 0.2079046 0.4616279 0.6505256 0.07528525 0.6505256 0.1736502 0.5945161 0.1736502 0.6505256 0.07528525 0.5945161 0.1736502 0.5945161 0.07528525 0.6505256 0.1736502 0.6505256 0.2801194 0.5945161 0.2801193 0.6505256 0.1736502 0.5945161 0.2801193 0.5945161 0.1736502 0.6505256 0.2801194 0.6505256 0.3784844 0.5945161 0.3784844 0.6505256 0.2801194 0.5945161 0.3784844 0.5945161 0.2801193 0.6505256 0.3784844 0.6505256 0.4537698 0.5945161 0.4537698 0.6505256 0.3784844 0.5945161 0.4537698 0.5945161 0.3784844 0.1505256 0.5 0.1505256 0.5752852 0.09451615 0.5752856 0.1505256 0.5 0.09451615 0.5752856 0.09451609 0.5 0.1505256 0.5752852 0.1505257 0.6736499 0.09451615 0.6736499 0.1505256 0.5752852 0.09451615 0.6736499 0.09451615 0.5752856 0.1505257 0.6736499 0.1505256 0.7801195 0.09451615 0.7801199 0.1505257 0.6736499 0.09451615 0.7801199 0.09451615 0.6736499 0.1505256 0.7801195 0.1505256 0.8784847 0.09451609 0.8784852 0.1505256 0.7801195 0.09451609 0.8784852 0.09451615 0.7801199 0.339558 0.5 0.339558 0.598365 0.2835484 0.5983654 0.339558 0.5 0.2835484 0.5983654 0.2835484 0.5000005 0.339558 0.598365 0.339558 0.7048342 0.2835484 0.7048342 0.339558 0.598365 0.2835484 0.7048342 0.2835484 0.5983654 0.339558 0.7048342 0.339558 0.8031992 0.2835484 0.8031997 0.339558 0.7048342 0.2835484 0.8031997 0.2835484 0.7048342 0.839558 0 0.839558 0.09836506 0.7835484 0.09836566 0.839558 0 0.7835484 0.09836566 0.7835485 2.52812e-7 0.839558 0.09836506 0.8395579 0.204835 0.7835484 0.204835 0.839558 0.09836506 0.7835484 0.204835 0.7835484 0.09836566 0.8395579 0.204835 0.8395579 0.3031994 0.7835484 0.3032001 0.8395579 0.204835 0.7835484 0.3032001 0.7835484 0.204835 0.8395579 0.3031994 0.839558 0.3784851 0.7835484 0.3784855 0.8395579 0.3031994 0.7835484 0.3784855 0.7835484 0.3032001 0.6505257 0 0.6505256 0.07528525 0.5945161 0.07528525 0.6505257 0 0.5945161 0.07528525 0.5945162 0 0.2920955 0.4616281 0.3698776 0.4294095 0.3916139 0.4619393 0.2920955 0.4616281 0.3916139 0.4619393 0.2997285 0.5 0.6890322 0.08527129 0.6890322 0.1771569 0.6505256 0.1736502 0.6890322 0.08527129 0.6505256 0.1736502 0.6505256 0.07528525 0.3698776 0.4294095 0.4294095 0.3698775 0.46194 0.3916137 0.3698776 0.4294095 0.46194 0.3916137 0.3916139 0.4619393 0.6890322 0.1771569 0.6890322 0.2766128 0.6505256 0.2801194 0.6890322 0.1771569 0.6505256 0.2801194 0.6505256 0.1736502 0.4294095 0.3698775 0.4616279 0.2920953 0.5 0.299728 0.4294095 0.3698775 0.5 0.299728 0.46194 0.3916137 0.6890322 0.2766128 0.6890322 0.3684983 0.6505256 0.3784844 0.6890322 0.2766128 0.6505256 0.3784844 0.6505256 0.2801194 0.4616279 0.2920953 0.4616281 0.2079045 0.5 0.2002715 0.4616279 0.2920953 0.5 0.2002715 0.5 0.299728 0.6890322 0.3684983 0.6890322 0.4388247 0.6505256 0.4537698 0.6890322 0.3684983 0.6505256 0.4537698 0.6505256 0.3784844 0.4616281 0.2079045 0.4294095 0.1301224 0.4619393 0.1083861 0.4616281 0.2079045 0.4619393 0.1083861 0.5 0.2002715 0.1890321 0.5149452 0.1890322 0.5852715 0.1505256 0.5752852 0.1890321 0.5149452 0.1505256 0.5752852 0.1505256 0.5 0.4294095 0.1301224 0.3698778 0.07059007 0.3916137 0.03805994 0.4294095 0.1301224 0.3916137 0.03805994 0.4619393 0.1083861 0.1890322 0.5852715 0.1890323 0.6771566 0.1505257 0.6736499 0.1890322 0.5852715 0.1505257 0.6736499 0.1505256 0.5752852 0.3698778 0.07059007 0.2920956 0.03837168 0.299728 0 0.3698778 0.07059007 0.299728 0 0.3916137 0.03805994 0.1890323 0.6771566 0.1890322 0.7766128 0.1505256 0.7801195 0.1890323 0.6771566 0.1505256 0.7801195 0.1505257 0.6736499 0.2920956 0.03837168 0.2079045 0.03837186 0.2002715 0 0.2920956 0.03837168 0.2002715 0 0.299728 0 0.1890322 0.7766128 0.1890322 0.8684986 0.1505256 0.8784847 0.1890322 0.7766128 0.1505256 0.8784847 0.1505256 0.7801195 0.2079045 0.03837186 0.1301224 0.07059049 0.1083863 0.03806024 0.2079045 0.03837186 0.1083863 0.03806024 0.2002715 0 0.3780645 0.509986 0.3780645 0.6018713 0.339558 0.598365 0.3780645 0.509986 0.339558 0.598365 0.339558 0.5 0.1301224 0.07059049 0.07059043 0.1301224 0.03805994 0.1083862 0.1301224 0.07059049 0.03805994 0.1083862 0.1083863 0.03806024 0.3780645 0.6018713 0.3780645 0.7013276 0.339558 0.7048342 0.3780645 0.6018713 0.339558 0.7048342 0.339558 0.598365 0.07059043 0.1301224 0.03837203 0.2079046 0 0.200272 0.07059043 0.1301224 0 0.200272 0.03805994 0.1083862 0.3780645 0.7013276 0.3780645 0.7932131 0.339558 0.8031992 0.3780645 0.7013276 0.339558 0.8031992 0.339558 0.7048342 0.03837203 0.2079046 0.03837186 0.2920955 0 0.2997285 0.03837203 0.2079046 0 0.2997285 0 0.200272 0.8780646 0.009986042 0.8780645 0.1018717 0.839558 0.09836506 0.8780646 0.009986042 0.839558 0.09836506 0.839558 0 0.03837186 0.2920955 0.07059085 0.3698778 0.0380606 0.3916139 0.03837186 0.2920955 0.0380606 0.3916139 0 0.2997285 0.8780645 0.1018717 0.8780645 0.2013279 0.8395579 0.204835 0.8780645 0.1018717 0.8395579 0.204835 0.839558 0.09836506 0.07059085 0.3698778 0.1301224 0.4294095 0.1083865 0.4619396 0.07059085 0.3698778 0.1083865 0.4619396 0.0380606 0.3916139 0.8780645 0.2013279 0.8780645 0.2932132 0.8395579 0.3031994 0.8780645 0.2013279 0.8395579 0.3031994 0.8395579 0.204835 0.1301224 0.4294095 0.2079046 0.4616279 0.200272 0.5 0.1301224 0.4294095 0.200272 0.5 0.1083865 0.4619396 0.8780645 0.2932132 0.8780646 0.3635395 0.839558 0.3784851 0.8780645 0.2932132 0.839558 0.3784851 0.8395579 0.3031994 0.2079046 0.4616279 0.2920955 0.4616281 0.2997285 0.5 0.2079046 0.4616279 0.2997285 0.5 0.200272 0.5 0.6890323 0.01494508 0.6890322 0.08527129 0.6505256 0.07528525 0.6890323 0.01494508 0.6505256 0.07528525 0.6505257 0 0.75 0.75 0.5383719 0.7079045 0.5705905 0.6301224 0.75 0.75 0.5705905 0.6301224 0.6301224 0.5705905 0.75 0.75 0.6301224 0.5705905 0.7079046 0.538372 0.75 0.75 0.7079046 0.538372 0.7920955 0.5383719 0.75 0.75 0.7920955 0.5383719 0.8698776 0.5705905 0.75 0.75 0.8698776 0.5705905 0.9294095 0.6301224 0.75 0.75 0.9294095 0.6301224 0.961628 0.7079047 0.75 0.75 0.961628 0.7079047 0.9616281 0.7920955 0.75 0.75 0.9616281 0.7920955 0.9294095 0.8698776 0.75 0.75 0.9294095 0.8698776 0.8698776 0.9294095 0.75 0.75 0.8698776 0.9294095 0.7920954 0.961628 0.75 0.75 0.7920954 0.961628 0.7079045 0.9616281 0.75 0.75 0.7079045 0.9616281 0.6301218 0.9294094 0.75 0.75 0.6301218 0.9294094 0.5705901 0.8698778 0.75 0.75 0.5705901 0.8698778 0.538372 0.7920954 0.538372 0.7920954 0.5383719 0.7079045 0.75 0.75 0.5385066 0.07528483 0.5945161 0.07528525 0.5945161 0.1736502 0.5385066 0.07528483 0.5945161 0.1736502 0.5385066 0.1736502 0.5385066 0.1736502 0.5945161 0.1736502 0.5945161 0.2801193 0.5385066 0.1736502 0.5945161 0.2801193 0.5385066 0.2801193 0.5385066 0.2801193 0.5945161 0.2801193 0.5945161 0.3784844 0.5385066 0.2801193 0.5945161 0.3784844 0.5385066 0.3784844 0.5385066 0.3784844 0.5945161 0.3784844 0.5945161 0.4537698 0.5385066 0.3784844 0.5945161 0.4537698 0.5385066 0.4537698 0.03850656 0.5 0.09451609 0.5 0.09451615 0.5752856 0.03850656 0.5 0.09451615 0.5752856 0.03850662 0.5752852 0.03850662 0.5752852 0.09451615 0.5752856 0.09451615 0.6736499 0.03850662 0.5752852 0.09451615 0.6736499 0.03850662 0.6736499 0.03850662 0.6736499 0.09451615 0.6736499 0.09451615 0.7801199 0.03850662 0.6736499 0.09451615 0.7801199 0.03850662 0.7801195 0.03850662 0.7801195 0.09451615 0.7801199 0.09451609 0.8784852 0.03850662 0.7801195 0.09451609 0.8784852 0.03850656 0.8784846 0.2275388 0.5 0.2835484 0.5000005 0.2835484 0.5983654 0.2275388 0.5 0.2835484 0.5983654 0.2275388 0.598365 0.2275388 0.598365 0.2835484 0.5983654 0.2835484 0.7048342 0.2275388 0.598365 0.2835484 0.7048342 0.2275389 0.7048342 0.2275389 0.7048342 0.2835484 0.7048342 0.2835484 0.8031997 0.2275389 0.7048342 0.2835484 0.8031997 0.2275389 0.8031992 0.727539 0 0.7835485 2.52812e-7 0.7835484 0.09836566 0.727539 0 0.7835484 0.09836566 0.7275388 0.0983653 0.7275388 0.0983653 0.7835484 0.09836566 0.7835484 0.204835 0.7275388 0.0983653 0.7835484 0.204835 0.7275388 0.2048349 0.7275388 0.2048349 0.7835484 0.204835 0.7835484 0.3032001 0.7275388 0.2048349 0.7835484 0.3032001 0.7275388 0.3031993 0.7275388 0.3031993 0.7835484 0.3032001 0.7835484 0.3784855 0.7275388 0.3031993 0.7835484 0.3784855 0.7275389 0.3784851 0.5385066 0 0.5945162 0 0.5945161 0.07528525 0.5385066 0 0.5945161 0.07528525 0.5385066 0.07528483 0.5383719 0.7079045 0.5 0.7002715 0.5380603 0.6083863 0.5383719 0.7079045 0.5380603 0.6083863 0.5705905 0.6301224 0.5000001 0.08527123 0.5385066 0.07528483 0.5385066 0.1736502 0.5000001 0.08527123 0.5385066 0.1736502 0.5 0.1771565 0.5705905 0.6301224 0.5380603 0.6083863 0.6083863 0.53806 0.5705905 0.6301224 0.6083863 0.53806 0.6301224 0.5705905 0.5 0.1771565 0.5385066 0.1736502 0.5385066 0.2801193 0.5 0.1771565 0.5385066 0.2801193 0.5 0.2766128 0.6301224 0.5705905 0.6083863 0.53806 0.700272 0.5 0.6301224 0.5705905 0.700272 0.5 0.7079046 0.538372 0.5 0.2766128 0.5385066 0.2801193 0.5385066 0.3784844 0.5 0.2766128 0.5385066 0.3784844 0.5 0.3684982 0.7079046 0.538372 0.700272 0.5 0.7997281 0.5000002 0.7079046 0.538372 0.7997281 0.5000002 0.7920955 0.5383719 0.5 0.3684982 0.5385066 0.3784844 0.5385066 0.4537698 0.5 0.3684982 0.5385066 0.4537698 0.5 0.4388242 0.7920955 0.5383719 0.7997281 0.5000002 0.8916139 0.5380606 0.7920955 0.5383719 0.8916139 0.5380606 0.8698776 0.5705905 0 0.5149452 0.03850656 0.5 0.03850662 0.5752852 0 0.5149452 0.03850662 0.5752852 0 0.5852715 0.8698776 0.5705905 0.8916139 0.5380606 0.9619397 0.6083865 0.8698776 0.5705905 0.9619397 0.6083865 0.9294095 0.6301224 0 0.5852715 0.03850662 0.5752852 0.03850662 0.6736499 0 0.5852715 0.03850662 0.6736499 0 0.6771566 0.9294095 0.6301224 0.9619397 0.6083865 1 0.700272 0.9294095 0.6301224 1 0.700272 0.961628 0.7079047 0 0.6771566 0.03850662 0.6736499 0.03850662 0.7801195 0 0.6771566 0.03850662 0.7801195 0 0.7766128 0.961628 0.7079047 1 0.700272 1 0.7997285 0.961628 0.7079047 1 0.7997285 0.9616281 0.7920955 0 0.7766128 0.03850662 0.7801195 0.03850656 0.8784846 0 0.7766128 0.03850656 0.8784846 0 0.8684986 0.9616281 0.7920955 1 0.7997285 0.9619394 0.8916139 0.9616281 0.7920955 0.9619394 0.8916139 0.9294095 0.8698776 0.1890323 0.5099861 0.2275388 0.5 0.2275388 0.598365 0.1890323 0.5099861 0.2275388 0.598365 0.1890323 0.6018717 0.9294095 0.8698776 0.9619394 0.8916139 0.8916137 0.96194 0.9294095 0.8698776 0.8916137 0.96194 0.8698776 0.9294095 0.1890323 0.6018717 0.2275388 0.598365 0.2275389 0.7048342 0.1890323 0.6018717 0.2275389 0.7048342 0.1890323 0.7013276 0.8698776 0.9294095 0.8916137 0.96194 0.799728 1 0.8698776 0.9294095 0.799728 1 0.7920954 0.961628 0.1890323 0.7013276 0.2275389 0.7048342 0.2275389 0.8031992 0.1890323 0.7013276 0.2275389 0.8031992 0.1890323 0.7932131 0.7920954 0.961628 0.799728 1 0.7002715 1 0.7920954 0.961628 0.7002715 1 0.7079045 0.9616281 0.6890323 0.009985983 0.727539 0 0.7275388 0.0983653 0.6890323 0.009985983 0.7275388 0.0983653 0.6890323 0.1018717 0.7079045 0.9616281 0.7002715 1 0.6083858 0.9619396 0.7079045 0.9616281 0.6083858 0.9619396 0.6301218 0.9294094 0.6890323 0.1018717 0.7275388 0.0983653 0.7275388 0.2048349 0.6890323 0.1018717 0.7275388 0.2048349 0.6890323 0.2013281 0.6301218 0.9294094 0.6083858 0.9619396 0.53806 0.8916137 0.6301218 0.9294094 0.53806 0.8916137 0.5705901 0.8698778 0.6890323 0.2013281 0.7275388 0.2048349 0.7275388 0.3031993 0.6890323 0.2013281 0.7275388 0.3031993 0.6890323 0.2932134 0.5705901 0.8698778 0.53806 0.8916137 0.5 0.799728 0.5705901 0.8698778 0.5 0.799728 0.538372 0.7920954 0.6890323 0.2932134 0.7275388 0.3031993 0.7275389 0.3784851 0.6890323 0.2932134 0.7275389 0.3784851 0.6890323 0.3635395 0.5 0.7002715 0.5383719 0.7079045 0.538372 0.7920954 0.5 0.7002715 0.538372 0.7920954 0.5 0.799728 0.5000001 0.01494503 0.5385066 0 0.5385066 0.07528483 0.5000001 0.01494503 0.5385066 0.07528483 0.5000001 0.08527123</float_array>
          <technique_common>
            <accessor source="#Center_Wheel-mesh-map-0-array" count="672" stride="2">
              <param name="S" type="float"/>
              <param name="T" type="float"/>
            </accessor>
          </technique_common>
        </source>
        <vertices id="Center_Wheel-mesh-vertices">
          <input semantic="POSITION" source="#Center_Wheel-mesh-positions"/>
        </vertices>
        <polylist material="PBRFULL_CenterWheel-material" count="224">
          <input semantic="VERTEX" source="#Center_Wheel-mesh-vertices" offset="0"/>
          <input semantic="NORMAL" source="#Center_Wheel-mesh-normals" offset="1"/>
          <input semantic="TEXCOORD" source="#Center_Wheel-mesh-map-0" offset="2" set="0"/>
          <vcount>3 3 3 3 3 3 3 3 3 3 3 3 3 3 3 3 3 3 3 3 3 3 3 3 3 3 3 3 3 3 3 3 3 3 3 3 3 3 3 3 3 3 3 3 3 3 3 3 3 3 3 3 3 3 3 3 3 3 3 3 3 3 3 3 3 3 3 3 3 3 3 3 3 3 3 3 3 3 3 3 3 3 3 3 3 3 3 3 3 3 3 3 3 3 3 3 3 3 3 3 3 3 3 3 3 3 3 3 3 3 3 3 3 3 3 3 3 3 3 3 3 3 3 3 3 3 3 3 3 3 3 3 3 3 3 3 3 3 3 3 3 3 3 3 3 3 3 3 3 3 3 3 3 3 3 3 3 3 3 3 3 3 3 3 3 3 3 3 3 3 3 3 3 3 3 3 3 3 3 3 3 3 3 3 3 3 3 3 3 3 3 3 3 3 3 3 3 3 3 3 3 3 3 3 3 3 3 3 3 3 3 3 3 3 3 3 3 3 3 3 3 3 3 3 </vcount>
          <p>0 0 0 1 1 1 2 2 2 2 2 3 3 3 4 0 0 5 2 2 6 4 4 7 3 3 8 2 2 9 5 5 10 4 4 11 2 2 12 6 6 13 5 5 14 2 2 15 7 7 16 6 6 17 2 2 18 8 8 19 7 7 20 2 2 21 9 9 22 8 8 23 2 2 24 10 10 25 9 9 26 2 2 27 11 11 28 10 10 29 2 2 30 12 12 31 11 11 32 2 2 33 13 13 34 12 12 35 2 2 36 14 14 37 13 13 38 2 2 39 15 15 40 14 14 41 2 2 42 16 16 43 15 15 44 2 2 45 1 1 46 16 16 47 17 17 48 18 18 49 19 19 50 17 17 51 19 19 52 20 20 53 18 18 54 21 21 55 22 22 56 18 18 57 22 22 58 19 19 59 21 21 60 23 23 61 24 24 62 21 21 63 24 24 64 22 22 65 23 23 66 25 25 67 26 26 68 23 23 69 26 26 70 24 24 71 25 25 72 27 27 73 28 28 74 25 25 75 28 28 76 26 26 77 27 27 78 29 29 79 30 30 80 27 27 81 30 30 82 28 28 83 29 29 84 31 31 85 32 32 86 29 29 87 32 32 88 30 30 89 31 31 90 33 33 91 34 34 92 31 31 93 34 34 94 32 32 95 33 33 96 35 35 97 36 36 98 33 33 99 36 36 100 34 34 101 35 35 102 37 37 103 38 38 104 35 35 105 38 38 106 36 36 107 37 37 108 39 39 109 40 40 110 37 37 111 40 40 112 38 38 113 39 39 114 41 41 115 42 42 116 39 39 117 42 42 118 40 40 119 41 41 120 43 43 121 44 44 122 41 41 123 44 44 124 42 42 125 43 43 126 45 45 127 46 46 128 43 43 129 46 46 130 44 44 131 45 45 132 47 47 133 48 48 134 45 45 135 48 48 136 46 46 137 47 47 138 17 17 139 20 20 140 47 47 141 20 20 142 48 48 143 1 1 144 0 0 145 129 49 146 1 1 147 129 49 148 135 50 149 50 51 150 49 52 151 18 18 152 50 51 153 18 18 154 17 17 155 0 0 156 3 3 157 130 53 158 0 0 159 130 53 160 129 49 161 49 52 162 51 54 163 21 21 164 49 52 165 21 21 166 18 18 167 3 3 168 4 4 169 52 55 170 3 3 171 52 55 172 130 53 173 51 54 174 131 56 175 23 23 176 51 54 177 23 23 178 21 21 179 4 4 180 5 5 181 132 57 182 4 4 183 132 57 184 52 55 185 131 56 186 53 58 187 25 25 188 131 56 189 25 25 190 23 23 191 5 5 192 6 6 193 118 59 194 5 5 195 118 59 196 132 57 197 53 58 198 54 60 199 27 27 200 53 58 201 27 27 202 25 25 203 6 6 204 7 7 205 119 61 206 6 6 207 119 61 208 118 59 209 54 60 210 55 62 211 29 29 212 54 60 213 29 29 214 27 27 215 7 7 216 8 8 217 124 63 218 7 7 219 124 63 220 119 61 221 55 62 222 56 64 223 31 31 224 55 62 225 31 31 226 29 29 227 8 8 228 9 9 229 137 65 230 8 8 231 137 65 232 124 63 233 56 64 234 57 66 235 33 33 236 56 64 237 33 33 238 31 31 239 9 9 240 10 10 241 138 67 242 9 9 243 138 67 244 137 65 245 57 66 246 58 68 247 35 35 248 57 66 249 35 35 250 33 33 251 10 10 252 11 11 253 59 69 254 10 10 255 59 69 256 138 67 257 58 68 258 143 70 259 37 37 260 58 68 261 37 37 262 35 35 263 11 11 264 12 12 265 60 71 266 11 11 267 60 71 268 59 69 269 143 70 270 133 72 271 39 39 272 143 70 273 39 39 274 37 37 275 12 12 276 13 13 277 134 73 278 12 12 279 134 73 280 60 71 281 133 72 282 61 74 283 41 41 284 133 72 285 41 41 286 39 39 287 13 13 288 14 14 289 120 75 290 13 13 291 120 75 292 134 73 293 61 74 294 62 76 295 43 43 296 61 74 297 43 43 298 41 41 299 14 14 300 15 15 301 121 77 302 14 14 303 121 77 304 120 75 305 62 76 306 63 78 307 45 45 308 62 76 309 45 45 310 43 43 311 15 15 312 16 16 313 125 79 314 15 15 315 125 79 316 121 77 317 63 78 318 64 80 319 47 47 320 63 78 321 47 47 322 45 45 323 16 16 324 1 1 325 135 50 326 16 16 327 135 50 328 125 79 329 64 80 330 50 51 331 17 17 332 64 80 333 17 17 334 47 47 335 65 81 336 66 82 337 67 83 338 65 81 339 67 83 340 68 84 341 65 81 342 68 84 343 69 85 344 65 81 345 69 85 346 70 86 347 65 81 348 70 86 349 71 87 350 65 81 351 71 87 352 72 88 353 65 81 354 72 88 355 73 89 356 65 81 357 73 89 358 74 90 359 65 81 360 74 90 361 75 91 362 65 81 363 75 91 364 76 92 365 65 81 366 76 92 367 77 93 368 65 81 369 77 93 370 78 94 371 65 81 372 78 94 373 79 95 374 65 81 375 79 95 376 80 96 377 65 81 378 80 96 379 81 97 380 81 97 381 66 82 382 65 81 383 82 98 384 20 20 385 19 19 386 82 98 387 19 19 388 83 99 389 83 99 390 19 19 391 22 22 392 83 99 393 22 22 394 84 100 395 84 100 396 22 22 397 24 24 398 84 100 399 24 24 400 85 101 401 85 101 402 24 24 403 26 26 404 85 101 405 26 26 406 86 102 407 86 102 408 26 26 409 28 28 410 86 102 411 28 28 412 87 103 413 87 103 414 28 28 415 30 30 416 87 103 417 30 30 418 88 104 419 88 104 420 30 30 421 32 32 422 88 104 423 32 32 424 89 105 425 89 105 426 32 32 427 34 34 428 89 105 429 34 34 430 90 106 431 90 106 432 34 34 433 36 36 434 90 106 435 36 36 436 91 107 437 91 107 438 36 36 439 38 38 440 91 107 441 38 38 442 92 108 443 92 108 444 38 38 445 40 40 446 92 108 447 40 40 448 93 109 449 93 109 450 40 40 451 42 42 452 93 109 453 42 42 454 94 110 455 94 110 456 42 42 457 44 44 458 94 110 459 44 44 460 95 111 461 95 111 462 44 44 463 46 46 464 95 111 465 46 46 466 96 112 467 96 112 468 46 46 469 48 48 470 96 112 471 48 48 472 97 113 473 97 113 474 48 48 475 20 20 476 97 113 477 20 20 478 82 98 479 66 82 480 116 114 481 117 115 482 66 82 483 117 115 484 67 83 485 98 116 486 82 98 487 83 99 488 98 116 489 83 99 490 99 117 491 67 83 492 117 115 493 123 118 494 67 83 495 123 118 496 68 84 497 99 117 498 83 99 499 84 100 500 99 117 501 84 100 502 100 119 503 68 84 504 123 118 505 128 120 506 68 84 507 128 120 508 69 85 509 100 119 510 84 100 511 85 101 512 100 119 513 85 101 514 101 121 515 69 85 516 128 120 517 102 122 518 69 85 519 102 122 520 70 86 521 101 121 522 85 101 523 86 102 524 101 121 525 86 102 526 141 123 527 70 86 528 102 122 529 103 124 530 70 86 531 103 124 532 71 87 533 141 123 534 86 102 535 87 103 536 141 123 537 87 103 538 142 125 539 71 87 540 103 124 541 144 126 542 71 87 543 144 126 544 72 88 545 142 125 546 87 103 547 88 104 548 142 125 549 88 104 550 104 127 551 72 88 552 144 126 553 105 128 554 72 88 555 105 128 556 73 89 557 104 127 558 88 104 559 89 105 560 104 127 561 89 105 562 136 129 563 73 89 564 105 128 565 114 130 566 73 89 567 114 130 568 74 90 569 136 129 570 89 105 571 90 106 572 136 129 573 90 106 574 106 131 575 74 90 576 114 130 577 115 132 578 74 90 579 115 132 580 75 91 581 106 131 582 90 106 583 91 107 584 106 131 585 91 107 586 107 133 587 75 91 588 115 132 589 122 134 590 75 91 591 122 134 592 76 92 593 107 133 594 91 107 595 92 108 596 107 133 597 92 108 598 108 135 599 76 92 600 122 134 601 127 136 602 76 92 603 127 136 604 77 93 605 108 135 606 92 108 607 93 109 608 108 135 609 93 109 610 109 137 611 77 93 612 127 136 613 110 138 614 77 93 615 110 138 616 78 94 617 109 137 618 93 109 619 94 110 620 109 137 621 94 110 622 139 139 623 78 94 624 110 138 625 111 140 626 78 94 627 111 140 628 79 95 629 139 139 630 94 110 631 95 111 632 139 139 633 95 111 634 140 141 635 79 95 636 111 140 637 112 142 638 79 95 639 112 142 640 80 96 641 140 141 642 95 111 643 96 112 644 140 141 645 96 112 646 145 143 647 80 96 648 112 142 649 126 144 650 80 96 651 126 144 652 81 97 653 145 143 654 96 112 655 97 113 656 145 143 657 97 113 658 113 145 659 116 114 660 66 82 661 81 97 662 116 114 663 81 97 664 126 144 665 113 145 666 97 113 667 82 98 668 113 145 669 82 98 670 98 116 671</p>
        </polylist>
      </mesh>
    </geometry>
  </library_geometries>
  <library_controllers/>
  <library_visual_scenes>
    <visual_scene id="Scene" name="Scene">
      <node id="Center_Wheel" name="Center_Wheel" type="NODE">
        <matrix sid="transform">1 0 0 0 0 1 0 0 0 0 1 0 0 0 0 1</matrix>
        <instance_geometry url="#Center_Wheel-mesh" name="Center_Wheel">
          <bind_material>
            <technique_common>
              <instance_material symbol="PBRFULL_CenterWheel-material" target="#PBRFULL_CenterWheel-material"/>
            </technique_common>
          </bind_material>
        </instance_geometry>
      </node>
    </visual_scene>
  </library_visual_scenes>
  <scene>
    <instance_visual_scene url="#Scene"/>
  </scene>
</COLLADA>