<?xml version="1.0" encoding="utf-8"?>
<COLLADA xmlns="http://www.collada.org/2005/11/COLLADASchema" version="1.4.1">
  <asset>
    <contributor>
      <author>Blender User</author>
      <authoring_tool>Blender 2.78.0</authoring_tool>
    </contributor>
    <created>2017-08-30T16:54:33</created>
    <modified>2017-08-30T16:54:33</modified>
    <unit name="meter" meter="1"/>
    <up_axis>Z_UP</up_axis>
  </asset>
  <library_images>
    <image id="PBRFULL_LeftHubCap-material_Base_Color_jpg" name="PBRFULL_LeftHubCap-material_Base_Color_jpg">
      <init_from>PBRFULL_LeftHubCap-material_Base_Color.jpg</init_from>
    </image>
  </library_images>
  <library_effects>
    <effect id="PBRFULL_RightHubCap-effect">
      <profile_COMMON>
        <newparam sid="PBRFULL_LeftHubCap-material_Base_Color_jpg-surface">
          <surface type="2D">
            <init_from>PBRFULL_LeftHubCap-material_Base_Color_jpg</init_from>
          </surface>
        </newparam>
        <newparam sid="PBRFULL_LeftHubCap-material_Base_Color_jpg-sampler">
          <sampler2D>
            <source>PBRFULL_LeftHubCap-material_Base_Color_jpg-surface</source>
          </sampler2D>
        </newparam>
        <technique sid="common">
          <phong>
            <emission>
              <color sid="emission">0 0 0 1</color>
            </emission>
            <ambient>
              <color sid="ambient">0 0 0 1</color>
            </ambient>
            <diffuse>
              <texture texture="PBRFULL_LeftHubCap-material_Base_Color_jpg-sampler"/>
            </diffuse>
            <specular>
              <color sid="specular">0.5 0.5 0.5 1</color>
            </specular>
            <shininess>
              <float sid="shininess">50</float>
            </shininess>
            <index_of_refraction>
              <float sid="index_of_refraction">1</float>
            </index_of_refraction>
          </phong>
        </technique>
      </profile_COMMON>
    </effect>
  </library_effects>
  <library_materials>
    <material id="PBRFULL_RightHubCap-material" name="PBRFULL_RightHubCap">
      <instance_effect url="#PBRFULL_RightHubCap-effect"/>
    </material>
  </library_materials>
  <library_geometries>
    <geometry id="Right_Hubcap-mesh" name="Right Hubcap">
      <mesh>
        <source id="Right_Hubcap-mesh-positions">
          <float_array id="Right_Hubcap-mesh-positions-array" count="438">-0.02084374 0.008601546 -0.03650951 -0.02589797 0.01530081 -0.04526376 -0.03672266 0.01530081 -0.0369578 -0.02957481 0.008601546 -0.02980995 -0.01067602 0.008601546 -0.04072105 -0.01329243 0.01530081 -0.05048531 2.35105e-4 0.008601546 -0.04215759 2.3509e-4 0.01530081 -0.05226624 0.01114624 0.008601546 -0.04072111 0.01376259 0.01530081 -0.05048531 0.02131396 0.008601546 -0.03650963 0.02636826 0.01530081 -0.04526388 0.03004515 0.008601546 -0.02980995 0.037193 0.01530081 -0.0369578 0.03674477 0.008601546 -0.02107882 0.04549902 0.01530081 -0.02613312 0.04095631 0.008601546 -0.0109111 0.05072057 0.01530081 -0.01352751 0.04239284 0.008601546 0 0.05250144 0.01530081 0 0.04095637 0.008601546 0.01091116 0.05072057 0.01530081 0.01352751 0.03674483 0.008601546 0.02107888 0.04549908 0.01530081 0.02613312 0.03004521 0.008601546 0.02981001 0.037193 0.01530081 0.03695785 0.02131402 0.008601546 0.03650969 0.02636831 0.01530081 0.04526394 0.0111463 0.008601546 0.04072123 0.01376271 0.01530081 0.05048549 2.35194e-4 0.008601546 0.0421577 2.352e-4 0.01530081 0.05226635 -0.01067596 0.008601546 0.04072123 -0.01329231 0.01530081 0.05048543 -0.02084368 0.008601546 0.03650969 -0.02589792 0.01530081 0.04526394 -0.02957481 0.008601546 0.02981007 -0.03672266 0.01530081 0.03695785 -0.03627443 0.008601546 0.02107888 -0.04502874 0.01530081 0.02613312 -0.04048597 0.008601546 0.01091116 -0.05025023 0.01530081 0.01352757 -0.04192245 0.008601546 0 -0.05203109 0.01530081 0 -0.04048597 0.008601546 -0.0109111 -0.05025017 0.01530081 -0.01352745 -0.03627443 0.008601546 -0.02107876 -0.04502868 0.01530081 -0.02613312 2.35161e-4 0.008509993 0 -0.02957481 -0.007995903 -0.02980995 -0.02084374 -0.007995903 -0.03650951 2.35161e-4 -0.00790435 0 -0.01067602 -0.007995903 -0.04072105 2.35105e-4 -0.007995903 -0.04215759 0.01114624 -0.007995903 -0.04072111 0.02131396 -0.007995903 -0.03650963 0.03004515 -0.007995903 -0.02980995 0.03674483 -0.007995903 -0.02107882 0.04095631 -0.007995903 -0.0109111 0.04239284 -0.007995903 0 0.04095637 -0.007995903 0.01091116 0.03674483 -0.007995903 0.02107888 0.03004521 -0.007995903 0.02981001 0.02131402 -0.007995903 0.03650969 0.0111463 -0.007995903 0.04072123 2.35194e-4 -0.007995903 0.0421577 -0.01067596 -0.007995903 0.04072123 -0.02084368 -0.007995903 0.03650969 -0.02957481 -0.007995903 0.02981007 -0.03627449 -0.007995903 0.02107888 -0.04048597 -0.007995903 0.01091116 -0.04192245 -0.007995903 0 -0.04048597 -0.007995903 -0.0109111 -0.03627443 -0.007995903 -0.02107876 -0.04502874 -0.0146951 -0.02613312 -0.03672266 -0.0146951 -0.0369578 -0.05025017 -0.0146951 -0.01352745 -0.05203109 -0.0146951 0 -0.05025023 -0.0146951 0.01352757 -0.04502874 -0.0146951 0.02613317 -0.03672266 -0.0146951 0.03695785 -0.02589792 -0.0146951 0.04526406 -0.01329231 -0.0146951 0.05048549 2.352e-4 -0.0146951 0.05226635 0.01376271 -0.0146951 0.05048549 0.02636831 -0.0146951 0.04526394 0.03719305 -0.0146951 0.03695785 0.04549908 -0.0146951 0.02613312 0.05072057 -0.0146951 0.01352751 0.05250144 -0.0146951 0 0.05072057 -0.0146951 -0.01352751 0.04549902 -0.0146951 -0.02613312 0.037193 -0.0146951 -0.0369578 0.02636826 -0.0146951 -0.04526388 0.01376259 -0.0146951 -0.05048531 2.3509e-4 -0.0146951 -0.05226624 -0.01329243 -0.0146951 -0.05048531 -0.02589797 -0.0146951 -0.04526376 -0.04048597 -0.007995903 -0.0109111 -0.03627443 -0.007995903 -0.02107876 0.04239284 -0.007995903 0 0.04095637 -0.007995903 0.01091116 -0.02957481 -0.007995903 -0.02980995 -0.02957481 -0.007995903 0.02981007 -0.03627449 -0.007995903 0.02107888 0.02131402 -0.007995903 0.03650969 0.0111463 -0.007995903 0.04072123 0.04095637 0.008601546 0.01091116 0.03674483 0.008601546 0.02107888 2.35194e-4 -0.007995903 0.0421577 0.04095631 0.008601546 -0.0109111 0.04239284 0.008601546 0 -0.01067602 -0.007995903 -0.04072105 2.35105e-4 -0.007995903 -0.04215759 0.03004521 0.008601546 0.02981001 0.02131402 0.008601546 0.03650969 -0.04192245 0.008601546 0 -0.04048597 0.008601546 -0.0109111 -0.04192245 -0.007995903 0 0.0111463 0.008601546 0.04072123 2.35194e-4 0.008601546 0.0421577 -0.02084368 -0.007995903 0.03650969 0.03004515 -0.007995903 -0.02980995 0.03674483 -0.007995903 -0.02107882 0.01114624 0.008601546 -0.04072111 0.02131396 0.008601546 -0.03650963 0.03674483 -0.007995903 0.02107888 0.03004515 0.008601546 -0.02980995 0.03674477 0.008601546 -0.02107882 -0.03627443 0.008601546 0.02107888 -0.04048597 0.008601546 0.01091116 -0.02957481 0.008601546 -0.02980995 -0.03627443 0.008601546 -0.02107876 -0.02084368 0.008601546 0.03650969 -0.02957481 0.008601546 0.02981007 -0.01067602 0.008601546 -0.04072105 2.35105e-4 0.008601546 -0.04215759 0.01114624 -0.007995903 -0.04072111 -0.02084374 -0.007995903 -0.03650951 0.04095631 -0.007995903 -0.0109111 -0.04048597 -0.007995903 0.01091116 0.03004521 -0.007995903 0.02981001 -0.01067596 -0.007995903 0.04072123 -0.02084374 0.008601546 -0.03650951 0.02131396 -0.007995903 -0.03650963 -0.01067596 0.008601546 0.04072123</float_array>
          <technique_common>
            <accessor source="#Right_Hubcap-mesh-positions-array" count="146" stride="3">
              <param name="X" type="float"/>
              <param name="Y" type="float"/>
              <param name="Z" type="float"/>
            </accessor>
          </technique_common>
        </source>
        <source id="Right_Hubcap-mesh-normals">
          <float_array id="Right_Hubcap-mesh-normals-array" count="300">0.2761973 0.8335664 0.4784164 0.3906151 0.8335705 0.3906151 0.1429817 0.8335664 0.5335948 0 0.8335638 0.5524233 -0.1429517 0.8335701 0.5335971 -0.2761973 0.8335664 0.4784164 -0.3906151 0.8335705 0.3906151 -0.4784164 0.8335664 0.2761973 -0.5335948 0.8335664 0.1429817 -0.5524233 0.8335638 0 -0.5335971 0.8335701 -0.1429517 -0.4784164 0.8335664 -0.2761973 -0.3906151 0.8335705 -0.3906151 -0.2761973 0.8335664 -0.4784164 -0.1429517 0.8335701 -0.5335971 0 0.8335638 -0.5524233 0.1429517 0.8335701 -0.5335971 0.1429817 0.8335664 -0.5335948 0.2761973 0.8335664 -0.4784164 0.3906151 0.8335705 -0.3906151 0.4784164 0.8335664 -0.2761973 0.5335971 0.8335701 -0.1429517 0.5524233 0.8335638 0 0.5335948 0.8335664 0.1429817 0.4784164 0.8335664 0.2761973 0.001861631 0.9999977 0.001068174 0 1 0 0.001525938 0.9999977 0.001525938 0.002075314 0.9999977 5.49349e-4 0.002166867 0.9999977 0 0.002075314 0.9999977 -5.49349e-4 0.001861631 0.9999977 -0.001068174 0.001525938 0.9999977 -0.001525938 0.001068174 0.9999977 -0.001861631 5.49349e-4 0.9999977 -0.002075314 0 0.9999977 -0.002166867 -5.49349e-4 0.9999977 -0.002075314 -0.001068174 0.9999977 -0.001861631 -0.001525938 0.9999977 -0.001525938 -0.001861631 0.9999977 -0.001068174 -0.002075314 0.9999977 -5.49349e-4 -0.002166867 0.9999977 0 -0.002075314 0.9999977 5.49349e-4 -0.001861631 0.9999977 0.001068174 -0.001525938 0.9999977 0.001525938 -0.001068174 0.9999977 0.001861631 -5.49349e-4 0.9999977 0.002075314 0 0.9999977 0.002166867 5.49349e-4 0.9999977 0.002075314 0.001068174 0.9999977 0.001861631 0.001525938 -0.9999977 0.001525938 0.001068174 -0.9999977 0.001861631 0 -1 0 5.49349e-4 -0.9999977 0.002075314 0 -0.9999977 0.002166867 -5.49349e-4 -0.9999977 0.002075314 -0.001068174 -0.9999977 0.001861631 -0.001525938 -0.9999977 0.001525938 -0.001861631 -0.9999977 0.001068174 -0.002075314 -0.9999977 5.49349e-4 -0.002166867 -0.9999977 0 -0.002075314 -0.9999977 -5.49349e-4 -0.001861631 -0.9999977 -0.001068174 -0.001525938 -0.9999977 -0.001525938 -0.001068174 -0.9999977 -0.001861631 -5.49349e-4 -0.9999977 -0.002075314 0 -0.9999977 -0.002166867 5.49349e-4 -0.9999977 -0.002075314 0.001068174 -0.9999977 -0.001861631 0.001525938 -0.9999977 -0.001525938 0.001861631 -0.9999977 -0.001068174 0.002075314 -0.9999977 -5.49349e-4 0.002166867 -0.9999977 0 0.002075314 -0.9999977 5.49349e-4 0.001861631 -0.9999977 0.001068174 0.4784164 -0.8335664 0.2761973 0.3906151 -0.8335705 0.3906151 0.5335971 -0.8335701 0.1429517 0.5335948 -0.8335664 0.1429817 0.5524233 -0.8335638 0 0.5335971 -0.8335701 -0.1429517 0.4784164 -0.8335664 -0.2761973 0.3906151 -0.8335705 -0.3906151 0.2761973 -0.8335664 -0.4784164 0.1429517 -0.8335701 -0.5335971 0 -0.8335638 -0.5524233 -0.1429517 -0.8335701 -0.5335971 -0.2761973 -0.8335664 -0.4784164 -0.3906151 -0.8335705 -0.3906151 -0.4784164 -0.8335664 -0.2761973 -0.5335971 -0.8335701 -0.1429517 -0.5524233 -0.8335638 0 -0.5335948 -0.8335664 0.1429817 -0.4784164 -0.8335664 0.2761973 -0.3906151 -0.8335705 0.3906151 -0.2761973 -0.8335664 0.4784164 -0.1429517 -0.8335701 0.5335971 0 -0.8335638 0.5524233 0.1429817 -0.8335664 0.5335948 0.2761973 -0.8335664 0.4784164</float_array>
          <technique_common>
            <accessor source="#Right_Hubcap-mesh-normals-array" count="100" stride="3">
              <param name="X" type="float"/>
              <param name="Y" type="float"/>
              <param name="Z" type="float"/>
            </accessor>
          </technique_common>
        </source>
        <source id="Right_Hubcap-mesh-map-0">
          <float_array id="Right_Hubcap-mesh-map-0-array" count="864">0.9047333 0.1316239 0.9499701 0.09655827 0.9828699 0.1535423 0.9047333 0.1316239 0.9828699 0.1535423 0.9300988 0.1757048 0.9499701 0.09655827 0.9047333 0.1316239 0.8688227 0.09560948 0.9499701 0.09655827 0.8688227 0.09560948 0.9034428 0.05003046 0.9034428 0.05003046 0.8688227 0.09560948 0.8248147 0.07011657 0.9034428 0.05003046 0.8248147 0.07011657 0.8464583 0.01713043 0.8464583 0.01713043 0.8248147 0.07011657 0.7757082 0.0568825 0.8464583 0.01713043 0.7757082 0.0568825 0.7829005 1.00194e-4 0.7829005 1.00194e-4 0.7757082 0.0568825 0.7248497 0.056809 0.7829005 1.00194e-4 0.7248497 0.056809 0.7171005 9.996e-5 0.7171005 9.996e-5 0.7248497 0.056809 0.675705 0.0699014 0.7171005 9.996e-5 0.675705 0.0699014 0.6535425 0.01713019 0.6535425 0.01713019 0.675705 0.0699014 0.6316237 0.09526711 0.6535425 0.01713019 0.6316237 0.09526711 0.5965582 0.05003029 0.5965582 0.05003029 0.6316237 0.09526711 0.5956093 0.1311777 0.5965582 0.05003029 0.5956093 0.1311777 0.5500304 0.09655767 0.5500304 0.09655767 0.5956093 0.1311777 0.5701165 0.1751856 0.5500304 0.09655767 0.5701165 0.1751856 0.5171304 0.1535421 0.5171304 0.1535421 0.5701165 0.1751856 0.5568825 0.2242921 0.5171304 0.1535421 0.5568825 0.2242921 0.5001001 0.2170999 0.5001001 0.2170999 0.5568825 0.2242921 0.5568093 0.2751508 0.5001001 0.2170999 0.5568093 0.2751508 0.5001002 0.2829 0.5001002 0.2829 0.5568093 0.2751508 0.5699015 0.3242952 0.5001002 0.2829 0.5699015 0.3242952 0.5171304 0.346458 0.5171304 0.346458 0.5699015 0.3242952 0.5952674 0.3683768 0.5171304 0.346458 0.5952674 0.3683768 0.5500304 0.4034423 0.5500304 0.4034423 0.5952674 0.3683768 0.6311779 0.4043911 0.5500304 0.4034423 0.6311779 0.4043911 0.5965579 0.4499701 0.5965579 0.4499701 0.6311779 0.4043911 0.6751858 0.4298837 0.5965579 0.4499701 0.6751858 0.4298837 0.6535422 0.4828699 0.6535422 0.4828699 0.6751858 0.4298837 0.7242923 0.4431177 0.6535422 0.4828699 0.7242923 0.4431177 0.7171001 0.4999 0.7171001 0.4999 0.7242923 0.4431177 0.775151 0.443191 0.7171001 0.4999 0.775151 0.443191 0.7829001 0.4999 0.7829001 0.4999 0.775151 0.443191 0.8242953 0.4300988 0.7829001 0.4999 0.8242953 0.4300988 0.8464578 0.4828698 0.8464578 0.4828698 0.8242953 0.4300988 0.8683766 0.4047328 0.8464578 0.4828698 0.8683766 0.4047328 0.9034425 0.4499697 0.9034425 0.4499697 0.8683766 0.4047328 0.9043911 0.3688223 0.9034425 0.4499697 0.9043911 0.3688223 0.94997 0.4034423 0.94997 0.4034423 0.9043911 0.3688223 0.9298837 0.3248142 0.94997 0.4034423 0.9298837 0.3248142 0.98287 0.3464577 0.98287 0.3464577 0.9298837 0.3248142 0.9431177 0.2757079 0.98287 0.3464577 0.9431177 0.2757079 0.9999 0.2829001 0.9999 0.2829001 0.9431177 0.2757079 0.943191 0.2248495 0.9999 0.2829001 0.943191 0.2248495 0.9999001 0.2171 0.9999001 0.2171 0.943191 0.2248495 0.9300988 0.1757048 0.9999001 0.2171 0.9300988 0.1757048 0.9828699 0.1535423 0.943191 0.2248495 0.7500004 0.2499998 0.9300988 0.1757048 0.9431177 0.2757079 0.7500004 0.2499998 0.943191 0.2248495 0.9298837 0.3248142 0.7500004 0.2499998 0.9431177 0.2757079 0.9043911 0.3688223 0.7500004 0.2499998 0.9298837 0.3248142 0.8683766 0.4047328 0.7500004 0.2499998 0.9043911 0.3688223 0.8242953 0.4300988 0.7500004 0.2499998 0.8683766 0.4047328 0.775151 0.443191 0.7500004 0.2499998 0.8242953 0.4300988 0.7242923 0.4431177 0.7500004 0.2499998 0.775151 0.443191 0.6751858 0.4298837 0.7500004 0.2499998 0.7242923 0.4431177 0.6311779 0.4043911 0.7500004 0.2499998 0.6751858 0.4298837 0.5952674 0.3683768 0.7500004 0.2499998 0.6311779 0.4043911 0.5699015 0.3242952 0.7500004 0.2499998 0.5952674 0.3683768 0.5568093 0.2751508 0.7500004 0.2499998 0.5699015 0.3242952 0.5568825 0.2242921 0.7500004 0.2499998 0.5568093 0.2751508 0.5701165 0.1751856 0.7500004 0.2499998 0.5568825 0.2242921 0.5956093 0.1311777 0.7500004 0.2499998 0.5701165 0.1751856 0.6316237 0.09526711 0.7500004 0.2499998 0.5956093 0.1311777 0.675705 0.0699014 0.7500004 0.2499998 0.6316237 0.09526711 0.7248497 0.056809 0.7500004 0.2499998 0.675705 0.0699014 0.7757082 0.0568825 0.7500004 0.2499998 0.7248497 0.056809 0.8248147 0.07011657 0.7500004 0.2499998 0.7757082 0.0568825 0.8688227 0.09560948 0.7500004 0.2499998 0.8248147 0.07011657 0.9047333 0.1316239 0.7500004 0.2499998 0.8688227 0.09560948 0.9300988 0.1757048 0.7500004 0.2499998 0.9047333 0.1316239 0.09526729 0.1316231 0.1311776 0.0956093 0.25 0.2499997 0.1311776 0.0956093 0.1751857 0.0701164 0.25 0.2499997 0.1751857 0.0701164 0.2242921 0.05688226 0.25 0.2499997 0.2242921 0.05688226 0.2751505 0.05680894 0.25 0.2499997 0.2751505 0.05680894 0.3242952 0.0699011 0.25 0.2499997 0.3242952 0.0699011 0.3683768 0.09526699 0.25 0.2499997 0.3683768 0.09526699 0.4043911 0.1311774 0.25 0.2499997 0.4043911 0.1311774 0.4298838 0.1751857 0.25 0.2499997 0.4298838 0.1751857 0.4431179 0.2242919 0.25 0.2499997 0.4431179 0.2242919 0.4431912 0.2751504 0.25 0.2499997 0.4431912 0.2751504 0.4300988 0.3242951 0.25 0.2499997 0.4300988 0.3242951 0.4047331 0.3683764 0.25 0.2499997 0.4047331 0.3683764 0.3688224 0.4043909 0.25 0.2499997 0.3688224 0.4043909 0.3248142 0.4298837 0.25 0.2499997 0.3248142 0.4298837 0.2757079 0.4431176 0.25 0.2499997 0.2757079 0.4431176 0.2248494 0.4431909 0.25 0.2499997 0.2248494 0.4431909 0.1757047 0.4300985 0.25 0.2499997 0.1757047 0.4300985 0.1316235 0.4047328 0.25 0.2499997 0.1316235 0.4047328 0.095609 0.3688221 0.25 0.2499997 0.095609 0.3688221 0.0701164 0.3248139 0.25 0.2499997 0.0701164 0.3248139 0.0568825 0.2757073 0.25 0.2499997 0.0568825 0.2757073 0.05680918 0.224849 0.25 0.2499997 0.05680918 0.224849 0.06990164 0.1757047 0.25 0.2499997 0.06990164 0.1757047 0.09526729 0.1316231 0.25 0.2499997 0.01713031 0.1535418 0.05003052 0.09655749 0.09526729 0.1316231 0.01713031 0.1535418 0.09526729 0.1316231 0.06990164 0.1757047 1.00247e-4 0.2170997 0.01713031 0.1535418 0.06990164 0.1757047 1.00247e-4 0.2170997 0.06990164 0.1757047 0.05680918 0.224849 9.996e-5 0.2828994 1.00247e-4 0.2170997 0.05680918 0.224849 9.996e-5 0.2828994 0.05680918 0.224849 0.0568825 0.2757073 0.01713019 0.3464576 9.996e-5 0.2828994 0.0568825 0.2757073 0.01713019 0.3464576 0.0568825 0.2757073 0.0701164 0.3248139 0.05003011 0.4034421 0.01713019 0.3464576 0.0701164 0.3248139 0.05003011 0.4034421 0.0701164 0.3248139 0.095609 0.3688221 0.09655785 0.4499695 0.05003011 0.4034421 0.095609 0.3688221 0.09655785 0.4499695 0.095609 0.3688221 0.1316235 0.4047328 0.1535422 0.4828698 0.09655785 0.4499695 0.1316235 0.4047328 0.1535422 0.4828698 0.1316235 0.4047328 0.1757047 0.4300985 0.2171002 0.4999002 0.1535422 0.4828698 0.1757047 0.4300985 0.2171002 0.4999002 0.1757047 0.4300985 0.2248494 0.4431909 0.2829001 0.4999001 0.2171002 0.4999002 0.2248494 0.4431909 0.2829001 0.4999001 0.2248494 0.4431909 0.2757079 0.4431176 0.3464579 0.4828699 0.2829001 0.4999001 0.2757079 0.4431176 0.3464579 0.4828699 0.2757079 0.4431176 0.3248142 0.4298837 0.4034425 0.4499697 0.3464579 0.4828699 0.3248142 0.4298837 0.4034425 0.4499697 0.3248142 0.4298837 0.3688224 0.4043909 0.4499702 0.4034421 0.4034425 0.4499697 0.3688224 0.4043909 0.4499702 0.4034421 0.3688224 0.4043909 0.4047331 0.3683764 0.4828699 0.3464576 0.4499702 0.4034421 0.4047331 0.3683764 0.4828699 0.3464576 0.4047331 0.3683764 0.4300988 0.3242951 0.4999002 0.2828997 0.4828699 0.3464576 0.4300988 0.3242951 0.4999002 0.2828997 0.4300988 0.3242951 0.4431912 0.2751504 0.4999002 0.2170998 0.4999002 0.2828997 0.4431912 0.2751504 0.4999002 0.2170998 0.4431912 0.2751504 0.4431179 0.2242919 0.48287 0.153542 0.4999002 0.2170998 0.4431179 0.2242919 0.48287 0.153542 0.4431179 0.2242919 0.4298838 0.1751857 0.4499698 0.09655773 0.48287 0.153542 0.4298838 0.1751857 0.4499698 0.09655773 0.4298838 0.1751857 0.4043911 0.1311774 0.4034423 0.05002999 0.4499698 0.09655773 0.4043911 0.1311774 0.4034423 0.05002999 0.4043911 0.1311774 0.3683768 0.09526699 0.3464577 0.01713001 0.4034423 0.05002999 0.3683768 0.09526699 0.3464577 0.01713001 0.3683768 0.09526699 0.3242952 0.0699011 0.2828997 1.00014e-4 0.3464577 0.01713001 0.3242952 0.0699011 0.2828997 1.00014e-4 0.3242952 0.0699011 0.2751505 0.05680894 0.2170999 9.996e-5 0.2828997 1.00014e-4 0.2751505 0.05680894 0.2170999 9.996e-5 0.2751505 0.05680894 0.2242921 0.05688226 0.1535421 0.01713019 0.2170999 9.996e-5 0.2242921 0.05688226 0.1535421 0.01713019 0.2242921 0.05688226 0.1751857 0.0701164 0.09655785 0.05003035 0.1535421 0.01713019 0.1751857 0.0701164 0.09655785 0.05003035 0.1751857 0.0701164 0.1311776 0.0956093 0.1311776 0.0956093 0.09526729 0.1316231 0.05003052 0.09655749 0.1311776 0.0956093 0.05003052 0.09655749 0.09655785 0.05003035</float_array>
          <technique_common>
            <accessor source="#Right_Hubcap-mesh-map-0-array" count="432" stride="2">
              <param name="S" type="float"/>
              <param name="T" type="float"/>
            </accessor>
          </technique_common>
        </source>
        <vertices id="Right_Hubcap-mesh-vertices">
          <input semantic="POSITION" source="#Right_Hubcap-mesh-positions"/>
        </vertices>
        <polylist material="PBRFULL_RightHubCap-material" count="144">
          <input semantic="VERTEX" source="#Right_Hubcap-mesh-vertices" offset="0"/>
          <input semantic="NORMAL" source="#Right_Hubcap-mesh-normals" offset="1"/>
          <input semantic="TEXCOORD" source="#Right_Hubcap-mesh-map-0" offset="2" set="0"/>
          <vcount>3 3 3 3 3 3 3 3 3 3 3 3 3 3 3 3 3 3 3 3 3 3 3 3 3 3 3 3 3 3 3 3 3 3 3 3 3 3 3 3 3 3 3 3 3 3 3 3 3 3 3 3 3 3 3 3 3 3 3 3 3 3 3 3 3 3 3 3 3 3 3 3 3 3 3 3 3 3 3 3 3 3 3 3 3 3 3 3 3 3 3 3 3 3 3 3 3 3 3 3 3 3 3 3 3 3 3 3 3 3 3 3 3 3 3 3 3 3 3 3 3 3 3 3 3 3 3 3 3 3 3 3 3 3 3 3 3 3 3 3 3 3 3 3 </vcount>
          <p>143 0 0 1 0 1 2 1 2 143 0 3 2 1 4 131 1 5 1 0 6 143 0 7 135 2 8 1 0 9 135 2 10 5 2 11 5 2 12 135 2 13 136 3 14 5 2 15 136 3 16 7 3 17 7 3 18 136 3 19 124 4 20 7 3 21 124 4 22 9 4 23 9 4 24 124 4 25 125 5 26 9 4 27 125 5 28 11 5 29 11 5 30 125 5 31 127 6 32 11 5 33 127 6 34 13 6 35 13 6 36 127 6 37 128 7 38 13 6 39 128 7 40 15 7 41 15 7 42 128 7 43 110 8 44 15 7 45 110 8 46 17 8 47 17 8 48 110 8 49 111 9 50 17 8 51 111 9 52 19 9 53 19 9 54 111 9 55 107 10 56 19 9 57 107 10 58 21 10 59 21 10 60 107 10 61 108 11 62 21 10 63 108 11 64 23 11 65 23 11 66 108 11 67 114 12 68 23 11 69 114 12 70 25 12 71 25 12 72 114 12 73 115 13 74 25 12 75 115 13 76 27 13 77 27 13 78 115 13 79 119 14 80 27 13 81 119 14 82 29 14 83 29 14 84 119 14 85 120 15 86 29 14 87 120 15 88 31 15 89 31 15 90 120 15 91 145 16 92 31 15 93 145 16 94 33 17 95 33 17 96 145 16 97 34 18 98 33 17 99 34 18 100 35 18 101 35 18 102 34 18 103 134 19 104 35 18 105 134 19 106 37 19 107 37 19 108 134 19 109 38 20 110 37 19 111 38 20 112 39 20 113 39 20 114 38 20 115 130 21 116 39 20 117 130 21 118 41 21 119 41 21 120 130 21 121 42 22 122 41 21 123 42 22 124 43 22 125 43 22 126 42 22 127 117 23 128 43 22 129 117 23 130 45 23 131 45 23 132 117 23 133 132 24 134 45 23 135 132 24 136 47 24 137 47 24 138 132 24 139 131 1 140 47 24 141 131 1 142 2 1 143 46 25 144 48 26 145 3 27 146 44 28 147 48 26 148 46 25 149 116 29 150 48 26 151 44 28 152 40 30 153 48 26 154 116 29 155 129 31 156 48 26 157 40 30 158 36 32 159 48 26 160 129 31 161 133 33 162 48 26 163 36 32 164 32 34 165 48 26 166 133 33 167 30 35 168 48 26 169 32 34 170 28 36 171 48 26 172 30 35 173 26 37 174 48 26 175 28 36 176 24 38 177 48 26 178 26 37 179 22 39 180 48 26 181 24 38 182 20 40 183 48 26 184 22 39 185 18 41 186 48 26 187 20 40 188 16 42 189 48 26 190 18 41 191 14 43 192 48 26 193 16 42 194 12 44 195 48 26 196 14 43 197 10 45 198 48 26 199 12 44 200 8 46 201 48 26 202 10 45 203 6 47 204 48 26 205 8 46 206 4 48 207 48 26 208 6 47 209 0 49 210 48 26 211 4 48 212 3 27 213 48 26 214 0 49 215 102 50 216 50 51 217 51 52 218 50 51 219 112 53 220 51 52 221 112 53 222 113 54 223 51 52 224 113 54 225 54 55 226 51 52 227 54 55 228 55 56 229 51 52 230 55 56 231 122 57 232 51 52 233 122 57 234 123 58 235 51 52 236 123 58 237 58 59 238 51 52 239 58 59 240 59 60 241 51 52 242 59 60 243 101 61 244 51 52 245 101 61 246 126 62 247 51 52 248 126 62 249 62 63 250 51 52 251 62 63 252 105 64 253 51 52 254 105 64 255 106 65 256 51 52 257 106 65 258 65 66 259 51 52 260 65 66 261 66 67 262 51 52 263 66 67 264 121 68 265 51 52 266 121 68 267 103 69 268 51 52 269 103 69 270 69 70 271 51 52 272 69 70 273 70 71 274 51 52 275 70 71 276 118 72 277 51 52 278 118 72 279 98 73 280 51 52 281 98 73 282 99 74 283 51 52 284 99 74 285 102 50 286 51 52 287 74 75 288 75 76 289 49 76 290 74 75 291 49 76 292 73 75 293 76 77 294 74 75 295 73 75 296 76 77 297 73 75 298 72 78 299 77 79 300 76 77 301 72 78 302 77 79 303 72 78 304 71 79 305 78 80 306 77 79 307 71 79 308 78 80 309 71 79 310 140 80 311 79 81 312 78 80 313 140 80 314 79 81 315 140 80 316 104 81 317 80 82 318 79 81 319 104 81 320 80 82 321 104 81 322 68 82 323 81 83 324 80 82 325 68 82 326 81 83 327 68 82 328 67 83 329 82 84 330 81 83 331 67 83 332 82 84 333 67 83 334 142 84 335 83 85 336 82 84 337 142 84 338 83 85 339 142 84 340 109 85 341 84 86 342 83 85 343 109 85 344 84 86 345 109 85 346 64 86 347 85 87 348 84 86 349 64 86 350 85 87 351 64 86 352 63 87 353 86 88 354 85 87 355 63 87 356 86 88 357 63 87 358 141 88 359 87 89 360 86 88 361 141 88 362 87 89 363 141 88 364 61 89 365 88 90 366 87 89 367 61 89 368 88 90 369 61 89 370 60 90 371 89 91 372 88 90 373 60 90 374 89 91 375 60 90 376 100 91 377 90 92 378 89 91 379 100 91 380 90 92 381 100 91 382 139 92 383 91 93 384 90 92 385 139 92 386 91 93 387 139 92 388 57 93 389 92 94 390 91 93 391 57 93 392 92 94 393 57 93 394 56 94 395 93 95 396 92 94 397 56 94 398 93 95 399 56 94 400 144 95 401 94 96 402 93 95 403 144 95 404 94 96 405 144 95 406 137 96 407 95 97 408 94 96 409 137 96 410 95 97 411 137 96 412 53 97 413 96 98 414 95 97 415 53 97 416 96 98 417 53 97 418 52 98 419 97 99 420 96 98 421 52 98 422 97 99 423 52 98 424 138 99 425 138 99 426 49 76 427 75 76 428 138 99 429 75 76 430 97 99 431</p>
        </polylist>
      </mesh>
    </geometry>
  </library_geometries>
  <library_controllers/>
  <library_visual_scenes>
    <visual_scene id="Scene" name="Scene">
      <node id="Right_Hubcap" name="Right_Hubcap" type="NODE">
        <matrix sid="transform">1 0 0 0 0 1 0 0 0 0 1 0 0 0 0 1</matrix>
        <instance_geometry url="#Right_Hubcap-mesh" name="Right_Hubcap">
          <bind_material>
            <technique_common>
              <instance_material symbol="PBRFULL_RightHubCap-material" target="#PBRFULL_RightHubCap-material"/>
            </technique_common>
          </bind_material>
        </instance_geometry>
      </node>
    </visual_scene>
  </library_visual_scenes>
  <scene>
    <instance_visual_scene url="#Scene"/>
  </scene>
</COLLADA>