<?xml version="1.0" encoding="utf-8"?>
<COLLADA xmlns="http://www.collada.org/2005/11/COLLADASchema" version="1.4.1">
  <asset>
    <contributor>
      <author>Blender User</author>
      <authoring_tool>Blender 2.78.0</authoring_tool>
    </contributor>
    <created>2017-11-23T15:41:51</created>
    <modified>2017-11-23T15:41:51</modified>
    <unit name="meter" meter="1"/>
    <up_axis>Z_UP</up_axis>
  </asset>
  <library_images/>
  <library_effects>
    <effect id="PBRFULL_Window-effect">
      <profile_COMMON>
        <technique sid="common">
          <phong>
            <emission>
              <color sid="emission">0 0 0 1</color>
            </emission>
            <ambient>
              <color sid="ambient">0 0 0 1</color>
            </ambient>
            <diffuse>
              <color sid="diffuse">0.64 0.64 0.64 1</color>
            </diffuse>
            <specular>
              <color sid="specular">0.25 0.25 0.25 1</color>
            </specular>
            <shininess>
              <float sid="shininess">50</float>
            </shininess>
            <index_of_refraction>
              <float sid="index_of_refraction">1</float>
            </index_of_refraction>
          </phong>
        </technique>
      </profile_COMMON>
    </effect>
  </library_effects>
  <library_materials>
    <material id="PBRFULL_Window-material" name="PBRFULL_Window">
      <instance_effect url="#PBRFULL_Window-effect"/>
    </material>
  </library_materials>
  <library_geometries>
    <geometry id="Cube_005-mesh" name="Cube.005">
      <mesh>
        <source id="Cube_005-mesh-positions">
          <float_array id="Cube_005-mesh-positions-array" count="120">-1.004183 -0.07983303 -3.64184e-4 -1.004183 -0.07983303 1.999636 -1.004183 0.08819818 -3.64184e-4 -1.004183 0.08819818 1.999636 -0.8528817 -0.07983303 -3.64184e-4 -0.8528817 -0.07983303 1.999636 -0.8528817 0.08819818 -3.64184e-4 -0.8528817 0.08819818 1.999636 0.8516058 -0.07983303 -3.64184e-4 0.8516058 -0.07983303 1.999636 0.8516058 0.08819818 -3.64184e-4 0.8516058 0.08819818 1.999636 1.002907 -0.07983303 -3.64184e-4 1.002907 -0.07983303 1.999636 1.002907 0.08819818 -3.64184e-4 1.002907 0.08819818 1.999636 -0.8528817 -0.07983303 1.888898 0.8516058 0.08819818 1.888898 -1.004183 -0.07983303 1.888898 1.002907 -0.07983303 1.888898 1.002907 0.08819818 1.888898 -1.004183 0.08819818 1.888898 0.8516058 -0.07983303 1.888898 -0.8528817 0.08819818 1.888898 -1.004183 -0.07983303 0.1029378 -0.8528817 -0.07983303 0.1029379 0.8516058 0.08819818 0.1029379 1.002907 0.08819818 0.1029379 1.002907 -0.07983303 0.1029379 -1.004183 0.08819818 0.1029379 0.8516058 -0.07983303 0.1029378 -0.8528817 0.08819818 0.1029379 -0.8377157 0.350752 0.1794645 -0.8377157 -0.4818938 1.736255 -0.8377157 0.4721806 0.2444103 -0.8377157 -0.3604652 1.8012 0.8522385 0.350752 0.1794645 0.8522385 -0.4818938 1.736255 0.8522385 0.4721806 0.2444103 0.8522385 -0.3604652 1.8012</float_array>
          <technique_common>
            <accessor source="#Cube_005-mesh-positions-array" count="40" stride="3">
              <param name="X" type="float"/>
              <param name="Y" type="float"/>
              <param name="Z" type="float"/>
            </accessor>
          </technique_common>
        </source>
        <source id="Cube_005-mesh-normals">
          <float_array id="Cube_005-mesh-normals-array" count="45">-1 0 0 0 1 0 0 0 1 0 -1 0 0 0 -1 1 0 0 -1 3.06462e-7 0 0 0.8817979 0.4716277 0 -0.8817979 -0.4716277 0 0.4716276 -0.8817979 0 -0.4716276 0.8817979 0 -4.43405e-7 1 1 -2.14524e-7 0 0 0.4716276 -0.8817979 0 -0.4716276 0.8817979</float_array>
          <technique_common>
            <accessor source="#Cube_005-mesh-normals-array" count="15" stride="3">
              <param name="X" type="float"/>
              <param name="Y" type="float"/>
              <param name="Z" type="float"/>
            </accessor>
          </technique_common>
        </source>
        <source id="Cube_005-mesh-map-0">
          <float_array id="Cube_005-mesh-map-0-array" count="456">0 0 0 0 0 0 0 0 0 0 0 0 0 0 0 0 0 0 0 0 0 0 0 0 0 0 0 0 0 0 0 0 0 0 0 0 0 0 0 0 0 0 0 0 0 0 0 0 0 0 0 0 0 0 0 0 0 0 0 0 0 0 0 0 0 0 0 0 0 0 0 0 0 0 0 0 0 0 0 0 0 0 0 0 0 0 0 0 0 0 0 0 0 0 0 0 0 0 0 0 0 0 0 0 0 0 0 0 0 0 0 0 0 0 0 0 0 0 0 0 0 0 0 0 0 0 0 0 0 0 0 0 0 0 0 0 0 0 0 0 0 0 0 0 0 0 0 0 0 0 0 0 0 0 0 0 0 0 0 0 0 0 0 0 0 0 0 0 0 0 0 0 0 0 0 0 0 0 0 0 0 0 0 0 0 0 0 0 0 0 0 0 0 0 0 0 0 0 0 0 0 0 0 0 0 0 0 0 0 0 0 0 0 0 0 0 0 0 0 0 0 0 0 0 0 0 0 0 0 0 0 0 0 0 0 0 0 0 0 0 0 0 0 0 0 0 0 0 0 0 0 0 0 0 0 0 0 0 0 0 0 0 0 0 0 0 0 0 0 0 0 0 0 0 0 0 0 0 0 0 0 0 0 0 0 0 0 0 0 0 0 0 0 0 0 0 0 0 0 0 0 0 0 0 0 0 0 0 0 0 0 0 0 0 0 0 0 0 0 0 0 0 0 0 0 0 0 0 0 0 0 0 0 0 0 0 0 0 0 0 0 0 0 0 0 0 0 0 0 0 0 0 0 0 0 0 0 0 0 0 0 0 0 0 0 0 0 0 0 0 0 0 0 0 0 0 0 0 0 0 0 0 0 0 0 0 0 0 0 0 0 0 0 0 0 0 0 0 0 0 0 0 0 0 0 0 0 0 0 0 0 0 0 0 0 0 0 0 0 0 0 0 0 0 0 0 0 0 0 0 0 0 0 0 0 0 0 0 0 0 0 0 0 0 0 0 0 0 0 0 0 0 0 0 0 0</float_array>
          <technique_common>
            <accessor source="#Cube_005-mesh-map-0-array" count="228" stride="2">
              <param name="S" type="float"/>
              <param name="T" type="float"/>
            </accessor>
          </technique_common>
        </source>
        <vertices id="Cube_005-mesh-vertices">
          <input semantic="POSITION" source="#Cube_005-mesh-positions"/>
        </vertices>
        <polylist material="PBRFULL_Window-material" count="76">
          <input semantic="VERTEX" source="#Cube_005-mesh-vertices" offset="0"/>
          <input semantic="NORMAL" source="#Cube_005-mesh-normals" offset="1"/>
          <input semantic="TEXCOORD" source="#Cube_005-mesh-map-0" offset="2" set="0"/>
          <vcount>3 3 3 3 3 3 3 3 3 3 3 3 3 3 3 3 3 3 3 3 3 3 3 3 3 3 3 3 3 3 3 3 3 3 3 3 3 3 3 3 3 3 3 3 3 3 3 3 3 3 3 3 3 3 3 3 3 3 3 3 3 3 3 3 3 3 3 3 3 3 3 3 3 3 3 3 </vcount>
          <p>24 0 0 2 0 1 0 0 2 29 1 3 6 1 4 2 1 5 5 2 6 11 2 7 7 2 8 4 3 9 24 3 10 0 3 11 6 4 12 0 4 13 2 4 14 3 2 15 5 2 16 7 2 17 9 3 18 16 3 19 22 3 20 26 1 21 14 1 22 10 1 23 27 5 24 12 5 25 14 5 26 12 3 27 30 3 28 8 3 29 14 4 30 8 4 31 10 4 32 11 2 33 13 2 34 15 2 35 19 3 36 9 3 37 22 3 38 17 4 39 16 4 40 23 4 41 16 3 42 1 3 43 18 3 44 18 0 45 3 0 46 21 0 47 17 1 48 15 1 49 20 1 50 21 1 51 7 1 52 23 1 53 20 5 54 13 5 55 19 5 56 31 5 57 16 5 58 25 5 59 28 3 60 22 3 61 30 3 62 26 0 63 22 0 64 17 0 65 25 3 66 18 3 67 24 3 68 29 0 69 18 0 70 21 0 71 26 1 72 20 1 73 27 1 74 29 1 75 23 1 76 31 1 77 27 5 78 19 5 79 28 5 80 23 1 81 11 1 82 17 1 83 25 2 84 26 2 85 31 2 86 4 3 87 30 3 88 25 3 89 6 4 90 8 4 91 4 4 92 31 1 93 10 1 94 6 1 95 33 6 96 34 6 97 32 6 98 35 7 99 38 7 100 34 7 101 38 5 102 37 5 103 36 5 104 37 8 105 32 8 106 36 8 107 38 9 108 32 9 109 34 9 110 35 10 111 37 10 112 39 10 113 24 0 114 29 0 115 2 0 116 29 1 117 31 1 118 6 1 119 5 2 120 9 2 121 11 2 122 4 3 123 25 3 124 24 3 125 6 4 126 4 4 127 0 4 128 3 2 129 1 2 130 5 2 131 9 3 132 5 3 133 16 3 134 26 1 135 27 1 136 14 1 137 27 5 138 28 5 139 12 5 140 12 3 141 28 3 142 30 3 143 14 4 144 12 4 145 8 4 146 11 2 147 9 2 148 13 2 149 19 3 150 13 3 151 9 3 152 17 4 153 22 4 154 16 4 155 16 3 156 5 3 157 1 3 158 18 0 159 1 0 160 3 0 161 17 1 162 11 1 163 15 1 164 21 1 165 3 1 166 7 1 167 20 5 168 15 5 169 13 5 170 31 5 171 23 5 172 16 5 173 28 3 174 19 3 175 22 3 176 26 0 177 30 0 178 22 0 179 25 3 180 16 3 181 18 3 182 29 0 183 24 0 184 18 0 185 26 1 186 17 1 187 20 1 188 29 1 189 21 1 190 23 1 191 27 5 192 20 5 193 19 5 194 23 1 195 7 1 196 11 1 197 25 11 198 30 11 199 26 11 200 4 3 201 8 3 202 30 3 203 6 4 204 10 4 205 8 4 206 31 1 207 26 1 208 10 1 209 33 0 210 35 0 211 34 0 212 35 7 213 39 7 214 38 7 215 38 12 216 39 12 217 37 12 218 37 8 219 33 8 220 32 8 221 38 13 222 36 13 223 32 13 224 35 14 225 33 14 226 37 14 227</p>
        </polylist>
      </mesh>
    </geometry>
  </library_geometries>
  <library_controllers/>
  <library_visual_scenes>
    <visual_scene id="Scene" name="Scene">
      <node id="CollSquareWindow" name="CollSquareWindow" type="NODE">
        <matrix sid="transform">1 0 0 0 0 1 0 0 0 0 1 0 0 0 0 1</matrix>
        <instance_geometry url="#Cube_005-mesh" name="CollSquareWindow">
          <bind_material>
            <technique_common>
              <instance_material symbol="PBRFULL_Window-material" target="#PBRFULL_Window-material"/>
            </technique_common>
          </bind_material>
        </instance_geometry>
      </node>
    </visual_scene>
  </library_visual_scenes>
  <scene>
    <instance_visual_scene url="#Scene"/>
  </scene>
</COLLADA>