<?xml version="1.0" encoding="utf-8"?>
<COLLADA xmlns="http://www.collada.org/2005/11/COLLADASchema" version="1.4.1">
  <asset>
    <contributor>
      <author>Blender User</author>
      <authoring_tool>Blender 2.77.0 commit date:2016-04-05, commit time:18:12, hash:abf6f08</authoring_tool>
    </contributor>
    <created>2017-08-18T09:15:34</created>
    <modified>2017-08-18T09:15:34</modified>
    <unit name="meter" meter="1"/>
    <up_axis>Z_UP</up_axis>
  </asset>
  <library_images>
    <image id="PBRFULL_CarpetGround-material_Base_Color_jpg" name="PBRFULL_CarpetGround-material_Base_Color_jpg">
      <init_from>PBRFULL_CarpetGround-material_Base_Color.jpg</init_from>
    </image>
  </library_images>
  <library_effects>
    <effect id="PBRFULL_CarpetGround-effect">
      <profile_COMMON>
        <newparam sid="PBRFULL_CarpetGround-material_Base_Color_jpg-surface">
          <surface type="2D">
            <init_from>PBRFULL_CarpetGround-material_Base_Color_jpg</init_from>
          </surface>
        </newparam>
        <newparam sid="PBRFULL_CarpetGround-material_Base_Color_jpg-sampler">
          <sampler2D>
            <source>PBRFULL_CarpetGround-material_Base_Color_jpg-surface</source>
          </sampler2D>
        </newparam>
        <technique sid="common">
          <lambert>
            <emission>
              <color sid="emission">0 0 0 1</color>
            </emission>
            <ambient>
              <color sid="ambient">0 0 0 1</color>
            </ambient>
            <diffuse>
              <texture texture="PBRFULL_CarpetGround-material_Base_Color_jpg-sampler"/>
            </diffuse>
            <index_of_refraction>
              <float sid="index_of_refraction">1</float>
            </index_of_refraction>
          </lambert>
        </technique>
      </profile_COMMON>
    </effect>
  </library_effects>
  <library_materials>
    <material id="PBRFULL_CarpetGround-material" name="PBRFULL_CarpetGround">
      <instance_effect url="#PBRFULL_CarpetGround-effect"/>
    </material>
  </library_materials>
  <library_geometries>
    <geometry id="Cube-mesh" name="Cube">
      <mesh>
        <source id="Cube-mesh-positions">
          <float_array id="Cube-mesh-positions-array" count="24">5 5 0 -5 5 0 5 -5 0 -5 -5 0 5 5 0.02499997 -5 5 0.02499997 5 -5 0.02499997 -5 -5 0.02499997</float_array>
          <technique_common>
            <accessor source="#Cube-mesh-positions-array" count="8" stride="3">
              <param name="X" type="float"/>
              <param name="Y" type="float"/>
              <param name="Z" type="float"/>
            </accessor>
          </technique_common>
        </source>
        <source id="Cube-mesh-normals">
          <float_array id="Cube-mesh-normals-array" count="15">0 0 1 -1 0 0 1 0 0 0 -1 0 0 1 0</float_array>
          <technique_common>
            <accessor source="#Cube-mesh-normals-array" count="5" stride="3">
              <param name="X" type="float"/>
              <param name="Y" type="float"/>
              <param name="Z" type="float"/>
            </accessor>
          </technique_common>
        </source>
        <source id="Cube-mesh-map-0">
          <float_array id="Cube-mesh-map-0-array" count="60">6.0606e-4 6.24428e-4 0.9703024 0.9993755 6.06205e-4 0.9993758 0.9715145 6.2422e-4 0.9775754 0.9993758 0.9715148 0.9993758 0.9933333 6.2422e-4 0.9993939 0.9993758 0.9933334 0.9993758 0.9787876 6.2422e-4 0.9848483 0.9993757 0.9787877 0.9993757 0.9921212 0.9993757 0.9860604 6.2422e-4 0.992121 6.2422e-4 6.0606e-4 6.24428e-4 0.9703022 6.2422e-4 0.9703024 0.9993755 0.9715145 6.2422e-4 0.9775751 6.2422e-4 0.9775754 0.9993758 0.9933333 6.2422e-4 0.9993939 6.2422e-4 0.9993939 0.9993758 0.9787876 6.2422e-4 0.9848482 6.2422e-4 0.9848483 0.9993757 0.9921212 0.9993757 0.9860606 0.9993757 0.9860604 6.2422e-4</float_array>
          <technique_common>
            <accessor source="#Cube-mesh-map-0-array" count="30" stride="2">
              <param name="S" type="float"/>
              <param name="T" type="float"/>
            </accessor>
          </technique_common>
        </source>
        <source id="Cube-mesh-colors-Col" name="Col">
          <float_array id="Cube-mesh-colors-Col-array" count="90">1 1 1 1 1 1 1 1 1 1 1 1 1 1 1 1 1 1 1 1 1 1 1 1 1 1 1 1 1 1 1 1 1 1 1 1 1 1 1 1 1 1 1 1 1 1 1 1 1 1 1 1 1 1 1 1 1 1 1 1 1 1 1 1 1 1 1 1 1 1 1 1 1 1 1 1 1 1 1 1 1 1 1 1 1 1 1 1 1 1</float_array>
          <technique_common>
            <accessor source="#Cube-mesh-colors-Col-array" count="30" stride="3">
              <param name="R" type="float"/>
              <param name="G" type="float"/>
              <param name="B" type="float"/>
            </accessor>
          </technique_common>
        </source>
        <vertices id="Cube-mesh-vertices">
          <input semantic="POSITION" source="#Cube-mesh-positions"/>
        </vertices>
        <polylist material="PBRFULL_CarpetGround-material" count="10">
          <input semantic="VERTEX" source="#Cube-mesh-vertices" offset="0"/>
          <input semantic="NORMAL" source="#Cube-mesh-normals" offset="1"/>
          <input semantic="TEXCOORD" source="#Cube-mesh-map-0" offset="2" set="0"/>
          <input semantic="COLOR" source="#Cube-mesh-colors-Col" offset="3" set="0"/>
          <vcount>3 3 3 3 3 3 3 3 3 3 </vcount>
          <p>6 0 0 0 5 0 1 1 7 0 2 2 3 1 3 3 5 1 4 4 1 1 5 5 0 2 6 6 6 2 7 7 2 2 8 8 2 3 9 9 7 3 10 10 3 3 11 11 1 4 12 12 4 4 13 13 0 4 14 14 6 0 15 15 4 0 16 16 5 0 17 17 3 1 18 18 7 1 19 19 5 1 20 20 0 2 21 21 4 2 22 22 6 2 23 23 2 3 24 24 6 3 25 25 7 3 26 26 1 4 27 27 5 4 28 28 4 4 29 29</p>
        </polylist>
      </mesh>
    </geometry>
  </library_geometries>
  <library_controllers/>
  <library_visual_scenes>
    <visual_scene id="Scene" name="Scene">
      <node id="carpet" name="carpet" type="NODE">
        <matrix sid="transform">0.6 0 0 0 0 0.6 0 0 0 0 1 0 0 0 0 1</matrix>
        <instance_geometry url="#Cube-mesh" name="carpet">
          <bind_material>
            <technique_common>
              <instance_material symbol="PBRFULL_CarpetGround-material" target="#PBRFULL_CarpetGround-material"/>
            </technique_common>
          </bind_material>
        </instance_geometry>
      </node>
    </visual_scene>
  </library_visual_scenes>
  <scene>
    <instance_visual_scene url="#Scene"/>
  </scene>
</COLLADA>