<?xml version="1.0" encoding="utf-8"?>
<COLLADA xmlns="http://www.collada.org/2005/11/COLLADASchema" version="1.4.1" xmlns:xsi="http://www.w3.org/2001/XMLSchema-instance">
  <asset>
    <contributor>
      <author>Blender User</author>
      <authoring_tool>Blender 2.79.0 commit date:2017-09-11, commit time:10:43, hash:5bd8ac9abfa</authoring_tool>
    </contributor>
    <created>2017-12-18T15:06:00</created>
    <modified>2017-12-18T15:06:00</modified>
    <unit name="meter" meter="1"/>
    <up_axis>Z_UP</up_axis>
  </asset>
  <library_images/>
  <library_effects>
    <effect id="Wood_Oak_001-effect">
      <profile_COMMON>
        <technique sid="common">
          <phong>
            <emission>
              <color sid="emission">0 0 0 1</color>
            </emission>
            <ambient>
              <color sid="ambient">0 0 0 1</color>
            </ambient>
            <diffuse>
              <color sid="diffuse">0.8406016 0.5458646 0 1</color>
            </diffuse>
            <specular>
              <color sid="specular">1.58076e-5 1.58076e-5 1.58076e-5 1</color>
            </specular>
            <shininess>
              <float sid="shininess">13</float>
            </shininess>
            <index_of_refraction>
              <float sid="index_of_refraction">1</float>
            </index_of_refraction>
          </phong>
        </technique>
      </profile_COMMON>
    </effect>
  </library_effects>
  <library_materials>
    <material id="Wood_Oak_001-material" name="Wood_Oak_001">
      <instance_effect url="#Wood_Oak_001-effect"/>
    </material>
  </library_materials>
  <library_geometries>
    <geometry id="Cube_002-mesh" name="Cube.002">
      <mesh>
        <source id="Cube_002-mesh-positions">
          <float_array id="Cube_002-mesh-positions-array" count="96">-0.5 -0.5 0.5 -0.5 0.5 0.5 -0.5 0.5 -0.5 -0.5 0.406376 -0.5 -0.5 0.406376 0.4075574 -0.5 -0.406376 0.4075574 -0.5 -0.406376 -0.5 -0.5 -0.5 -0.5 0.5 -0.5 0.5 -0.4037088 -0.5 -0.5 -0.4037088 -0.5 0.4013945 0.4037088 -0.5 0.4013945 0.4037088 -0.5 -0.5 0.5 -0.5 -0.5 0.5 0.5 0.5 0.5 0.5 -0.5 0.4037088 0.5 -0.5 0.4037088 0.5 0.4013945 -0.4037088 0.5 0.4013945 -0.4037088 0.5 -0.5 -0.4037088 0.406376 -0.5 -0.4037088 0.406376 0.4013945 0.4037088 0.406376 0.4013945 0.4037088 0.406376 -0.5 0.5 0.406376 -0.5 0.5 0.406376 0.4075574 0.5 -0.406376 0.4075574 0.5 -0.406376 -0.5 0.4037088 -0.406376 -0.5 0.4037088 -0.406376 0.4013945 -0.4037088 -0.406376 0.4013945 -0.4037088 -0.406376 -0.5</float_array>
          <technique_common>
            <accessor source="#Cube_002-mesh-positions-array" count="32" stride="3">
              <param name="X" type="float"/>
              <param name="Y" type="float"/>
              <param name="Z" type="float"/>
            </accessor>
          </technique_common>
        </source>
        <source id="Cube_002-mesh-normals">
          <float_array id="Cube_002-mesh-normals-array" count="36">-1 0 0 0 -1 3.02238e-7 0 0 1 0 1 3.02238e-7 0 0 -1 0 -1 0 0 1 0 1 0 0 0 -1 -3.74327e-7 0 1 -3.74327e-7 0 -1 -9.67151e-6 0 1 -9.67151e-6</float_array>
          <technique_common>
            <accessor source="#Cube_002-mesh-normals-array" count="12" stride="3">
              <param name="X" type="float"/>
              <param name="Y" type="float"/>
              <param name="Z" type="float"/>
            </accessor>
          </technique_common>
        </source>
        <vertices id="Cube_002-mesh-vertices">
          <input semantic="POSITION" source="#Cube_002-mesh-positions"/>
        </vertices>
        <triangles material="Wood_Oak_001-material" count="60">
          <input semantic="VERTEX" source="#Cube_002-mesh-vertices" offset="0"/>
          <input semantic="NORMAL" source="#Cube_002-mesh-normals" offset="1"/>
          <p>0 0 1 0 4 0 8 1 0 1 10 1 14 2 1 2 0 2 1 3 14 3 17 3 2 4 19 4 20 4 21 5 22 5 4 5 5 4 4 4 25 4 29 6 30 6 26 6 6 4 31 4 9 4 14 7 8 7 26 7 27 4 13 4 12 4 15 4 24 4 23 4 9 7 31 7 30 7 10 4 30 4 29 4 28 0 12 0 11 0 20 7 19 7 18 7 21 4 18 4 17 4 16 0 23 0 22 0 5 0 7 0 0 0 2 0 3 0 4 0 5 0 6 0 7 0 1 0 2 0 4 0 4 0 5 0 0 0 11 5 13 5 8 5 7 5 9 5 10 5 11 5 12 5 13 5 0 5 7 5 10 5 10 8 11 8 8 8 8 2 14 2 0 2 18 6 2 6 1 6 15 6 16 6 17 6 18 6 19 6 2 6 14 6 15 6 17 6 17 9 18 9 1 9 3 4 2 4 20 4 22 5 24 5 25 5 21 5 3 5 20 5 22 5 23 5 24 5 4 5 3 5 21 5 22 10 25 10 4 10 26 4 5 4 25 4 30 6 6 6 5 6 29 6 27 6 28 6 30 6 31 6 6 6 26 6 27 6 29 6 30 11 5 11 26 11 7 4 6 4 9 4 25 7 15 7 14 7 13 7 27 7 26 7 25 7 24 7 15 7 8 7 13 7 26 7 26 7 25 7 14 7 28 4 27 4 12 4 16 4 15 4 23 4 10 7 9 7 30 7 11 4 10 4 29 4 29 0 28 0 11 0 21 7 20 7 18 7 22 4 21 4 17 4 17 0 16 0 22 0</p>
        </triangles>
      </mesh>
    </geometry>
  </library_geometries>
  <library_controllers/>
  <library_visual_scenes>
    <visual_scene id="Scene" name="Scene">
      <node id="VIS_table" name="VIS_table" type="NODE">
        <instance_geometry url="#Cube_002-mesh" name="VIS_table">
          <bind_material>
            <technique_common>
              <instance_material symbol="Wood_Oak_001-material" target="#Wood_Oak_001-material"/>
            </technique_common>
          </bind_material>
        </instance_geometry>
      </node>
    </visual_scene>
  </library_visual_scenes>
  <scene>
    <instance_visual_scene url="#Scene"/>
  </scene>
</COLLADA>