<?xml version="1.0" encoding="utf-8"?>
<COLLADA xmlns="http://www.collada.org/2005/11/COLLADASchema" version="1.4.1">
  <asset>
    <contributor>
      <author>Blender User</author>
      <authoring_tool>Blender 2.78.0</authoring_tool>
    </contributor>
    <created>2017-11-29T10:05:22</created>
    <modified>2017-11-29T10:05:22</modified>
    <unit name="meter" meter="1"/>
    <up_axis>Z_UP</up_axis>
  </asset>
  <library_images/>
  <library_effects>
    <effect id="PBRFULL_PingPongTableTop-effect">
      <profile_COMMON>
        <technique sid="common">
          <phong>
            <emission>
              <color sid="emission">0 0 0 1</color>
            </emission>
            <ambient>
              <color sid="ambient">0 0 0 1</color>
            </ambient>
            <diffuse>
              <color sid="diffuse">0.64 0.64 0.64 1</color>
            </diffuse>
            <specular>
              <color sid="specular">0.25 0.25 0.25 1</color>
            </specular>
            <shininess>
              <float sid="shininess">50</float>
            </shininess>
            <index_of_refraction>
              <float sid="index_of_refraction">1</float>
            </index_of_refraction>
          </phong>
        </technique>
      </profile_COMMON>
    </effect>
    <effect id="PBRFULL_PingPongTable-effect">
      <profile_COMMON>
        <technique sid="common">
          <phong>
            <emission>
              <color sid="emission">0 0 0 1</color>
            </emission>
            <ambient>
              <color sid="ambient">0 0 0 1</color>
            </ambient>
            <diffuse>
              <color sid="diffuse">0.64 0.64 0.64 1</color>
            </diffuse>
            <specular>
              <color sid="specular">0.25 0.25 0.25 1</color>
            </specular>
            <shininess>
              <float sid="shininess">50</float>
            </shininess>
            <index_of_refraction>
              <float sid="index_of_refraction">1</float>
            </index_of_refraction>
          </phong>
        </technique>
      </profile_COMMON>
    </effect>
  </library_effects>
  <library_materials>
    <material id="PBRFULL_PingPongTableTop-material" name="PBRFULL_PingPongTableTop">
      <instance_effect url="#PBRFULL_PingPongTableTop-effect"/>
    </material>
    <material id="PBRFULL_PingPongTable-material" name="PBRFULL_PingPongTable">
      <instance_effect url="#PBRFULL_PingPongTable-effect"/>
    </material>
  </library_materials>
  <library_geometries>
    <geometry id="Cube_001-mesh" name="Cube.001">
      <mesh>
        <source id="Cube_001-mesh-positions">
          <float_array id="Cube_001-mesh-positions-array" count="372">0.6017074 1.155869 0 0.6017074 1.155869 0.7721023 0.6017074 1.205869 0 0.6017074 1.205869 0.7721023 0.6517074 1.155869 0 0.6517074 1.155869 0.7721023 0.6517074 1.205869 0 0.6517074 1.205869 0.7721023 0.6017074 0.5764066 0 0.6017074 0.5764066 0.7721023 0.6017074 0.6264066 0 0.6017074 0.6264066 0.7721023 0.6517074 0.5764066 0 0.6517074 0.5764066 0.7721023 0.6517074 0.6264066 0 0.6517074 0.6264066 0.7721023 0.6071517 1.168934 0.3664954 0.6071517 0.6131305 0.3664954 0.6071517 1.168934 0.4056069 0.6071517 0.6131305 0.4056069 0.6462631 1.168934 0.3664954 0.6462631 0.6131305 0.3664954 0.6462631 1.168934 0.4056069 0.6462631 0.6131305 0.4056069 -0.6631014 1.155869 0 -0.6631014 1.155869 0.7721023 -0.6631014 1.205869 0 -0.6631014 1.205869 0.7721023 -0.6131014 1.155869 0 -0.6131014 1.155869 0.7721023 -0.6131014 1.205869 0 -0.6131014 1.205869 0.7721023 -0.6631014 0.5764066 0 -0.6631014 0.5764066 0.7721023 -0.6631014 0.6264066 0 -0.6631014 0.6264066 0.7721023 -0.6131014 0.5764066 0 -0.6131014 0.5764066 0.7721023 -0.6131014 0.6264066 0 -0.6131014 0.6264066 0.7721023 -0.6576571 1.168934 0.3664954 -0.6576571 0.6131305 0.3664954 -0.6576571 1.168934 0.4056069 -0.6576571 0.6131305 0.4056069 -0.6185457 1.168934 0.3664954 -0.6185457 0.6131305 0.3664954 -0.6185457 1.168934 0.4056069 -0.6185457 0.6131305 0.4056069 0.6017074 -0.7282119 0 0.6017074 -0.7282119 0.7721023 0.6017074 -0.6782119 0 0.6017074 -0.6782119 0.7721023 0.6517074 -0.7282119 0 0.6517074 -0.7282119 0.7721023 0.6517074 -0.6782119 0 0.6517074 -0.6782119 0.7721023 0.6017074 -1.307675 0 0.6017074 -1.307675 0.7721023 0.6017074 -1.257675 0 0.6017074 -1.257675 0.7721023 0.6517074 -1.307675 0 0.6517074 -1.307675 0.7721023 0.6517074 -1.257675 0 0.6517074 -1.257675 0.7721023 0.6071517 -0.7151468 0.3664954 0.6071517 -1.270951 0.3664954 0.6071517 -0.7151468 0.4056069 0.6071517 -1.270951 0.4056069 0.6462631 -0.7151468 0.3664954 0.6462631 -1.270951 0.3664954 0.6462631 -0.7151468 0.4056069 0.6462631 -1.270951 0.4056069 -0.6631014 -0.7282119 0 -0.6631014 -0.7282119 0.7721023 -0.6631014 -0.6782119 0 -0.6631014 -0.6782119 0.7721023 -0.6131014 -0.7282119 0 -0.6131014 -0.7282119 0.7721023 -0.6131014 -0.6782119 0 -0.6131014 -0.6782119 0.7721023 -0.6631014 -1.307675 0 -0.6631014 -1.307675 0.7721023 -0.6631014 -1.257675 0 -0.6631014 -1.257675 0.7721023 -0.6131014 -1.307675 0 -0.6131014 -1.307675 0.7721023 -0.6131014 -1.257675 0 -0.6131014 -1.257675 0.7721023 -0.7625 -1.37 0.7600001 -0.7625 -1.37 0.81 -0.7625 1.37 0.7600001 -0.7625 1.37 0.81 0.7625 -1.37 0.7600001 0.7625 -1.37 0.81 0.7625 1.37 0.7600001 0.7625 1.37 0.81 -0.6631014 -1.307675 0 -0.6631014 -1.307675 0.7721023 -0.6631014 -1.257675 0 -0.6631014 -1.257675 0.7721023 -0.6576571 -0.7151468 0.3664954 -0.6576571 -1.270951 0.3664954 -0.6576571 -0.7151468 0.4056069 -0.6576571 -1.270951 0.4056069 -0.6185457 -0.7151468 0.3664954 -0.6185457 -1.270951 0.3664954 -0.6185457 -0.7151468 0.4056069 -0.6185457 -1.270951 0.4056069 -0.7625 -1.37 0.7600001 -0.7625 1.37 0.7600001 0.7625 -1.37 0.7600001 0.7625 1.37 0.7600001 -0.7625 -1.37 0.81 -0.7625 1.37 0.81 0.7625 -1.37 0.81 0.7625 1.37 0.81 -0.8482881 -0.007265388 0.8126974 -0.8482881 -0.007265388 0.9664334 -0.8482881 0.007265388 0.8126974 -0.8482881 0.007265388 0.9664334 0.8482881 -0.007265388 0.8126974 0.8482881 -0.007265388 0.9664334 0.8482881 0.007265388 0.8126974 0.8482881 0.007265388 0.9664334</float_array>
          <technique_common>
            <accessor source="#Cube_001-mesh-positions-array" count="124" stride="3">
              <param name="X" type="float"/>
              <param name="Y" type="float"/>
              <param name="Z" type="float"/>
            </accessor>
          </technique_common>
        </source>
        <source id="Cube_001-mesh-normals">
          <float_array id="Cube_001-mesh-normals-array" count="18">-1 0 0 0 1 0 1 0 0 0 -1 0 0 0 -1 0 0 1</float_array>
          <technique_common>
            <accessor source="#Cube_001-mesh-normals-array" count="6" stride="3">
              <param name="X" type="float"/>
              <param name="Y" type="float"/>
              <param name="Z" type="float"/>
            </accessor>
          </technique_common>
        </source>
        <source id="Cube_001-mesh-map-0">
          <float_array id="Cube_001-mesh-map-0-array" count="816">0.7527436 0.8014512 0.769491 0.5399497 0.769491 0.8014505 0.8632763 0.003389239 0.846529 0.2648476 0.846529 0.003389239 0.7065936 0.7885429 0.7233409 0.5270414 0.723341 0.7885423 0.9570616 0.003389239 0.9403143 0.2648476 0.9403143 0.003389239 0.8465288 0.9228513 0.8632762 0.939798 0.8465288 0.939798 0.589416 0.8258451 0.6061634 0.5643436 0.6061634 0.8258445 0.8398299 0.5399497 0.8230827 0.801408 0.8230826 0.5399497 0.8230827 0.2648908 0.83983 0.003389239 0.8398301 0.2648901 0.9570615 0.5398634 0.9403142 0.8013216 0.9403142 0.5398634 0.7527436 0.9228931 0.769491 0.9398397 0.7527436 0.9398397 0.812727 0.9966107 0.7996363 0.8082298 0.812727 0.8082302 0.6962773 0.5270414 0.683177 0.7154219 0.683177 0.5270414 0.9065124 0.8081008 0.8934217 0.9964807 0.8934217 0.8081003 0.9637606 0.386929 0.9768608 0.1985484 0.9768608 0.386929 0.7527436 0.2648909 0.769491 0.003389239 0.7694911 0.2648901 0.8867226 0.2716263 0.8699753 0.5330847 0.8699753 0.2716263 0.7527436 0.5331709 0.769491 0.2716695 0.769491 0.5331704 0.9336153 0.2716264 0.9168679 0.5330847 0.9168679 0.2716264 0.8230826 0.9228513 0.8398299 0.939798 0.8230826 0.939798 0.7761901 0.2648909 0.7929374 0.003389239 0.7929374 0.2648902 0.8632763 0.2716695 0.846529 0.5331278 0.846529 0.2716695 0.7996363 0.8014511 0.8163837 0.5399497 0.8163837 0.8014504 0.9336153 0.003389239 0.916868 0.2648476 0.916868 0.003389239 0.5393821 0.9228757 0.5561295 0.9398223 0.5393821 0.9398223 0.8699753 0.8081434 0.883066 0.9965245 0.8699753 0.9965239 0.7431402 0.7595028 0.73004 0.9478834 0.7300399 0.7595028 0.9299587 0.8081008 0.9168679 0.9964808 0.9168679 0.8081004 0.9637606 0.1917698 0.9768608 0.003389239 0.9768608 0.1917698 0.6128624 0.8258451 0.6296097 0.5643436 0.6296097 0.8258445 0.8867226 0.003389239 0.8699753 0.2648476 0.8699753 0.003389239 0.7996364 0.5331709 0.8163837 0.2716695 0.8163837 0.5331704 0.9570615 0.2716264 0.9403142 0.5330846 0.9403142 0.2716264 0.8465288 0.8991259 0.8632762 0.9160726 0.8465288 0.9160726 0.7761901 0.533171 0.7929373 0.2716695 0.7929374 0.5331704 0.8867226 0.5399065 0.8699753 0.8013648 0.8699753 0.5399065 0.5375902 0.5643436 0.5208428 0.825845 0.5208427 0.5643442 0.910169 0.003389239 0.8934217 0.2648476 0.8934217 0.003389239 0.7761899 0.8991677 0.7929372 0.9161144 0.7761899 0.9161144 0.9835599 0.003389239 0.9966505 0.1917701 0.9835598 0.1917697 0.9768608 0.588867 0.9637606 0.7772474 0.9637606 0.588867 0.9403142 0.9964807 0.953405 0.8081008 0.953405 0.9964812 0.73004 0.7527242 0.7431402 0.5643436 0.7431402 0.7527242 0.5442891 0.825845 0.5610364 0.5643436 0.5610364 0.8258444 0.8632763 0.5399497 0.846529 0.801408 0.846529 0.5399497 0.7996364 0.2648908 0.8163837 0.003389239 0.8163837 0.2648901 0.910169 0.5398634 0.8934217 0.8013216 0.8934217 0.5398634 0.8230826 0.8991259 0.8398299 0.9160726 0.8230826 0.9160726 0.910169 0.2716264 0.8934217 0.5330847 0.8934217 0.2716264 0.8230826 0.5331709 0.83983 0.2716695 0.83983 0.5331703 0.9336153 0.5398634 0.9168679 0.8013217 0.9168679 0.5398634 0.7527436 0.8991677 0.769491 0.9161144 0.7527436 0.9161144 0.6764781 0.932067 0.6597428 0.003389239 0.676478 0.003389954 0.7233409 0.5202628 0.7066085 0.003389239 0.7233409 0.003389239 0.6363087 0.003389239 0.6530439 0.932067 0.6363087 0.9320663 0.6999095 0.5202627 0.683177 0.003389239 0.6999095 0.003389239 0.77619 0.8014511 0.7929373 0.5399497 0.7929373 0.8014504 0.996641 0.9724071 0.9835503 0.7840262 0.996641 0.7840266 0.5827171 0.5643436 0.5696169 0.7527242 0.5696169 0.5643436 0.9637606 0.9724066 0.9768513 0.7840266 0.9768513 0.9724071 0.9637606 0.5820882 0.9768608 0.3937077 0.9768608 0.5820882 0.003349483 0.003389239 0.5141438 0.9320669 0.003349423 0.9320668 0.7527436 0.8014512 0.7527436 0.5399503 0.769491 0.5399497 0.8632763 0.003389239 0.8632764 0.2648476 0.846529 0.2648476 0.7065936 0.7885429 0.7065936 0.527042 0.7233409 0.5270414 0.9570616 0.003389239 0.9570617 0.2648476 0.9403143 0.2648476 0.8465288 0.9228513 0.8632762 0.9228513 0.8632762 0.939798 0.589416 0.8258451 0.589416 0.5643442 0.6061634 0.5643436 0.8398299 0.5399497 0.83983 0.801408 0.8230827 0.801408 0.8230827 0.2648908 0.8230826 0.003389835 0.83983 0.003389239 0.9570615 0.5398634 0.9570615 0.8013216 0.9403142 0.8013216 0.7527436 0.9228931 0.769491 0.9228931 0.769491 0.9398397 0.812727 0.9966107 0.7996363 0.9966102 0.7996363 0.8082298 0.6962773 0.5270414 0.6962773 0.7154219 0.683177 0.7154219 0.9065124 0.8081008 0.9065124 0.9964812 0.8934217 0.9964807 0.9637606 0.386929 0.9637606 0.1985484 0.9768608 0.1985484 0.7527436 0.2648909 0.7527436 0.003389835 0.769491 0.003389239 0.8867226 0.2716263 0.8867227 0.5330847 0.8699753 0.5330847 0.7527436 0.5331709 0.7527436 0.2716701 0.769491 0.2716695 0.9336153 0.2716264 0.9336153 0.5330847 0.9168679 0.5330847 0.8230826 0.9228513 0.8398299 0.9228513 0.8398299 0.939798 0.7761901 0.2648909 0.7761901 0.003389835 0.7929374 0.003389239 0.8632763 0.2716695 0.8632763 0.5331278 0.846529 0.5331278 0.7996363 0.8014511 0.7996363 0.5399503 0.8163837 0.5399497 0.9336153 0.003389239 0.9336153 0.2648476 0.916868 0.2648476 0.5393821 0.9228757 0.5561295 0.9228757 0.5561295 0.9398223 0.8699753 0.8081434 0.883066 0.8081439 0.883066 0.9965245 0.7431402 0.7595028 0.7431402 0.9478834 0.73004 0.9478834 0.9299587 0.8081008 0.9299587 0.9964813 0.9168679 0.9964808 0.9637606 0.1917698 0.9637606 0.003389239 0.9768608 0.003389239 0.6128624 0.8258451 0.6128624 0.5643442 0.6296097 0.5643436 0.8867226 0.003389239 0.8867227 0.2648476 0.8699753 0.2648476 0.7996364 0.5331709 0.7996364 0.2716701 0.8163837 0.2716695 0.9570615 0.2716264 0.9570615 0.5330846 0.9403142 0.5330846 0.8465288 0.8991259 0.8632762 0.8991259 0.8632762 0.9160726 0.7761901 0.533171 0.7761901 0.2716701 0.7929373 0.2716695 0.8867226 0.5399065 0.8867227 0.8013648 0.8699753 0.8013648 0.5375902 0.5643436 0.5375902 0.8258444 0.5208428 0.825845 0.910169 0.003389239 0.910169 0.2648476 0.8934217 0.2648476 0.7761899 0.8991677 0.7929372 0.8991677 0.7929372 0.9161144 0.9835599 0.003389239 0.9966505 0.003389716 0.9966505 0.1917701 0.9768608 0.588867 0.9768608 0.7772474 0.9637606 0.7772474 0.9403142 0.9964807 0.9403142 0.8081003 0.953405 0.8081008 0.73004 0.7527242 0.7300399 0.5643436 0.7431402 0.5643436 0.5442891 0.825845 0.5442891 0.5643442 0.5610364 0.5643436 0.8632763 0.5399497 0.8632763 0.8014079 0.846529 0.801408 0.7996364 0.2648908 0.7996364 0.003389954 0.8163837 0.003389239 0.910169 0.5398634 0.910169 0.8013216 0.8934217 0.8013216 0.8230826 0.8991259 0.8398299 0.8991259 0.8398299 0.9160726 0.910169 0.2716264 0.910169 0.5330847 0.8934217 0.5330847 0.8230826 0.5331709 0.8230826 0.2716701 0.83983 0.2716695 0.9336153 0.5398634 0.9336153 0.8013217 0.9168679 0.8013217 0.7527436 0.8991677 0.769491 0.8991677 0.769491 0.9161144 0.6764781 0.932067 0.6597429 0.9320664 0.6597428 0.003389239 0.7233409 0.5202628 0.7066085 0.5202628 0.7066085 0.003389239 0.6363087 0.003389239 0.6530439 0.003390014 0.6530439 0.932067 0.6999095 0.5202627 0.6831771 0.5202627 0.683177 0.003389239 0.77619 0.8014511 0.7761899 0.5399503 0.7929373 0.5399497 0.996641 0.9724071 0.9835502 0.9724066 0.9835503 0.7840262 0.5827171 0.5643436 0.5827171 0.7527242 0.5696169 0.7527242 0.9637606 0.9724066 0.9637606 0.7840262 0.9768513 0.7840266 0.9637606 0.5820882 0.9637606 0.3937077 0.9768608 0.3937077 0.003349483 0.003389239 0.5141438 0.003389358 0.5141438 0.9320669 0 0 0 0 0 0 0 0 0 0 0 0 0 0 0 0 0 0 0 0 0 0 0 0 0 0 0 0 0 0 0 0 0 0 0 0 0 0 0 0 0 0 0 0 0 0 0 0 0 0 0 0 0 0 0 0 0 0 0 0 0 0 0 0 0 0 0 0 0 0 0 0 0 0 0 0 0 0 0 0 0 0 0 0</float_array>
          <technique_common>
            <accessor source="#Cube_001-mesh-map-0-array" count="408" stride="2">
              <param name="S" type="float"/>
              <param name="T" type="float"/>
            </accessor>
          </technique_common>
        </source>
        <source id="Cube_001-mesh-map-1">
          <float_array id="Cube_001-mesh-map-1-array" count="816">0 0 0 0 0 0 0 0 0 0 0 0 0 0 0 0 0 0 0 0 0 0 0 0 0 0 0 0 0 0 0 0 0 0 0 0 0 0 0 0 0 0 0 0 0 0 0 0 0 0 0 0 0 0 0 0 0 0 0 0 0 0 0 0 0 0 0 0 0 0 0 0 0 0 0 0 0 0 0 0 0 0 0 0 0 0 0 0 0 0 0 0 0 0 0 0 0 0 0 0 0 0 0 0 0 0 0 0 0 0 0 0 0 0 0 0 0 0 0 0 0 0 0 0 0 0 0 0 0 0 0 0 0 0 0 0 0 0 0 0 0 0 0 0 0 0 0 0 0 0 0 0 0 0 0 0 0 0 0 0 0 0 0 0 0 0 0 0 0 0 0 0 0 0 0 0 0 0 0 0 0 0 0 0 0 0 0 0 0 0 0 0 0 0 0 0 0 0 0 0 0 0 0 0 0 0 0 0 0 0 0 0 0 0 0 0 0 0 0 0 0 0 0 0 0 0 0 0 0 0 0 0 0 0 0 0 0 0 0 0 0 0 0 0 0 0 0 0 0 0 0 0 0 0 0 0 0 0 0 0 0 0 0 0 0 0 0 0 0 0 0 0 0 0 0 0 0 0 0 0 0 0 0 0 0 0 0 0 0 0 0 0 0 0 0 0 0 0 0 0 0 0 0 0 0 0 0 0 0 0 0 0 0 0 0 0 0 0 0 0 0 0 0 0 0 0 0 0 0 0 0 0 0 0 0 0 0 0 0 0 0 0 0 0 0 0 0 0 0 0 0 0 0 0 0 0 0 0 0 0 0 0 0 0 0 0 0 0 0 0 0 0 0 0 0 0 0 0 0 0 0 0 0 0 0 0 0 0 0 0 0 0 0 0 0 0 0 0 0 0 0 0 0 0 0 0 0 0 0 0 0 0 0 0 0 0 0 0 0 0 0 0 0 0 0 0 0 0 0 0 0 0 0 0 0 0 0 0 0 0 0 0 0 0 0 0 0 0 0 0 0 0 0 0 0 0 0 0 0 0 0 0 0 0 0 0 0 0 0 0 0 0 0 0 0 0 0 0 0 0 0 0 0 0 0 0 0 0 0 0 0 0 0 0 0 0 0 0 0 0 0 0 0 0 0 0 0 0 0 0 0 0 0 0 0 0 0 0 0 0 0 0 0 0 0 0 0 0 0 0 0 0 0 0 0 0 0 0 0 0 0 0 0 0 0 0 0 0 0 0 0 0 0 0 0 0 0 0 0 0 0 0 0 0 0 0 0 0 0 0 0 0 0 0 0 0 0 0 0 0 0 0 0 0 0 0 0 0 0 0 0 0 0 0 0 0 0 0 0 0 0 0 0 0 0 0 0 0 0 0 0 0 0 0 0 0 0 0 0 0 0 0 0 0 0 0 0 0 0 0 0 0 0 0 0 0 0 0 0 0 0 0 0 0 0 0 0 0 0 0 0 0 0 0 0 0 0 0 0 0 0 0 0 0 0 0 0 0 0 0 0 0 0 0 0 0 0 0 0 0 0 0 0 0 0 0 0 0 0 0 0 0 0 0 0 0 0 0 0 0 0 0 0 0 0 0 0 0 0 0 0 0 0 0 0 0 0 0 0 0 0 0 0 0 0 0 0 0 0 0 0 0 1 1 0 0 1 0 1 1 0 1 0 0 0 0 0 0 0 0 0 0 0 0 0 0 0 0 0 0 0 0 0 0 0 0 0 0 0 0 0 0 0 0 0 0 0 0 0 0 0 0 0 0 0 0 0 0 0 0 0 0 0 0 0 0 0 0 0 0 0 0 0 0 0 0 0 0 0 0 0 0 0 0 0 0</float_array>
          <technique_common>
            <accessor source="#Cube_001-mesh-map-1-array" count="408" stride="2">
              <param name="S" type="float"/>
              <param name="T" type="float"/>
            </accessor>
          </technique_common>
        </source>
        <vertices id="Cube_001-mesh-vertices">
          <input semantic="POSITION" source="#Cube_001-mesh-positions"/>
        </vertices>
        <polylist material="PBRFULL_PingPongTableTop-material" count="14">
          <input semantic="VERTEX" source="#Cube_001-mesh-vertices" offset="0"/>
          <input semantic="NORMAL" source="#Cube_001-mesh-normals" offset="1"/>
          <input semantic="TEXCOORD" source="#Cube_001-mesh-map-0" offset="2" set="0"/>
          <input semantic="TEXCOORD" source="#Cube_001-mesh-map-1" offset="2" set="1"/>
          <vcount>3 3 3 3 3 3 3 3 3 3 3 3 3 3 </vcount>
          <p>115 5 366 112 5 367 114 5 368 115 5 369 113 5 370 112 5 371 117 0 372 118 0 373 116 0 374 119 1 375 122 1 376 118 1 377 123 2 378 120 2 379 122 2 380 121 3 381 116 3 382 120 3 383 122 4 384 116 4 385 118 4 386 119 5 387 121 5 388 123 5 389 117 0 390 119 0 391 118 0 392 119 1 393 123 1 394 122 1 395 123 2 396 121 2 397 120 2 398 121 3 399 117 3 400 116 3 401 122 4 402 120 4 403 116 4 404 119 5 405 117 5 406 121 5 407</p>
        </polylist>
        <polylist material="PBRFULL_PingPongTable-material" count="122">
          <input semantic="VERTEX" source="#Cube_001-mesh-vertices" offset="0"/>
          <input semantic="NORMAL" source="#Cube_001-mesh-normals" offset="1"/>
          <input semantic="TEXCOORD" source="#Cube_001-mesh-map-0" offset="2" set="0"/>
          <input semantic="TEXCOORD" source="#Cube_001-mesh-map-1" offset="2" set="1"/>
          <vcount>3 3 3 3 3 3 3 3 3 3 3 3 3 3 3 3 3 3 3 3 3 3 3 3 3 3 3 3 3 3 3 3 3 3 3 3 3 3 3 3 3 3 3 3 3 3 3 3 3 3 3 3 3 3 3 3 3 3 3 3 3 3 3 3 3 3 3 3 3 3 3 3 3 3 3 3 3 3 3 3 3 3 3 3 3 3 3 3 3 3 3 3 3 3 3 3 3 3 3 3 3 3 3 3 3 3 3 3 3 3 3 3 3 3 3 3 3 3 3 3 3 3 </vcount>
          <p>3 0 0 0 0 1 1 0 2 7 1 3 2 1 4 3 1 5 5 2 6 6 2 7 7 2 8 1 3 9 4 3 10 5 3 11 2 4 12 4 4 13 0 4 14 11 0 15 8 0 16 9 0 17 15 1 18 10 1 19 11 1 20 13 2 21 14 2 22 15 2 23 9 3 24 12 3 25 13 3 26 10 4 27 12 4 28 8 4 29 17 0 30 18 0 31 16 0 32 23 5 33 18 5 34 19 5 35 21 2 36 22 2 37 23 2 38 17 4 39 20 4 40 21 4 41 27 0 42 24 0 43 25 0 44 31 1 45 26 1 46 27 1 47 29 2 48 30 2 49 31 2 50 25 3 51 28 3 52 29 3 53 26 4 54 28 4 55 24 4 56 35 0 57 32 0 58 33 0 59 39 1 60 34 1 61 35 1 62 37 2 63 38 2 64 39 2 65 33 3 66 36 3 67 37 3 68 34 4 69 36 4 70 32 4 71 41 0 72 42 0 73 40 0 74 47 5 75 42 5 76 43 5 77 45 2 78 46 2 79 47 2 80 41 4 81 44 4 82 45 4 83 51 0 84 48 0 85 49 0 86 55 1 87 50 1 88 51 1 89 53 2 90 54 2 91 55 2 92 49 3 93 52 3 94 53 3 95 50 4 96 52 4 97 48 4 98 59 0 99 56 0 100 57 0 101 63 1 102 58 1 103 59 1 104 61 2 105 62 2 106 63 2 107 57 3 108 60 3 109 61 3 110 58 4 111 60 4 112 56 4 113 65 0 114 66 0 115 64 0 116 71 5 117 66 5 118 67 5 119 69 2 120 70 2 121 71 2 122 65 4 123 68 4 124 69 4 125 75 0 126 72 0 127 73 0 128 79 1 129 74 1 130 75 1 131 77 2 132 78 2 133 79 2 134 73 3 135 76 3 136 77 3 137 74 4 138 76 4 139 72 4 140 87 1 141 82 1 142 83 1 143 85 2 144 86 2 145 87 2 146 81 3 147 84 3 148 85 3 149 82 4 150 84 4 151 80 4 152 91 0 153 88 0 154 89 0 155 95 1 156 90 1 157 91 1 158 93 2 159 94 2 160 95 2 161 89 3 162 92 3 163 93 3 164 99 0 165 96 0 166 97 0 167 101 0 168 102 0 169 100 0 170 107 5 171 102 5 172 103 5 173 105 2 174 106 2 175 107 2 176 101 4 177 104 4 178 105 4 179 109 4 180 110 4 181 108 4 182 3 0 183 2 0 184 0 0 185 7 1 186 6 1 187 2 1 188 5 2 189 4 2 190 6 2 191 1 3 192 0 3 193 4 3 194 2 4 195 6 4 196 4 4 197 11 0 198 10 0 199 8 0 200 15 1 201 14 1 202 10 1 203 13 2 204 12 2 205 14 2 206 9 3 207 8 3 208 12 3 209 10 4 210 14 4 211 12 4 212 17 0 213 19 0 214 18 0 215 23 5 216 22 5 217 18 5 218 21 2 219 20 2 220 22 2 221 17 4 222 16 4 223 20 4 224 27 0 225 26 0 226 24 0 227 31 1 228 30 1 229 26 1 230 29 2 231 28 2 232 30 2 233 25 3 234 24 3 235 28 3 236 26 4 237 30 4 238 28 4 239 35 0 240 34 0 241 32 0 242 39 1 243 38 1 244 34 1 245 37 2 246 36 2 247 38 2 248 33 3 249 32 3 250 36 3 251 34 4 252 38 4 253 36 4 254 41 0 255 43 0 256 42 0 257 47 5 258 46 5 259 42 5 260 45 2 261 44 2 262 46 2 263 41 4 264 40 4 265 44 4 266 51 0 267 50 0 268 48 0 269 55 1 270 54 1 271 50 1 272 53 2 273 52 2 274 54 2 275 49 3 276 48 3 277 52 3 278 50 4 279 54 4 280 52 4 281 59 0 282 58 0 283 56 0 284 63 1 285 62 1 286 58 1 287 61 2 288 60 2 289 62 2 290 57 3 291 56 3 292 60 3 293 58 4 294 62 4 295 60 4 296 65 0 297 67 0 298 66 0 299 71 5 300 70 5 301 66 5 302 69 2 303 68 2 304 70 2 305 65 4 306 64 4 307 68 4 308 75 0 309 74 0 310 72 0 311 79 1 312 78 1 313 74 1 314 77 2 315 76 2 316 78 2 317 73 3 318 72 3 319 76 3 320 74 4 321 78 4 322 76 4 323 87 1 324 86 1 325 82 1 326 85 2 327 84 2 328 86 2 329 81 3 330 80 3 331 84 3 332 82 4 333 86 4 334 84 4 335 91 0 336 90 0 337 88 0 338 95 1 339 94 1 340 90 1 341 93 2 342 92 2 343 94 2 344 89 3 345 88 3 346 92 3 347 99 0 348 98 0 349 96 0 350 101 0 351 103 0 352 102 0 353 107 5 354 106 5 355 102 5 356 105 2 357 104 2 358 106 2 359 101 4 360 100 4 361 104 4 362 109 4 363 111 4 364 110 4 365</p>
        </polylist>
      </mesh>
    </geometry>
  </library_geometries>
  <library_controllers/>
  <library_visual_scenes>
    <visual_scene id="Scene" name="Scene">
      <node id="tabletopcoll_001" name="tabletopcoll_001" type="NODE">
        <matrix sid="transform">1 0 0 0 0 1 0 0 0 0 1 0 0 0 0 1</matrix>
        <instance_geometry url="#Cube_001-mesh" name="tabletopcoll_001">
          <bind_material>
            <technique_common>
              <instance_material symbol="PBRFULL_PingPongTableTop-material" target="#PBRFULL_PingPongTableTop-material"/>
              <instance_material symbol="PBRFULL_PingPongTable-material" target="#PBRFULL_PingPongTable-material"/>
            </technique_common>
          </bind_material>
        </instance_geometry>
      </node>
    </visual_scene>
  </library_visual_scenes>
  <scene>
    <instance_visual_scene url="#Scene"/>
  </scene>
</COLLADA>