<?xml version="1.0" encoding="utf-8"?>
<COLLADA xmlns="http://www.collada.org/2005/11/COLLADASchema" version="1.4.1">
  <asset>
    <contributor>
      <author>Blender User</author>
      <authoring_tool>Blender 2.78.0</authoring_tool>
    </contributor>
    <created>2017-11-23T16:14:54</created>
    <modified>2017-11-23T16:14:54</modified>
    <unit name="meter" meter="1"/>
    <up_axis>Z_UP</up_axis>
  </asset>
  <library_images/>
  <library_effects>
    <effect id="PBRFULL_HightWindowGlass-effect">
      <profile_COMMON>
        <technique sid="common">
          <phong>
            <emission>
              <color sid="emission">0 0 0 1</color>
            </emission>
            <ambient>
              <color sid="ambient">0 0 0 1</color>
            </ambient>
            <diffuse>
              <color sid="diffuse">0.64 0.64 0.64 1</color>
            </diffuse>
            <specular>
              <color sid="specular">0.25 0.25 0.25 1</color>
            </specular>
            <shininess>
              <float sid="shininess">50</float>
            </shininess>
            <transparent opaque="A_ONE">
              <color>1 1 1 0.4891304</color>
            </transparent>
            <index_of_refraction>
              <float sid="index_of_refraction">1</float>
            </index_of_refraction>
          </phong>
        </technique>
      </profile_COMMON>
    </effect>
    <effect id="PBRFULL_Window-effect">
      <profile_COMMON>
        <technique sid="common">
          <phong>
            <emission>
              <color sid="emission">0 0 0 1</color>
            </emission>
            <ambient>
              <color sid="ambient">0 0 0 1</color>
            </ambient>
            <diffuse>
              <color sid="diffuse">0.64 0.64 0.64 1</color>
            </diffuse>
            <specular>
              <color sid="specular">0.125 0.125 0.125 1</color>
            </specular>
            <shininess>
              <float sid="shininess">50</float>
            </shininess>
            <index_of_refraction>
              <float sid="index_of_refraction">1</float>
            </index_of_refraction>
          </phong>
        </technique>
      </profile_COMMON>
    </effect>
  </library_effects>
  <library_materials>
    <material id="PBRFULL_HightWindowGlass-material" name="PBRFULL_HightWindowGlass">
      <instance_effect url="#PBRFULL_HightWindowGlass-effect"/>
    </material>
    <material id="PBRFULL_Window-material" name="PBRFULL_Window">
      <instance_effect url="#PBRFULL_Window-effect"/>
    </material>
  </library_materials>
  <library_geometries>
    <geometry id="Cube_001-mesh" name="Cube.001">
      <mesh>
        <source id="Cube_001-mesh-positions">
          <float_array id="Cube_001-mesh-positions-array" count="120">-1.004183 -0.6330147 -3.64184e-4 -1.004183 -0.07983303 3.970965 -1.004183 0.08819818 -3.64184e-4 -1.004183 0.08819818 3.970965 -0.8528817 -0.6330147 -3.64184e-4 -0.8528817 -0.07983303 3.970965 -0.8528817 0.08819818 -3.64184e-4 -0.8528817 0.08819818 3.970965 0.8516058 -0.6330147 -3.64184e-4 0.8516058 -0.07983303 3.970965 0.8516058 0.08819818 -3.64184e-4 0.8516058 0.08819818 3.970965 1.002907 -0.6330147 -3.64184e-4 1.002907 -0.07983303 3.970965 1.002907 0.08819818 -3.64184e-4 1.002907 0.08819818 3.970965 -0.8528817 -0.07983303 3.860227 0.8516058 0.08819818 3.860227 -1.004183 -0.07983303 3.860227 1.002907 -0.07983303 3.860227 1.002907 0.08819818 3.860227 -1.004183 0.08819818 3.860227 0.8516058 -0.07983303 3.860227 -0.8528817 0.08819818 3.860227 -1.004183 -0.6330147 0.1029378 -0.8528817 -0.6330147 0.3202567 0.8516058 0.08819818 0.1029379 1.002907 0.08819818 0.1029379 1.002907 -0.6330147 0.1029379 -1.004183 0.08819818 0.1029379 0.8516058 -0.6330147 0.3202567 -0.8528817 0.08819818 0.1029379 -0.9836041 -0.510681 0.1398085 -0.9836041 -0.03674864 3.910921 -0.9836041 -0.4839406 0.1398085 -0.9836041 -0.01000821 3.910921 0.9763814 -0.510681 0.1398085 0.9763814 -0.03674864 3.910921 0.9763814 -0.4839406 0.1398085 0.9763814 -0.01000821 3.910921</float_array>
          <technique_common>
            <accessor source="#Cube_001-mesh-positions-array" count="40" stride="3">
              <param name="X" type="float"/>
              <param name="Y" type="float"/>
              <param name="Z" type="float"/>
            </accessor>
          </technique_common>
        </source>
        <source id="Cube_001-mesh-normals">
          <float_array id="Cube_001-mesh-normals-array" count="51">-1 0 0 0 1 0 0 0 1 0 -1 0 0 0 -1 1 0 0 0.2165008 -0.9645763 0.1507317 -0.2047804 -0.968369 0.1425718 0 0.2885108 0.9574767 0 -0.989335 0.1456586 -1 1.78371e-7 0 0 -0.9880095 0.1543936 -1 1.75967e-7 0 0 0.2885107 0.9574767 0 0.9921954 -0.1246935 0 -0.9921954 0.1246935 0 -0.9921954 0.1246935</float_array>
          <technique_common>
            <accessor source="#Cube_001-mesh-normals-array" count="17" stride="3">
              <param name="X" type="float"/>
              <param name="Y" type="float"/>
              <param name="Z" type="float"/>
            </accessor>
          </technique_common>
        </source>
        <source id="Cube_001-mesh-map-0">
          <float_array id="Cube_001-mesh-map-0-array" count="408">0 0 0 0 0 0 0 0 0 0 0 0 0 0 0 0 0 0 0 0 0 0 0 0 0 0 0 0 0 0 0 0 0 0 0 0 0 0 0 0 0 0 0 0 0 0 0 0 0 0 0 0 0 0 0 0 0 0 0 0 0 0 0 0 0 0 0 0 0 0 0 0 0 0 0 0 0 0 0 0 0 0 0 0 0 0 0 0 0 0 0 0 0 0 0 0 0 0 0 0 0 0 0 0 0 0 0 0 0 0 0 0 0 0 0 0 0 0 0 0 0 0 0 0 0 0 0 0 0 0 0 0 0 0 0 0 0 0 0 0 0 0 0 0 0 0 0 0 0 0 0 0 0 0 0 0 0 0 0 0 0 0 0 0 0 0 0 0 0 0 0 0 0 0 0 0 0 0 0 0 0 0 0 0 0 0 0 0 0 0 0 0 0 0 0 0 0 0 0 0 0 0 0 0 0 0 0 0 0 0 0 0 0 0 0 0 0 0 0 0 0 0 0 0 0 0 0 0 0 0 0 0 0 0 0 0 0 0 0 0 0 0 0 0 0 0 0 0 0 0 0 0 0 0 0 0 0 0 0 0 0 0 0 0 0 0 0 0 0 0 0 0 0 0 0 0 0 0 0 0 0 0 0 0 0 0 0 0 0 0 0 0 0 0 0 0 0 0 0 0 0 0 0 0 0 0 0 0 0 0 0 0 0 0 0 0 0 0 0 0 0 0 0 0 0 0 0 0 0 0 0 0 0 0 0 0 0 0 0 0 0 0 0 0 0 0 0 0 0 0 0 0 0 0 0 0 0 0 0 0 0 0 0 0 0 0 0 0 0 0 0 0 0 0 0 0 0 0 0 0 0 0 0 0 0 0 0 0 0 0 0 0 0 0 0 0 0 0 0 0 0 0 0 0 0 0 0 0</float_array>
          <technique_common>
            <accessor source="#Cube_001-mesh-map-0-array" count="204" stride="2">
              <param name="S" type="float"/>
              <param name="T" type="float"/>
            </accessor>
          </technique_common>
        </source>
        <source id="Cube_001-mesh-map-1">
          <float_array id="Cube_001-mesh-map-1-array" count="408">0 0 0 0 0 0 0 0 0 0 0 0 0 0 0 0 0 0 0 0 0 0 0 0 0 0 0 0 0 0 0 0 0 0 0 0 0 0 0 0 0 0 0 0 0 0 0 0 0 0 0 0 0 0 0 0 0 0 0 0 0 0 0 0 0 0 0 0 0 0 0 0 0 0 0 0 0 0 0 0 0 0 0 0 0 0 0 0 0 0 0 0 0 0 0 0 0 0 0 0 0 0 0 0 0 0 0 0 0 0 0 0 0 0 0 0 0 0 0 0 0 0 0 0 0 0 0 0 0 0 0 0 0 0 0 0 0 0 0 0 0 0 0 0 0 0 0 0 0 0 0 0 0 0 0 0 0 0 0 0 0 0 0 0 0 0 0 0 0 0 0 0 0 0 0 0 0 0 0 0 0 0 0 0 0 0 0 0 0 0 0 0 0 0 0 0 0 0 0 0 0 0 0 0 0 0 0 0 0 0 0 0 0 0 0 0 0 0 0 0 0 0 0 0 0 0 0 0 0 0 0 0 0 0 0 0 0 0 0 0 0 0 0 0 0 0 0 0 0 0 0 0 0 0 0 0 0 0 0 0 0 0 0 0 0 0 0 0 0 0 0 0 0 0 0 0 0 0 0 0 0 0 0 0 0 0 0 0 0 0 0 0 0 0 0 0 0 0 0 0 0 0 0 0 0 0 0 0 0 0 0 0 0 0 0 0 0 0 0 0 0 0 0 0 0 0 0 0 0 0 0 0 0 0 0 0 0 0 0 0 0 0 0 0 0 0 0 0 0 0 0 0 0 0 0 0 0 0 0 0 0 0 0 0 0 0 0 0 0 0 0 0 0 0 0 0 0 0 0 0 0 0 0 0 0.4974745 0.00261718 0.002525389 0.9973828 0.00252521 0.00261718 0.9974746 0.00261718 0.5025255 0.9973827 0.5025253 0.00261718 0.4974745 0.00261718 0.4974747 0.9973827 0.002525389 0.9973828 0.9974746 0.00261718 0.9974747 0.9973826 0.5025255 0.9973827</float_array>
          <technique_common>
            <accessor source="#Cube_001-mesh-map-1-array" count="204" stride="2">
              <param name="S" type="float"/>
              <param name="T" type="float"/>
            </accessor>
          </technique_common>
        </source>
        <vertices id="Cube_001-mesh-vertices">
          <input semantic="POSITION" source="#Cube_001-mesh-positions"/>
        </vertices>
        <polylist material="PBRFULL_HightWindowGlass-material" count="4">
          <input semantic="VERTEX" source="#Cube_001-mesh-vertices" offset="0"/>
          <input semantic="NORMAL" source="#Cube_001-mesh-normals" offset="1"/>
          <input semantic="TEXCOORD" source="#Cube_001-mesh-map-0" offset="2" set="0"/>
          <input semantic="TEXCOORD" source="#Cube_001-mesh-map-1" offset="2" set="1"/>
          <vcount>3 3 3 3 </vcount>
          <p>39 14 192 34 14 193 35 14 194 33 15 195 36 15 196 37 15 197 39 14 198 38 14 199 34 14 200 33 16 201 32 16 202 36 16 203</p>
        </polylist>
        <polylist material="PBRFULL_Window-material" count="64">
          <input semantic="VERTEX" source="#Cube_001-mesh-vertices" offset="0"/>
          <input semantic="NORMAL" source="#Cube_001-mesh-normals" offset="1"/>
          <input semantic="TEXCOORD" source="#Cube_001-mesh-map-0" offset="2" set="0"/>
          <input semantic="TEXCOORD" source="#Cube_001-mesh-map-1" offset="2" set="1"/>
          <vcount>3 3 3 3 3 3 3 3 3 3 3 3 3 3 3 3 3 3 3 3 3 3 3 3 3 3 3 3 3 3 3 3 3 3 3 3 3 3 3 3 3 3 3 3 3 3 3 3 3 3 3 3 3 3 3 3 3 3 3 3 3 3 3 3 </vcount>
          <p>24 0 0 2 0 1 0 0 2 29 1 3 6 1 4 2 1 5 5 2 6 11 2 7 7 2 8 4 3 9 24 3 10 0 3 11 6 4 12 0 4 13 2 4 14 3 2 15 5 2 16 7 2 17 9 3 18 16 3 19 22 3 20 26 1 21 14 1 22 10 1 23 27 5 24 12 5 25 14 5 26 12 3 27 30 3 28 8 3 29 14 4 30 8 4 31 10 4 32 11 2 33 13 2 34 15 2 35 19 3 36 9 3 37 22 3 38 17 4 39 16 4 40 23 4 41 16 3 42 1 3 43 18 3 44 18 0 45 3 0 46 21 0 47 17 1 48 15 1 49 20 1 50 21 1 51 7 1 52 23 1 53 20 5 54 13 5 55 19 5 56 31 5 57 16 5 58 25 5 59 28 6 60 22 6 61 30 6 62 26 0 63 22 0 64 17 0 65 25 7 66 18 7 67 24 7 68 29 0 69 18 0 70 21 0 71 26 1 72 20 1 73 27 1 74 29 1 75 23 1 76 31 1 77 27 5 78 19 5 79 28 5 80 23 1 81 11 1 82 17 1 83 25 8 84 26 8 85 31 8 86 4 3 87 30 3 88 25 3 89 6 4 90 8 4 91 4 4 92 31 1 93 10 1 94 6 1 95 24 0 96 29 0 97 2 0 98 29 1 99 31 1 100 6 1 101 5 2 102 9 2 103 11 2 104 4 3 105 25 3 106 24 3 107 6 4 108 4 4 109 0 4 110 3 2 111 1 2 112 5 2 113 9 3 114 5 3 115 16 3 116 26 1 117 27 1 118 14 1 119 27 5 120 28 5 121 12 5 122 12 3 123 28 3 124 30 3 125 14 4 126 12 4 127 8 4 128 11 2 129 9 2 130 13 2 131 19 3 132 13 3 133 9 3 134 17 4 135 22 4 136 16 4 137 16 3 138 5 3 139 1 3 140 18 0 141 1 0 142 3 0 143 17 1 144 11 1 145 15 1 146 21 1 147 3 1 148 7 1 149 20 5 150 15 5 151 13 5 152 31 5 153 23 5 154 16 5 155 28 9 156 19 9 157 22 9 158 26 10 159 30 10 160 22 10 161 25 11 162 16 11 163 18 11 164 29 12 165 24 12 166 18 12 167 26 1 168 17 1 169 20 1 170 29 1 171 21 1 172 23 1 173 27 5 174 20 5 175 19 5 176 23 1 177 7 1 178 11 1 179 25 13 180 30 13 181 26 13 182 4 3 183 8 3 184 30 3 185 6 4 186 10 4 187 8 4 188 31 1 189 26 1 190 10 1 191</p>
        </polylist>
      </mesh>
    </geometry>
  </library_geometries>
  <library_controllers/>
  <library_visual_scenes>
    <visual_scene id="Scene" name="Scene">
      <node id="HighWindow-coll" name="HighWindow-coll" type="NODE">
        <matrix sid="transform">1 0 0 0 0 1 0 0 0 0 1 0 0 0 0 1</matrix>
        <instance_geometry url="#Cube_001-mesh" name="HighWindow-coll">
          <bind_material>
            <technique_common>
              <instance_material symbol="PBRFULL_HightWindowGlass-material" target="#PBRFULL_HightWindowGlass-material"/>
              <instance_material symbol="PBRFULL_Window-material" target="#PBRFULL_Window-material"/>
            </technique_common>
          </bind_material>
        </instance_geometry>
      </node>
    </visual_scene>
  </library_visual_scenes>
  <scene>
    <instance_visual_scene url="#Scene"/>
  </scene>
</COLLADA>