<?xml version="1.0" encoding="utf-8"?>
<COLLADA xmlns="http://www.collada.org/2005/11/COLLADASchema" version="1.4.1">
  <asset>
    <contributor>
      <author>Blender User</author>
      <authoring_tool>Blender 2.76.0 commit date:2015-11-03, commit time:10:56, hash:f337fea</authoring_tool>
    </contributor>
    <created>2017-01-25T08:36:07</created>
    <modified>2017-01-25T08:36:07</modified>
    <unit name="meter" meter="1"/>
    <up_axis>Z_UP</up_axis>
  </asset>
  <library_images/>
  <library_geometries>
    <geometry id="Cube_019-mesh" name="Cube.019">
      <mesh>
        <source id="Cube_019-mesh-positions">
          <float_array id="Cube_019-mesh-positions-array" count="294">-5.754633 -4.454528 4.335947 -5.754633 -4.454527 4.723599 -5.036169 -0.2282858 3.973259 -4.706645 -5.925805 -4.107137 -2.9221 -21.47202 1.3364e-4 -3.43752 -20.50472 1.778542 -5.036169 -0.2282858 4.231694 -4.867608 -1.374684 -0.2362664 -2.65186 -21.47212 -1.356516 -2.455018 1.288464 4.335948 -2.455018 1.288464 4.594383 2.694606 1.287942 4.335948 2.404899 1.287942 4.077513 -2.744724 1.288464 4.335948 -2.599871 0.6443508 4.465166 2.549752 0.6438292 4.465166 2.549752 0.6438292 4.20673 -2.599871 0.6443508 4.20673 5.703566 -4.455578 4.335947 5.703566 -4.455577 4.723599 3.357342 -21.02672 1.33856e-4 4.672487 -5.926626 -4.107137 4.98586 -0.2292368 3.973259 4.98586 -0.2292368 4.231694 3.385051 -20.50532 1.778542 3.385051 -20.50532 -1.778274 4.51914 -2.068524 -2.172621 -0.02642172 -22.90083 1.33721e-4 -0.02642172 -22.90083 0.2585688 -0.316128 -22.90083 1.33721e-4 -0.02642172 -22.90083 -0.2583013 0.2632844 -22.90083 1.33721e-4 0.1184313 -22.25672 0.1293512 -0.1712749 -22.25672 0.1293512 -0.1712749 -22.25672 -0.1290838 0.1184313 -22.25672 -0.1290838 -0.0244379 -5.761824 -5.339325 -4.409495 -8.909593 -4.621271 -1.969688 -2.467952 -4.326486 4.357468 -8.910444 -4.621271 -0.0263369 -21.47232 -2.833089 -0.5910753 -21.47232 -2.825041 -4.262843 -2.067674 -2.431056 4.229434 -2.068525 -2.431056 1.783446 -20.50522 -3.348609 2.404899 -2.83777e-4 5.369688 5.269007 -4.455577 5.111252 -2.455018 0.6443508 4.852818 -5.320074 -4.454527 5.111252 0.2486895 -21.47232 2.825306 0.5383957 -21.47232 2.825306 2.694606 0.6438292 4.852818 -2.744724 0.6443508 4.852818 -1.835914 -20.50492 3.348877 -2.561054 -21.47212 -0.7550137 -0.8949331 -22.21222 0.06909668 -0.8949331 -22.21222 0.1983143 -3.43752 -20.50472 2.036977 -5.754633 -4.454527 5.111252 -5.036169 -0.2282857 4.490129 -2.744724 0.6443508 4.465166 -2.744724 0.6443508 4.335948 -2.744724 0.6443508 4.20673 -4.552549 -2.067674 -2.431056 -4.844054 -8.909593 -4.621271 -2.87253 -20.50482 -2.783619 -2.599871 0.6443508 4.594383 -2.455018 0.6443508 4.594383 2.549752 0.6438292 4.594383 2.694606 0.6438292 4.465166 2.694606 0.6438292 4.335948 2.694606 0.6438292 4.20673 2.227713 -1.542374 -2.291291 2.082859 -1.542374 -2.291291 -2.268461 -1.541923 -2.291291 4.98586 -0.2292367 4.490129 5.703566 -4.455577 5.111252 3.385051 -20.50532 2.036977 0.8262276 -22.21232 -0.02759706 0.8262276 -22.21232 -0.1568146 0.8262276 -22.21232 -0.2860321 2.820062 -20.50532 -2.783619 4.792027 -8.910444 -4.621271 4.51914 -2.068525 -2.431056 1.216734 -21.47242 2.304671 -0.02641707 -22.21222 0.839388 -0.1712702 -22.21222 0.839388 -0.1712702 -22.21222 0.3225178 0.2489664 -22.21232 -0.7713615 0.3938195 -22.21232 -0.7713615 -1.953914 -21.47212 -1.896175 -1.953924 -21.47212 1.896442 -4.577901 -1.374684 -0.2362664 -2.744724 0.6443508 4.594383 1.901246 -21.47252 -1.896175 1.901246 -21.47252 1.896442 4.529855 -1.375594 -0.2362626 2.694606 0.6438292 4.594383</float_array>
          <technique_common>
            <accessor source="#Cube_019-mesh-positions-array" count="98" stride="3">
              <param name="X" type="float"/>
              <param name="Y" type="float"/>
              <param name="Z" type="float"/>
            </accessor>
          </technique_common>
        </source>
        <source id="Cube_019-mesh-normals">
          <float_array id="Cube_019-mesh-normals-array" count="519">-0.9689673 -0.1041681 -0.2241685 -0.9897394 -0.142885 0 -0.3429903 -0.939339 0 -0.5473527 -0.8365786 0.02326917 -0.9858558 0.1675961 -2.86937e-7 -0.3558903 0.9345278 0 -0.9858558 0.1675963 0 -0.3558891 0.9345282 0 -0.9836077 0.1600925 -0.08298504 -0.9773846 0.1158835 -0.1768913 -0.355889 0.9345282 0 0 0.9104056 -0.4137168 -0.9677765 -0.162019 -0.1927657 -2.12799e-4 -1 3.17066e-5 -0.9860343 -0.1607597 0.04350405 -0.3717491 -0.7941326 -0.480787 -0.6656856 0 0.7462323 0 1 0 0.1277491 0.9918065 0 1.04208e-4 1 0 0.6656856 0 -0.7462323 0 0.9477956 -0.3188787 0 0.9103752 -0.4137837 -0.0519225 0.2076411 -0.9768261 9.82529e-5 0.9477943 -0.3188825 -0.2190603 0.921341 -0.3211597 0.9858856 0.1674209 0 0.9858855 0.1674213 0 0.3560674 0.9344604 0 0.3560688 0.9344598 0 0.9897265 -0.1429744 0 0.408352 -0.8776521 0.2509495 0.9897264 -0.1429743 0 0.54607 -0.8377397 0 0.9959133 -0.08966934 -0.01077163 0.8503387 -0.2203568 -0.4778778 0.4241819 -0.9055771 0 0.5470429 -0.8368825 -0.01927864 0.9842614 0.1089051 -0.1391738 0.3140249 0.9027432 -0.2940126 -0.9991895 -0.04023754 0.001204848 0.9998804 -0.01547402 0 0.6656836 0 0.7462342 0.3838087 -0.9134107 0.1355437 0.06260848 -0.9980382 0 0.1629455 -0.9479812 0.2734602 -0.6656836 0 0.7462342 -0.06137764 -0.9981147 0 0 -0.9980415 0.0625559 -0.2328596 -0.9363126 0.2628594 -0.6656836 0 -0.7462342 -0.2471108 0.9643167 -0.09502464 -0.1744118 -0.8814152 -0.4389621 -0.273936 -0.9506409 -0.1457431 0.6656836 0 -0.7462342 0.06260848 -0.9980382 0 0 -0.9976192 -0.06896549 0.2741919 -0.9301286 -0.2442945 -0.01409828 -0.1457251 -0.9892247 -0.08880966 -0.1673842 -0.9818836 -0.4085556 -0.8991513 -0.1568738 -0.1422405 -0.9676256 -0.2084904 -0.3549794 0.2919144 -0.8881305 -0.2018377 0.8799673 -0.4300222 0 0.3048769 -0.9523919 0 0.9535955 -0.3010909 0.2418821 0.4128535 -0.8780918 0 0.3048763 -0.9523921 0 0.2567331 -0.9664825 0.219743 0.9212572 -0.3209333 -0.2482636 -0.05106341 -0.9673458 0.3499244 -0.8567649 -0.3788231 0 -0.1565343 -0.9876726 0.2974125 -0.7833443 -0.5458185 0 -0.1331391 0.9910974 0.3277257 -0.2147024 0.9200538 0.1734336 -0.9304925 0.3226522 -1.52795e-4 -1 -2.40026e-5 0.583566 0.3321636 0.741025 1.01277e-4 1 -5.63983e-5 0 0.1454027 0.9893726 0.356068 0.9344601 0 0 0.6255524 0.7801822 -0.2121129 0.1560304 0.9647086 0.2169224 -0.05989754 0.9743495 -0.3057979 -0.8692195 0.3885167 0 -0.1881217 0.9821457 -0.4296569 -0.7351005 0.5244257 -0.9897393 -0.1428854 1.21363e-6 -0.9897393 -0.1428855 0 -0.3505017 -0.8616309 0.3670707 -0.546204 -0.8376522 0 -0.9858557 0.1675964 0 -0.3558902 0.9345279 -1.88123e-7 -0.9858557 0.1675966 0 -0.3558912 0.9345275 0 -0.987262 0.08136916 -0.1367221 0.9984782 -0.04999339 0.02328091 -0.3202455 0.9107162 -0.2608428 0 0.9535952 -0.3010918 -0.9854186 -0.1390301 -0.09808689 -0.3338095 -0.9290535 -0.1594709 -0.8901011 -0.03727787 0.4542362 0 -1 0 -0.6656834 0 0.7462343 1.98735e-5 0.1966901 0.9804658 0.6656834 0 0.7462343 0.02581018 0 0.9996669 1.01277e-4 1 -1.1349e-4 0.9722175 0.191688 -0.1343471 0.6656834 0 -0.7462343 0.2196664 0.9213041 -0.3208513 0 0.1966944 -0.9804649 -0.6656834 0 -0.7462343 -0.1271266 0.9087809 -0.397437 0 0.9104057 -0.4137169 0.9858857 0.16742 -2.86938e-7 0.9858857 0.16742 0 0.3560689 0.9344597 0 0.35607 0.9344593 0 0.9887094 -0.1472513 0.02776616 0.4241818 -0.9055771 0 0.9897266 -0.1429735 0 0.5469045 -0.837037 0.01627016 0.9883948 -0.1135356 -0.1009224 0.9324372 -0.02475786 0.3604831 0.4337953 -0.8664203 -0.2472601 0.5373027 -0.7874826 -0.3019554 0.9802876 0.1560727 -0.1211515 0.9992111 0.03971612 -1.19466e-7 -0.21238 -0.9196777 0.3302842 0.9625186 -0.1748688 0.2073131 0.378328 -0.0995438 0.9203037 0.1221242 -0.9517599 0.2814939 -0.09241741 -0.1758329 0.9800724 -0.9625166 -0.174866 0.2073256 -0.05532729 -0.996513 0.06245595 -0.8318828 -0.07682132 -0.5496084 -0.2693402 -0.1308379 -0.954116 0.4718869 0.8774092 -0.08646249 -0.02567386 -0.2021768 -0.9790125 0.9521957 -0.2495005 0.1762754 0.05225419 -0.9975479 -0.04656082 -0.04856806 -0.1573426 -0.9863491 0 -0.1565297 -0.9876734 -0.00480622 -0.941403 -0.3372498 -0.3446302 -0.7910286 -0.505474 -0.6453185 -0.15083 -0.7488754 9.43936e-5 0.9102133 -0.4141401 0 0.3048763 -0.9523921 -0.2201219 0.9206897 -0.3222995 0.3547415 0.2910638 -0.8885047 0 0.3048769 -0.9523918 0.1449106 0.7596214 -0.634016 0 0.9536032 -0.3010664 0.04856383 -0.1573541 -0.9863475 0 -0.9412105 -0.3378208 0.4690207 -0.1985798 -0.8605729 -0.004847884 -0.832484 -0.554028 -0.08063018 -0.1093025 0.990733 0 -0.1881263 0.9821448 0 -1 2.02329e-4 0.4013785 -0.7013567 0.5890621 6.33472e-5 0.6258433 0.7799488 1.04209e-4 1 0 0.2121449 0.1559907 0.964708 -0.08769601 0.09455478 0.9916496 0 0.1454058 0.9893722 -0.3558896 0.9345281 0 0.03671646 -0.12123 0.9919452 0 -0.9370738 0.3491316 -0.6185607 -0.2171893 0.7551236 -0.01610624 -0.8316267 0.5551015</float_array>
          <technique_common>
            <accessor source="#Cube_019-mesh-normals-array" count="173" stride="3">
              <param name="X" type="float"/>
              <param name="Y" type="float"/>
              <param name="Z" type="float"/>
            </accessor>
          </technique_common>
        </source>
        <vertices id="Cube_019-mesh-vertices">
          <input semantic="POSITION" source="#Cube_019-mesh-positions"/>
        </vertices>
        <polylist count="192">
          <input semantic="VERTEX" source="#Cube_019-mesh-vertices" offset="0"/>
          <input semantic="NORMAL" source="#Cube_019-mesh-normals" offset="1"/>
          <vcount>3 3 3 3 3 3 3 3 3 3 3 3 3 3 3 3 3 3 3 3 3 3 3 3 3 3 3 3 3 3 3 3 3 3 3 3 3 3 3 3 3 3 3 3 3 3 3 3 3 3 3 3 3 3 3 3 3 3 3 3 3 3 3 3 3 3 3 3 3 3 3 3 3 3 3 3 3 3 3 3 3 3 3 3 3 3 3 3 3 3 3 3 3 3 3 3 3 3 3 3 3 3 3 3 3 3 3 3 3 3 3 3 3 3 3 3 3 3 3 3 3 3 3 3 3 3 3 3 3 3 3 3 3 3 3 3 3 3 3 3 3 3 3 3 3 3 3 3 3 3 3 3 3 3 3 3 3 3 3 3 3 3 3 3 3 3 3 3 3 3 3 3 3 3 3 3 3 3 3 3 3 3 3 3 3 3 3 3 3 3 3 3 </vcount>
          <p>0 0 4 0 5 0 1 1 5 1 57 1 4 2 55 2 56 2 5 3 56 3 91 3 0 4 1 4 6 4 6 5 60 5 61 5 1 6 58 6 59 6 59 7 93 7 60 7 0 8 2 8 7 8 3 9 7 9 63 9 2 10 61 10 62 10 7 11 62 11 92 11 3 12 8 12 4 12 4 13 8 13 54 13 64 14 65 14 8 14 8 15 65 15 90 15 13 16 14 16 10 16 14 17 66 17 67 17 61 17 60 17 14 17 60 17 93 17 66 17 9 18 10 18 15 18 15 17 69 17 70 17 67 19 68 19 15 19 68 17 97 17 69 17 11 20 16 20 12 20 16 21 72 21 73 21 70 17 71 17 16 17 16 22 71 22 96 22 9 23 12 23 17 23 17 17 62 17 61 17 73 24 74 24 17 24 17 25 74 25 92 25 18 26 22 26 23 26 19 27 23 27 75 27 70 28 69 28 23 28 69 29 97 29 75 29 18 30 19 30 24 30 20 31 24 31 78 31 19 32 76 32 77 32 24 33 77 33 95 33 20 34 25 34 21 34 25 35 81 35 82 35 20 36 79 36 80 36 25 37 80 37 94 37 18 38 21 38 26 38 22 39 26 39 71 39 21 40 82 40 83 40 26 41 83 41 96 41 31 42 32 42 28 42 32 43 84 43 85 43 79 44 78 44 32 44 78 45 95 45 84 45 28 46 33 46 29 46 33 47 56 47 55 47 85 48 86 48 33 48 86 49 91 49 56 49 29 50 34 50 30 50 34 51 87 51 88 51 55 52 54 52 34 52 34 53 54 53 90 53 30 54 35 54 31 54 35 55 80 55 79 55 88 56 89 56 35 56 89 57 94 57 80 57 40 58 41 58 37 58 37 59 41 59 65 59 88 60 87 60 41 60 41 61 87 61 90 61 36 62 37 62 42 62 38 63 42 63 74 63 37 64 64 64 63 64 42 65 63 65 92 65 36 66 38 66 43 66 39 67 43 67 83 67 73 68 72 68 43 68 43 69 72 69 96 69 39 70 44 70 40 70 40 71 44 71 89 71 39 72 82 72 81 72 44 73 81 73 94 73 49 74 50 74 46 74 46 75 50 75 77 75 49 76 85 76 84 76 50 77 84 77 95 77 45 78 46 78 51 78 47 79 51 79 68 79 46 80 76 80 75 80 51 81 75 81 97 81 45 82 47 82 52 82 48 83 52 83 59 83 47 17 67 17 66 17 52 17 66 17 93 17 48 84 53 84 49 84 49 85 53 85 86 85 48 86 58 86 57 86 53 87 57 87 91 87 1 88 0 88 5 88 58 89 1 89 57 89 5 90 4 90 56 90 57 91 5 91 91 91 2 92 0 92 6 92 2 93 6 93 61 93 6 94 1 94 59 94 6 95 59 95 60 95 3 96 0 96 7 96 64 97 3 97 63 97 7 98 2 98 62 98 63 99 7 99 92 99 0 100 3 100 4 100 55 101 4 101 54 101 3 102 64 102 8 102 54 103 8 103 90 103 9 17 13 17 10 17 10 104 14 104 67 104 13 104 61 104 14 104 14 17 60 17 66 17 11 105 9 105 15 105 11 106 15 106 70 106 10 107 67 107 15 107 15 17 68 17 69 17 9 108 11 108 12 108 12 109 16 109 73 109 11 110 70 110 16 110 72 111 16 111 96 111 13 112 9 112 17 112 13 113 17 113 61 113 12 114 73 114 17 114 62 115 17 115 92 115 19 116 18 116 23 116 76 117 19 117 75 117 22 118 70 118 23 118 23 119 69 119 75 119 20 120 18 120 24 120 79 121 20 121 78 121 24 122 19 122 77 122 78 123 24 123 95 123 18 124 20 124 21 124 21 125 25 125 82 125 25 126 20 126 80 126 81 127 25 127 94 127 22 128 18 128 26 128 70 28 22 28 71 28 26 129 21 129 83 129 71 130 26 130 96 130 27 103 31 103 28 103 28 131 32 131 85 131 31 132 79 132 32 132 32 133 78 133 84 133 27 103 28 103 29 103 29 134 33 134 55 134 28 135 85 135 33 135 33 136 86 136 56 136 27 103 29 103 30 103 30 137 34 137 88 137 29 138 55 138 34 138 87 139 34 139 90 139 27 103 30 103 31 103 31 140 35 140 79 140 30 141 88 141 35 141 35 142 89 142 80 142 36 143 40 143 37 143 64 144 37 144 65 144 40 145 88 145 41 145 65 146 41 146 90 146 38 147 36 147 42 147 73 148 38 148 74 148 42 149 37 149 63 149 74 150 42 150 92 150 39 151 36 151 43 151 82 152 39 152 83 152 38 153 73 153 43 153 83 154 43 154 96 154 36 155 39 155 40 155 88 156 40 156 89 156 44 157 39 157 81 157 89 158 44 158 94 158 45 159 49 159 46 159 76 160 46 160 77 160 50 161 49 161 84 161 77 162 50 162 95 162 47 163 45 163 51 163 67 164 47 164 68 164 51 165 46 165 75 165 68 17 51 17 97 17 48 166 45 166 52 166 58 167 48 167 59 167 52 17 47 17 66 17 59 168 52 168 93 168 45 169 48 169 49 169 85 170 49 170 86 170 53 171 48 171 57 171 86 172 53 172 91 172</p>
        </polylist>
      </mesh>
    </geometry>
  </library_geometries>
  <library_controllers/>
  <library_visual_scenes>
    <visual_scene id="Scene" name="Scene">
      <node id="COL_VIZ_LeftFingerJoint42y_link_0" name="COL_VIZ_LeftFingerJoint42y_link_0" type="NODE">
        <instance_geometry url="#Cube_019-mesh" name="COL_VIZ_LeftFingerJoint42y_link_0"/>
      </node>
    </visual_scene>
  </library_visual_scenes>
  <scene>
    <instance_visual_scene url="#Scene"/>
  </scene>
</COLLADA>