<?xml version="1.0" encoding="utf-8"?>
<COLLADA xmlns="http://www.collada.org/2005/11/COLLADASchema" version="1.4.1">
  <asset>
    <contributor>
      <author>Blender User</author>
      <authoring_tool>Blender 2.76.0 commit date:2015-11-03, commit time:10:56, hash:f337fea</authoring_tool>
    </contributor>
    <created>2017-01-25T08:36:09</created>
    <modified>2017-01-25T08:36:09</modified>
    <unit name="meter" meter="1"/>
    <up_axis>Z_UP</up_axis>
  </asset>
  <library_images/>
  <library_geometries>
    <geometry id="Cube_052-mesh" name="Cube.052">
      <mesh>
        <source id="Cube_052-mesh-positions">
          <float_array id="Cube_052-mesh-positions-array" count="294">-5.70719 -3.447654 4.006775 -5.70719 -3.447654 4.385582 -5.18075 -0.4537819 3.644077 -5.14839 -6.807951 -2.604417 -4.359332 -12.66248 1.817473 -5.120911 -10.76879 4.385568 -5.18075 -0.4537819 4.022884 -4.378382 -1.966689 -2.616776 -4.354692 -11.43889 -1.806351 0.02153217 0.7793371 4.006775 0.02153217 0.7793371 4.385583 4.644587 -0.2658273 3.644067 0.0185374 -0.8465364 -2.759635 -4.601373 -0.2667474 3.644077 -4.601373 -0.2667474 3.896615 2.741219 0.4055348 4.259314 3.828289 -1.778906 -2.490517 -3.799005 -1.779655 -2.490507 5.750924 -3.446624 4.006775 5.750924 -3.446624 4.385582 4.121006 -12.83918 3.630202 5.192795 -6.80702 -2.604407 5.223965 -0.4528618 3.644067 5.223965 -0.4528618 4.022874 4.121006 -12.83918 4.009009 4.414226 -11.43809 -1.806351 4.407666 -1.96594 -2.616786 0.02287513 -14.01649 3.840532 0.02287513 -14.01649 4.219339 -3.496005 -13.02692 3.480343 0.0258767 -12.53199 -1.824871 3.541629 -13.02622 3.630203 3.541629 -13.02622 3.88274 -3.496005 -13.02692 3.732881 -3.496005 -13.02692 3.227804 3.834849 -11.62512 -1.680082 -1.754926 -4.587311 -5.299351 -3.833299 -4.601321 -4.616303 0.01641535 -2.165939 -4.78328 3.863043 -4.600581 -4.616312 -1.656606 -10.93428 -3.210395 -3.529879 -10.80759 -3.111207 -3.551719 -2.412299 -4.441761 3.573643 -2.411619 -4.441761 3.596703 -10.80689 -3.111207 0.02991098 -0.3428695 5.016928 5.31639 -3.446624 4.764389 0.02153217 0.2182333 4.76439 -5.272657 -3.447654 4.764389 1.65615 -13.37758 4.681266 2.090683 -13.37758 4.681266 4.789432 -0.4528617 4.401681 -4.746217 -0.4537818 4.401691 -3.640849 -12.83988 4.237957 -4.065003 -11.62592 -1.680082 -4.069643 -12.84952 1.817474 -3.785694 -13.02692 3.732881 -4.831223 -10.58175 4.511838 -5.70719 -3.447654 4.764389 -4.891062 -0.6408165 4.149154 -4.891062 -0.2667474 3.896615 -4.891062 -0.2667474 3.644077 -4.891062 -0.2667473 3.391539 -3.696564 -2.599334 -4.189223 -4.267832 -4.601321 -4.616303 -3.674724 -10.62055 -2.858668 -2.698155 0.4050078 4.511852 -2.408466 0.4050078 4.511852 2.741219 0.4055348 4.511852 4.934277 -0.2658273 3.896605 4.934277 -0.2658273 3.644067 4.934277 -0.2658272 3.391529 3.428799 -2.224585 -4.189223 0.01641535 -1.978904 -4.530743 -0.2732734 -1.978904 -4.530743 4.934277 -0.6398965 4.149144 5.750924 -3.446624 4.764389 4.876398 -10.58085 4.511848 3.831317 -13.02622 3.88274 3.831317 -13.02622 3.630203 3.831317 -13.02622 3.377664 3.741548 -10.61985 -2.858668 4.297576 -4.600581 -4.616312 4.007887 -4.226512 -4.363775 3.541629 -13.02622 4.135279 0.02287518 -13.64242 4.345609 -3.496005 -13.02692 3.985419 -3.775315 -11.62592 -1.93262 -1.656606 -11.12132 -2.957857 3.834849 -11.62512 -1.93262 -4.065003 -11.62592 -1.93262 -3.785694 -13.02692 3.985419 -3.696564 -2.225265 -4.189223 -4.891062 -0.2667474 4.149154 4.124537 -11.62512 -1.93262 3.831317 -13.02622 4.135279 3.718487 -2.224585 -4.189223 4.934277 -0.2658273 4.149144</float_array>
          <technique_common>
            <accessor source="#Cube_052-mesh-positions-array" count="98" stride="3">
              <param name="X" type="float"/>
              <param name="Y" type="float"/>
              <param name="Z" type="float"/>
            </accessor>
          </technique_common>
        </source>
        <source id="Cube_052-mesh-normals">
          <float_array id="Cube_052-mesh-normals-array" count="528">-0.9709257 -0.08924472 -0.2221232 -0.3826897 -0.03064787 0.9233685 -0.5424099 -0.84011 0.002601206 -0.8607826 -0.5089728 0 -0.9848898 0.1731824 0 -0.5424119 0.8401128 0 -0.9602327 0.2792008 0 -0.3995714 0 0.9167021 -0.9750893 0.1518743 -0.1616635 -0.8082633 0.3340763 -0.4848749 -0.5424132 0.8401119 0 -0.3088992 0.9079398 -0.2832431 -0.9819287 -0.1789212 -0.06167072 -0.4267814 -0.8566634 -0.2898027 -0.754741 -0.2513155 -0.6059758 -0.5768766 -0.4208789 -0.7000532 -0.2207031 0.9753411 0 0 0.6754027 -0.7374492 0 1 0 0.1361631 0.9906865 0 0.2395988 0.9311563 -0.274846 -3.26447e-5 0.3198177 0.9474792 0.2927209 0.956198 0 0.2468363 0.9327149 -0.2628969 0.2467105 0.9215494 -0.299801 0.0401327 0.9658442 -0.255997 -0.2465348 0.9329543 -0.2623299 0.1851668 0.9594773 -0.2124067 0 0.8425178 -0.5386686 -0.09492737 0.9614855 -0.2579431 0.9848597 0.1733534 0 0.3014914 0.1668042 0.9387649 0.5424113 0.8401131 0 0.5424126 0.8401124 0 0.985275 -0.1709774 0 0.5424101 -0.8401139 0 0.9925705 -0.1216713 0 0.5560986 -0.3534918 0.7521954 0.9864085 -0.1639467 0.01094961 0.7266755 -0.2335045 -0.6460793 0.5424097 -0.8401142 0 0.5869626 -0.7902324 -0.1760894 0.9740774 0.1575611 -0.1623203 0.6717408 0.6952881 -0.2556147 0.08170509 0.6003562 -0.795548 0.8929464 0.1655839 -0.4186035 0.2709022 -0.9626069 0 0.1724932 -0.9850108 0 0 -1 0 -0.270716 -0.9626592 0 -0.172298 -0.9850449 0 -0.2707159 -0.9626594 0 -0.2182528 -0.9447237 -0.2446691 0.4602245 -0.8381907 -0.2926255 0.2335517 -0.943274 -0.2359826 -0.2267929 -0.9385541 -0.2601562 0.1057136 -0.5429916 -0.8330576 -0.07130873 -0.3128294 -0.9471288 -0.9006077 -0.1435208 -0.4102531 -0.0880658 -0.8095342 -0.5804299 0 -0.6774945 -0.7355279 -0.310839 0.1152107 -0.9434542 -0.1148619 0.7307191 -0.6729461 0 0.2086335 -0.977994 -0.8674474 0 -0.4975291 0.1014807 0.09240388 -0.9905369 0.7449697 0.1503192 -0.6499418 0.1166212 0.7981203 -0.5911037 0 0.8036038 -0.5951647 0.1166446 -0.238797 -0.9640384 0.03219211 -0.8179593 -0.5743747 0 -0.2802974 -0.9599132 0 -0.6775324 -0.735493 0 -0.008369803 0.9999651 0.1020899 -0.04147922 0.9939101 0.1695022 -0.9843544 -0.04812037 0 -0.8409098 -0.5411754 0.1301268 0.1417945 0.981306 0.08673483 0.07950443 0.993054 0 0.2141199 0.9768075 0.8674462 0 0.4975312 -0.1260384 0.4055827 0.905327 -0.9067745 0.2041391 0.3689004 0 -0.1272319 0.9918731 -0.3158953 0.6667671 0.6750051 -0.09037953 -0.07137942 0.9933462 -0.1986037 -0.8386338 0.5071981 0 -0.03537833 0.999374 -0.626033 -0.410433 0.6630442 -0.996809 -0.0798248 0 -0.9925461 -0.1218708 0 -0.8321076 -0.5346462 0.1474807 -0.2166516 -0.2931166 0.9312061 -0.9848899 0.1731821 0 -0.5424091 0.8401145 0 -0.3015273 0.1667485 0.9387632 -0.5424107 0.8401135 0 -0.9747692 0.1546266 -0.1609837 -0.9557402 0.1513671 -0.2522869 -0.6712162 0.6962853 -0.2542747 -0.9174653 0 -0.3978161 -0.9897925 -0.1420552 -0.0114575 -0.5202993 -0.8058635 -0.2826176 -0.7223041 -0.2358342 -0.6501224 -0.5424138 -0.8401115 0 -0.2207027 0.9753412 0 -0.1596197 0.8975312 -0.4110465 -0.2397328 0.9310763 -0.2750006 0.1625508 0.8763551 -0.4534081 0.1361628 0.9906865 0 0.2927208 0.956198 0 0.1975093 0.9531505 -0.2291161 0.1138302 0.8369796 -0.5352643 -0.1848836 0.9596037 -0.2120819 0 0.9672633 -0.2537752 -0.1977193 0.9531491 -0.2289408 -0.2390965 0.8354815 -0.4947762 -0.03940725 0.9659363 -0.255762 0.9848597 0.1733539 0 0.9601822 0.2793745 0 0.5424113 0.8401132 0 0.3995723 0 0.9167017 0.985275 -0.1709775 0 0.5424116 -0.8401129 0 0.7461065 -0.103101 -0.6577958 0.9852422 -0.1711243 0.003804683 0.7553366 -0.2470195 -0.6069992 0.6308287 -0.7589156 -0.1615625 0.5775094 -0.4231298 -0.698172 0.9747608 0.151736 -0.1637611 0.954407 0.1541325 -0.2556378 0.3069253 0.9083917 -0.2839395 0.2709022 -0.9626069 0 0.1777647 -0.3147317 0.9323861 -0.2707161 -0.9626593 0 -0.0710802 -0.9941325 -0.08153641 -0.2157205 -0.3122956 0.9251682 -0.2221741 -0.9431372 -0.2472469 -0.1533794 -0.723507 -0.673062 -0.2954486 -0.9553587 0 -0.2137209 -0.9456319 -0.2451608 0.2490034 -0.9369063 -0.2453648 0.231613 -0.972808 0 -0.2267934 -0.9385538 -0.260157 -0.3017466 -0.2386028 -0.9230481 0 -0.2802981 -0.959913 -0.08555108 -0.8006592 -0.5929805 -0.9079506 -0.2311453 -0.3495679 -0.1107673 0.2840177 -0.9523994 0 0.8036035 -0.595165 -0.9012793 0.1483887 -0.4070338 -0.1182454 0.7643266 -0.6338949 0.1200727 0.1221433 -0.9852226 0 0.5595359 -0.8288061 0.1099845 0.8278598 -0.5500471 0.7974081 0.1658626 -0.5801984 0.02550178 -0.3121707 -0.9496837 0.03071117 -0.8032222 -0.5948873 0.899935 -0.1388564 -0.413323 0.9080389 -0.2350936 -0.3466937 0.03520268 -0.02133756 0.9991524 0 -0.03537636 0.9993741 0 -0.8409174 -0.5411634 0.3385937 -0.2828981 0.8973979 0.1262878 0.408703 0.9038879 -8.22088e-5 0.8036208 0.5951418 0.9067842 0.2042929 0.368791 0.3157773 0.6668385 0.6749897 -0.1297064 0.141698 0.9813755 0 0.2141082 0.97681 -0.09293258 0.1262887 0.9876309 -0.8674464 0 0.4975307 -0.03030467 -0.02950918 0.999105 -0.1177257 -0.4165161 0.9014739 0.1814762 -0.02357375 0.9831128 0 -0.8036047 0.5951636</float_array>
          <technique_common>
            <accessor source="#Cube_052-mesh-normals-array" count="176" stride="3">
              <param name="X" type="float"/>
              <param name="Y" type="float"/>
              <param name="Z" type="float"/>
            </accessor>
          </technique_common>
        </source>
        <vertices id="Cube_052-mesh-vertices">
          <input semantic="POSITION" source="#Cube_052-mesh-positions"/>
        </vertices>
        <polylist count="192">
          <input semantic="VERTEX" source="#Cube_052-mesh-vertices" offset="0"/>
          <input semantic="NORMAL" source="#Cube_052-mesh-normals" offset="1"/>
          <vcount>3 3 3 3 3 3 3 3 3 3 3 3 3 3 3 3 3 3 3 3 3 3 3 3 3 3 3 3 3 3 3 3 3 3 3 3 3 3 3 3 3 3 3 3 3 3 3 3 3 3 3 3 3 3 3 3 3 3 3 3 3 3 3 3 3 3 3 3 3 3 3 3 3 3 3 3 3 3 3 3 3 3 3 3 3 3 3 3 3 3 3 3 3 3 3 3 3 3 3 3 3 3 3 3 3 3 3 3 3 3 3 3 3 3 3 3 3 3 3 3 3 3 3 3 3 3 3 3 3 3 3 3 3 3 3 3 3 3 3 3 3 3 3 3 3 3 3 3 3 3 3 3 3 3 3 3 3 3 3 3 3 3 3 3 3 3 3 3 3 3 3 3 3 3 3 3 3 3 3 3 3 3 3 3 3 3 3 3 3 3 3 3 </vcount>
          <p>0 0 4 0 5 0 1 1 5 1 57 1 4 2 55 2 56 2 5 3 56 3 91 3 0 4 1 4 6 4 2 5 6 5 60 5 1 6 58 6 59 6 6 7 59 7 93 7 0 8 2 8 7 8 7 9 63 9 64 9 2 10 61 10 62 10 7 11 62 11 92 11 3 12 8 12 4 12 4 13 8 13 54 13 3 14 64 14 65 14 8 15 65 15 90 15 9 16 13 16 14 16 14 17 66 17 67 17 61 18 60 18 14 18 14 18 60 18 93 18 9 19 10 19 15 19 11 20 15 20 69 20 10 21 67 21 68 21 15 22 68 22 97 22 11 23 16 23 12 23 12 24 16 24 72 24 11 18 70 18 71 18 16 25 71 25 96 25 12 26 17 26 13 26 13 27 17 27 62 27 12 28 73 28 74 28 17 29 74 29 92 29 18 30 22 30 23 30 19 31 23 31 75 31 22 32 70 32 69 32 23 33 69 33 97 33 18 34 19 34 24 34 20 35 24 35 78 35 19 36 76 36 77 36 24 37 77 37 95 37 20 38 25 38 21 38 21 39 25 39 81 39 20 40 79 40 80 40 25 41 80 41 94 41 18 42 21 42 26 42 22 43 26 43 71 43 82 44 83 44 26 44 26 45 83 45 96 45 27 46 31 46 32 46 32 47 84 47 85 47 79 48 78 48 32 48 78 48 95 48 84 48 27 49 28 49 33 49 29 48 33 48 56 48 85 50 86 50 33 50 86 48 91 48 56 48 27 51 29 51 34 51 30 52 34 52 87 52 55 53 54 53 34 53 54 48 90 48 87 48 30 54 35 54 31 54 31 55 35 55 80 55 30 56 88 56 89 56 35 48 89 48 94 48 36 57 40 57 41 57 37 58 41 58 65 58 88 59 87 59 41 59 87 60 90 60 65 60 36 61 37 61 42 61 38 62 42 62 74 62 37 63 64 63 63 63 42 64 63 64 92 64 38 65 43 65 39 65 39 66 43 66 83 66 38 67 73 67 72 67 43 68 72 68 96 68 36 69 39 69 44 69 44 70 89 70 88 70 39 71 82 71 81 71 81 72 94 72 89 72 49 73 50 73 46 73 46 74 50 74 77 74 49 75 85 75 84 75 50 76 84 76 95 76 45 77 46 77 51 77 47 78 51 78 68 78 46 79 76 79 75 79 51 80 75 80 97 80 45 81 47 81 52 81 48 82 52 82 59 82 67 83 66 83 52 83 52 84 66 84 93 84 48 85 53 85 49 85 53 86 86 86 85 86 48 87 58 87 57 87 53 88 57 88 91 88 1 89 0 89 5 89 58 90 1 90 57 90 5 91 4 91 56 91 57 92 5 92 91 92 2 93 0 93 6 93 61 94 2 94 60 94 6 95 1 95 59 95 60 96 6 96 93 96 3 97 0 97 7 97 3 98 7 98 64 98 7 99 2 99 62 99 63 100 7 100 92 100 0 101 3 101 4 101 55 102 4 102 54 102 8 103 3 103 65 103 54 104 8 104 90 104 10 105 9 105 14 105 10 106 14 106 67 106 13 18 61 18 14 18 66 107 14 107 93 107 11 108 9 108 15 108 70 18 11 18 69 18 15 109 10 109 68 109 69 110 15 110 97 110 9 111 11 111 12 111 73 112 12 112 72 112 16 113 11 113 71 113 72 114 16 114 96 114 9 115 12 115 13 115 61 18 13 18 62 18 17 116 12 116 74 116 62 117 17 117 92 117 19 118 18 118 23 118 76 119 19 119 75 119 23 120 22 120 69 120 75 121 23 121 97 121 20 122 18 122 24 122 79 123 20 123 78 123 24 124 19 124 77 124 78 35 24 35 95 35 18 125 20 125 21 125 82 126 21 126 81 126 25 127 20 127 80 127 81 128 25 128 94 128 22 129 18 129 26 129 70 33 22 33 71 33 21 130 82 130 26 130 71 131 26 131 96 131 28 132 27 132 32 132 28 133 32 133 85 133 31 48 79 48 32 48 32 48 78 48 84 48 29 134 27 134 33 134 55 135 29 135 56 135 28 136 85 136 33 136 33 48 86 48 56 48 30 137 27 137 34 137 88 138 30 138 87 138 29 139 55 139 34 139 34 140 54 140 87 140 27 141 30 141 31 141 79 48 31 48 80 48 35 142 30 142 89 142 80 143 35 143 94 143 37 144 36 144 41 144 64 145 37 145 65 145 40 146 88 146 41 146 41 147 87 147 65 147 38 148 36 148 42 148 73 149 38 149 74 149 42 150 37 150 63 150 74 151 42 151 92 151 36 152 38 152 39 152 82 153 39 153 83 153 43 154 38 154 72 154 83 155 43 155 96 155 40 156 36 156 44 156 40 157 44 157 88 157 44 158 39 158 81 158 44 159 81 159 89 159 45 160 49 160 46 160 76 161 46 161 77 161 50 162 49 162 84 162 77 163 50 163 95 163 47 164 45 164 51 164 67 165 47 165 68 165 51 166 46 166 75 166 68 167 51 167 97 167 48 168 45 168 52 168 58 169 48 169 59 169 47 170 67 170 52 170 59 171 52 171 93 171 45 172 48 172 49 172 49 173 53 173 85 173 53 174 48 174 57 174 86 175 53 175 91 175</p>
        </polylist>
      </mesh>
    </geometry>
  </library_geometries>
  <library_controllers/>
  <library_visual_scenes>
    <visual_scene id="Scene" name="Scene">
      <node id="COL_VIZ_RightFingerJoint43y_link_0" name="COL_VIZ_RightFingerJoint43y_link_0" type="NODE">
        <instance_geometry url="#Cube_052-mesh" name="COL_VIZ_RightFingerJoint43y_link_0"/>
      </node>
    </visual_scene>
  </library_visual_scenes>
  <scene>
    <instance_visual_scene url="#Scene"/>
  </scene>
</COLLADA>