<?xml version="1.0" encoding="utf-8"?>
<COLLADA xmlns="http://www.collada.org/2005/11/COLLADASchema" version="1.4.1">
  <asset>
    <contributor>
      <author>Blender User</author>
      <authoring_tool>Blender 2.76.0 commit date:2015-11-03, commit time:10:56, hash:f337fea</authoring_tool>
    </contributor>
    <created>2017-01-25T08:36:10</created>
    <modified>2017-01-25T08:36:10</modified>
    <unit name="meter" meter="1"/>
    <up_axis>Z_UP</up_axis>
  </asset>
  <library_images/>
  <library_geometries>
    <geometry id="Cube_026-mesh" name="Cube.026">
      <mesh>
        <source id="Cube_026-mesh-positions">
          <float_array id="Cube_026-mesh-positions-array" count="294">-28.65361 18.91236 5.709665 -27.00432 18.96016 12.49804 -28.01599 18.89046 0.1786991 -29.61412 18.89046 -0.4323446 -28.01599 18.89046 0.1786991 -19.86619 2.27582 19.50829 -27.00432 19.46668 12.49804 -29.64331 19.39578 -0.4325017 -29.64331 18.38274 -0.4325017 24.94789 21.00421 10.7374 2.01704 22.00736 42.40708 25.57659 21.06132 0.4679739 25.57659 21.06132 0.4679739 -29.31271 20.92214 2.343596 -11.33306 20.5042 35.79243 18.47826 21.66263 30.84525 25.57659 21.06132 0.4679739 -28.84425 19.90229 -0.4325017 25.57909 21.01321 0.9420529 26.74842 18.54632 10.20155 25.15029 18.54632 9.590507 27.17472 21.06132 -0.1430699 27.17472 21.56784 0.4679738 23.50519 20.9266 16.95911 23.06302 4.252536 20.26555 27.17472 20.5548 -0.1430699 25.57659 21.06132 0.4679739 -0.4105432 -14.93137 15.0462 -0.3465557 -9.274521 29.78858 -13.53799 -7.751804 18.433 -0.4105433 -12.90529 15.0462 14.01539 -7.104073 18.4381 14.81446 -8.117113 19.04914 -10.13609 -7.626391 22.4746 -14.33706 -8.764844 17.82195 11.74006 -10.0528 16.83555 -28.04519 18.88926 0.178542 -28.84425 18.88925 -1.043546 -28.04519 18.88926 0.178542 25.57659 21.06132 0.4679739 -28.04519 18.88926 0.178542 -28.04519 18.88926 0.178542 -28.04519 18.88926 0.178542 26.37565 21.56784 -0.7541136 25.57659 21.06132 0.4679739 2.23552 14.05018 43.47436 10.8182 14.40599 38.42049 2.01704 20.99432 43.62917 -5.634605 19.67778 39.03889 -3.145797 2.898105 37.462 9.614489 2.877078 38.42717 12.3138 20.41069 37.22729 -6.433669 20.1843 40.26097 -4.813845 2.833153 36.60638 -29.64331 17.87622 -0.4325017 -15.13612 -8.764844 18.43299 -15.54482 -8.014695 19.27694 -15.22039 2.443165 26.30229 -10.53399 19.49117 35.18139 -10.53399 19.49117 35.18139 -23.34489 19.02696 17.3455 -29.61412 19.9035 0.1786991 -28.01599 18.89046 0.1786991 -28.01599 18.89046 0.1786991 -28.01599 18.89046 0.1786991 -28.01599 18.89046 0.1786991 -6.433669 20.69082 40.26097 2.017041 19.98128 41.185 9.539368 21.27143 40.89017 25.36939 21.03321 6.868868 25.36939 21.03321 6.868868 27.17472 22.07436 -0.1430699 26.37565 22.07436 -0.7541136 25.57659 21.06132 0.4679739 -28.04519 18.88926 0.178542 15.25019 20.53969 33.98379 15.25019 20.53969 33.98379 19.22259 3.844413 24.505 23.06302 3.746016 20.26555 21.46489 4.759057 19.6545 25.54439 20.80541 2.970878 25.54439 20.80541 2.970878 25.57659 21.06132 0.4679739 25.57659 21.06132 0.4679739 10.5908 3.45875 36.16009 -3.145797 1.885064 38.68408 -6.413675 2.771551 35.55518 -28.04519 18.88926 0.178542 -0.4105432 -13.91833 13.82411 26.37565 20.04828 -0.7541136 -28.04519 18.88926 0.178542 -15.22039 2.443165 26.30229 -28.04519 18.88926 0.178542 -15.11139 19.32146 30.05699 25.57659 21.06132 0.4679739 19.22259 3.844413 24.505 25.57659 21.06132 0.4679739 16.52 20.5968 32.15369</float_array>
          <technique_common>
            <accessor source="#Cube_026-mesh-positions-array" count="98" stride="3">
              <param name="X" type="float"/>
              <param name="Y" type="float"/>
              <param name="Z" type="float"/>
            </accessor>
          </technique_common>
        </source>
        <source id="Cube_026-mesh-normals">
          <float_array id="Cube_026-mesh-normals-array" count="411">-0.9280415 -0.3641601 0.07827162 -0.8187829 -0.1138752 0.5626964 -0.9178388 -0.3830975 -0.1039636 -0.77334 -0.3368302 0.5371135 -0.9717314 0 0.2360897 0.1012073 0.9947693 0.01383203 0 0 1 0.186526 -0.9732158 -0.1343844 -0.3570613 -0.02033948 0.9338595 0.3570616 0.02034038 -0.9338594 -0.3570611 0.02024424 0.9338617 -0.3516041 0 0.9361489 0.02996718 -0.8065695 0.5903794 -0.003757417 0.9998877 0.01451289 -0.1942929 0.9656215 0.1727003 -0.8752428 -0.3791923 0.3002721 -0.8387746 0.05063146 0.5421198 -0.002656698 0.9994325 -0.03358113 0.1192886 0.9928256 0.008221447 0.1212436 -0.5126847 0.8499732 0.6522545 -0.5102277 0.5605639 -0.539084 0.8421397 -0.01375204 -0.01423233 0.9377898 -0.346912 -0.4442259 -0.7007917 -0.5581707 0.8179315 0.538336 0.2029345 -0.0404824 0.9991756 0.003077685 0.2857434 -0.5998616 -0.7473398 0.3571348 0 -0.9340528 0.8986255 -0.03449648 0.4373585 0.4296022 0.8625403 0.2673317 -0.3351922 -0.9368174 -0.1000975 0.9575406 -0.2854527 -0.04040932 0.03849941 0.9941727 0.1006906 0.2370542 -0.7479354 -0.6199984 0.3535839 -0.2626202 -0.8977801 0.4577432 -0.6798677 0.572932 0.3034275 -0.09330594 -0.9482752 0.6352064 -0.5018616 0.5870671 -0.3918689 -0.8583868 0.3310754 0.1056132 -0.992709 -0.05809265 -0.6439527 -0.5691059 0.5113154 -0.604333 -0.5309463 0.5940352 0.01378166 -0.5243964 0.8513629 -0.4202998 -0.6268856 -0.6560203 -0.4530192 -0.6661978 -0.5924139 0.1456932 9.19809e-7 -0.9893299 0.8275533 -0.4918209 -0.2706804 0.3666451 -0.5958157 -0.7145454 0.8217819 0.5656806 0.06841039 0.03969681 -0.9319833 -0.3603213 -0.8369688 0 -0.5472508 0.8369688 0 0.5472508 -0.6949613 0.2603849 -0.6702452 -0.06817442 -0.4477606 0.8915508 0.8208577 -0.1215255 0.558054 0.0712437 -0.9731215 -0.2189957 0.5291482 0.03665941 0.8477371 0.156903 -0.9283409 0.3369936 -0.04049444 0.9991751 0.003078877 -0.0513783 -0.9340131 0.353525 -0.1797722 -0.9447687 0.2740331 -0.1086941 0 0.9940752 -0.7066296 -0.2994115 0.6411141 -0.5624316 -0.1449584 0.8140379 -0.4461448 0.6230345 0.6424818 -0.6891997 -0.1765475 0.7027338 0.008603394 -0.9999508 0.00495094 -0.8053762 -0.08420485 0.5867527 -0.9166581 -0.3971142 0.04514664 -0.2118739 0.9768874 -0.02829277 -0.5335329 -0.841679 0.08318227 -0.8091886 0 0.5875492 0.6545161 0.6160985 -0.438214 0.00144869 0.9999918 -0.003791987 -0.00144869 -0.9999918 0.003791987 -0.495798 0.3056427 0.8128757 0.3570611 -0.02024424 -0.9338617 0.3571346 0 -0.934053 -0.07089054 0.9940403 -0.08281588 -0.1357278 -0.511716 0.848366 -0.5963138 0.7319297 0.3296799 -0.3237569 -0.8615893 0.3909547 -0.1454557 -0.9892599 -0.01440703 0.1262877 0.9805001 0.1505696 0.561309 -0.8072293 0.1825188 -0.002350568 0.9999827 0.005417823 -0.2947068 0.8798083 -0.3729416 0.02499353 -0.5018052 -0.8646195 -0.02526479 0.5016044 0.8647282 0.2405979 -0.9299224 -0.2781312 0.8998439 -0.0118646 0.4360508 -0.5968316 0.7958751 -0.1018581 0.04052633 -0.9991739 -0.003058314 0.1025257 -0.9579061 -0.26815 0.1097785 -0.604998 -0.788623 0.6968365 0.2840356 0.6585915 0.7411242 0 0.671368 0.5623459 0 0.8269022 -0.3571364 0 -0.9340524 -0.6455332 -0.7102329 -0.2808137 0.3006817 -0.9486902 -0.09786438 0.8974707 0.3395728 0.2814901 0.308404 -0.8885652 0.339616 0.2110864 -0.5763514 0.7894693 0.4206098 -0.2017572 -0.8845233 0.7072672 -0.4921348 0.5075199 -0.3797991 -0.8578035 0.346303 0.3766852 -0.5942445 0.7106207 -0.5513513 -0.5695303 0.6096287 -0.414334 -0.4986249 0.7613808 -0.2498129 9.7214e-7 -0.9682942 -0.1011704 -0.765932 0.6349117 0.4385822 -0.6918864 0.5735319 0.4929568 -0.2809917 -0.8234302 0.08692193 -0.5266466 0.8456287 0.8277023 -0.4921038 -0.2697089 0.08643174 -0.7670004 0.6357987 0.9190273 -0.2922842 0.2644975 -0.04118543 0.9987907 0.02684956 0.04118543 -0.9987907 -0.02684956 -0.03969681 0.9319833 0.3603213 0.01998412 -0.3695599 -0.9289921 0.5083268 -0.05257487 0.8595579 0.7575966 -0.07872343 0.6479583 -0.04695141 0.7690312 0.6374846 -0.5313295 -0.7369247 -0.417889 0.5075076 -0.003241896 0.8616412 -0.170894 0.9102056 -0.3772546 0.7413615 -0.05169188 0.6691122 0.7579185 -0.1997379 0.6210188 -0.5096585 -0.03520017 0.8596564 0.063928 0.9219065 -0.3821017 -0.7781205 0 0.6281152 -0.433166 -0.2567656 0.863967 -0.3364938 0.7249854 0.6009727 -0.6089583 -0.1423568 0.7803233 -0.04050344 0.9991747 0.003089547</float_array>
          <technique_common>
            <accessor source="#Cube_026-mesh-normals-array" count="137" stride="3">
              <param name="X" type="float"/>
              <param name="Y" type="float"/>
              <param name="Z" type="float"/>
            </accessor>
          </technique_common>
        </source>
        <vertices id="Cube_026-mesh-vertices">
          <input semantic="POSITION" source="#Cube_026-mesh-positions"/>
        </vertices>
        <polylist count="192">
          <input semantic="VERTEX" source="#Cube_026-mesh-vertices" offset="0"/>
          <input semantic="NORMAL" source="#Cube_026-mesh-normals" offset="1"/>
          <vcount>3 3 3 3 3 3 3 3 3 3 3 3 3 3 3 3 3 3 3 3 3 3 3 3 3 3 3 3 3 3 3 3 3 3 3 3 3 3 3 3 3 3 3 3 3 3 3 3 3 3 3 3 3 3 3 3 3 3 3 3 3 3 3 3 3 3 3 3 3 3 3 3 3 3 3 3 3 3 3 3 3 3 3 3 3 3 3 3 3 3 3 3 3 3 3 3 3 3 3 3 3 3 3 3 3 3 3 3 3 3 3 3 3 3 3 3 3 3 3 3 3 3 3 3 3 3 3 3 3 3 3 3 3 3 3 3 3 3 3 3 3 3 3 3 3 3 3 3 3 3 3 3 3 3 3 3 3 3 3 3 3 3 3 3 3 3 3 3 3 3 3 3 3 3 3 3 3 3 3 3 3 3 3 3 3 3 3 3 3 3 3 3 </vcount>
          <p>4 0 5 0 1 0 1 1 5 1 57 1 55 2 56 2 5 2 5 3 56 3 91 3 0 4 1 4 6 4 6 5 60 5 61 5 58 6 59 6 6 6 6 7 59 7 93 7 2 8 7 8 3 8 3 9 7 9 63 9 2 6 61 6 62 6 62 6 92 6 63 6 3 10 8 10 4 10 4 11 8 11 54 11 3 6 64 6 65 6 8 12 65 12 90 12 9 13 13 13 14 13 10 14 14 14 66 14 13 15 61 15 60 15 14 16 60 16 93 16 9 17 10 17 15 17 11 18 15 18 69 18 10 19 67 19 68 19 15 20 68 20 97 20 11 6 16 6 12 6 16 6 72 6 73 6 11 21 70 21 71 21 16 6 71 6 96 6 12 22 17 22 13 22 17 23 62 23 61 23 12 6 73 6 74 6 74 6 92 6 62 6 22 24 23 24 19 24 23 6 75 6 76 6 22 6 70 6 69 6 23 25 69 25 97 25 19 26 24 26 20 26 24 27 78 27 79 27 19 28 76 28 77 28 77 6 95 6 78 6 18 29 20 29 25 29 25 30 81 30 82 30 20 31 79 31 80 31 80 6 94 6 81 6 18 32 21 32 26 32 22 33 26 33 71 33 82 6 83 6 26 6 26 6 83 6 96 6 27 34 31 34 32 34 28 35 32 35 84 35 31 36 79 36 78 36 32 37 78 37 95 37 27 38 28 38 33 38 29 39 33 39 56 39 28 40 85 40 86 40 33 41 86 41 91 41 29 42 34 42 30 42 34 43 87 43 88 43 55 44 54 44 34 44 54 6 90 6 87 6 27 45 30 45 35 45 35 46 80 46 79 46 88 47 89 47 35 47 89 48 94 48 80 48 36 6 40 6 41 6 41 6 65 6 64 6 40 6 88 6 87 6 41 6 87 6 90 6 36 6 37 6 42 6 38 6 42 6 74 6 64 6 63 6 42 6 42 6 63 6 92 6 38 49 43 49 39 49 39 6 43 6 83 6 73 50 72 50 43 50 43 51 72 51 96 51 39 6 44 6 40 6 44 52 89 52 88 52 82 6 81 6 44 6 44 6 81 6 94 6 45 53 49 53 50 53 50 54 77 54 76 54 85 55 84 55 50 55 84 6 95 6 77 6 46 56 51 56 47 56 47 57 51 57 68 57 76 6 75 6 51 6 51 58 75 58 97 58 47 59 52 59 48 59 48 60 52 60 59 60 67 61 66 61 52 61 66 62 93 62 59 62 45 63 48 63 53 63 53 64 86 64 85 64 58 65 57 65 53 65 57 6 91 6 86 6 0 66 4 66 1 66 58 67 1 67 57 67 4 68 55 68 5 68 57 6 5 6 91 6 2 69 0 69 6 69 2 70 6 70 61 70 1 71 58 71 6 71 60 72 6 72 93 72 0 73 2 73 3 73 64 6 3 6 63 6 7 6 2 6 62 6 7 6 62 6 63 6 0 74 3 74 4 74 55 75 4 75 54 75 8 76 3 76 65 76 54 77 8 77 90 77 10 78 9 78 14 78 67 79 10 79 66 79 14 80 13 80 60 80 66 81 14 81 93 81 11 82 9 82 15 82 70 6 11 6 69 6 15 83 10 83 68 83 69 84 15 84 97 84 9 6 11 6 12 6 12 6 16 6 73 6 16 6 11 6 71 6 72 6 16 6 96 6 9 85 12 85 13 85 13 86 17 86 61 86 17 87 12 87 74 87 17 88 74 88 62 88 18 89 22 89 19 89 19 90 23 90 76 90 23 91 22 91 69 91 75 92 23 92 97 92 18 93 19 93 20 93 20 94 24 94 79 94 24 95 19 95 77 95 24 96 77 96 78 96 21 97 18 97 25 97 21 98 25 98 82 98 25 99 20 99 80 99 25 6 80 6 81 6 22 100 18 100 26 100 70 101 22 101 71 101 21 6 82 6 26 6 71 6 26 6 96 6 28 102 27 102 32 102 85 103 28 103 84 103 32 104 31 104 78 104 84 105 32 105 95 105 29 106 27 106 33 106 55 107 29 107 56 107 33 108 28 108 86 108 56 109 33 109 91 109 27 110 29 110 30 110 30 111 34 111 88 111 29 112 55 112 34 112 34 113 54 113 87 113 31 114 27 114 35 114 31 115 35 115 79 115 30 116 88 116 35 116 35 117 89 117 80 117 37 6 36 6 41 6 37 118 41 118 64 118 41 6 40 6 87 6 65 6 41 6 90 6 38 6 36 6 42 6 73 6 38 6 74 6 37 119 64 119 42 119 74 6 42 6 92 6 36 6 38 6 39 6 82 6 39 6 83 6 38 120 73 120 43 120 83 6 43 6 96 6 36 6 39 6 40 6 40 121 44 121 88 121 39 6 82 6 44 6 89 6 44 6 94 6 46 122 45 122 50 122 46 123 50 123 76 123 49 124 85 124 50 124 50 125 84 125 77 125 45 126 46 126 47 126 67 127 47 127 68 127 46 128 76 128 51 128 68 129 51 129 97 129 45 130 47 130 48 130 58 6 48 6 59 6 47 131 67 131 52 131 52 132 66 132 59 132 49 133 45 133 53 133 49 134 53 134 85 134 48 135 58 135 53 135 53 136 57 136 86 136</p>
        </polylist>
      </mesh>
    </geometry>
  </library_geometries>
  <library_controllers/>
  <library_visual_scenes>
    <visual_scene id="Scene" name="Scene">
      <node id="COL_VIZ_LFx_link_0" name="COL_VIZ_LFx_link_0" type="NODE">
        <instance_geometry url="#Cube_026-mesh" name="COL_VIZ_LFx_link_0"/>
      </node>
    </visual_scene>
  </library_visual_scenes>
  <scene>
    <instance_visual_scene url="#Scene"/>
  </scene>
</COLLADA>