<?xml version="1.0" encoding="utf-8"?>
<COLLADA xmlns="http://www.collada.org/2005/11/COLLADASchema" version="1.4.1">
  <asset>
    <contributor>
      <author>Blender User</author>
      <authoring_tool>Blender 2.76.0 commit date:2015-11-03, commit time:10:56, hash:f337fea</authoring_tool>
    </contributor>
    <created>2017-01-25T08:36:09</created>
    <modified>2017-01-25T08:36:09</modified>
    <unit name="meter" meter="1"/>
    <up_axis>Z_UP</up_axis>
  </asset>
  <library_images/>
  <library_geometries>
    <geometry id="Cube_028-mesh" name="Cube.028">
      <mesh>
        <source id="Cube_028-mesh-positions">
          <float_array id="Cube_028-mesh-positions-array" count="294">-39.38947 -136.886 0.1134647 -27.777 -136.886 29.63118 -16.1019 21.01836 0.04373008 -34.06767 -160.4591 -24.02593 -25.3745 -276.087 0.06886172 -21.03409 -276.087 14.14666 -8.904454 21.01836 13.3961 -8.977115 21.01836 -13.3476 -21.11059 -276.087 -14.03234 3.8147e-6 27.04426 4.43934e-6 3.8147e-6 27.04426 4.43934e-6 10.0179 25.02005 -0.0271995 10.0179 25.02005 -0.0271995 -9.888401 25.00805 -1.964086 -9.888401 25.00805 -1.964086 9.386963 24.99596 3.858394 9.386963 24.99596 3.858394 -9.386956 24.99596 -3.858386 39.38956 -136.886 -0.1135103 34.06768 -160.4591 24.02577 25.3745 -276.087 -0.06894779 27.777 -136.886 -29.63122 16.1019 21.01836 -0.04371994 8.977123 21.01836 13.3476 21.1105 -276.087 14.03226 21.034 -276.087 -14.14675 8.904461 21.01836 -13.3961 3.8147e-6 -285.0001 -4.63992e-5 0.05171567 -280.4071 19.04615 -19.04619 -280.4071 0.05167627 -0.05172765 -280.4071 -19.04625 19.0462 -280.4071 -0.05176377 19.0462 -280.4071 -0.05176377 -13.43109 -280.4071 13.50425 -13.43109 -280.4071 13.50425 17.6334 -280.3931 -7.360206 7.755712 -149.0021 -42.03282 -21.96039 -136.886 -34.64272 -0.04372924 21.01836 -16.1019 21.7828 -136.886 -34.76882 -0.06891256 -276.087 -25.37454 -9.757876 -276.087 -23.37785 -11.41669 21.01836 -11.3548 11.3548 21.01836 -11.4167 9.630743 -276.087 -23.43055 0.1097428 -149.0021 42.87408 21.9604 -136.886 34.64268 0.043724 21.01836 16.1019 -21.78279 -136.886 34.76878 0.06890451 -276.087 25.37446 9.757884 -276.087 23.37776 11.4167 21.01836 11.3548 -11.35479 21.01836 11.4167 -9.630736 -276.087 23.43046 -7.360153 -280.3931 -17.63345 -7.360153 -280.3931 -17.63345 -7.360153 -280.3931 -17.63345 -17.89369 -276.087 17.99116 -22.34709 -149.0021 35.66947 -14.83489 21.01836 6.192033 -8.381006 25.00805 5.603314 -8.381006 25.00805 5.603314 -8.381006 25.00805 5.603314 -6.192024 21.01836 -14.8349 -22.52939 -149.0021 -35.54022 -17.99119 -276.087 -17.89375 -9.877612 25.00805 2.017804 -9.877612 25.00805 2.017804 9.386963 24.99596 3.858394 9.386963 24.99596 3.858394 9.386963 24.99596 3.858394 9.386963 24.99596 3.858394 9.365862 24.99596 -3.909286 9.365862 24.99596 -3.909286 -9.386956 24.99596 -3.858386 6.192031 21.01836 14.8349 22.5294 -149.0021 35.54018 17.9912 -276.087 17.89366 13.5043 -280.4071 13.43105 13.5043 -280.4071 13.43105 13.5043 -280.4071 13.43105 17.8937 -276.087 -17.99125 22.3472 -149.0021 -35.66953 14.8349 21.01836 -6.192027 13.5043 -280.4071 13.43105 13.5043 -280.4071 13.43105 -13.43109 -280.4071 13.50425 -7.360153 -280.3931 -17.63345 -7.360153 -280.3931 -17.63345 17.6334 -280.3931 -7.360206 -7.360153 -280.3931 -17.63345 -13.43109 -280.4071 13.50425 -5.603305 25.00805 -8.381011 -8.381006 25.00805 5.603314 17.6334 -280.3931 -7.360206 13.5043 -280.4071 13.43105 5.557713 25.00805 -8.411352 5.603312 25.00805 8.381014</float_array>
          <technique_common>
            <accessor source="#Cube_028-mesh-positions-array" count="98" stride="3">
              <param name="X" type="float"/>
              <param name="Y" type="float"/>
              <param name="Z" type="float"/>
            </accessor>
          </technique_common>
        </source>
        <source id="Cube_028-mesh-normals">
          <float_array id="Cube_028-mesh-normals-array" count="405">-0.9512104 -0.09586334 0.2932729 -0.7693778 -0.1143851 0.6284695 0 0 1 -0.4978805 -0.861752 -0.09746068 -0.870004 0.1521989 0.4689656 -0.5431956 0.166671 0.822897 -0.8754596 0.1289061 -0.4657831 -0.4656655 0.1509386 -0.8719938 -0.6690688 0.7312219 -0.132897 -0.9489315 -0.1311352 -0.2869368 -0.6336373 -0.1285566 -0.7628742 0.1980108 0.9794542 0.03822779 -0.05364775 0.8220311 0.56691 0.03754097 -0.9992951 -1.01938e-4 -0.003187119 -0.9999949 8.79748e-6 0.1384747 0.694805 -0.7057414 -0.01376575 -0.9999015 0.002742826 0.8754593 0.1289064 0.4657833 0.465664 0.1509384 0.8719946 0.4373115 0.8225036 0.3636571 0.9489296 -0.1311362 0.2869426 0.6336417 -0.1285566 0.7628707 0.9512086 -0.09586364 -0.2932787 0.7693873 -0.1143843 -0.628458 0.8883829 -0.423967 0.1761476 0.8700041 0.152199 -0.4689652 0.4014272 0.8899629 -0.2163845 0.5432033 0.1666712 -0.8228918 -0.440024 -0.8216862 0.3622304 -0.09601539 -0.967582 0.2335943 -7.33018e-4 0.9999998 3.06471e-4 0 1 -6.49914e-6 0.2330695 0.9675819 -0.09728324 -0.002077519 -0.9999975 -8.55084e-4 0.1540788 -0.9604288 -0.2320262 0.00316447 0.9999942 0.00129956 0.001300692 0.9999943 -0.003158092 -0.2004939 -0.1151832 -0.9729003 -0.5493558 -0.1341389 -0.8247516 -0.3802474 0.1597433 -0.9109852 -0.1767895 0.8884555 -0.4235471 -0.6965015 -0.02042227 0.7172647 0.3179772 -0.8191465 0.477378 0.3752871 0.1598095 -0.9130283 0.8245754 0.1356809 -0.5492414 -0.4403316 -0.8179323 0.3702636 0.5332161 -0.1148186 -0.8381511 0.1301183 -0.9396051 -0.3165621 0.5448622 -0.1342335 -0.8277117 0.2000259 -0.1337192 0.970623 0.5493558 -0.1341392 0.8247515 0.3802471 0.159743 0.9109854 0.1767895 0.8884555 0.4235473 0.6965015 -0.02042269 -0.7172647 -0.3179771 -0.8191464 -0.477378 -0.3752874 0.1598094 0.9130281 -0.8245753 0.1356808 0.5492416 0.5003731 -0.8402413 -0.2088577 -0.397588 -0.1089187 0.9110766 -0.08514559 -0.9012565 0.4248375 -0.5448622 -0.1342332 0.8277117 -0.9271707 -0.085487 0.3647555 -0.8319858 -0.1009852 0.5455288 -0.1801623 -0.9820674 0.05554544 -0.4382326 -0.8245007 0.3579818 -0.9219154 0.1361232 0.3626881 -0.6094196 0.7215922 0.3285005 0.7626367 -0.1556981 -0.6278085 0.4611588 -0.8020066 -0.3796289 -0.9252985 0.1484631 -0.3489722 -0.76658 0.1428235 -0.6260644 -0.3440662 0.920928 -0.1830583 -0.2617292 0.8314394 -0.4901085 -0.9877023 -0.09940475 -0.1206777 -0.3204617 -0.9422926 -0.09689742 -0.770215 -0.1400859 -0.6222097 -0.3537414 -0.8906177 -0.2857747 -0.2017907 0.9794285 5.46663e-4 0 -1 0 -0.190546 0.9800395 -0.05669957 -1.68417e-5 0.9999808 -0.006203651 0.004193007 -0.9999909 8.33095e-4 0.925297 0.1484628 0.3489763 0.7665829 0.1428231 0.6260609 0.6150861 0.7173386 0.3272531 0.2617289 0.8314395 0.4901086 0.9877017 -0.09940528 0.1206808 0.4799362 -0.8652161 0.1451287 0.7702238 -0.1400862 0.6221988 0.4401775 -0.8245034 0.3555811 0.9271697 -0.08548778 -0.3647577 0.8319919 -0.1009849 -0.5455196 0.2593399 -0.9624702 -0.07996225 0.4088773 -0.8492791 -0.3339827 0.9219144 0.1361237 -0.3626902 -0.7626371 -0.1556982 0.6278079 0.6198382 0.7607033 -0.1926945 0.2288613 -0.9464727 0.2276223 0 -1 -1.62478e-6 -0.2330695 -0.9675818 0.09728419 -0.4931034 -0.8460317 -0.2026807 7.33018e-4 -0.9999998 -3.06471e-4 0.23405 -0.9710828 -0.0471059 -0.278952 -0.1017289 -0.9549016 0.7549241 0.01311653 -0.6556811 -0.1162698 -0.8174082 -0.5642032 -0.3193483 -0.8174121 -0.4794309 -0.1848816 0.13988 -0.9727551 -8.40225e-4 0.9508803 -0.3095576 0.5474256 -0.1577605 0.8218497 0.4081581 -0.8475555 0.3392 0.3438479 0.156975 -0.9258118 0.9985396 0.04831218 -0.02418088 0.1744841 0.8884572 -0.4244987 0.4697619 0.8254788 -0.3129034 0.1945958 -0.139253 -0.9709485 0.0846365 -0.9024937 -0.4223054 -0.758361 0.01312112 -0.6517028 0.236815 -0.9024952 -0.3597514 0.4027224 -0.1088504 0.9088269 -0.7549253 0.01311653 0.6556797 0.08745378 -0.9012556 0.4243707 0.3168716 -0.8205382 0.4757201 0.2748064 0.1496633 0.9497802 -0.02711504 0.9566159 0.2900878 -0.5474263 -0.1577602 -0.8218493 -0.4081581 -0.8475555 -0.3392003 -0.2693663 0.1496964 0.9513322 -0.9985421 0.04829835 0.02410405 -0.150502 0.9183035 0.3661528 -0.4383175 0.850081 0.2919588 -0.1947462 -0.1337397 0.9716932 9.26824e-4 -0.9400405 0.3410619 0.7583776 0.01312392 0.6516835 -0.314283 -0.8205363 0.4774374</float_array>
          <technique_common>
            <accessor source="#Cube_028-mesh-normals-array" count="135" stride="3">
              <param name="X" type="float"/>
              <param name="Y" type="float"/>
              <param name="Z" type="float"/>
            </accessor>
          </technique_common>
        </source>
        <vertices id="Cube_028-mesh-vertices">
          <input semantic="POSITION" source="#Cube_028-mesh-positions"/>
        </vertices>
        <polylist count="192">
          <input semantic="VERTEX" source="#Cube_028-mesh-vertices" offset="0"/>
          <input semantic="NORMAL" source="#Cube_028-mesh-normals" offset="1"/>
          <vcount>3 3 3 3 3 3 3 3 3 3 3 3 3 3 3 3 3 3 3 3 3 3 3 3 3 3 3 3 3 3 3 3 3 3 3 3 3 3 3 3 3 3 3 3 3 3 3 3 3 3 3 3 3 3 3 3 3 3 3 3 3 3 3 3 3 3 3 3 3 3 3 3 3 3 3 3 3 3 3 3 3 3 3 3 3 3 3 3 3 3 3 3 3 3 3 3 3 3 3 3 3 3 3 3 3 3 3 3 3 3 3 3 3 3 3 3 3 3 3 3 3 3 3 3 3 3 3 3 3 3 3 3 3 3 3 3 3 3 3 3 3 3 3 3 3 3 3 3 3 3 3 3 3 3 3 3 3 3 3 3 3 3 3 3 3 3 3 3 3 3 3 3 3 3 3 3 3 3 3 3 3 3 3 3 3 3 3 3 3 3 3 3 </vcount>
          <p>0 0 4 0 5 0 5 1 57 1 58 1 4 2 55 2 56 2 5 3 56 3 91 3 1 4 6 4 2 4 6 2 60 2 61 2 1 5 58 5 59 5 59 2 93 2 60 2 0 6 2 6 7 6 7 7 63 7 64 7 2 2 61 2 62 2 7 8 62 8 92 8 3 9 8 9 4 9 8 2 54 2 55 2 3 10 64 10 65 10 65 2 90 2 54 2 13 2 14 2 10 2 14 2 66 2 67 2 61 2 60 2 14 2 60 2 93 2 66 2 10 11 15 11 11 11 15 2 69 2 70 2 10 12 67 12 68 12 68 2 97 2 69 2 11 2 16 2 12 2 12 13 16 13 72 13 70 2 71 2 16 2 71 14 96 14 72 14 9 15 12 15 17 15 13 16 17 16 62 16 73 2 74 2 17 2 17 2 74 2 92 2 18 17 22 17 23 17 23 18 75 18 76 18 22 2 70 2 69 2 23 19 69 19 97 19 19 20 24 20 20 20 24 2 78 2 79 2 19 21 76 21 77 21 77 2 95 2 78 2 18 22 20 22 25 22 25 23 81 23 82 23 20 2 79 2 80 2 25 24 80 24 94 24 21 25 26 25 22 25 22 26 26 26 71 26 21 27 82 27 83 27 26 28 83 28 96 28 27 2 31 2 32 2 32 2 84 2 85 2 79 2 78 2 32 2 78 2 95 2 84 2 27 29 28 29 33 29 29 30 33 30 56 30 28 31 85 31 86 31 33 2 86 2 91 2 27 32 29 32 34 32 30 33 34 33 87 33 29 2 55 2 54 2 54 2 90 2 87 2 27 34 30 34 35 34 31 35 35 35 80 35 30 36 88 36 89 36 35 2 89 2 94 2 36 37 40 37 41 37 41 38 65 38 64 38 88 2 87 2 41 2 41 2 87 2 90 2 37 39 42 39 38 39 38 40 42 40 74 40 37 41 64 41 63 41 42 42 63 42 92 42 38 43 43 43 39 43 39 44 43 44 83 44 73 2 72 2 43 2 72 45 96 45 83 45 36 46 39 46 44 46 44 47 89 47 88 47 82 48 81 48 44 48 81 2 94 2 89 2 45 49 49 49 50 49 50 50 77 50 76 50 85 2 84 2 50 2 84 2 95 2 77 2 46 51 51 51 47 51 47 52 51 52 68 52 46 53 76 53 75 53 51 54 75 54 97 54 47 55 52 55 48 55 48 56 52 56 59 56 67 2 66 2 52 2 66 57 93 57 59 57 45 58 48 58 53 58 49 59 53 59 86 59 58 60 57 60 53 60 57 2 91 2 86 2 1 61 0 61 5 61 1 62 5 62 58 62 5 63 4 63 56 63 57 64 5 64 91 64 0 65 1 65 2 65 2 66 6 66 61 66 6 67 1 67 59 67 6 68 59 68 60 68 3 69 0 69 7 69 3 70 7 70 64 70 7 71 2 71 62 71 63 72 7 72 92 72 0 73 3 73 4 73 4 74 8 74 55 74 8 75 3 75 65 75 8 76 65 76 54 76 9 2 13 2 10 2 10 77 14 77 67 77 13 2 61 2 14 2 14 78 60 78 66 78 9 2 10 2 11 2 11 2 15 2 70 2 15 2 10 2 68 2 15 2 68 2 69 2 9 2 11 2 12 2 73 2 12 2 72 2 11 2 70 2 16 2 16 2 71 2 72 2 13 79 9 79 17 79 61 2 13 2 62 2 12 80 73 80 17 80 62 81 17 81 92 81 19 82 18 82 23 82 19 83 23 83 76 83 23 84 22 84 69 84 75 85 23 85 97 85 18 86 19 86 20 86 20 87 24 87 79 87 24 88 19 88 77 88 24 89 77 89 78 89 21 90 18 90 25 90 21 91 25 91 82 91 25 92 20 92 80 92 81 93 25 93 94 93 18 94 21 94 22 94 70 2 22 2 71 2 26 95 21 95 83 95 71 96 26 96 96 96 28 97 27 97 32 97 28 98 32 98 85 98 31 2 79 2 32 2 32 2 78 2 84 2 29 99 27 99 33 99 55 2 29 2 56 2 33 2 28 2 86 2 56 2 33 2 91 2 30 100 27 100 34 100 88 2 30 2 87 2 34 101 29 101 54 101 34 2 54 2 87 2 31 102 27 102 35 102 79 2 31 2 80 2 35 2 30 2 89 2 80 2 35 2 94 2 37 103 36 103 41 103 37 104 41 104 64 104 40 105 88 105 41 105 65 106 41 106 90 106 36 107 37 107 38 107 73 108 38 108 74 108 42 109 37 109 63 109 74 110 42 110 92 110 36 111 38 111 39 111 82 112 39 112 83 112 38 113 73 113 43 113 43 114 72 114 83 114 40 115 36 115 44 115 40 116 44 116 88 116 39 117 82 117 44 117 44 118 81 118 89 118 46 119 45 119 50 119 46 120 50 120 76 120 49 121 85 121 50 121 50 122 84 122 77 122 45 123 46 123 47 123 67 124 47 124 68 124 51 125 46 125 75 125 68 126 51 126 97 126 45 127 47 127 48 127 58 128 48 128 59 128 47 129 67 129 52 129 52 130 66 130 59 130 49 131 45 131 53 131 85 132 49 132 86 132 48 133 58 133 53 133 53 134 57 134 86 134</p>
        </polylist>
      </mesh>
    </geometry>
  </library_geometries>
  <library_controllers/>
  <library_visual_scenes>
    <visual_scene id="Scene" name="Scene">
      <node id="COL_VIZ_LKsegment_link_0" name="COL_VIZ_LKsegment_link_0" type="NODE">
        <instance_geometry url="#Cube_028-mesh" name="COL_VIZ_LKsegment_link_0"/>
      </node>
    </visual_scene>
  </library_visual_scenes>
  <scene>
    <instance_visual_scene url="#Scene"/>
  </scene>
</COLLADA>