<?xml version="1.0" encoding="utf-8"?>
<COLLADA xmlns="http://www.collada.org/2005/11/COLLADASchema" version="1.4.1">
  <asset>
    <contributor>
      <author>Blender User</author>
      <authoring_tool>Blender 2.76.0 commit date:2015-11-03, commit time:10:56, hash:f337fea</authoring_tool>
    </contributor>
    <created>2017-01-25T08:36:07</created>
    <modified>2017-01-25T08:36:07</modified>
    <unit name="meter" meter="1"/>
    <up_axis>Z_UP</up_axis>
  </asset>
  <library_images/>
  <library_geometries>
    <geometry id="Cube_036-mesh" name="Cube.036">
      <mesh>
        <source id="Cube_036-mesh-positions">
          <float_array id="Cube_036-mesh-positions-array" count="294">-19.16996 -113.306 0.01989454 -17.56857 -75.81501 4.656477 -6.254924 18.5777 -1.643657 -17.59056 -75.85139 -4.746212 -14.06539 -171.579 -3.424558 -12.2898 -169.415 11.50897 -4.611569 18.569 4.451393 -5.725576 18.5423 -3.169707 -13.93658 -170.878 -7.396068 0.01280242 20.1818 0.02549237 0.01280242 20.1818 0.02549237 0.01280242 20.1818 0.02549237 0.01280242 20.1818 0.02549237 0.01280242 20.1818 0.02549237 0.01280242 20.1818 0.02549237 0.01280242 20.1818 0.02549237 0.01280242 20.1818 0.02549237 0.01280242 20.1818 0.02549237 19.33406 -114.505 -0.06859785 17.2782 -76.6723 4.576017 12.52156 -172.432 0.04171258 17.25617 -76.70881 -4.826673 6.270494 18.5698 -1.673757 6.270494 18.5698 -1.673757 11.38368 -167.781 12.15847 11.32688 -167.876 -12.08453 5.733817 18.5349 -3.197307 12.52156 -172.432 0.04171258 10.79458 -172.349 6.848302 10.79458 -172.349 6.848302 10.76278 -172.402 -6.756868 10.76278 -172.402 -6.756868 10.79458 -172.349 6.848302 10.79458 -172.349 6.848302 -7.030315 -172.076 -10.33783 -7.030315 -172.076 -10.33783 0.0365628 -113.981 -19.41592 -10.73993 -113.671 -19.02906 -3.1953 18.6175 -5.332346 10.82565 -114.27 -19.07336 10.51228 -170.249 -11.37103 -8.972824 -169.624 -13.87943 -3.1953 18.6175 -5.332346 -3.1953 18.6175 -5.332346 10.51228 -170.249 -11.37103 0.1274388 -113.83 19.36728 10.9039 -114.14 18.98042 -1.602071 18.5649 6.126343 -10.66166 -113.541 19.02462 10.56578 -170.161 11.45647 10.56578 -170.161 11.45647 3.218981 18.5998 5.379384 3.218981 18.5998 5.379384 -8.366414 -170.979 13.00057 -7.030315 -172.076 -10.33783 -7.030315 -172.076 -10.33783 -4.070769 -172.085 11.73807 -13.90148 -170.82 7.598552 -13.27809 -95.9972 13.30828 -3.1695 18.6039 5.394703 0.01280242 20.1818 0.02549237 0.01280242 20.1818 0.02549237 0.01280242 20.1818 0.02549237 -3.1953 18.6175 -5.332346 -13.34059 -96.10079 -13.35222 -13.93658 -170.878 -7.396068 0.01280242 20.1818 0.02549237 0.01280242 20.1818 0.02549237 0.01280242 20.1818 0.02549237 0.01280242 20.1818 0.02549237 0.01280242 20.1818 0.02549237 0.01280242 20.1818 0.02549237 0.01280242 20.1818 0.02549237 0.01280242 20.1818 0.02549237 0.01280242 20.1818 0.02549237 5.749196 18.5268 3.216563 13.4158 -96.76552 13.24678 11.38368 -167.781 12.15847 11.38368 -167.781 12.15847 12.52156 -172.432 0.04171258 11.32688 -167.876 -12.08453 11.32688 -167.876 -12.08453 13.35317 -96.8692 -13.41372 3.193231 18.6134 -5.347727 10.79458 -172.349 6.848302 10.79458 -172.349 6.848302 10.79458 -172.349 6.848302 -7.030315 -172.076 -10.33783 -7.030315 -172.076 -10.33783 -7.030315 -172.076 -10.33783 -7.030315 -172.076 -10.33783 -4.070769 -172.085 11.73807 0.01280242 20.1818 0.02549237 0.01280242 20.1818 0.02549237 11.32688 -167.876 -12.08453 11.38368 -167.781 12.15847 0.01280242 20.1818 0.02549237 0.01280242 20.1818 0.02549237</float_array>
          <technique_common>
            <accessor source="#Cube_036-mesh-positions-array" count="98" stride="3">
              <param name="X" type="float"/>
              <param name="Y" type="float"/>
              <param name="Z" type="float"/>
            </accessor>
          </technique_common>
        </source>
        <source id="Cube_036-mesh-normals">
          <float_array id="Cube_036-mesh-normals-array" count="261">-0.9868987 -0.09419262 0.1309912 0.9215334 0.02190607 -0.3876809 -0.06265044 -0.9980035 0.007995784 0 0 1 -0.9570325 0.1319422 0.2582248 -0.7623018 0.1112675 0.6375857 -0.936688 0.1232129 -0.3277715 -0.6484527 0.09412485 -0.7554137 -0.8871334 -0.02125638 -0.4610236 0.9869428 0.1210404 0.1062704 0.865737 -0.01437461 0.5002928 0.9832842 -0.1159065 -0.1404207 0.9356488 0.1188775 -0.3323095 0.2224919 0.9697321 -0.100584 0.7794961 0.1116302 -0.6163801 0.03238874 0.9994674 -0.003970384 0.8937257 -0.384303 0.2314429 -0.01911115 -0.9998096 0.00394237 0.114053 -0.7630721 -0.6361706 0.1230658 -0.1179698 -0.9853619 -0.7837092 -0.08142316 -0.6157678 -0.002357125 0.06946963 -0.9975814 0.9464521 -0.03302007 -0.3211514 -0.4266808 -0.1178553 0.8966905 0.8998989 -0.3749448 0.2227071 0.03867042 0.1040692 0.9938181 0.6477246 0.1086756 0.7540839 0.1800786 0.96741 0.1780154 -0.1519409 -0.08571887 -0.9846656 0.002436399 0.0686751 0.9976361 -0.03439241 -0.1056046 0.9938133 0.07399255 -0.8994434 0.4307281 -0.9309704 -0.02006185 0.3645434 -0.1973319 -0.9648078 0.1737994 -0.8930722 -0.01745313 0.4495748 -0.915297 -0.02217721 0.4021686 -0.3086837 -0.9354376 0.1722522 0.2900938 0.856334 -0.4272443 -0.9234173 0.08570903 -0.3741049 -0.2654662 0.9613565 0.07294666 -0.5471008 0.07691693 0.8335254 -0.1511396 0.9690471 0.1952041 -0.8953539 0.09317296 0.4355002 -0.760846 0.1119725 -0.6391991 -0.2217764 0.970015 -0.09942978 -0.1788311 0.9680885 -0.1755682 -0.9953147 -0.08439832 -0.04717803 -0.2406534 -0.9544684 -0.1762844 -0.9178366 -0.02424412 -0.3962177 0.9472228 0.0892722 -0.3078952 0.7952318 0.1048336 0.5971737 0.2584634 0.9653487 0.03603959 0.9838614 -0.1154466 0.1367077 0.9385523 -0.03212308 0.343639 0.8634124 -0.01601105 -0.5042448 0.9369735 -0.03324878 -0.347815 0.9306706 0.09562081 0.3531417 0.645019 0.09101265 -0.7587273 0.1792337 0.9678588 -0.1764219 -0.03238874 -0.9994675 0.00396949 -0.01713573 -0.9998515 0.001887917 -0.03238874 -0.9994674 0.003970384 0.892994 -0.3852341 -0.2327156 -0.03838658 -0.09278202 -0.9949463 -0.9322909 -0.02133017 -0.36108 0.04961431 -0.8082267 -0.5867778 -0.3233727 -0.8517208 -0.4123131 -0.03266817 0.1047744 -0.9939594 -0.7262764 0.1116471 -0.6782754 0.03440135 0.1063846 -0.9937298 0.6555277 0.145783 -0.7409662 -5.8515e-5 0.9599326 -0.2802309 0.0277881 -0.1364089 -0.9902629 -0.4317124 -0.1205802 -0.8939155 0.02745699 0.2791807 0.959846 0.03172802 -0.1332316 0.990577 0.9474965 -0.03198856 0.3181623 0.1516286 0.1003248 0.9833329 0.03399366 0.9638046 0.264434 0.7424754 0.1106798 0.6606665 -0.02893579 0.09909856 0.9946569 -0.6517804 0.1453298 0.7443532 -0.03399366 -0.9638046 -0.264434 0.00129348 0.9592189 0.2826614 0.08594757 -0.1229192 0.9886879 -0.6962904 -0.1023331 0.7104279 0.3116872 0.1374062 0.9401971</float_array>
          <technique_common>
            <accessor source="#Cube_036-mesh-normals-array" count="87" stride="3">
              <param name="X" type="float"/>
              <param name="Y" type="float"/>
              <param name="Z" type="float"/>
            </accessor>
          </technique_common>
        </source>
        <vertices id="Cube_036-mesh-vertices">
          <input semantic="POSITION" source="#Cube_036-mesh-positions"/>
        </vertices>
        <polylist count="192">
          <input semantic="VERTEX" source="#Cube_036-mesh-vertices" offset="0"/>
          <input semantic="NORMAL" source="#Cube_036-mesh-normals" offset="1"/>
          <vcount>3 3 3 3 3 3 3 3 3 3 3 3 3 3 3 3 3 3 3 3 3 3 3 3 3 3 3 3 3 3 3 3 3 3 3 3 3 3 3 3 3 3 3 3 3 3 3 3 3 3 3 3 3 3 3 3 3 3 3 3 3 3 3 3 3 3 3 3 3 3 3 3 3 3 3 3 3 3 3 3 3 3 3 3 3 3 3 3 3 3 3 3 3 3 3 3 3 3 3 3 3 3 3 3 3 3 3 3 3 3 3 3 3 3 3 3 3 3 3 3 3 3 3 3 3 3 3 3 3 3 3 3 3 3 3 3 3 3 3 3 3 3 3 3 3 3 3 3 3 3 3 3 3 3 3 3 3 3 3 3 3 3 3 3 3 3 3 3 3 3 3 3 3 3 3 3 3 3 3 3 3 3 3 3 3 3 3 3 3 3 3 3 </vcount>
          <p>0 0 4 0 5 0 5 1 57 1 58 1 4 2 55 2 56 2 5 3 56 3 91 3 1 4 6 4 2 4 6 3 60 3 61 3 1 5 58 5 59 5 59 3 93 3 60 3 2 6 7 6 3 6 3 7 7 7 63 7 2 3 61 3 62 3 62 3 92 3 63 3 0 8 3 8 8 8 8 3 54 3 55 3 64 3 65 3 8 3 65 3 90 3 54 3 13 3 14 3 10 3 14 3 66 3 67 3 61 3 60 3 14 3 60 3 93 3 66 3 10 3 15 3 11 3 15 3 69 3 70 3 67 3 68 3 15 3 68 3 97 3 69 3 11 3 16 3 12 3 16 3 72 3 73 3 70 3 71 3 16 3 71 3 96 3 72 3 12 3 17 3 13 3 17 3 62 3 61 3 73 3 74 3 17 3 74 3 92 3 62 3 22 3 23 3 19 3 19 9 23 9 75 9 70 3 69 3 23 3 23 3 69 3 97 3 18 10 19 10 24 10 24 3 78 3 79 3 76 3 77 3 24 3 77 3 95 3 78 3 18 11 20 11 25 11 25 3 81 3 82 3 79 3 80 3 25 3 80 3 94 3 81 3 21 12 26 12 22 12 22 13 26 13 71 13 21 14 82 14 83 14 83 3 96 3 71 3 27 15 31 15 32 15 32 3 84 3 85 3 79 16 78 16 32 16 78 3 95 3 84 3 28 3 33 3 29 3 29 3 33 3 56 3 85 3 86 3 33 3 86 3 91 3 56 3 29 17 34 17 30 17 34 3 87 3 88 3 55 3 54 3 34 3 54 3 90 3 87 3 30 3 35 3 31 3 31 18 35 18 80 18 88 3 89 3 35 3 89 3 94 3 80 3 36 19 40 19 41 19 37 20 41 20 65 20 88 3 87 3 41 3 41 3 87 3 90 3 37 3 42 3 38 3 42 3 74 3 73 3 64 3 63 3 42 3 63 3 92 3 74 3 36 3 38 3 43 3 43 21 83 21 82 21 73 3 72 3 43 3 43 3 72 3 96 3 39 3 44 3 40 3 44 3 89 3 88 3 39 22 82 22 81 22 44 3 81 3 94 3 49 3 50 3 46 3 46 23 50 23 77 23 85 3 84 3 50 3 50 24 84 24 95 24 45 25 46 25 51 25 51 3 68 3 67 3 76 26 75 26 51 26 51 27 75 27 97 27 47 28 52 28 48 28 52 29 59 29 58 29 67 3 66 3 52 3 66 3 93 3 59 3 45 30 48 30 53 30 49 31 53 31 86 31 48 32 58 32 57 32 53 33 57 33 91 33 1 34 0 34 5 34 1 35 5 35 58 35 5 36 4 36 56 36 57 37 5 37 91 37 0 38 1 38 2 38 2 39 6 39 61 39 6 40 1 40 59 40 6 41 59 41 60 41 0 42 2 42 3 42 64 43 3 43 63 43 7 44 2 44 62 44 7 45 62 45 63 45 4 46 0 46 8 46 4 47 8 47 55 47 3 48 64 48 8 48 8 3 65 3 54 3 9 3 13 3 10 3 10 3 14 3 67 3 13 3 61 3 14 3 14 3 60 3 66 3 9 3 10 3 11 3 11 3 15 3 70 3 10 3 67 3 15 3 15 3 68 3 69 3 9 3 11 3 12 3 12 3 16 3 73 3 11 3 70 3 16 3 16 3 71 3 72 3 9 3 12 3 13 3 13 3 17 3 61 3 12 3 73 3 17 3 17 3 74 3 62 3 18 49 22 49 19 49 76 50 19 50 75 50 22 3 70 3 23 3 75 51 23 51 97 51 20 52 18 52 24 52 20 3 24 3 79 3 19 53 76 53 24 53 24 3 77 3 78 3 21 54 18 54 25 54 21 55 25 55 82 55 20 3 79 3 25 3 25 3 80 3 81 3 18 56 21 56 22 56 70 3 22 3 71 3 26 57 21 57 83 57 26 58 83 58 71 58 28 3 27 3 32 3 28 3 32 3 85 3 31 59 79 59 32 59 32 3 78 3 84 3 27 3 28 3 29 3 55 60 29 60 56 60 28 3 85 3 33 3 33 3 86 3 56 3 27 61 29 61 30 61 30 3 34 3 88 3 29 3 55 3 34 3 34 3 54 3 87 3 27 3 30 3 31 3 79 62 31 62 80 62 30 3 88 3 35 3 35 3 89 3 80 3 37 63 36 63 41 63 64 64 37 64 65 64 40 65 88 65 41 65 65 66 41 66 90 66 36 67 37 67 38 67 38 3 42 3 73 3 37 68 64 68 42 68 42 3 63 3 74 3 39 69 36 69 43 69 39 70 43 70 82 70 38 3 73 3 43 3 83 71 43 71 96 71 36 72 39 72 40 72 40 3 44 3 88 3 44 73 39 73 81 73 89 74 44 74 94 74 45 75 49 75 46 75 76 76 46 76 77 76 49 3 85 3 50 3 77 3 50 3 95 3 47 77 45 77 51 77 47 78 51 78 67 78 46 79 76 79 51 79 68 3 51 3 97 3 45 80 47 80 48 80 48 81 52 81 58 81 47 82 67 82 52 82 52 83 66 83 59 83 49 84 45 84 53 84 85 3 49 3 86 3 53 85 48 85 57 85 86 86 53 86 91 86</p>
        </polylist>
      </mesh>
    </geometry>
  </library_geometries>
  <library_controllers/>
  <library_visual_scenes>
    <visual_scene id="Scene" name="Scene">
      <node id="COL_VIZ_REsegment_link_0" name="COL_VIZ_REsegment_link_0" type="NODE">
        <instance_geometry url="#Cube_036-mesh" name="COL_VIZ_REsegment_link_0"/>
      </node>
    </visual_scene>
  </library_visual_scenes>
  <scene>
    <instance_visual_scene url="#Scene"/>
  </scene>
</COLLADA>