<?xml version="1.0" encoding="utf-8"?>
<COLLADA xmlns="http://www.collada.org/2005/11/COLLADASchema" version="1.4.1">
  <asset>
    <contributor>
      <author>Blender User</author>
      <authoring_tool>Blender 2.77.0 commit date:2016-04-05, commit time:18:12, hash:abf6f08</authoring_tool>
    </contributor>
    <created>2017-02-27T13:48:17</created>
    <modified>2017-02-27T13:48:17</modified>
    <unit name="meter" meter="1"/>
    <up_axis>Z_UP</up_axis>
  </asset>
  <library_images>
    <image id="PBRFULL_LabWall-material_Base_Color_jpg" name="PBRFULL_LabWall-material_Base_Color_jpg">
      <init_from>PBRFULL_LabWall-material_Base_Color.jpg</init_from>
    </image>
  </library_images>
  <library_effects>
    <effect id="PBRFULL_LabWall-effect">
      <profile_COMMON>
        <newparam sid="PBRFULL_LabWall-material_Base_Color_jpg-surface">
          <surface type="2D">
            <init_from>PBRFULL_LabWall-material_Base_Color_jpg</init_from>
          </surface>
        </newparam>
        <newparam sid="PBRFULL_LabWall-material_Base_Color_jpg-sampler">
          <sampler2D>
            <source>PBRFULL_LabWall-material_Base_Color_jpg-surface</source>
          </sampler2D>
        </newparam>
        <technique sid="common">
          <phong>
            <emission>
              <color sid="emission">0 0 0 1</color>
            </emission>
            <ambient>
              <color sid="ambient">0 0 0 1</color>
            </ambient>
            <diffuse>
              <texture texture="PBRFULL_LabWall-material_Base_Color_jpg-sampler"/>
            </diffuse>
            <specular>
              <color sid="specular">0.5 0.5 0.5 1</color>
            </specular>
            <shininess>
              <float sid="shininess">50</float>
            </shininess>
            <index_of_refraction>
              <float sid="index_of_refraction">1</float>
            </index_of_refraction>
          </phong>
        </technique>
      </profile_COMMON>
    </effect>
  </library_effects>
  <library_materials>
    <material id="PBRFULL_LabWall-material" name="PBRFULL_LabWall">
      <instance_effect url="#PBRFULL_LabWall-effect"/>
    </material>
  </library_materials>
  <library_geometries>
    <geometry id="Cube_001-mesh" name="Cube.001">
      <mesh>
        <source id="Cube_001-mesh-positions">
          <float_array id="Cube_001-mesh-positions-array" count="852">0.9999995 -1 0.714286 0.9999994 -1 1 0.9999996 -0.7142862 1 0.9999997 -0.7142862 0.714286 0.7777773 -1 0.714286 0.9999998 -0.4285719 1 0.9999996 -1 0.4285717 0.7777773 -1 0.4285717 0.7777772 -1 1 0.9999998 -0.4285719 0.714286 0.9999997 -0.714286 0.4285717 0.5555552 -1 0.4285717 0.5555552 -1 0.714286 1 -0.1428576 1 0.9999997 -1 0.1428573 0.7777774 -1 0.1428573 0.5555554 -1 0.1428573 0.555555 -1 1 0.9999999 -0.1428576 0.714286 0.9999998 -0.4285718 0.4285717 0.9999997 -0.714286 0.1428573 0.3333331 -1 0.1428573 0.3333331 -1 0.4285717 0.333333 -1 0.714286 1 0.1428565 1 0.9999998 -1 -0.1428568 0.7777776 -1 -0.1428568 0.5555554 -1 -0.1428568 0.3333332 -1 -0.1428568 0.3333328 -1 1 1 0.1428565 0.714286 1 -0.1428574 0.4285717 0.9999998 -0.4285717 0.1428573 0.9999998 -0.714286 -0.1428568 0.111111 -1 -0.1428568 0.1111109 -1 0.1428573 0.1111109 -1 0.4285717 0.1111108 -1 0.714286 1 0.4285709 1 0.9999999 -1 -0.4285712 0.7777777 -1 -0.4285712 0.5555555 -1 -0.4285712 0.3333333 -1 -0.4285712 0.111111 -1 -0.4285712 0.1111106 -1 1 1 0.4285709 0.714286 1 0.1428567 0.4285717 0.9999999 -0.1428574 0.1428573 0.9999999 -0.4285717 -0.1428568 1 -0.714286 -0.4285712 -0.1111111 -1 -0.4285712 -0.1111112 -1 -0.1428568 -0.1111112 -0.9999998 0.1428573 -0.1111113 -0.9999998 0.4285717 -0.1111114 -1 0.714286 1 0.7142851 1 1 -1 -0.7142854 0.7777777 -1 -0.7142854 0.5555555 -1 -0.7142854 0.3333333 -1 -0.7142854 0.1111111 -1 -0.7142854 -0.1111111 -1 -0.7142854 -0.1111115 -1 1 1 0.7142853 0.714286 1 0.4285711 0.4285717 1 0.1428568 0.1428573 1 -0.1428573 -0.1428568 1 -0.4285717 -0.4285712 1 -0.7142859 -0.7142854 -0.3333333 -1 -0.7142854 -0.3333334 -1 -0.4285712 -0.3333334 -0.9999998 -0.1428568 -0.3333334 -0.9999998 0.1428573 -0.3333335 -0.9999998 0.4285717 -0.3333336 -1 0.714286 1 0.9999995 1 1 -1 -0.9999998 0.7777777 -1 -0.9999998 0.5555555 -1 -0.9999998 0.3333333 -1 -0.9999998 0.1111111 -1 -0.9999998 -0.1111111 -1 -0.9999998 -0.3333333 -0.9999998 -0.9999998 -0.3333337 -0.9999998 1 1 0.9999995 0.714286 1 0.7142854 0.4285717 1 0.4285711 0.1428573 1 0.1428568 -0.1428568 1 -0.1428573 -0.4285712 1 -0.4285715 -0.7142854 1 -0.7142856 -0.9999998 -0.5555556 -0.9999998 -0.9999998 -0.5555556 -0.9999998 -0.7142854 -0.5555556 -0.9999998 -0.4285712 -0.5555556 -0.9999998 -0.1428568 -0.5555556 -0.9999998 0.1428573 -0.5555557 -0.9999998 0.4285717 -0.5555558 -0.9999998 0.714286 0.7777782 0.9999995 1 -0.5555559 -0.9999998 1 0.7777782 0.9999995 0.714286 1 0.9999997 0.4285717 1 0.7142854 0.1428573 1 0.4285712 -0.1428568 1 0.1428568 -0.4285712 1 -0.1428571 -0.7142854 1 -0.4285715 -0.9999998 -0.7777778 -0.9999998 -0.9999998 -0.7777778 -0.9999998 -0.7142854 -0.7777778 -0.9999998 -0.4285712 -0.7777778 -0.9999998 -0.1428568 -0.7777778 -0.9999997 0.1428573 -0.7777779 -0.9999997 0.4285717 -0.777778 -0.9999998 0.714286 0.5555559 0.9999995 1 -0.7777781 -0.9999997 1 0.5555559 0.9999995 0.714286 0.7777782 0.9999997 0.4285717 1 0.9999997 0.1428573 1 0.7142854 -0.1428568 1 0.4285712 -0.4285712 1 0.142857 -0.7142854 1 -0.1428571 -0.9999998 -1 -0.9999998 -0.9999998 -1 -0.9999998 -0.7142854 -1 -0.9999998 -0.4285712 -1 -0.9999997 -0.1428568 -1 -0.9999997 0.1428573 -1 -0.9999997 0.4285717 -1 -0.9999997 0.714286 0.3333337 0.9999997 0.714286 -1 -0.9999995 1 0.5555559 0.9999997 0.4285717 0.3333337 0.9999997 1 0.777778 0.9999998 0.1428573 1 0.9999998 -0.1428568 1 0.7142854 -0.4285712 1 0.4285713 -0.7142854 1 0.142857 -0.9999998 -1 -0.7142854 -0.9999998 -1 -0.7142854 -0.7142854 -1 -0.7142854 -0.4285712 -1 -0.7142854 -0.1428568 -1 -0.9494066 0.3359426 -1 -0.9494066 0.2016384 -1 -0.9494066 0.5628758 -1 -0.9494066 0.4285717 -1 -0.9494066 0.781989 -1 -0.9494066 0.9000663 -1 -0.939599 0.9000663 0.3333337 0.9999998 0.4285717 0.1111114 0.9999997 0.714286 -1 -0.8711631 0.1842135 -1 -0.9494066 0.1842135 -0.9830664 -0.9494066 0.9000663 -0.9830664 -0.9494066 0.1842135 -0.9830664 -0.3018854 0.9000663 -1 -0.3018854 0.9000663 -1 -0.3250986 0.9000663 -1 -0.4680187 0.9000663 -1 -0.8346462 0.9000663 -1 -0.7142854 1 0.5555558 0.9999998 0.1428573 0.1111114 0.9999997 1 0.777778 0.9999998 -0.1428568 1 0.9999998 -0.4285712 1 0.7142856 -0.7142854 1 0.4285714 -0.9999998 -1 -0.4285712 -0.9999998 -1 -0.4285712 -0.4285712 -1 -0.4285711 -0.1428568 -1 -0.8210523 0.1842135 -1 -0.3018854 0.1842135 -0.9830664 -0.3018854 0.1842135 -1 -0.3431916 0.1842135 -0.9830664 -0.8889187 0.2428679 -0.9830664 -0.8889187 0.8617008 -0.9830664 -0.3488005 0.8617008 -0.9830664 -0.3488005 0.2428679 -1 -0.3018854 0.203383 -1 -0.3018854 0.2396851 -1 -0.3018854 0.2759873 -1 -0.3018854 0.4285717 -1 -0.3018854 0.464874 -1 -0.3018854 0.8258106 -1 -0.1428568 0.714286 -1 -0.3252128 1 0.1111114 0.9999998 0.4285717 0.3333336 0.9999998 0.1428573 -0.1111108 0.9999998 0.714286 -1 -0.4285712 -0.7142854 -1 -0.1428568 -0.1428568 -1 -0.1428568 0.1428573 -1 -0.1428568 0.4285717 -1 -0.1428568 1 0.5555558 0.9999998 -0.1428568 -0.1111109 0.9999998 1 0.777778 0.9999998 -0.4285712 1 0.9999998 -0.7142854 1 0.7142856 -0.9999998 -0.9999998 -0.1428568 -0.9999998 -1 -0.1428568 -0.4285712 -1 0.1428574 -0.1428568 -1 0.1428573 0.4285717 -1 0.1428571 0.714286 -0.1111108 0.9999998 0.4285717 0.1111114 0.9999998 0.1428573 0.3333336 0.9999998 -0.1428568 -0.3333331 0.9999998 0.714286 -1 -0.1428568 -0.7142854 -1 0.1428573 -0.4285712 -1 0.1428574 0.1428573 -1 0.1428573 1 0.5555558 0.9999998 -0.4285712 -0.3333331 0.9999998 1 0.7777779 0.9999998 -0.7142854 1 1 -0.9999998 -0.9999998 0.1428574 -0.9999998 -0.9999998 0.4285717 -0.4285712 -1 0.4285717 -0.1428568 -1 0.4285715 0.714286 -1 0.4285716 0.4285717 -0.3333331 1 0.4285717 -0.1111108 1 0.1428573 0.1111114 1 -0.1428568 0.3333336 1 -0.4285712 -0.5555555 0.9999998 0.714286 -0.9999998 0.1428574 -0.7142854 -1 0.4285717 0.1428573 -1 0.4285715 1 0.5555558 1 -0.7142854 -0.5555555 0.9999998 1 0.7777779 1 -0.9999998 -0.9999997 0.4285718 -0.9999998 -0.9999998 0.4285718 -0.7142854 -0.9999998 0.714286 -0.4285712 -0.9999998 0.714286 -0.1428568 -1 0.7142856 0.714286 -1 0.7142859 0.4285717 -0.5555555 1 0.4285717 -0.3333331 1 0.1428573 -0.1111108 1 -0.1428568 0.1111114 1 -0.4285712 0.3333336 1 -0.7142854 -0.7777776 1 0.714286 -0.9999998 0.714286 0.1428573 -1 0.7142856 1 -0.1111108 1 -0.4285712 0.5555557 1 -0.9999998 -0.7777777 1 1 -0.9999997 0.714286 -0.9999998 -0.9999997 0.714286 -0.7142854 -0.9999997 1 -0.4285712 -0.9999998 1 -0.1428568 -1 1 0.714286 -1 1 0.4285717 -0.7777776 1 0.4285717 -0.5555555 1 0.1428573 -0.3333331 1 -0.1428568 -0.333333 1 -0.4285712 0.1111114 1 -0.7142854 0.3333335 1 -0.9999998 -0.9999998 1 0.1428573 -1 1 1 -0.333333 1 -0.7142854 -0.1111108 1 -0.7142854 -0.9999997 1 -0.9999998 -0.9999997 1 -0.7142854 -0.7777776 1 -0.1428568 -0.7777776 1 0.1428573 -0.5555555 1 -0.1428568 -0.5555553 1 -0.4285712 -0.5555552 1 -0.7142854 0.1111113 1 -0.9999998 -0.7777775 1 -0.4285712 -0.1111109 1 -0.9999998 -0.3333331 1 -0.9999998 -0.7777774 1 -0.7142854 -0.5555552 1 -0.9999998 -0.7777774 1 -0.9999998 -1.054501 -0.8889187 0.8617008 -1.054501 -0.8889187 0.2428679 -1.054501 -0.3488005 0.2428679 -1.054501 -0.3488005 0.8617008</float_array>
          <technique_common>
            <accessor source="#Cube_001-mesh-positions-array" count="284" stride="3">
              <param name="X" type="float"/>
              <param name="Y" type="float"/>
              <param name="Z" type="float"/>
            </accessor>
          </technique_common>
        </source>
        <source id="Cube_001-mesh-normals">
          <float_array id="Cube_001-mesh-normals-array" count="483">-1 7.30159e-7 -2.08617e-7 -1 1.46032e-6 -4.17233e-7 0 1 0 -1 7.30158e-7 -4.17233e-7 -1 1.46032e-6 -4.17232e-7 -1 0 0 -1 0 0 -1 7.30158e-7 0 -1 7.30157e-7 0 -1 0 -4.17232e-7 -1 0 4.17233e-7 -1 0 0 -1 0 4.17233e-7 -1 0 0 -1 7.30157e-7 0 -1 0 -2.08616e-7 -1 7.30158e-7 0 -1 7.30156e-7 -4.17232e-7 -1 0 0 -1 0 -2.08616e-7 -1 7.30157e-7 -4.17232e-7 -1 7.30156e-7 0 -1 0 -2.08616e-7 -1 0 -4.17232e-7 0 1 4.69387e-7 0 1 -4.69387e-7 0 1 4.69387e-7 -1 0 4.17232e-7 -1 0 -4.17233e-7 -1 7.30157e-7 -8.34465e-7 0 1 -4.69387e-7 5.36442e-7 1 0 5.36442e-7 1 -4.69387e-7 0 1 -4.69387e-7 -1 0 4.17232e-7 -1 7.30157e-7 -4.17233e-7 -1 0 -8.34465e-7 -1 7.30158e-7 -4.17233e-7 0 1 4.69386e-7 5.36442e-7 1 -4.69387e-7 5.36442e-7 1 4.69386e-7 0 1 9.38773e-7 -1 7.30157e-7 0 -1 0 -4.17233e-7 -1 0 -4.17232e-7 0 1 4.69386e-7 5.36442e-7 1 -4.69387e-7 2.68221e-7 1 -4.69386e-7 2.68221e-7 1 9.38773e-7 -1 7.30158e-7 -4.17233e-7 -1 7.30156e-7 -4.17232e-7 0 1 4.69387e-7 5.36442e-7 1 -4.69386e-7 2.68221e-7 1 -4.69387e-7 2.68221e-7 1 0 5.36442e-7 1 -4.69387e-7 5.36442e-7 1 0 5.36441e-7 1 0 2.68221e-7 1 0 0 1 9.38773e-7 0 -1 0 5.36441e-7 1 0 2.68221e-7 1 -4.69386e-7 5.36442e-7 1 0 2.68221e-7 1 -4.69387e-7 2.68221e-7 1 0 2.68221e-7 1 0 5.36442e-7 1 0 5.36442e-7 1 0 2.68221e-7 1 0 -2.68221e-7 -1 0 0 -1 -4.69387e-7 2.68221e-7 1 -4.69387e-7 2.68221e-7 1 0 5.36442e-7 1 0 2.68221e-7 1 0 -2.68221e-7 -1 0 0 -1 -9.38774e-7 5.36442e-7 1 -4.69387e-7 0 1 4.69387e-7 5.36442e-7 1 -4.69387e-7 -5.36442e-7 -1 0 -2.68221e-7 -1 -4.69386e-7 5.36442e-7 1 0 5.36443e-7 1 -4.69388e-7 -5.36442e-7 -1 -4.69387e-7 0 -1 -4.69386e-7 -5.36442e-7 -1 -4.69387e-7 1 0 0 -5.36442e-7 -1 -4.69387e-7 -5.36442e-7 -1 0 0 0 1 0 -1 -4.69386e-7 -5.36442e-7 -1 0 0 0 -1 1 -3.1847e-6 0 -5.36442e-7 -1 0 1 0 2.08616e-7 1 0 0 -5.36442e-7 -1 -2.34693e-7 -2.68221e-7 -1 0 1 -7.30156e-7 2.08616e-7 1 0 0 1 -7.30157e-7 0 1 0 2.08616e-7 -2.68221e-7 -1 0 -2.68221e-7 -1 0 -2.68221e-7 -1 0 -2.68221e-7 -1 -4.69387e-7 1 0 4.17232e-7 1 -7.30157e-7 0 1 0 2.08616e-7 -2.68221e-7 -1 -4.69386e-7 -2.68221e-7 -1 -4.69387e-7 -2.68221e-7 -1 -4.69387e-7 1 0 4.17232e-7 1 0 0 1 0 2.08616e-7 -5.36442e-7 -1 -9.38773e-7 -5.36442e-7 -1 -4.69386e-7 -5.36442e-7 -1 -4.69387e-7 -5.36442e-7 -1 -4.69387e-7 -2.68221e-7 -1 0 0 -1 -4.69387e-7 1 -7.30157e-7 0 1 -7.30157e-7 4.17233e-7 1 0 4.17232e-7 1 0 2.08616e-7 -2.68221e-7 -1 -9.38772e-7 -5.36442e-7 -1 -4.69386e-7 -5.36442e-7 -1 -4.69387e-7 -5.36442e-7 -1 -4.69386e-7 -5.36442e-7 -1 -4.69387e-7 -5.36442e-7 -1 -4.69387e-7 0 -1 -4.69387e-7 1 0 4.17232e-7 -5.36442e-7 -1 0 1 0 4.17233e-7 1 -7.30157e-7 0 1 -7.30157e-7 6.25848e-7 -5.36442e-7 -1 0 1 0 0 1 0 6.25848e-7 1 -7.30158e-7 4.17232e-7 1 0 4.17232e-7 1 -7.30157e-7 0 1 0 2.08617e-7 0 -1 0 0 -1 0 0 -1 0 0 -1 4.69387e-7 0 -1 0 0 -1 0 0 -1 -4.69387e-7 0 -1 0 0 -1 0 -6.79495e-7 0 -1 1 3.44134e-7 0 1 4.10605e-6 0 1 9.77611e-6 0 1 -1.31182e-6 0</float_array>
          <technique_common>
            <accessor source="#Cube_001-mesh-normals-array" count="161" stride="3">
              <param name="X" type="float"/>
              <param name="Y" type="float"/>
              <param name="Z" type="float"/>
            </accessor>
          </technique_common>
        </source>
        <source id="Cube_001-mesh-map-0">
          <float_array id="Cube_001-mesh-map-0-array" count="3012">0.06820428 0.9998049 1.94884e-4 0.9998049 1.94942e-4 0.9317955 0.06820428 0.9317955 0.06820428 0.9998049 1.94942e-4 0.9317955 0.5867255 1.95347e-4 0.5867255 0.05309158 0.5187162 1.95405e-4 0.06820428 0.9317955 1.94942e-4 0.9317955 1.94942e-4 0.8637861 0.1362138 0.9998049 0.06820428 0.9998049 0.06820428 0.9317955 0.654735 0.05309152 0.5867255 0.05309158 0.5867255 1.95347e-4 0.5867255 0.05309158 0.5187162 0.05309158 0.5187162 1.95405e-4 0.06820434 0.8637861 0.06820428 0.9317955 1.94942e-4 0.8637861 0.1362138 0.9317955 0.1362138 0.9998049 0.06820428 0.9317955 0.654735 1.95289e-4 0.654735 0.05309152 0.5867255 1.95347e-4 0.654735 0.05309152 0.6547351 0.1059878 0.5867255 0.05309158 0.5867255 0.05309158 0.5867255 0.1059878 0.5187162 0.05309158 0.06820434 0.8637861 1.94942e-4 0.8637861 1.95e-4 0.7957766 0.1362138 0.9317955 0.06820428 0.9317955 0.06820434 0.8637861 0.2042234 0.999805 0.1362138 0.9998049 0.1362138 0.9317955 0.7227445 0.05309146 0.654735 0.05309152 0.654735 1.95289e-4 0.7227445 0.1059877 0.6547351 0.1059878 0.654735 0.05309152 0.6547351 0.1059878 0.5867255 0.1059878 0.5867255 0.05309158 0.5867255 0.1059878 0.5187162 0.1059879 0.5187162 0.05309158 0.06820434 0.7957766 0.06820434 0.8637861 1.95e-4 0.7957766 0.1362138 0.8637861 0.1362138 0.9317955 0.06820434 0.8637861 0.2042234 0.9317955 0.2042234 0.999805 0.1362138 0.9317955 0.7227445 1.95202e-4 0.7227445 0.05309146 0.654735 1.95289e-4 0.7227445 0.05309146 0.7227445 0.1059877 0.654735 0.05309152 0.7227445 0.1059877 0.7227445 0.158884 0.6547351 0.1059878 0.6547351 0.1059878 0.6547351 0.158884 0.5867255 0.1059878 0.5867255 0.1059878 0.5867255 0.1588841 0.5187162 0.1059879 0.06820434 0.7957766 1.95e-4 0.7957766 1.95e-4 0.7277671 0.1362138 0.8637861 0.06820434 0.8637861 0.06820434 0.7957766 0.2042234 0.9317955 0.1362138 0.9317955 0.1362138 0.8637861 0.2722329 0.999805 0.2042234 0.999805 0.2042234 0.9317955 0.790754 0.0530914 0.7227445 0.05309146 0.7227445 1.95202e-4 0.790754 0.1059877 0.7227445 0.1059877 0.7227445 0.05309146 0.790754 0.1588839 0.7227445 0.158884 0.7227445 0.1059877 0.7227445 0.158884 0.6547351 0.158884 0.6547351 0.1059878 0.6547351 0.158884 0.5867255 0.1588841 0.5867255 0.1059878 0.5867255 0.1588841 0.5187162 0.1588841 0.5187162 0.1059879 0.06820434 0.7277671 0.06820434 0.7957766 1.95e-4 0.7277671 0.1362138 0.7957765 0.1362138 0.8637861 0.06820434 0.7957766 0.2042234 0.8637861 0.2042234 0.9317955 0.1362138 0.8637861 0.2722329 0.9317955 0.2722329 0.999805 0.2042234 0.9317955 0.7907539 1.95116e-4 0.790754 0.0530914 0.7227445 1.95202e-4 0.790754 0.0530914 0.790754 0.1059877 0.7227445 0.05309146 0.790754 0.1059877 0.790754 0.1588839 0.7227445 0.1059877 0.790754 0.1588839 0.790754 0.2117802 0.7227445 0.158884 0.7227445 0.158884 0.7227445 0.2117803 0.6547351 0.158884 0.6547351 0.158884 0.6547351 0.2117803 0.5867255 0.1588841 0.5867255 0.1588841 0.5867255 0.2117803 0.5187162 0.1588841 0.06820434 0.7277671 1.95e-4 0.7277671 1.95e-4 0.6597576 0.1362138 0.7957765 0.06820434 0.7957766 0.06820434 0.7277671 0.2042234 0.8637861 0.1362138 0.8637861 0.1362138 0.7957765 0.2722329 0.9317955 0.2042234 0.9317955 0.2042234 0.8637861 0.3402425 0.999805 0.2722329 0.999805 0.2722329 0.9317955 0.8587635 0.05309128 0.790754 0.0530914 0.7907539 1.95116e-4 0.8587635 0.1059876 0.790754 0.1059877 0.790754 0.0530914 0.8587635 0.1588839 0.790754 0.1588839 0.790754 0.1059877 0.8587636 0.2117802 0.790754 0.2117802 0.790754 0.1588839 0.790754 0.2117802 0.7227445 0.2117803 0.7227445 0.158884 0.7227445 0.2117803 0.6547351 0.2117803 0.6547351 0.158884 0.6547351 0.2117803 0.5867255 0.2117803 0.5867255 0.1588841 0.5867255 0.2117803 0.5187162 0.2117804 0.5187162 0.1588841 0.06820434 0.6597576 0.06820434 0.7277671 1.95e-4 0.6597576 0.1362138 0.7277671 0.1362138 0.7957765 0.06820434 0.7277671 0.2042234 0.7957766 0.2042234 0.8637861 0.1362138 0.7957765 0.2722329 0.8637861 0.2722329 0.9317955 0.2042234 0.8637861 0.3402425 0.9317955 0.3402425 0.999805 0.2722329 0.9317955 0.8587635 1.95029e-4 0.8587635 0.05309128 0.7907539 1.95116e-4 0.8587635 0.05309128 0.8587635 0.1059876 0.790754 0.0530914 0.8587635 0.1059876 0.8587635 0.1588839 0.790754 0.1059877 0.8587635 0.1588839 0.8587636 0.2117802 0.790754 0.1588839 0.8587636 0.2117802 0.8587636 0.2646765 0.790754 0.2117802 0.790754 0.2117802 0.790754 0.2646765 0.7227445 0.2117803 0.7227445 0.2117803 0.7227445 0.2646766 0.6547351 0.2117803 0.6547351 0.2117803 0.6547351 0.2646766 0.5867255 0.2117803 0.5867255 0.2117803 0.5867255 0.2646766 0.5187162 0.2117804 0.06820434 0.6597576 1.95e-4 0.6597576 1.95e-4 0.5917481 0.1362138 0.7277671 0.06820434 0.7277671 0.06820434 0.6597576 0.2042234 0.7957766 0.1362138 0.7957765 0.1362138 0.7277671 0.2722329 0.8637861 0.2042234 0.8637861 0.2042234 0.7957766 0.3402425 0.9317955 0.2722329 0.9317955 0.2722329 0.8637861 0.408252 0.999805 0.3402425 0.999805 0.3402425 0.9317955 0.926773 0.05309128 0.8587635 0.05309128 0.8587635 1.95029e-4 0.9267731 0.1059876 0.8587635 0.1059876 0.8587635 0.05309128 0.9267731 0.1588838 0.8587635 0.1588839 0.8587635 0.1059876 0.9267731 0.2117801 0.8587636 0.2117802 0.8587635 0.1588839 0.9267731 0.2646765 0.8587636 0.2646765 0.8587636 0.2117802 0.8587636 0.2646765 0.790754 0.2646765 0.790754 0.2117802 0.790754 0.2646765 0.7227445 0.2646766 0.7227445 0.2117803 0.7227445 0.2646766 0.6547351 0.2646766 0.6547351 0.2117803 0.6547351 0.2646766 0.5867255 0.2646766 0.5867255 0.2117803 0.5867255 0.2646766 0.5187162 0.2646766 0.5187162 0.2117804 0.06820434 0.5917481 0.06820434 0.6597576 1.95e-4 0.5917481 0.1362139 0.6597575 0.1362138 0.7277671 0.06820434 0.6597576 0.2042234 0.7277671 0.2042234 0.7957766 0.1362138 0.7277671 0.2722329 0.7957765 0.2722329 0.8637861 0.2042234 0.7957766 0.3402425 0.8637861 0.3402425 0.9317955 0.2722329 0.8637861 0.408252 0.9317955 0.408252 0.999805 0.3402425 0.9317955 0.926773 1.94942e-4 0.926773 0.05309128 0.8587635 1.95029e-4 0.926773 0.05309128 0.9267731 0.1059876 0.8587635 0.05309128 0.9267731 0.1059876 0.9267731 0.1588838 0.8587635 0.1059876 0.9267731 0.1588838 0.9267731 0.2117801 0.8587635 0.1588839 0.9267731 0.2117801 0.9267731 0.2646765 0.8587636 0.2117802 0.9267731 0.2646765 0.9267731 0.3175728 0.8587636 0.2646765 0.8587636 0.2646765 0.8587636 0.3175728 0.790754 0.2646765 0.790754 0.2646765 0.790754 0.3175728 0.7227445 0.2646766 0.7227445 0.2646766 0.7227445 0.3175728 0.6547351 0.2646766 0.6547351 0.2646766 0.6547351 0.3175728 0.5867255 0.2646766 0.5867255 0.2646766 0.5867255 0.3175729 0.5187162 0.2646766 0.06820434 0.5917481 1.95e-4 0.5917481 1.95e-4 0.5237386 0.1362139 0.6597575 0.06820434 0.6597576 0.06820434 0.5917481 0.2042234 0.7277671 0.1362138 0.7277671 0.1362139 0.6597575 0.2722329 0.7957765 0.2042234 0.7957766 0.2042234 0.7277671 0.3402425 0.8637861 0.2722329 0.8637861 0.2722329 0.7957765 0.408252 0.9317955 0.3402425 0.9317955 0.3402425 0.8637861 0.4762615 0.999805 0.408252 0.999805 0.408252 0.9317955 0.9947826 0.05309116 0.926773 0.05309128 0.926773 1.94942e-4 0.9947826 0.1059875 0.9267731 0.1059876 0.926773 0.05309128 0.9947826 0.1588838 0.9267731 0.1588838 0.9267731 0.1059876 0.9947826 0.2117801 0.9267731 0.2117801 0.9267731 0.1588838 0.9947828 0.2646765 0.9267731 0.2646765 0.9267731 0.2117801 0.9947828 0.3175727 0.9267731 0.3175728 0.9267731 0.2646765 0.9267731 0.3175728 0.8587636 0.3175728 0.8587636 0.2646765 0.8587636 0.3175728 0.790754 0.3175728 0.790754 0.2646765 0.790754 0.3175728 0.7227445 0.3175728 0.7227445 0.2646766 0.7227445 0.3175728 0.6547351 0.3175728 0.6547351 0.2646766 0.6547351 0.3175728 0.5867255 0.3175729 0.5867255 0.2646766 0.5867255 0.3175729 0.5187161 0.3175728 0.5187162 0.2646766 0.06820434 0.5237386 0.06820434 0.5917481 1.95e-4 0.5237386 0.1362139 0.591748 0.1362139 0.6597575 0.06820434 0.5917481 0.2042234 0.6597575 0.2042234 0.7277671 0.1362139 0.6597575 0.2722329 0.7277671 0.2722329 0.7957765 0.2042234 0.7277671 0.3402425 0.7957765 0.3402425 0.8637861 0.2722329 0.7957765 0.408252 0.863786 0.408252 0.9317955 0.3402425 0.8637861 0.4762615 0.9317954 0.4762615 0.999805 0.408252 0.9317955 0.9947825 1.94884e-4 0.9947826 0.05309116 0.926773 1.94942e-4 0.9947826 0.05309116 0.9947826 0.1059875 0.926773 0.05309128 0.9947826 0.1059875 0.9947826 0.1588838 0.9267731 0.1059876 0.9947826 0.1588838 0.9947826 0.2117801 0.9267731 0.1588838 0.9947826 0.2117801 0.9947828 0.2646765 0.9267731 0.2117801 0.9947828 0.2646765 0.9947828 0.3175727 0.9267731 0.2646765 0.9947828 0.3175727 0.9947828 0.3704691 0.9267731 0.3175728 0.9267731 0.3175728 0.9267731 0.3704691 0.8587636 0.3175728 0.8587636 0.3175728 0.8587636 0.3704691 0.790754 0.3175728 0.790754 0.3175728 0.790754 0.3704691 0.7227445 0.3175728 0.7227445 0.3175728 0.7227445 0.3704691 0.6547351 0.3175728 0.6547351 0.3175728 0.654735 0.3704691 0.5867255 0.3175729 0.5867255 0.3175729 0.5867255 0.3704692 0.5187161 0.3175728 0.9947829 0.9527181 0.9418866 0.9527181 0.9947828 0.8847087 0.1362139 0.591748 0.06820434 0.5917481 0.06820434 0.5237386 0.2042234 0.6597575 0.1362139 0.6597575 0.1362139 0.591748 0.2722329 0.7277671 0.2042234 0.7277671 0.2042234 0.6597575 0.3402425 0.7957765 0.2722329 0.7957765 0.2722329 0.7277671 0.408252 0.863786 0.3402425 0.8637861 0.3402425 0.7957765 0.4762615 0.9317954 0.408252 0.9317955 0.408252 0.863786 0.9947828 0.3704691 0.9267731 0.3704691 0.9267731 0.3175728 0.9267731 0.3704691 0.8587636 0.3704691 0.8587636 0.3175728 0.8587636 0.3704691 0.790754 0.3704691 0.790754 0.3175728 0.790754 0.3704691 0.7227445 0.3704691 0.7227445 0.3175728 0.7227445 0.3704691 0.654735 0.3704691 0.6547351 0.3175728 0.654735 0.3704691 0.5867255 0.3704692 0.5867255 0.3175729 0.5867255 0.3704692 0.5187161 0.3704692 0.5187161 0.3175728 0.9418866 0.9527181 0.9418866 0.8847087 0.9947828 0.8847087 0.1362138 0.5237385 0.1362139 0.591748 0.06820434 0.5237386 0.2042234 0.591748 0.2042234 0.6597575 0.1362139 0.591748 0.2722329 0.6597575 0.2722329 0.7277671 0.2042234 0.6597575 0.3402425 0.727767 0.3402425 0.7957765 0.2722329 0.7277671 0.408252 0.7957765 0.408252 0.863786 0.3402425 0.7957765 0.4762615 0.863786 0.4762615 0.9317954 0.408252 0.863786 0.9947828 0.3704691 0.9947828 0.4233654 0.9267731 0.3704691 0.9267731 0.3704691 0.9267731 0.4233654 0.8587636 0.3704691 0.8587636 0.3704691 0.8587636 0.4233654 0.790754 0.3704691 0.790754 0.3704691 0.790754 0.4233654 0.7227445 0.3704691 0.7227445 0.3704691 0.7227445 0.4233654 0.654735 0.3704691 0.654735 0.3704691 0.654735 0.4233654 0.5867255 0.3704692 0.5867255 0.3704692 0.5867255 0.4233654 0.5187161 0.3704692 0.9418866 0.9527181 0.8889902 0.9527181 0.9418866 0.8847087 0.9947828 0.8847087 0.9418866 0.8847087 0.9947828 0.8166992 0.2042234 0.591748 0.1362139 0.591748 0.1362138 0.5237385 0.2722329 0.6597575 0.2042234 0.6597575 0.2042234 0.591748 0.3402425 0.727767 0.2722329 0.7277671 0.2722329 0.6597575 0.408252 0.7957765 0.3402425 0.7957765 0.3402425 0.727767 0.4762615 0.863786 0.408252 0.863786 0.408252 0.7957765 0.9947828 0.4233654 0.9267731 0.4233654 0.9267731 0.3704691 0.9267731 0.4233654 0.8587636 0.4233654 0.8587636 0.3704691 0.8587636 0.4233654 0.790754 0.4233654 0.790754 0.3704691 0.790754 0.4233654 0.7227445 0.4233654 0.7227445 0.3704691 0.7227445 0.4233654 0.654735 0.4233654 0.654735 0.3704691 0.654735 0.4233654 0.5867255 0.4233654 0.5867255 0.3704692 0.5867255 0.4233654 0.518716 0.4233654 0.5187161 0.3704692 0.8889902 0.9527181 0.8889902 0.8847087 0.9418866 0.8847087 0.9418866 0.8847087 0.9418866 0.8166992 0.9947828 0.8166992 0.2042234 0.5237385 0.2042234 0.591748 0.1362138 0.5237385 0.2722329 0.591748 0.2722329 0.6597575 0.2042234 0.591748 0.3402425 0.6597575 0.3402425 0.727767 0.2722329 0.6597575 0.408252 0.727767 0.408252 0.7957765 0.3402425 0.727767 0.4762615 0.7957765 0.4762615 0.863786 0.408252 0.7957765 0.9947828 0.4233654 0.9947828 0.4762617 0.9267731 0.4233654 0.9267731 0.4233654 0.9267731 0.4762617 0.8587636 0.4233654 0.8587636 0.4233654 0.8587636 0.4762617 0.790754 0.4233654 0.790754 0.4233654 0.790754 0.4762617 0.7227445 0.4233654 0.7227445 0.4233654 0.7227445 0.4762617 0.654735 0.4233654 0.654735 0.4233654 0.654735 0.4762617 0.5867255 0.4233654 0.5867255 0.4233654 0.5867255 0.4762616 0.518716 0.4233654 0.8889902 0.8847087 0.8889902 0.9527181 0.836094 0.8847087 0.9418866 0.8847087 0.8889902 0.8847087 0.9418866 0.8166992 0.9947828 0.8166992 0.9418866 0.8166992 0.9947828 0.7486895 0.2722329 0.591748 0.2042234 0.591748 0.2042234 0.5237385 0.3402425 0.6597575 0.2722329 0.6597575 0.2722329 0.591748 0.408252 0.727767 0.3402425 0.727767 0.3402425 0.6597575 0.4762615 0.7957765 0.408252 0.7957765 0.408252 0.727767 0.9947828 0.4762617 0.9267731 0.4762617 0.9267731 0.4233654 0.9267731 0.4762617 0.8587636 0.4762617 0.8587636 0.4233654 0.8587636 0.4762617 0.790754 0.4762617 0.790754 0.4233654 0.790754 0.4762617 0.7227445 0.4762617 0.7227445 0.4233654 0.7227445 0.4762617 0.654735 0.4762617 0.654735 0.4233654 0.654735 0.4762617 0.5867255 0.4762616 0.5867255 0.4233654 0.5867255 0.4762616 0.518716 0.4762616 0.518716 0.4233654 0.8889902 0.8847087 0.836094 0.8847087 0.8889902 0.8166992 0.8889902 0.9527181 0.836094 0.9527181 0.836094 0.8847087 0.8889902 0.8847087 0.8889902 0.8166992 0.9418866 0.8166992 0.9418866 0.8166992 0.9418864 0.7486896 0.9947828 0.7486895 0.2722328 0.5237385 0.2722329 0.591748 0.2042234 0.5237385 0.3402425 0.5917479 0.3402425 0.6597575 0.2722329 0.591748 0.408252 0.6597574 0.408252 0.727767 0.3402425 0.6597575 0.4762615 0.7277669 0.4762615 0.7957765 0.408252 0.727767 1.94884e-4 0.001143157 0.07383435 7.11986e-4 6.26034e-4 0.07478266 6.26034e-4 0.07478266 0.07420235 0.0743038 0.001165866 0.1484343 0.001165866 0.1484343 0.07457572 0.1477308 0.002097785 0.2220743 0.002097785 0.2220743 0.07460564 0.220936 0.00421518 0.2950055 0.0149585 0.3397815 0.00421518 0.2950055 0.01671743 0.3108584 0.01478785 0.3915063 0.002872169 0.3605803 0.01458704 0.3605746 0.01559662 0.4420252 0.02458506 0.4674621 0.00368309 0.4281811 0.836094 0.8847087 0.836094 0.8166992 0.8889902 0.8166992 0.836094 0.8847087 0.836094 0.9527181 0.7831977 0.8847087 0.9418866 0.8166992 0.8889902 0.8166992 0.9418864 0.7486896 0.9947828 0.7486895 0.9418864 0.7486896 0.9947826 0.6806801 0.3402425 0.5917479 0.2722329 0.591748 0.2722328 0.5237385 0.408252 0.6597574 0.3402425 0.6597575 0.3402425 0.5917479 0.4762615 0.7277669 0.408252 0.727767 0.408252 0.6597574 0.07383435 7.11986e-4 0.07420235 0.0743038 6.26034e-4 0.07478266 0.07420235 0.0743038 0.07457572 0.1477308 0.001165866 0.1484343 0.07457572 0.1477308 0.07460564 0.220936 0.002097785 0.2220743 0.0373553 0.3032357 0.01764076 0.3060232 0.00421518 0.2950055 0.01458704 0.3605746 0.0149585 0.3397815 0.02657735 0.3137568 0.01458704 0.3605746 0.002872169 0.3605803 0.0149585 0.3397815 0.01559662 0.4420252 0.00368309 0.4281811 0.01478785 0.3915063 0.1272138 0.4817947 0.04763484 0.4756585 0.03223919 0.4632428 0.04763484 0.4756585 0.009152948 0.4944724 0.023364 0.4714341 0.836094 0.8847087 0.7831977 0.8847087 0.836094 0.8166992 0.8889902 0.8166992 0.836094 0.8166992 0.8889902 0.7486896 0.836094 0.9527181 0.7831977 0.9527181 0.7831977 0.8847087 0.8889902 0.8166992 0.8889902 0.7486896 0.9418864 0.7486896 0.9418864 0.7486896 0.9418864 0.6806801 0.9947826 0.6806801 0.3402424 0.5237384 0.3402425 0.5917479 0.2722328 0.5237385 0.408252 0.5917479 0.408252 0.6597574 0.3402425 0.5917479 0.4762614 0.6597574 0.4762615 0.7277669 0.408252 0.6597574 0.07383435 7.11986e-4 0.1475171 3.94173e-4 0.07420235 0.0743038 0.07457572 0.1477308 0.07420235 0.0743038 0.1486237 0.1473268 0.07457572 0.1477308 0.1486237 0.1473268 0.07460564 0.220936 0.07460564 0.220936 0.04906499 0.302136 0.0373553 0.3032357 0.1723363 0.3215531 0.04906499 0.302136 0.1696326 0.3066798 0.03223919 0.4632428 0.04299241 0.3309776 0.04164737 0.4570502 0.04299241 0.3309776 0.02657735 0.3137568 0.1723363 0.3215531 0.1723363 0.3215531 0.1833995 0.3358302 0.182579 0.3686733 0.2186017 0.4390222 0.1631932 0.5114204 0.1671426 0.4743984 0.1631932 0.5114204 0.1272138 0.4817947 0.1671379 0.4851013 0.1272138 0.4817947 0.07092821 0.4992309 0.04763484 0.4756585 0.7831977 0.8847087 0.7831977 0.8166992 0.836094 0.8166992 0.836094 0.8166992 0.8360939 0.7486897 0.8889902 0.7486896 0.7831977 0.8847087 0.7831977 0.9527181 0.7303014 0.8847087 0.9418864 0.7486896 0.8889902 0.7486896 0.9418864 0.6806801 0.9947826 0.6806801 0.9418864 0.6806801 0.9947826 0.6126706 0.408252 0.5917479 0.3402425 0.5917479 0.3402424 0.5237384 0.4762614 0.6597574 0.408252 0.6597574 0.408252 0.5917479 0.1475171 3.94173e-4 0.1478525 0.07390129 0.07420235 0.0743038 0.07420235 0.0743038 0.1478525 0.07390129 0.1486237 0.1473268 0.1486237 0.1473268 0.1511644 0.2199071 0.07460564 0.220936 0.04906499 0.302136 0.1511644 0.2199071 0.1696326 0.3066798 0.2173779 0.2198218 0.1819102 0.3130754 0.1511644 0.2199071 0.182321 0.3198053 0.2201367 0.3021366 0.182572 0.3280577 0.2201367 0.3021366 0.1833995 0.3358302 0.182572 0.3280577 0.1833995 0.3358302 0.2206666 0.3700383 0.182579 0.3686733 0.2206666 0.3700383 0.1823447 0.3774103 0.182579 0.3686733 0.1823447 0.3774103 0.2186017 0.4390222 0.1779989 0.4616354 0.2186017 0.4390222 0.2128849 0.5147874 0.1631932 0.5114204 0.7831977 0.8847087 0.7303014 0.8847087 0.7831977 0.8166992 0.836094 0.8166992 0.7831977 0.8166992 0.8360939 0.7486897 0.8889902 0.7486896 0.8360939 0.7486897 0.8889902 0.6806802 0.7831977 0.9527181 0.7303013 0.9527181 0.7303014 0.8847087 0.8889902 0.7486896 0.8889902 0.6806802 0.9418864 0.6806801 0.9418864 0.6806801 0.9418864 0.6126706 0.9947826 0.6126706 0.4082519 0.5237383 0.408252 0.5917479 0.3402424 0.5237384 0.4762614 0.5917479 0.4762614 0.6597574 0.408252 0.5917479 0.1475171 3.94173e-4 0.2210105 1.94884e-4 0.1478525 0.07390129 0.1486237 0.1473268 0.1478525 0.07390129 0.2200773 0.1470234 0.1486237 0.1473268 0.2200773 0.1470234 0.1511644 0.2199071 0.2200773 0.1470234 0.2173779 0.2198218 0.1511644 0.2199071 0.2173779 0.2198218 0.2930146 0.2222205 0.2201367 0.3021366 0.2206666 0.3700383 0.2201367 0.3021366 0.293049 0.3710727 0.2186017 0.4390222 0.2206666 0.3700383 0.2912395 0.443354 0.2186017 0.4390222 0.2912395 0.443354 0.2128849 0.5147874 0.7303014 0.8847087 0.7303013 0.8166992 0.7831977 0.8166992 0.7831977 0.8166992 0.7831976 0.7486897 0.8360939 0.7486897 0.8360939 0.7486897 0.8360939 0.6806802 0.8889902 0.6806802 0.7303014 0.8847087 0.7303013 0.9527181 0.6774051 0.8847087 0.9418864 0.6806801 0.8889902 0.6806802 0.9418864 0.6126706 0.9947826 0.6126706 0.9418864 0.6126706 0.9947826 0.5446611 0.4762614 0.5917479 0.408252 0.5917479 0.4082519 0.5237383 0.2210105 1.94884e-4 0.2209014 0.07389611 0.1478525 0.07390129 0.1478525 0.07390129 0.2209014 0.07389611 0.2200773 0.1470234 0.2200773 0.1470234 0.2941328 0.1481906 0.2173779 0.2198218 0.2941328 0.1481906 0.2930146 0.2222205 0.2173779 0.2198218 0.2930146 0.2222205 0.2932296 0.2987823 0.2201367 0.3021366 0.2206666 0.3700383 0.293049 0.3710727 0.2912395 0.443354 0.2201367 0.3021366 0.2932296 0.2987823 0.293049 0.3710727 0.2912395 0.443354 0.2883113 0.5179234 0.2128849 0.5147874 0.7303014 0.8847087 0.6774051 0.8847087 0.7303013 0.8166992 0.7831977 0.8166992 0.7303013 0.8166992 0.7831976 0.7486897 0.8360939 0.7486897 0.7831976 0.7486897 0.8360939 0.6806802 0.8889902 0.6806802 0.8360939 0.6806802 0.8889902 0.6126706 0.7303013 0.9527181 0.6774051 0.9527181 0.6774051 0.8847087 0.8889902 0.6806802 0.8889902 0.6126706 0.9418864 0.6126706 0.9418864 0.6126706 0.9418864 0.5446611 0.9947826 0.5446611 0.4762614 0.5237383 0.4762614 0.5917479 0.4082519 0.5237383 0.2210105 1.94884e-4 0.2950139 2.04939e-4 0.2209014 0.07389611 0.2200773 0.1470234 0.2209014 0.07389611 0.2941328 0.1481906 0.2941328 0.1481906 0.368419 0.1489923 0.2930146 0.2222205 0.2930146 0.2222205 0.3676549 0.2233646 0.2932296 0.2987823 0.2912395 0.443354 0.293049 0.3710727 0.3649675 0.4457154 0.293049 0.3710727 0.2932296 0.2987823 0.3664504 0.3720706 0.2912395 0.443354 0.3649675 0.4457154 0.2883113 0.5179234 0.6774051 0.8847087 0.6774051 0.8166992 0.7303013 0.8166992 0.7303013 0.8166992 0.7303013 0.7486897 0.7831976 0.7486897 0.7831976 0.7486897 0.7831976 0.6806802 0.8360939 0.6806802 0.8360939 0.6806802 0.8360939 0.6126706 0.8889902 0.6126706 0.6774051 0.8847087 0.6774051 0.9527181 0.6245087 0.8847087 0.9418864 0.6126706 0.8889902 0.6126706 0.9418864 0.5446611 0.9947826 0.5446611 0.9418864 0.5446611 0.9947826 0.4766516 0.2950139 2.04939e-4 0.2947473 0.07426095 0.2209014 0.07389611 0.2209014 0.07389611 0.2947473 0.07426095 0.2941328 0.1481906 0.2941328 0.1481906 0.2947473 0.07426095 0.368419 0.1489923 0.368419 0.1489923 0.3676549 0.2233646 0.2930146 0.2222205 0.3676549 0.2233646 0.3671751 0.2983724 0.2932296 0.2987823 0.293049 0.3710727 0.3664504 0.3720706 0.3649675 0.4457154 0.2932296 0.2987823 0.3671751 0.2983724 0.3664504 0.3720706 0.3649675 0.4457154 0.3629902 0.5200818 0.2883113 0.5179234 0.6774051 0.8847087 0.6245087 0.8847087 0.6774051 0.8166992 0.7303013 0.8166992 0.6774051 0.8166992 0.7303013 0.7486897 0.7831976 0.7486897 0.7303013 0.7486897 0.7831976 0.6806802 0.8360939 0.6806802 0.7831976 0.6806802 0.8360939 0.6126706 0.8889902 0.6126706 0.8360939 0.6126706 0.8889901 0.5446611 0.6774051 0.9527181 0.6245087 0.9527181 0.6245087 0.8847087 0.8889902 0.6126706 0.8889901 0.5446611 0.9418864 0.5446611 0.9418864 0.5446611 0.9418864 0.4766516 0.9947826 0.4766516 0.2950139 2.04939e-4 0.3693276 4.02751e-4 0.2947473 0.07426095 0.2947473 0.07426095 0.3689662 0.0747146 0.368419 0.1489923 0.368419 0.1489923 0.4428588 0.1496602 0.3676549 0.2233646 0.3676549 0.2233646 0.442179 0.2241988 0.3671751 0.2983724 0.3649675 0.4457154 0.3664504 0.3720706 0.4391451 0.4473836 0.3664504 0.3720706 0.3671751 0.2983724 0.4404922 0.3731667 0.3649675 0.4457154 0.4391451 0.4473836 0.3629902 0.5200818 0.6245087 0.8847087 0.6245087 0.8166992 0.6774051 0.8166992 0.6774051 0.8166992 0.677405 0.7486897 0.7303013 0.7486897 0.7303013 0.7486897 0.7303013 0.6806802 0.7831976 0.6806802 0.7831976 0.6806802 0.7831976 0.6126706 0.8360939 0.6126706 0.8360939 0.6126706 0.8360939 0.5446611 0.8889901 0.5446611 0.6245087 0.8847087 0.6245087 0.9527181 0.5716124 0.8847087 0.9418864 0.5446611 0.8889901 0.5446611 0.9418864 0.4766516 0.3693276 4.02751e-4 0.3689662 0.0747146 0.2947473 0.07426095 0.368419 0.1489923 0.3689662 0.0747146 0.4428588 0.1496602 0.4428588 0.1496602 0.442179 0.2241988 0.3676549 0.2233646 0.442179 0.2241988 0.4414489 0.2989057 0.3671751 0.2983724 0.3664504 0.3720706 0.4404922 0.3731667 0.4391451 0.4473836 0.3671751 0.2983724 0.4414489 0.2989057 0.4404922 0.3731667 0.4391451 0.4473836 0.4375219 0.521799 0.3629902 0.5200818 0.6245087 0.8847087 0.5716124 0.8847087 0.6245087 0.8166992 0.6774051 0.8166992 0.6245087 0.8166992 0.677405 0.7486897 0.7303013 0.7486897 0.677405 0.7486897 0.7303013 0.6806802 0.7831976 0.6806802 0.7303013 0.6806802 0.7303013 0.6126706 0.7831976 0.6126706 0.7831976 0.6806802 0.7303013 0.6126706 0.8360939 0.6126706 0.7831976 0.6126706 0.8360939 0.5446611 0.8889901 0.5446611 0.8360939 0.5446611 0.8889901 0.4766516 0.6245087 0.9527181 0.5716124 0.9527181 0.5716124 0.8847087 0.8889901 0.5446611 0.8889901 0.4766516 0.9418864 0.4766516 0.3693276 4.02751e-4 0.4437975 7.38415e-4 0.3689662 0.0747146 0.3689662 0.0747146 0.4433809 0.07519596 0.4428588 0.1496602 0.4428588 0.1496602 0.5174462 0.1502603 0.442179 0.2241988 0.442179 0.2241988 0.5168089 0.2249579 0.4414489 0.2989057 0.4391451 0.4473836 0.4404922 0.3731667 0.5135827 0.4488373 0.4404922 0.3731667 0.4414489 0.2989057 0.5149046 0.3743264 0.4391451 0.4473836 0.5135827 0.4488373 0.4375219 0.521799 0.5716124 0.8847087 0.5716124 0.8166992 0.6245087 0.8166992 0.6245087 0.8166992 0.6245087 0.7486896 0.677405 0.7486897 0.677405 0.7486897 0.6774051 0.6806802 0.7303013 0.6806802 0.7303013 0.6126706 0.7303013 0.6806802 0.6774051 0.6126706 0.7831976 0.6126706 0.7303013 0.6126706 0.7831977 0.5446611 0.7831976 0.6126706 0.7831977 0.5446611 0.8360939 0.5446611 0.8360939 0.5446611 0.8360939 0.4766516 0.8889901 0.4766516 0.5716124 0.8847087 0.5716124 0.9527181 0.518716 0.8847087 0.4437975 7.38415e-4 0.4433809 0.07519596 0.3689662 0.0747146 0.4428588 0.1496602 0.4433809 0.07519596 0.5174462 0.1502603 0.5174462 0.1502603 0.5168089 0.2249579 0.442179 0.2241988 0.5168089 0.2249579 0.5159667 0.2997709 0.4414489 0.2989057 0.4404922 0.3731667 0.5149046 0.3743264 0.5135827 0.4488373 0.4414489 0.2989057 0.5159667 0.2997709 0.5149046 0.3743264 0.5135827 0.4488373 0.5120332 0.5233485 0.4375219 0.521799 0.5716124 0.8847087 0.518716 0.8847087 0.5716124 0.8166992 0.6245087 0.8166992 0.5716124 0.8166992 0.6245087 0.7486896 0.677405 0.7486897 0.6245087 0.7486896 0.6774051 0.6806802 0.7303013 0.6806802 0.6774051 0.6806802 0.6774051 0.6126706 0.7303013 0.6126706 0.6774051 0.6126706 0.6774051 0.5446611 0.7303013 0.6126706 0.7303014 0.5446611 0.7831977 0.5446611 0.8360939 0.5446611 0.7831977 0.5446611 0.8360939 0.4766516 0.5716124 0.9527181 0.518716 0.9527181 0.518716 0.8847087 0.4437975 7.38415e-4 0.5183262 0.001148045 0.4433809 0.07519596 0.4433809 0.07519596 0.5179066 0.0756632 0.5174462 0.1502603 0.5716124 0.6806801 0.5187162 0.6806801 0.5187162 0.6126706 0.5716124 0.7486896 0.5187161 0.7486895 0.5187162 0.6806801 0.518716 0.8847087 0.518716 0.8166992 0.5716124 0.8166992 0.5716124 0.8166992 0.518716 0.8166992 0.5187161 0.7486895 0.5716124 0.8166992 0.5716124 0.7486896 0.6245087 0.7486896 0.6245087 0.7486896 0.6245087 0.6806801 0.6774051 0.6806802 0.6774051 0.6126706 0.6774051 0.6806802 0.6245087 0.6126706 0.7303014 0.5446611 0.7303013 0.6126706 0.6774051 0.5446611 0.6774051 0.5446611 0.6774051 0.6126706 0.6245088 0.5446611 0.7831977 0.5446611 0.7303014 0.5446611 0.7831976 0.4766516 0.7831977 0.5446611 0.7831976 0.4766516 0.8360939 0.4766516 0.5183262 0.001148045 0.5179066 0.0756632 0.4433809 0.07519596 0.5716125 0.6126706 0.5187162 0.6126706 0.5187162 0.5446611 0.5716125 0.6126706 0.5716124 0.6806801 0.5187162 0.6126706 0.5716124 0.6806801 0.5716124 0.7486896 0.5187162 0.6806801 0.5716124 0.7486896 0.5716124 0.8166992 0.5187161 0.7486895 0.6245087 0.7486896 0.5716124 0.7486896 0.5716124 0.6806801 0.6245087 0.6806801 0.6245087 0.7486896 0.5716124 0.6806801 0.6774051 0.6806802 0.6245087 0.6806801 0.6245087 0.6126706 0.6774051 0.6126706 0.6245087 0.6126706 0.6245088 0.5446611 0.7303014 0.5446611 0.6774051 0.5446611 0.7303013 0.4766516 0.6774051 0.5446611 0.6245088 0.5446611 0.6774051 0.4766516 0.7303014 0.5446611 0.7303013 0.4766516 0.7831976 0.4766516 0.5716125 0.5446611 0.5187162 0.5446611 0.5187162 0.4766516 0.5716125 0.5446611 0.5716125 0.6126706 0.5187162 0.5446611 0.6245087 0.6806801 0.5716124 0.6806801 0.5716125 0.6126706 0.6245087 0.6126706 0.6245087 0.6806801 0.5716125 0.6126706 0.6245088 0.5446611 0.6245087 0.6126706 0.5716125 0.5446611 0.6774051 0.5446611 0.6774051 0.4766516 0.7303013 0.4766516 0.6245088 0.5446611 0.6245088 0.4766516 0.6774051 0.4766516 0.5716125 0.4766516 0.5716125 0.5446611 0.5187162 0.4766516 0.6245087 0.6126706 0.5716125 0.6126706 0.5716125 0.5446611 0.6245088 0.5446611 0.5716125 0.5446611 0.6245088 0.4766516 0.5716125 0.5446611 0.5716125 0.4766516 0.6245088 0.4766516 0.04299241 0.3309776 0.07053875 0.4216859 0.04164737 0.4570502 0.04164737 0.4570502 0.1209853 0.4309706 0.1526637 0.4603163 0.1526637 0.4603163 0.1289954 0.3706538 0.1598329 0.3335341 0.1598329 0.3335341 0.07689315 0.3612884 0.04299241 0.3309776 0.0149585 0.3397815 0.002872169 0.3605803 0.00421518 0.2950055 0.01478785 0.3915063 0.00368309 0.4281811 0.002872169 0.3605803 0.009152948 0.4944724 0.00368309 0.4281811 0.02458506 0.4674621 0.02458506 0.4674621 0.023364 0.4714341 0.009152948 0.4944724 0.00421518 0.2950055 0.07460564 0.220936 0.0373553 0.3032357 0.01764076 0.3060232 0.01671743 0.3108584 0.00421518 0.2950055 0.02657735 0.3137568 0.01478785 0.3915063 0.01458704 0.3605746 0.01559662 0.4420252 0.01478785 0.3915063 0.03223919 0.4632428 0.03223919 0.4632428 0.02458506 0.4674621 0.01559662 0.4420252 0.01671743 0.3108584 0.01764076 0.3060232 0.02657735 0.3137568 0.01478785 0.3915063 0.02657735 0.3137568 0.03223919 0.4632428 0.0149585 0.3397815 0.01671743 0.3108584 0.02657735 0.3137568 0.02458506 0.4674621 0.03223919 0.4632428 0.023364 0.4714341 0.1613147 0.4698585 0.1671426 0.4743984 0.1671379 0.4851013 0.1671379 0.4851013 0.1272138 0.4817947 0.1613147 0.4698585 0.023364 0.4714341 0.03223919 0.4632428 0.04763484 0.4756585 0.1613147 0.4698585 0.1272138 0.4817947 0.03223919 0.4632428 0.04763484 0.4756585 0.07092821 0.4992309 0.009152948 0.4944724 0.07460564 0.220936 0.1511644 0.2199071 0.04906499 0.302136 0.1696326 0.3066798 0.1819102 0.3130754 0.1723363 0.3215531 0.1723363 0.3215531 0.02657735 0.3137568 0.04906499 0.302136 0.0373553 0.3032357 0.04906499 0.302136 0.02657735 0.3137568 0.02657735 0.3137568 0.01764076 0.3060232 0.0373553 0.3032357 0.1526637 0.4603163 0.1613147 0.4698585 0.04164737 0.4570502 0.03223919 0.4632428 0.02657735 0.3137568 0.04299241 0.3309776 0.04164737 0.4570502 0.1613147 0.4698585 0.03223919 0.4632428 0.1723363 0.3215531 0.1613147 0.4698585 0.1598329 0.3335341 0.1598329 0.3335341 0.04299241 0.3309776 0.1723363 0.3215531 0.1613147 0.4698585 0.1526637 0.4603163 0.1598329 0.3335341 0.1779989 0.4616354 0.1671426 0.4743984 0.1613147 0.4698585 0.1613147 0.4698585 0.1723363 0.3215531 0.1823447 0.3774103 0.182321 0.3198053 0.182572 0.3280577 0.1723363 0.3215531 0.1723363 0.3215531 0.1819102 0.3130754 0.182321 0.3198053 0.1823447 0.3774103 0.1779989 0.4616354 0.1613147 0.4698585 0.182572 0.3280577 0.1833995 0.3358302 0.1723363 0.3215531 0.182579 0.3686733 0.1823447 0.3774103 0.1723363 0.3215531 0.1671426 0.4743984 0.1779989 0.4616354 0.2186017 0.4390222 0.1631932 0.5114204 0.1671379 0.4851013 0.1671426 0.4743984 0.1631932 0.5114204 0.07092821 0.4992309 0.1272138 0.4817947 0.1696326 0.3066798 0.1511644 0.2199071 0.1819102 0.3130754 0.2173779 0.2198218 0.182321 0.3198053 0.1819102 0.3130754 0.182321 0.3198053 0.2173779 0.2198218 0.2201367 0.3021366 0.2201367 0.3021366 0.2206666 0.3700383 0.1833995 0.3358302 0.2206666 0.3700383 0.2186017 0.4390222 0.1823447 0.3774103 0.04299241 0.3309776 0.07689315 0.3612884 0.07053875 0.4216859 0.04164737 0.4570502 0.07053875 0.4216859 0.1209853 0.4309706 0.1526637 0.4603163 0.1209853 0.4309706 0.1289954 0.3706538 0.1598329 0.3335341 0.1289954 0.3706538 0.07689315 0.3612884</float_array>
          <technique_common>
            <accessor source="#Cube_001-mesh-map-0-array" count="1506" stride="2">
              <param name="S" type="float"/>
              <param name="T" type="float"/>
            </accessor>
          </technique_common>
        </source>
        <vertices id="Cube_001-mesh-vertices">
          <input semantic="POSITION" source="#Cube_001-mesh-positions"/>
        </vertices>
        <polylist material="PBRFULL_LabWall-material" count="502">
          <input semantic="VERTEX" source="#Cube_001-mesh-vertices" offset="0"/>
          <input semantic="NORMAL" source="#Cube_001-mesh-normals" offset="1"/>
          <input semantic="TEXCOORD" source="#Cube_001-mesh-map-0" offset="2" set="0"/>
          <vcount>3 3 3 3 3 3 3 3 3 3 3 3 3 3 3 3 3 3 3 3 3 3 3 3 3 3 3 3 3 3 3 3 3 3 3 3 3 3 3 3 3 3 3 3 3 3 3 3 3 3 3 3 3 3 3 3 3 3 3 3 3 3 3 3 3 3 3 3 3 3 3 3 3 3 3 3 3 3 3 3 3 3 3 3 3 3 3 3 3 3 3 3 3 3 3 3 3 3 3 3 3 3 3 3 3 3 3 3 3 3 3 3 3 3 3 3 3 3 3 3 3 3 3 3 3 3 3 3 3 3 3 3 3 3 3 3 3 3 3 3 3 3 3 3 3 3 3 3 3 3 3 3 3 3 3 3 3 3 3 3 3 3 3 3 3 3 3 3 3 3 3 3 3 3 3 3 3 3 3 3 3 3 3 3 3 3 3 3 3 3 3 3 3 3 3 3 3 3 3 3 3 3 3 3 3 3 3 3 3 3 3 3 3 3 3 3 3 3 3 3 3 3 3 3 3 3 3 3 3 3 3 3 3 3 3 3 3 3 3 3 3 3 3 3 3 3 3 3 3 3 3 3 3 3 3 3 3 3 3 3 3 3 3 3 3 3 3 3 3 3 3 3 3 3 3 3 3 3 3 3 3 3 3 3 3 3 3 3 3 3 3 3 3 3 3 3 3 3 3 3 3 3 3 3 3 3 3 3 3 3 3 3 3 3 3 3 3 3 3 3 3 3 3 3 3 3 3 3 3 3 3 3 3 3 3 3 3 3 3 3 3 3 3 3 3 3 3 3 3 3 3 3 3 3 3 3 3 3 3 3 3 3 3 3 3 3 3 3 3 3 3 3 3 3 3 3 3 3 3 3 3 3 3 3 3 3 3 3 3 3 3 3 3 3 3 3 3 3 3 3 3 3 3 3 3 3 3 3 3 3 3 3 3 3 3 3 3 3 3 3 3 3 3 3 3 3 3 3 3 3 3 3 3 3 3 3 3 3 3 3 3 3 3 3 3 3 3 3 3 3 3 3 3 3 3 3 3 3 3 3 3 3 3 3 3 3 3 3 3 3 3 3 3 3 3 3 3 3 3 3 3 3 3 3 3 3 3 3 3 3 3 3 3 3 3 3 3 3 3 3 3 3 </vcount>
          <p>0 0 0 1 0 1 2 0 2 3 1 3 0 1 4 2 1 5 0 2 6 4 2 7 1 2 8 3 3 9 2 3 10 5 3 11 6 4 12 0 4 13 3 4 14 7 2 15 4 2 16 0 2 17 4 2 18 8 2 19 1 2 20 9 5 21 3 5 22 5 5 23 10 6 24 6 6 25 3 6 26 6 2 27 7 2 28 0 2 29 7 2 30 11 2 31 4 2 32 4 2 33 12 2 34 8 2 35 9 7 36 5 7 37 13 7 38 10 8 39 3 8 40 9 8 41 14 9 42 6 9 43 10 9 44 15 2 45 7 2 46 6 2 47 16 2 48 11 2 49 7 2 50 11 2 51 12 2 52 4 2 53 12 2 54 17 2 55 8 2 56 18 10 57 9 10 58 13 10 59 19 11 60 10 11 61 9 11 62 20 5 63 14 5 64 10 5 65 14 2 66 15 2 67 6 2 68 15 2 69 16 2 70 7 2 71 16 2 72 21 2 73 11 2 74 11 2 75 22 2 76 12 2 77 12 2 78 23 2 79 17 2 80 18 12 81 13 12 82 24 12 83 19 13 84 9 13 85 18 13 86 20 14 87 10 14 88 19 14 89 25 15 90 14 15 91 20 15 92 26 2 93 15 2 94 14 2 95 27 2 96 16 2 97 15 2 98 28 2 99 21 2 100 16 2 101 21 2 102 22 2 103 11 2 104 22 2 105 23 2 106 12 2 107 23 2 108 29 2 109 17 2 110 30 16 111 18 16 112 24 16 113 31 17 114 19 17 115 18 17 116 32 18 117 20 18 118 19 18 119 33 19 120 25 19 121 20 19 122 25 2 123 26 2 124 14 2 125 26 2 126 27 2 127 15 2 128 27 2 129 28 2 130 16 2 131 28 2 132 34 2 133 21 2 134 21 2 135 35 2 136 22 2 137 22 2 138 36 2 139 23 2 140 23 2 141 37 2 142 29 2 143 30 5 144 24 5 145 38 5 146 31 20 147 18 20 148 30 20 149 32 21 150 19 21 151 31 21 152 33 22 153 20 22 154 32 22 155 39 23 156 25 23 157 33 23 158 40 2 159 26 2 160 25 2 161 41 2 162 27 2 163 26 2 164 42 2 165 28 2 166 27 2 167 43 2 168 34 2 169 28 2 170 34 24 171 35 24 172 21 24 173 35 2 174 36 2 175 22 2 176 36 25 177 37 25 178 23 25 179 37 26 180 44 26 181 29 26 182 45 5 183 30 5 184 38 5 185 46 5 186 31 5 187 30 5 188 47 27 189 32 27 190 31 27 191 48 28 192 33 28 193 32 28 194 49 29 195 39 29 196 33 29 197 39 2 198 40 2 199 25 2 200 40 2 201 41 2 202 26 2 203 41 2 204 42 2 205 27 2 206 42 2 207 43 2 208 28 2 209 43 2 210 50 2 211 34 2 212 34 30 213 51 30 214 35 30 215 35 31 216 52 31 217 36 31 218 36 32 219 53 32 220 37 32 221 37 33 222 54 33 223 44 33 224 45 5 225 38 5 226 55 5 227 46 5 228 30 5 229 45 5 230 47 34 231 31 34 232 46 34 233 48 35 234 32 35 235 47 35 236 49 36 237 33 36 238 48 36 239 56 37 240 39 37 241 49 37 242 57 2 243 40 2 244 39 2 245 58 2 246 41 2 247 40 2 248 59 2 249 42 2 250 41 2 251 60 2 252 43 2 253 42 2 254 61 2 255 50 2 256 43 2 257 50 38 258 51 38 259 34 38 260 51 39 261 52 39 262 35 39 263 52 40 264 53 40 265 36 40 266 53 41 267 54 41 268 37 41 269 54 2 270 62 2 271 44 2 272 63 5 273 45 5 274 55 5 275 64 5 276 46 5 277 45 5 278 65 42 279 47 42 280 46 42 281 66 43 282 48 43 283 47 43 284 67 44 285 49 44 286 48 44 287 68 5 288 56 5 289 49 5 290 56 2 291 57 2 292 39 2 293 57 2 294 58 2 295 40 2 296 58 2 297 59 2 298 41 2 299 59 2 300 60 2 301 42 2 302 60 2 303 61 2 304 43 2 305 61 2 306 69 2 307 50 2 308 50 45 309 70 45 310 51 45 311 51 46 312 71 46 313 52 46 314 52 47 315 72 47 316 53 47 317 53 48 318 73 48 319 54 48 320 54 2 321 74 2 322 62 2 323 63 5 324 55 5 325 75 5 326 64 5 327 45 5 328 63 5 329 65 5 330 46 5 331 64 5 332 66 49 333 47 49 334 65 49 335 67 50 336 48 50 337 66 50 338 68 5 339 49 5 340 67 5 341 76 5 342 56 5 343 68 5 344 77 2 345 57 2 346 56 2 347 78 2 348 58 2 349 57 2 350 79 2 351 59 2 352 58 2 353 80 2 354 60 2 355 59 2 356 81 2 357 61 2 358 60 2 359 82 51 360 69 51 361 61 51 362 69 2 363 70 2 364 50 2 365 70 52 366 71 52 367 51 52 368 71 53 369 72 53 370 52 53 371 72 54 372 73 54 373 53 54 374 73 38 375 74 38 376 54 38 377 74 55 378 83 55 379 62 55 380 84 5 381 63 5 382 75 5 383 85 5 384 64 5 385 63 5 386 86 5 387 65 5 388 64 5 389 87 5 390 66 5 391 65 5 392 88 5 393 67 5 394 66 5 395 89 5 396 68 5 397 67 5 398 90 5 399 76 5 400 68 5 401 76 2 402 77 2 403 56 2 404 77 2 405 78 2 406 57 2 407 78 2 408 79 2 409 58 2 410 79 2 411 80 2 412 59 2 413 80 2 414 81 2 415 60 2 416 81 56 417 82 56 418 61 56 419 82 38 420 91 38 421 69 38 422 69 57 423 92 57 424 70 57 425 70 52 426 93 52 427 71 52 428 71 58 429 94 58 430 72 58 431 72 2 432 95 2 433 73 2 434 73 59 435 96 59 436 74 59 437 74 55 438 97 55 439 83 55 440 75 60 441 98 60 442 84 60 443 85 5 444 63 5 445 84 5 446 86 5 447 64 5 448 85 5 449 87 5 450 65 5 451 86 5 452 88 5 453 66 5 454 87 5 455 89 5 456 67 5 457 88 5 458 90 5 459 68 5 460 89 5 461 91 61 462 92 61 463 69 61 464 92 56 465 93 56 466 70 56 467 93 62 468 94 62 469 71 62 470 94 2 471 95 2 472 72 2 473 95 2 474 96 2 475 73 2 476 96 63 477 97 63 478 74 63 479 97 64 480 99 64 481 83 64 482 98 60 483 100 60 484 84 60 485 101 5 486 85 5 487 84 5 488 102 5 489 86 5 490 85 5 491 103 5 492 87 5 493 86 5 494 104 5 495 88 5 496 87 5 497 105 5 498 89 5 499 88 5 500 106 5 501 90 5 502 89 5 503 91 2 504 107 2 505 92 2 506 92 65 507 108 65 508 93 65 509 93 66 510 109 66 511 94 66 512 94 2 513 110 2 514 95 2 515 95 67 516 111 67 517 96 67 518 96 68 519 112 68 520 97 68 521 97 69 522 113 69 523 99 69 524 98 70 525 114 70 526 100 70 527 84 71 528 100 71 529 101 71 530 102 5 531 85 5 532 101 5 533 103 5 534 86 5 535 102 5 536 104 5 537 87 5 538 103 5 539 105 5 540 88 5 541 104 5 542 106 5 543 89 5 544 105 5 545 107 72 546 108 72 547 92 72 548 108 73 549 109 73 550 93 73 551 109 2 552 110 2 553 94 2 554 110 74 555 111 74 556 95 74 557 111 74 558 112 74 559 96 74 560 112 75 561 113 75 562 97 75 563 113 31 564 115 31 565 99 31 566 114 76 567 116 76 568 100 76 569 100 77 570 117 77 571 101 77 572 118 5 573 102 5 574 101 5 575 119 5 576 103 5 577 102 5 578 120 5 579 104 5 580 103 5 581 121 5 582 105 5 583 104 5 584 122 5 585 106 5 586 105 5 587 107 66 588 123 66 589 108 66 590 108 2 591 124 2 592 109 2 593 109 2 594 125 2 595 110 2 596 110 78 597 126 78 598 111 78 599 111 2 600 127 2 601 112 2 602 112 79 603 128 79 604 113 79 605 113 80 606 129 80 607 115 80 608 116 81 609 114 81 610 130 81 611 100 82 612 116 82 613 117 82 614 101 60 615 117 60 616 118 60 617 119 5 618 102 5 619 118 5 620 120 5 621 103 5 622 119 5 623 121 5 624 104 5 625 120 5 626 122 5 627 105 5 628 121 5 629 123 2 630 124 2 631 108 2 632 124 2 633 125 2 634 109 2 635 125 68 636 126 68 637 110 68 638 126 2 639 127 2 640 111 2 641 127 2 642 128 2 643 112 2 644 128 83 645 129 83 646 113 83 647 129 84 648 131 84 649 115 84 650 116 85 651 130 85 652 132 85 653 114 81 654 133 81 655 130 81 656 116 86 657 132 86 658 117 86 659 117 87 660 134 87 661 118 87 662 135 5 663 119 5 664 118 5 665 136 5 666 120 5 667 119 5 668 137 5 669 121 5 670 120 5 671 138 5 672 122 5 673 121 5 674 123 88 675 139 88 676 124 88 677 124 88 678 140 88 679 125 88 680 125 88 681 141 88 682 126 88 683 126 88 684 142 88 685 127 88 686 143 88 687 127 88 688 144 88 689 145 88 690 128 88 691 146 88 692 147 88 693 148 88 694 129 88 695 130 89 696 150 89 697 132 89 698 130 60 699 133 60 700 151 60 701 117 86 702 132 86 703 134 86 704 118 90 705 134 90 706 135 90 707 136 5 708 119 5 709 135 5 710 137 5 711 120 5 712 136 5 713 138 5 714 121 5 715 137 5 716 139 88 717 140 88 718 124 88 719 140 88 720 141 88 721 125 88 722 141 88 723 142 88 724 126 88 725 152 88 726 153 88 727 127 88 728 146 60 729 143 60 730 155 60 731 146 88 732 128 88 733 143 88 734 147 88 735 129 88 736 145 88 737 159 91 738 160 91 739 154 91 740 160 88 741 131 88 742 149 88 743 130 92 744 151 92 745 150 92 746 132 93 747 150 93 748 162 93 749 133 60 750 163 60 751 151 60 752 132 60 753 162 60 754 134 60 755 134 60 756 164 60 757 135 60 758 165 5 759 136 5 760 135 5 761 166 5 762 137 5 763 136 5 764 167 5 765 138 5 766 137 5 767 139 88 768 168 88 769 140 88 770 141 88 771 140 88 772 169 88 773 141 88 774 169 88 775 142 88 776 142 88 777 171 88 778 152 88 779 173 94 780 171 94 781 174 94 782 154 95 783 175 95 784 176 95 785 175 88 786 155 88 787 173 88 788 173 2 789 181 2 790 182 2 791 185 88 792 186 88 793 157 88 794 186 88 795 159 88 796 158 88 797 159 88 798 161 88 799 160 88 800 151 60 801 187 60 802 150 60 803 150 60 804 188 60 805 162 60 806 151 96 807 163 96 808 189 96 809 134 60 810 162 60 811 164 60 812 135 60 813 164 60 814 165 60 815 166 5 816 136 5 817 165 5 818 167 5 819 137 5 820 166 5 821 168 97 822 190 97 823 140 97 824 140 88 825 190 88 826 169 88 827 169 88 828 170 88 829 142 88 830 171 88 831 170 88 832 174 88 833 191 98 834 172 98 835 170 98 836 179 88 837 192 88 838 180 88 839 192 88 840 181 88 841 180 88 842 181 88 843 193 88 844 182 88 845 193 88 846 183 88 847 182 88 848 183 88 849 185 88 850 184 88 851 185 88 852 194 88 853 186 88 854 151 93 855 189 93 856 187 93 857 150 60 858 187 60 859 188 60 860 162 60 861 188 60 862 195 60 863 163 99 864 196 99 865 189 99 866 162 60 867 195 60 868 164 60 869 164 100 870 197 100 871 165 100 872 198 5 873 166 5 874 165 5 875 199 5 876 167 5 877 166 5 878 168 101 879 200 101 880 190 101 881 169 88 882 190 88 883 201 88 884 169 102 885 201 102 886 170 102 887 201 103 888 191 103 889 170 103 890 191 88 891 202 88 892 192 88 893 193 104 894 192 104 895 203 104 896 185 88 897 193 88 898 204 88 899 185 88 900 204 88 901 194 88 902 189 105 903 205 105 904 187 105 905 187 106 906 206 106 907 188 106 908 188 107 909 207 107 910 195 107 911 189 60 912 196 60 913 208 60 914 164 60 915 195 60 916 197 60 917 165 108 918 197 108 919 198 108 920 199 5 921 166 5 922 198 5 923 200 109 924 209 109 925 190 109 926 190 110 927 209 110 928 201 110 929 201 88 930 210 88 931 191 88 932 210 88 933 202 88 934 191 88 935 202 88 936 211 88 937 192 88 938 193 88 939 203 88 940 204 88 941 192 111 942 211 111 943 203 111 944 204 88 945 212 88 946 194 88 947 189 60 948 208 60 949 205 60 950 187 112 951 205 112 952 206 112 953 188 113 954 206 113 955 207 113 956 195 114 957 207 114 958 213 114 959 196 60 960 214 60 961 208 60 962 195 86 963 213 86 964 197 86 965 197 60 966 215 60 967 198 60 968 216 5 969 199 5 970 198 5 971 200 115 972 217 115 973 209 115 974 201 88 975 209 88 976 210 88 977 210 116 978 218 116 979 202 116 980 202 88 981 219 88 982 211 88 983 204 88 984 203 88 985 220 88 986 203 117 987 211 117 988 221 117 989 204 88 990 220 88 991 212 88 992 208 118 993 222 118 994 205 118 995 205 119 996 223 119 997 206 119 998 206 120 999 224 120 1000 207 120 1001 207 121 1002 225 121 1003 213 121 1004 208 122 1005 214 122 1006 226 122 1007 197 60 1008 213 60 1009 215 60 1010 198 123 1011 215 123 1012 216 123 1013 217 124 1014 227 124 1015 209 124 1016 209 115 1017 227 115 1018 210 115 1019 210 125 1020 227 125 1021 218 125 1022 218 126 1023 219 126 1024 202 126 1025 219 88 1026 228 88 1027 211 88 1028 203 88 1029 221 88 1030 220 88 1031 211 127 1032 228 127 1033 221 127 1034 220 88 1035 229 88 1036 212 88 1037 208 128 1038 226 128 1039 222 128 1040 205 129 1041 222 129 1042 223 129 1043 206 130 1044 223 130 1045 224 130 1046 207 131 1047 224 131 1048 225 131 1049 213 132 1050 225 132 1051 230 132 1052 214 70 1053 231 70 1054 226 70 1055 213 133 1056 230 133 1057 215 133 1058 215 134 1059 232 134 1060 216 134 1061 217 88 1062 233 88 1063 227 88 1064 227 88 1065 234 88 1066 218 88 1067 218 135 1068 235 135 1069 219 135 1070 219 88 1071 236 88 1072 228 88 1073 220 88 1074 221 88 1075 237 88 1076 221 111 1077 228 111 1078 238 111 1079 220 88 1080 237 88 1081 229 88 1082 226 86 1083 239 86 1084 222 86 1085 222 60 1086 240 60 1087 223 60 1088 223 60 1089 241 60 1090 224 60 1091 224 60 1092 242 60 1093 225 60 1094 225 60 1095 243 60 1096 230 60 1097 226 136 1098 231 136 1099 244 136 1100 215 85 1101 230 85 1102 232 85 1103 233 137 1104 234 137 1105 227 137 1106 218 88 1107 234 88 1108 235 88 1109 235 103 1110 236 103 1111 219 103 1112 236 138 1113 245 138 1114 228 138 1115 221 88 1116 238 88 1117 237 88 1118 228 139 1119 245 139 1120 238 139 1121 237 88 1122 246 88 1123 229 88 1124 226 85 1125 244 85 1126 239 85 1127 222 60 1128 239 60 1129 240 60 1130 223 60 1131 240 60 1132 241 60 1133 224 60 1134 241 60 1135 247 60 1136 242 60 1137 224 60 1138 247 60 1139 225 60 1140 242 60 1141 243 60 1142 230 60 1143 243 60 1144 248 60 1145 231 140 1146 249 140 1147 244 140 1148 230 60 1149 248 60 1150 232 60 1151 233 115 1152 250 115 1153 234 115 1154 234 135 1155 251 135 1156 235 135 1157 235 88 1158 252 88 1159 236 88 1160 236 88 1161 253 88 1162 245 88 1163 237 141 1164 238 141 1165 254 141 1166 238 142 1167 245 142 1168 255 142 1169 237 88 1170 254 88 1171 246 88 1172 244 60 1173 256 60 1174 239 60 1175 239 60 1176 257 60 1177 240 60 1178 240 60 1179 258 60 1180 241 60 1181 247 60 1182 241 60 1183 259 60 1184 242 60 1185 247 60 1186 260 60 1187 242 60 1188 260 60 1189 243 60 1190 243 60 1191 261 60 1192 248 60 1193 244 60 1194 249 60 1195 254 60 1196 250 124 1197 251 124 1198 234 124 1199 235 143 1200 251 143 1201 252 143 1202 252 144 1203 253 144 1204 236 144 1205 253 88 1206 262 88 1207 245 88 1208 238 145 1209 255 145 1210 254 145 1211 245 126 1212 262 126 1213 255 126 1214 254 146 1215 263 146 1216 246 146 1217 244 60 1218 254 60 1219 256 60 1220 239 60 1221 256 60 1222 257 60 1223 240 60 1224 257 60 1225 258 60 1226 241 147 1227 258 147 1228 259 147 1229 247 60 1230 259 60 1231 264 60 1232 247 60 1233 265 60 1234 260 60 1235 243 60 1236 260 60 1237 261 60 1238 249 148 1239 263 148 1240 254 148 1241 250 88 1242 266 88 1243 251 88 1244 251 88 1245 267 88 1246 252 88 1247 268 149 1248 253 149 1249 252 149 1250 269 60 1251 262 60 1252 253 60 1253 254 60 1254 255 60 1255 256 60 1256 256 149 1257 255 149 1258 262 149 1259 256 60 1260 269 60 1261 257 60 1262 257 60 1263 270 60 1264 258 60 1265 259 60 1266 258 60 1267 271 60 1268 265 60 1269 247 60 1270 264 60 1271 264 60 1272 259 60 1273 272 60 1274 260 150 1275 265 150 1276 273 150 1277 260 123 1278 273 123 1279 261 123 1280 266 97 1281 267 97 1282 251 97 1283 274 60 1284 252 60 1285 267 60 1286 274 60 1287 268 60 1288 252 60 1289 268 60 1290 269 60 1291 253 60 1292 269 60 1293 256 60 1294 262 60 1295 257 60 1296 269 60 1297 268 60 1298 270 60 1299 257 60 1300 268 60 1301 258 151 1302 270 151 1303 271 151 1304 259 152 1305 271 152 1306 272 152 1307 265 60 1308 264 60 1309 275 60 1310 264 60 1311 272 60 1312 276 60 1313 265 153 1314 275 153 1315 273 153 1316 277 154 1317 267 154 1318 266 154 1319 277 60 1320 274 60 1321 267 60 1322 270 155 1323 268 155 1324 274 155 1325 271 60 1326 270 60 1327 274 60 1328 272 60 1329 271 60 1330 277 60 1331 264 60 1332 276 60 1333 275 60 1334 272 60 1335 278 60 1336 276 60 1337 279 60 1338 277 60 1339 266 60 1340 271 155 1341 274 155 1342 277 155 1343 272 60 1344 277 60 1345 278 60 1346 277 60 1347 279 60 1348 278 60 1349 175 2 1350 280 2 1351 176 2 1352 176 94 1353 283 94 1354 177 94 1355 177 60 1356 282 60 1357 178 60 1358 178 91 1359 281 91 1360 175 91 1361 143 88 1362 128 88 1363 127 88 1364 145 88 1365 129 88 1366 128 88 1367 131 88 1368 129 88 1369 148 88 1370 148 88 1371 149 88 1372 131 88 1373 127 88 1374 142 88 1375 152 88 1376 153 88 1377 144 88 1378 127 88 1379 155 60 1380 145 60 1381 146 60 1382 147 60 1383 145 60 1384 154 60 1385 154 60 1386 148 60 1387 147 60 1388 144 60 1389 153 60 1390 155 60 1391 145 60 1392 155 60 1393 154 60 1394 143 60 1395 144 60 1396 155 60 1397 148 91 1398 154 91 1399 149 91 1400 156 91 1401 157 91 1402 158 91 1403 158 91 1404 159 91 1405 156 91 1406 149 91 1407 154 91 1408 160 91 1409 156 91 1410 159 91 1411 154 91 1412 160 88 1413 161 88 1414 131 88 1415 142 88 1416 170 88 1417 171 88 1418 174 94 1419 172 94 1420 173 94 1421 173 156 1422 155 156 1423 171 156 1424 152 94 1425 171 94 1426 155 94 1427 155 94 1428 153 94 1429 152 94 1430 177 88 1431 156 88 1432 176 88 1433 154 157 1434 155 157 1435 175 157 1436 176 88 1437 156 88 1438 154 88 1439 173 88 1440 156 88 1441 178 88 1442 178 88 1443 175 88 1444 173 88 1445 156 158 1446 177 158 1447 178 158 1448 184 2 1449 157 2 1450 156 2 1451 156 2 1452 173 2 1453 183 2 1454 179 2 1455 180 2 1456 173 2 1457 173 2 1458 172 2 1459 179 2 1460 183 2 1461 184 2 1462 156 2 1463 180 2 1464 181 2 1465 173 2 1466 182 2 1467 183 2 1468 173 2 1469 157 88 1470 184 88 1471 185 88 1472 186 88 1473 158 88 1474 157 88 1475 186 88 1476 161 88 1477 159 88 1478 174 88 1479 170 88 1480 172 88 1481 191 159 1482 179 159 1483 172 159 1484 179 160 1485 191 160 1486 192 160 1487 192 104 1488 193 104 1489 181 104 1490 193 88 1491 185 88 1492 183 88 1493 175 2 1494 281 2 1495 280 2 1496 176 94 1497 280 94 1498 283 94 1499 177 60 1500 283 60 1501 282 60 1502 178 91 1503 282 91 1504 281 91 1505</p>
        </polylist>
      </mesh>
    </geometry>
  </library_geometries>
  <library_controllers/>
  <library_visual_scenes>
    <visual_scene id="Scene" name="Scene">
      <node id="Wand" name="Wand" type="NODE">
        <matrix sid="transform">2.523499 0 0 2.38419e-7 0 1.966499 0 1.19209e-7 0 0 1.290582 0 0 0 0 1</matrix>
        <instance_geometry url="#Cube_001-mesh" name="Wand">
          <bind_material>
            <technique_common>
              <instance_material symbol="PBRFULL_LabWall-material" target="#PBRFULL_LabWall-material"/>
            </technique_common>
          </bind_material>
        </instance_geometry>
      </node>
    </visual_scene>
  </library_visual_scenes>
  <scene>
    <instance_visual_scene url="#Scene"/>
  </scene>
</COLLADA>