<?xml version="1.0" encoding="utf-8"?>
<COLLADA xmlns="http://www.collada.org/2005/11/COLLADASchema" version="1.4.1">
  <asset>
    <contributor>
      <author>Blender User</author>
      <authoring_tool>Blender 2.77.0 commit date:2016-04-05, commit time:18:12, hash:abf6f08</authoring_tool>
    </contributor>
    <created>2017-03-06T17:16:19</created>
    <modified>2017-03-06T17:16:19</modified>
    <unit name="meter" meter="1"/>
    <up_axis>Z_UP</up_axis>
  </asset>
  <library_images>
    <image id="PBRFULL_Trashcan-material_Base_Color_jpg" name="PBRFULL_Trashcan-material_Base_Color_jpg">
      <init_from>PBRFULL_Trashcan-material_Base_Color.jpg</init_from>
    </image>
  </library_images>
  <library_effects>
    <effect id="PBRFULL_Trashcan-effect">
      <profile_COMMON>
        <newparam sid="PBRFULL_Trashcan-material_Base_Color_jpg-surface">
          <surface type="2D">
            <init_from>PBRFULL_Trashcan-material_Base_Color_jpg</init_from>
          </surface>
        </newparam>
        <newparam sid="PBRFULL_Trashcan-material_Base_Color_jpg-sampler">
          <sampler2D>
            <source>PBRFULL_Trashcan-material_Base_Color_jpg-surface</source>
          </sampler2D>
        </newparam>
        <technique sid="common">
          <phong>
            <emission>
              <color sid="emission">0 0 0 1</color>
            </emission>
            <ambient>
              <color sid="ambient">0 0 0 1</color>
            </ambient>
            <diffuse>
              <texture texture="PBRFULL_Trashcan-material_Base_Color_jpg-sampler"/>
            </diffuse>
            <specular>
              <color sid="specular">0.125 0.125 0.125 1</color>
            </specular>
            <shininess>
              <float sid="shininess">50</float>
            </shininess>
            <index_of_refraction>
              <float sid="index_of_refraction">1</float>
            </index_of_refraction>
          </phong>
        </technique>
      </profile_COMMON>
    </effect>
  </library_effects>
  <library_materials>
    <material id="PBRFULL_Trashcan-material" name="PBRFULL_Trashcan">
      <instance_effect url="#PBRFULL_Trashcan-effect"/>
    </material>
  </library_materials>
  <library_geometries>
    <geometry id="Cube_078-mesh" name="Cube.078">
      <mesh>
        <source id="Cube_078-mesh-positions">
          <float_array id="Cube_078-mesh-positions-array" count="168">1.000001 1.44434 -2.069359 1.000001 -1.444342 -2.069359 -0.9999986 -1.444342 -2.069359 -0.9999981 1.444341 -2.069359 1.25918 1.44434 1.443981 1.259179 -1.444343 1.443981 -1.259177 -1.444342 1.443981 -1.259176 1.44434 1.443981 1.05093 1.205465 1.443981 1.050928 -1.205469 1.443981 -1.050926 1.205466 1.443981 -1.050926 -1.205468 1.443981 0.8195753 0.9400911 -1.773626 0.8195744 -0.940094 -1.773626 -0.8195725 0.9400921 -1.773626 -0.8195725 -0.940094 -1.773626 1.390636 0.4814463 -2.069359 1.390636 -0.4814482 -2.069359 -1.390633 -0.4814472 -2.069359 -1.390633 0.4814463 -2.069359 1.751058 0.4814453 1.443981 1.751057 -0.4814491 1.443981 -1.751055 -0.4814472 1.443981 -1.751055 0.4814463 1.443981 1.461458 0.4018211 1.443981 1.461457 -0.401824 1.443981 -1.461455 -0.4018231 1.443981 -1.461455 0.4018211 1.443981 1.139729 0.3133621 -1.773626 1.139729 -0.3133659 -1.773626 -1.139727 -0.313365 -1.773626 -1.139726 0.3133631 -1.773626 1.048358 -1.20252 1.364344 -1.048356 -1.202519 1.364344 1.048359 1.202517 1.364344 -1.048356 1.202518 1.364344 -1.45788 0.4008389 1.364344 -1.45788 -0.4008408 1.364344 1.457883 -0.4008417 1.364344 1.457883 0.4008379 1.364344 1.36345 -0.374877 -1.828911 0.9804516 -1.124628 -1.828911 0.9804525 1.124625 -1.828911 -0.9804492 1.124626 -1.828911 -0.9804497 -1.124628 -1.828911 -1.363447 0.3748751 -1.828911 1.085297 -1.244892 1.419628 1.085299 1.244888 1.419628 1.36345 0.3748741 -1.828911 -1.363448 -0.374876 -1.828911 -1.50925 0.4149628 1.419628 -1.50925 -0.4149647 1.419628 1.509252 -0.4149647 1.419628 1.509253 0.4149618 1.419628 -1.085295 -1.244891 1.419628 -1.085295 1.244889 1.419628</float_array>
          <technique_common>
            <accessor source="#Cube_078-mesh-positions-array" count="56" stride="3">
              <param name="X" type="float"/>
              <param name="Y" type="float"/>
              <param name="Z" type="float"/>
            </accessor>
          </technique_common>
        </source>
        <source id="Cube_078-mesh-normals">
          <float_array id="Cube_078-mesh-normals-array" count="168">0.7004715 -0.1445683 -0.6988846 0.4257533 -0.6635037 -0.6152212 -0.4257533 -0.6635037 -0.6152212 -0.4420737 -0.6785686 0.5866136 0.4420737 -0.6785686 0.5866136 -0.2707649 0.4397488 0.8563337 0.7630277 -0.1807925 0.6205666 -0.7004715 0.1445683 -0.6988846 -0.7630277 0.1807925 0.6205666 -0.4420737 0.6785686 0.5866136 0.4257533 0.6635037 -0.6152212 -0.4257533 0.6635037 -0.6152212 0.7630277 0.1807925 0.6205666 0.4420737 0.6785686 0.5866136 -0.2707649 -0.4397488 0.8563337 -0.7630277 -0.1807925 0.6205666 0.2707649 0.4397488 0.8563337 0.2707649 -0.4397488 0.8563337 0.09280794 0.03412008 -0.9950993 0.2993637 0.5302116 -0.7932574 0.4875442 0.1147522 -0.8655245 0.09280794 -0.03412008 -0.9950993 0.2993637 -0.5302116 -0.7932574 -0.2993637 -0.5302116 -0.7932574 0.2564827 -0.06570768 -0.9643128 0.4875442 -0.1147522 -0.8655245 0.6105411 -0.1470425 0.7782148 0.6105411 0.1470425 0.7782148 -0.6105411 0.1470425 0.7782148 -0.6105411 -0.1470425 0.7782148 -0.7004746 -0.1445385 -0.6988877 0.7004715 0.1445683 -0.6988846 -0.2564827 -0.06570768 -0.9643128 -0.2564827 0.06570768 -0.9643128 -0.09280794 0.03412008 -0.9950993 0.2564827 0.06570768 -0.9643128 -0.09280794 -0.03412008 -0.9950993 -0.4875442 -0.1147522 -0.8655245 -0.2993637 0.5302116 -0.7932574 -0.4875442 0.1147522 -0.8655245 -0.06619608 -0.1391369 0.9880582 0.3731004 0.6246418 0.6860164 -0.3731004 0.6246418 0.6860164 0.1304686 -0.03054946 0.9909818 -0.1304686 -0.03054946 0.9909818 0.06619608 0.1391369 0.9880582 -0.3731004 -0.6246418 0.6860164 0.3731004 -0.6246418 0.6860164 -0.1304686 0.03054946 0.9909818 0.6473771 -0.1549164 0.7462599 0.6473771 0.1549164 0.7462599 0.06619608 -0.1391369 0.9880582 -0.6473771 0.1549164 0.7462599 -0.06619608 0.1391369 0.9880582 -0.6473771 -0.1549164 0.7462599 0.1304686 0.03054946 0.9909818</float_array>
          <technique_common>
            <accessor source="#Cube_078-mesh-normals-array" count="56" stride="3">
              <param name="X" type="float"/>
              <param name="Y" type="float"/>
              <param name="Z" type="float"/>
            </accessor>
          </technique_common>
        </source>
        <source id="Cube_078-mesh-map-0">
          <float_array id="Cube_078-mesh-map-0-array" count="648">0.7980561 0.5573564 0.8863179 0.5937619 0.8863179 0.7801539 0.3230434 0.2762557 0.3230434 0.04541528 0.3453055 0.06450426 0.3223869 0.3599361 3.85322e-4 0.3599361 3.28174e-4 0.2701983 0.3230434 0.5566999 0.3230434 0.3219992 0.6449892 0.3461536 3.28174e-4 0.1798039 0.3223298 0.1798039 0.322387 0.2695418 3.28174e-4 0.7506146 3.28174e-4 0.5642227 0.3222739 0.5400683 0.5025191 3.28174e-4 0.5922571 0.04541522 0.5699949 0.06450402 0.4127814 0.3213428 0.3230434 0.2762557 0.3453055 0.2571668 0.5922571 0.04541522 0.5922571 0.2762557 0.5699949 0.2571668 0.6039506 0.2349405 0.6088128 0.233022 0.6088128 0.3184467 0.907612 0.003714025 0.9126653 3.28174e-4 0.9126653 0.1992916 0.5929136 0.3165283 0.5929135 0.2340112 0.5977757 0.233022 0.5025193 0.3213428 0.4950985 0.2947972 0.5699949 0.2571668 0.4127814 0.3213428 0.420202 0.2947972 0.4950985 0.2947972 0.4127812 3.28286e-4 0.4202019 0.02687376 0.3453055 0.06450426 0.5025191 3.28174e-4 0.4950985 0.0268737 0.4202019 0.02687376 0.322387 3.28174e-4 0.3223298 0.09006607 3.28174e-4 0.09006613 0.3223298 0.09006607 0.3223298 0.1798039 3.28174e-4 0.1798039 3.2823e-4 0.539412 3.8535e-4 0.4496741 0.3223869 0.4496741 3.8535e-4 0.4496741 3.85322e-4 0.3599361 0.3223869 0.3599361 0.7097942 0.5573564 0.7097942 0.8165595 0.6215323 0.7801539 0.7097942 0.5573564 0.7980561 0.5573564 0.798056 0.8165595 0.8869743 0.7046855 0.8869744 0.6310208 0.8943967 0.6311109 0.8869743 0.7046855 0.8943966 0.7045955 0.894445 0.7780798 0.8914023 0.07399272 0.8988246 0.07408279 0.8988245 0.1475672 0.8914023 0.1476573 0.8988245 0.1475672 0.8988729 0.2210516 0.9025278 0.7500191 0.8951014 0.7497835 0.8951013 0.557592 0.8914023 0.07399272 0.8914508 3.28174e-4 0.8988729 5.98479e-4 0.8869744 0.6310208 0.8870229 0.5573564 0.894445 0.5576266 0.9069557 0.1929907 0.8995293 0.1927551 0.8995293 5.63748e-4 0.5984321 0.2349404 0.6032943 0.233022 0.6032943 0.3184467 0.9031841 0.5607423 0.9082374 0.5573564 0.9082374 0.7563196 0.6207901 0.2343167 0.6259363 0.233022 0.6259363 0.3090957 0.6094691 0.3165284 0.6094691 0.2340112 0.6143313 0.233022 0.6149876 0.2343167 0.6201338 0.233022 0.6201338 0.3090958 0.798056 0.8165595 0.7980561 0.5573564 0.8863179 0.7801539 0.3453055 0.2571668 0.3230434 0.2762557 0.3453055 0.06450426 0.3223415 0.2701983 0.3223869 0.3599361 3.28174e-4 0.2701983 0.6449892 0.5325456 0.3230434 0.5566999 0.6449892 0.3461536 3.73516e-4 0.2695419 3.28174e-4 0.1798039 0.322387 0.2695418 0.3222739 0.7747691 3.28174e-4 0.7506146 0.3222739 0.5400683 0.4950985 0.0268737 0.5025191 3.28174e-4 0.5699949 0.06450402 0.420202 0.2947972 0.4127814 0.3213428 0.3453055 0.2571668 0.5699949 0.06450402 0.5922571 0.04541522 0.5699949 0.2571668 0.6039506 0.3174576 0.6039506 0.2349405 0.6088128 0.3184467 0.907612 0.1959056 0.907612 0.003714025 0.9126653 0.1992916 0.5977757 0.3184467 0.5929136 0.3165283 0.5977757 0.233022 0.5922571 0.2762557 0.5025193 0.3213428 0.5699949 0.2571668 0.5025193 0.3213428 0.4127814 0.3213428 0.4950985 0.2947972 0.3230434 0.04541528 0.4127812 3.28286e-4 0.3453055 0.06450426 0.4127812 3.28286e-4 0.5025191 3.28174e-4 0.4202019 0.02687376 3.73544e-4 3.28188e-4 0.322387 3.28174e-4 3.28174e-4 0.09006613 3.28174e-4 0.09006613 0.3223298 0.09006607 3.28174e-4 0.1798039 0.3223415 0.5394119 3.2823e-4 0.539412 0.3223869 0.4496741 0.3223869 0.4496741 3.8535e-4 0.4496741 0.3223869 0.3599361 0.6215323 0.593762 0.7097942 0.5573564 0.6215323 0.7801539 0.7097942 0.8165595 0.7097942 0.5573564 0.798056 0.8165595 0.8943966 0.7045955 0.8869743 0.7046855 0.8943967 0.6311109 0.8870229 0.7783501 0.8869743 0.7046855 0.894445 0.7780798 0.8914023 0.1476573 0.8914023 0.07399272 0.8988245 0.1475672 0.8914508 0.2213219 0.8914023 0.1476573 0.8988729 0.2210516 0.9025278 0.5573564 0.9025278 0.7500191 0.8951013 0.557592 0.8988246 0.07408279 0.8914023 0.07399272 0.8988729 5.98479e-4 0.8943967 0.6311109 0.8869744 0.6310208 0.894445 0.5576266 0.9069557 3.28174e-4 0.9069557 0.1929907 0.8995293 5.63748e-4 0.598432 0.3174575 0.5984321 0.2349404 0.6032943 0.3184467 0.9031841 0.7529337 0.9031841 0.5607423 0.9082374 0.7563196 0.6207901 0.3078011 0.6207901 0.2343167 0.6259363 0.3090957 0.6143313 0.3184468 0.6094691 0.3165284 0.6143313 0.233022 0.6149876 0.3078012 0.6149876 0.2343167 0.6201338 0.3090958 0.523146 0.982474 0.5378925 0.9996718 0.3581501 0.9996716 0.3435503 0.9240653 0.5524924 0.9240654 0.523146 0.982474 0.3728967 0.8072481 0.3581501 0.7900503 0.5378926 0.7900503 0.5524923 0.8656568 0.5729994 0.8599241 0.5729994 0.929798 0.3728966 0.9824739 0.3581501 0.9996716 0.3230434 0.9297979 0.523146 0.982474 0.5524924 0.9240654 0.5729994 0.929798 0.3728967 0.8072481 0.5231461 0.8072481 0.5524923 0.8656568 0.5524923 0.8656568 0.5524924 0.9240654 0.3435503 0.9240653 0.2982808 0.9777159 3.28174e-4 0.9679447 3.28174e-4 0.7851966 0.3230434 0.6347021 0.3230926 0.5573564 0.6208758 0.5685645 0.5929135 0.07767391 0.5929627 3.28174e-4 0.8907459 0.01153618 0.9435981 0.5242899 0.6456456 0.5145187 0.6456456 0.3317705 0.5929135 0.1550198 0.8907014 0.1512838 0.8907459 0.2211576 0.5929135 0.1550198 0.5929135 0.07767391 0.8907014 0.08141005 0.3230434 0.712048 0.6208313 0.708312 0.6208758 0.7781859 0.3230434 0.6347021 0.6208314 0.6384382 0.6208313 0.708312 0.5231461 0.8072481 0.5378926 0.7900503 0.5729994 0.8599241 0.3728967 0.8072481 0.3435503 0.8656567 0.3230434 0.8599241 0.3435503 0.8656567 0.3435503 0.9240653 0.3230434 0.9297979 0.3728966 0.9824739 0.523146 0.982474 0.3581501 0.9996716 0.3728966 0.9824739 0.3435503 0.9240653 0.523146 0.982474 0.5231461 0.8072481 0.3728967 0.8072481 0.5378926 0.7900503 0.5524924 0.9240654 0.5524923 0.8656568 0.5729994 0.929798 0.3435503 0.9240653 0.3728966 0.9824739 0.3230434 0.9297979 0.5378925 0.9996718 0.523146 0.982474 0.5729994 0.929798 0.3435503 0.8656567 0.3728967 0.8072481 0.5524923 0.8656568 0.3435503 0.8656567 0.5524923 0.8656568 0.3435503 0.9240653 0.2982808 0.7754255 0.2982808 0.9777159 3.28174e-4 0.7851966 0.6208314 0.6384382 0.3230434 0.6347021 0.6208758 0.5685645 0.8907014 0.08141005 0.5929135 0.07767391 0.8907459 0.01153618 0.9435981 0.3219992 0.9435981 0.5242899 0.6456456 0.3317705 0.5929627 0.2323657 0.5929135 0.1550198 0.8907459 0.2211576 0.8907014 0.1512838 0.5929135 0.1550198 0.8907014 0.08141005 0.3230926 0.7893939 0.3230434 0.712048 0.6208758 0.7781859 0.3230434 0.712048 0.3230434 0.6347021 0.6208313 0.708312 0.5524923 0.8656568 0.5231461 0.8072481 0.5729994 0.8599241 0.3581501 0.7900503 0.3728967 0.8072481 0.3230434 0.8599241 0.3230434 0.8599241 0.3435503 0.8656567 0.3230434 0.9297979</float_array>
          <technique_common>
            <accessor source="#Cube_078-mesh-map-0-array" count="324" stride="2">
              <param name="S" type="float"/>
              <param name="T" type="float"/>
            </accessor>
          </technique_common>
        </source>
        <vertices id="Cube_078-mesh-vertices">
          <input semantic="POSITION" source="#Cube_078-mesh-positions"/>
        </vertices>
        <polylist material="PBRFULL_Trashcan-material" count="108">
          <input semantic="VERTEX" source="#Cube_078-mesh-vertices" offset="0"/>
          <input semantic="NORMAL" source="#Cube_078-mesh-normals" offset="1"/>
          <input semantic="TEXCOORD" source="#Cube_078-mesh-map-0" offset="2" set="0"/>
          <vcount>3 3 3 3 3 3 3 3 3 3 3 3 3 3 3 3 3 3 3 3 3 3 3 3 3 3 3 3 3 3 3 3 3 3 3 3 3 3 3 3 3 3 3 3 3 3 3 3 3 3 3 3 3 3 3 3 3 3 3 3 3 3 3 3 3 3 3 3 3 3 3 3 3 3 3 3 3 3 3 3 3 3 3 3 3 3 3 3 3 3 3 3 3 3 3 3 3 3 3 3 3 3 3 3 3 3 3 3 </vcount>
          <p>17 0 0 1 1 1 2 2 2 6 3 3 5 4 4 9 5 5 17 0 6 21 6 7 5 4 8 5 4 9 6 3 10 2 2 11 19 7 12 23 8 13 7 9 14 0 10 15 3 11 16 7 9 17 20 12 18 4 13 19 8 14 20 22 15 21 6 3 22 11 16 23 4 13 24 7 9 25 10 17 26 33 18 27 54 19 28 51 20 29 35 21 30 55 22 31 47 23 32 35 21 33 36 24 34 50 25 35 23 8 36 27 26 37 10 17 38 22 15 39 26 27 40 27 26 41 21 6 42 25 28 43 9 5 44 20 12 45 24 29 46 25 28 47 6 3 48 22 15 49 18 30 50 22 15 51 23 8 52 19 7 53 4 13 54 20 12 55 16 31 56 20 12 57 21 6 58 17 0 59 16 31 60 19 7 61 3 11 62 16 31 63 17 0 64 18 30 65 25 28 66 24 29 67 39 32 68 25 28 69 38 33 70 32 34 71 26 27 72 37 35 73 36 24 74 27 26 75 36 24 76 35 21 77 10 17 78 35 21 79 34 36 80 26 27 81 11 16 82 33 18 83 24 29 84 8 14 85 34 36 86 9 5 87 32 34 88 33 18 89 34 36 90 47 23 91 53 37 92 32 34 93 46 38 94 54 19 95 39 32 96 53 37 97 52 39 98 32 34 99 38 33 100 52 39 101 37 35 102 51 20 103 50 25 104 18 30 105 17 0 106 2 2 107 11 16 108 6 3 109 9 5 110 1 1 111 17 0 112 5 4 113 1 1 114 5 4 115 2 2 116 3 11 117 19 7 118 7 9 119 4 13 120 0 10 121 7 9 122 24 29 123 20 12 124 8 14 125 26 27 126 22 15 127 11 16 128 8 14 129 4 13 130 10 17 131 37 35 132 33 18 133 51 20 134 34 36 135 35 21 136 47 23 137 55 22 138 35 21 139 50 25 140 7 9 141 23 8 142 10 17 143 23 8 144 22 15 145 27 26 146 5 4 147 21 6 148 9 5 149 21 6 150 20 12 151 25 28 152 2 2 153 6 3 154 18 30 155 18 30 156 22 15 157 19 7 158 0 10 159 4 13 160 16 31 161 16 31 162 20 12 163 17 0 164 0 10 165 16 31 166 3 11 167 19 7 168 16 31 169 18 30 170 38 33 171 25 28 172 39 32 173 9 5 174 25 28 175 32 34 176 27 26 177 26 27 178 36 24 179 10 17 180 27 26 181 35 21 182 8 14 183 10 17 184 34 36 185 37 35 186 26 27 187 33 18 188 39 32 189 24 29 190 34 36 191 11 16 192 9 5 193 33 18 194 39 32 195 34 36 196 53 37 197 33 18 198 32 34 199 54 19 200 38 33 201 39 32 202 52 39 203 46 38 204 32 34 205 52 39 206 36 24 207 37 35 208 50 25 209 15 40 210 44 41 211 41 42 212 29 43 213 30 44 214 15 40 215 12 45 216 42 46 217 43 47 218 31 48 219 45 49 220 49 50 221 13 51 222 41 42 223 40 52 224 15 40 225 30 44 226 49 50 227 12 45 228 14 53 229 31 48 230 31 48 231 30 44 232 29 43 233 46 38 234 41 42 235 44 41 236 53 37 237 47 23 238 42 46 239 51 20 240 54 19 241 44 41 242 55 22 243 43 47 244 42 46 245 50 25 246 45 49 247 43 47 248 50 25 249 51 20 250 49 50 251 52 39 252 40 52 253 41 42 254 53 37 255 48 54 256 40 52 257 14 53 258 43 47 259 45 49 260 12 45 261 28 55 262 48 54 263 28 55 264 29 43 265 40 52 266 13 51 267 15 40 268 41 42 269 13 51 270 29 43 271 15 40 272 14 53 273 12 45 274 43 47 275 30 44 276 31 48 277 49 50 278 29 43 279 13 51 280 40 52 281 44 41 282 15 40 283 49 50 284 28 55 285 12 45 286 31 48 287 28 55 288 31 48 289 29 43 290 54 19 291 46 38 292 44 41 293 48 54 294 53 37 295 42 46 296 49 50 297 51 20 298 44 41 299 47 23 300 55 22 301 42 46 302 55 22 303 50 25 304 43 47 305 45 49 306 50 25 307 49 50 308 46 38 309 52 39 310 41 42 311 52 39 312 53 37 313 40 52 314 31 48 315 14 53 316 45 49 317 42 46 318 12 45 319 48 54 320 48 54 321 28 55 322 40 52 323</p>
        </polylist>
      </mesh>
    </geometry>
  </library_geometries>
  <library_controllers/>
  <library_visual_scenes>
    <visual_scene id="Scene" name="Scene">
      <node id="Mülleimer" name="Mülleimer" type="NODE">
        <matrix sid="transform">3.36162e-8 -0.1726499 0 0 0.1726499 3.36162e-8 0 1.19209e-7 0 0 0.1726499 0 0 0 0 1</matrix>
        <instance_geometry url="#Cube_078-mesh" name="Mülleimer">
          <bind_material>
            <technique_common>
              <instance_material symbol="PBRFULL_Trashcan-material" target="#PBRFULL_Trashcan-material"/>
            </technique_common>
          </bind_material>
        </instance_geometry>
      </node>
    </visual_scene>
  </library_visual_scenes>
  <scene>
    <instance_visual_scene url="#Scene"/>
  </scene>
</COLLADA>