<?xml version="1.0" encoding="utf-8"?>
<COLLADA xmlns="http://www.collada.org/2005/11/COLLADASchema" version="1.4.1">
  <asset>
    <contributor>
      <author>Blender User</author>
      <authoring_tool>Blender 2.78.0 commit date:2017-02-24, commit time:14:33, hash:e92f2352830</authoring_tool>
    </contributor>
    <created>2017-07-14T10:06:19</created>
    <modified>2017-07-14T10:06:19</modified>
    <unit name="meter" meter="1"/>
    <up_axis>Z_UP</up_axis>
  </asset>
  <library_images/>
  <library_effects>
    <effect id="Metall_Alu_013_001-effect">
      <profile_COMMON>
        <technique sid="common">
          <phong>
            <emission>
              <color sid="emission">0 0 0 1</color>
            </emission>
            <ambient>
              <color sid="ambient">0 0 0 1</color>
            </ambient>
            <diffuse>
              <color sid="diffuse">0.45 0.45 0.45 1</color>
            </diffuse>
            <specular>
              <color sid="specular">0.325 0.325 0.325 1</color>
            </specular>
            <shininess>
              <float sid="shininess">70</float>
            </shininess>
            <index_of_refraction>
              <float sid="index_of_refraction">1</float>
            </index_of_refraction>
          </phong>
        </technique>
      </profile_COMMON>
    </effect>
    <effect id="Kunststoff_druckteile_010_001-effect">
      <profile_COMMON>
        <technique sid="common">
          <phong>
            <emission>
              <color sid="emission">0 0 0 1</color>
            </emission>
            <ambient>
              <color sid="ambient">0 0 0 1</color>
            </ambient>
            <diffuse>
              <color sid="diffuse">0.5 0.5 0.5 1</color>
            </diffuse>
            <specular>
              <color sid="specular">0.5 0.5 0.5 1</color>
            </specular>
            <shininess>
              <float sid="shininess">50</float>
            </shininess>
            <index_of_refraction>
              <float sid="index_of_refraction">1</float>
            </index_of_refraction>
          </phong>
        </technique>
      </profile_COMMON>
    </effect>
    <effect id="Gummi_014_001-effect">
      <profile_COMMON>
        <technique sid="common">
          <phong>
            <emission>
              <color sid="emission">0 0 0 1</color>
            </emission>
            <ambient>
              <color sid="ambient">0 0 0 1</color>
            </ambient>
            <diffuse>
              <color sid="diffuse">0.1 0.1 0.1 1</color>
            </diffuse>
            <specular>
              <color sid="specular">0.025 0.025 0.025 1</color>
            </specular>
            <shininess>
              <float sid="shininess">50</float>
            </shininess>
            <index_of_refraction>
              <float sid="index_of_refraction">1</float>
            </index_of_refraction>
          </phong>
        </technique>
      </profile_COMMON>
    </effect>
  </library_effects>
  <library_materials>
    <material id="Metall_Alu_013_001-material" name="Metall_Alu_013_001">
      <instance_effect url="#Metall_Alu_013_001-effect"/>
    </material>
    <material id="Kunststoff_druckteile_010_001-material" name="Kunststoff_druckteile_010_001">
      <instance_effect url="#Kunststoff_druckteile_010_001-effect"/>
    </material>
    <material id="Gummi_014_001-material" name="Gummi_014_001">
      <instance_effect url="#Gummi_014_001-effect"/>
    </material>
  </library_materials>
  <library_geometries>
    <geometry id="Circle_015-mesh" name="Circle.015">
      <mesh>
        <source id="Circle_015-mesh-positions">
          <float_array id="Circle_015-mesh-positions-array" count="1743">0.002311646 -1.20954e-4 -0.00791651 0.002044081 -0.001083493 -0.007910132 0.001345753 -0.001885473 -0.007914841 4.22204e-4 -0.002276659 -0.007912933 -6.05544e-4 -0.002243578 -0.007896184 -0.001548349 -0.001726031 -0.007921397 -0.002133429 -9.23671e-4 -0.007902503 -0.002321183 1.28998e-4 -0.007916271 -0.002051651 0.001090586 -0.007908463 -0.001354098 0.001891732 -0.007912278 -4.33381e-4 0.002283751 -0.007909297 5.94999e-4 0.002249956 -0.00789386 0.001537263 0.001732289 -0.007919073 0.002123534 9.31915e-4 -0.007901847 0.002507865 -1.09001e-4 -0.005993306 0.002218425 -0.001192986 -0.00599277 0.00147891 -0.002039194 -0.005992412 4.45463e-4 -0.002480745 -0.005992293 -6.77243e-4 -0.0024302 -0.005992472 -0.001666784 -0.001897454 -0.005992889 -0.002327263 -9.88198e-4 -0.005993425 -0.002527773 1.17618e-4 -0.005994081 -0.002228617 0.001200914 -0.005994617 -0.001489102 0.002047121 -0.005994975 -4.5566e-4 0.002488672 -0.005995035 6.67043e-4 0.002438127 -0.005994915 0.001656591 0.001905381 -0.005994498 0.00231707 9.9613e-4 -0.005993902 0.007348835 -0.003340959 -0.00578612 0.005759596 -0.003266334 -0.005791187 0.003603458 -0.004963994 -0.005787491 0.001087248 -0.006023824 -0.005771517 -0.001633942 -0.005898296 -0.005766868 -0.003785192 -0.004769861 -0.005791604 -0.006182372 -0.002456307 -0.005793154 -0.006059169 2.76761e-4 -0.005794584 -0.005876481 0.004332125 -0.00579673 -0.003641664 0.004139661 -0.005796372 -0.001191675 0.004029273 -0.005796015 0.001538753 0.00390625 -0.005795598 0.007662951 0.00363034 -0.005794644 0.007572233 0.001616835 -0.005793571 -0.004291474 -0.005460739 -0.00522691 -0.004325687 -0.005500257 -0.004016816 0.004691243 -0.005616068 -0.004795849 0.003540635 -0.005947649 -0.005234122 0.00102365 -0.006891965 -0.005259692 -0.001648366 -0.006765842 -0.005262315 0.007045984 -0.005880236 -0.004312098 0.003558397 -0.005979716 -0.003990054 0.001024544 -0.006895065 -0.003989875 -0.00165075 -0.006774961 -0.003990292 0.004685103 -0.0056535 -0.003923773 0.005477011 -0.00585097 -0.004383742 0.005758643 -0.006296157 -0.0023247 0.006911933 -0.007555902 -0.001595497 0.006912171 -0.00755614 -7.14178e-4 0.01150321 -0.007765591 -0.001560688 0.009193718 -0.007662653 -0.001589417 0.01034855 -0.007714331 -0.001588165 0.008038818 -0.007611036 -0.001590609 0.01147538 -0.006344318 -0.004451632 0.008704006 -0.006194174 -0.004101455 0.01022344 -0.006192088 -0.004221141 -0.006550371 -0.002421319 -0.005214452 0.01193463 0.003685176 -0.005820035 0.01145601 -0.005312085 -0.005789339 0.01423162 -7.01574e-4 -0.008986353 0.01410704 -0.003455698 -0.008520662 0.01400232 -0.005793035 -0.00725919 0.01390326 -0.007992744 -0.004987597 0.01385056 -0.009164512 -0.00277847 0.01819443 0.008378684 -0.00539571 0.018444 0.00970447 -0.002809345 0.01740956 -0.00893408 -0.003545522 0.01747876 -0.007496118 -0.005942225 0.01754856 -0.005947768 -0.007338404 0.01766258 -0.003420054 -0.008593201 0.01778727 -6.46311e-4 -0.008990943 0.01470947 0.009901404 -0.002821266 0.01464915 0.008544027 -0.005402445 0.01455616 0.006498098 -0.007372677 0.01444077 0.003952801 -0.008600831 0.01810234 0.006344199 -0.007371127 0.01897919 0.004023194 -0.008638501 0.02033501 -0.008858561 -0.0034886 0.0204131 -0.007619619 -0.005937874 0.020473 -0.006110012 -0.007319509 0.02029365 -0.004433572 -0.008267045 0.02009832 0.009106814 -0.005334734 0.02051985 0.0103864 -0.002901852 0.01953977 0.007182955 -0.007233798 0.01881837 0.004690825 -0.008399903 0.02545821 0.01023679 -0.004303514 0.02599149 0.01060688 -0.002786755 0.02490621 0.009154975 -0.005495369 0.02444583 0.008072674 -0.006925404 0.03121644 0.01010227 -0.003828287 0.03124958 0.01067376 -0.002251803 0.03062093 0.009564459 -0.004915237 0.03040474 0.008919358 -0.005780875 0.03564679 0.009605228 -0.00356096 0.03572297 0.009973108 -0.002513587 0.0353623 0.009174942 -0.004493534 0.03520739 0.008697688 -0.00526303 0.03811651 0.009001255 -0.003944873 0.03797668 0.0095492 -0.002652764 0.0382362 0.008434891 -0.004888713 0.0384438 0.007730722 -0.00574696 0.01911991 0.00366348 -0.008734345 0.02478003 0.006656527 -0.007677078 0.0305491 0.007805645 -0.006879925 0.03532606 0.007695853 -0.00636363 0.03857934 0.007077515 -0.006421148 0.02370303 -0.008767426 -0.003435075 0.02377289 -0.007556676 -0.005815148 0.02385509 -0.006456077 -0.007154941 0.02363139 -0.005708754 -0.007682204 0.0288403 -0.008638978 -0.003323316 0.02888387 -0.007460892 -0.005628407 0.02890378 -0.006865441 -0.0064013 0.02885138 -0.006318151 -0.007007241 0.0340538 -0.008504509 -0.003221213 0.03404468 -0.008196234 -0.003974735 0.03407591 -0.007062792 -0.005846738 0.03410553 -0.006368517 -0.00661993 0.04150217 -0.008433997 -0.002702713 0.0415399 -0.007633805 -0.004508852 0.04157638 -0.006783366 -0.00573033 0.04161322 -0.00601381 -0.006485044 0.0389139 0.008565723 -0.003892779 0.038935 0.009045422 -0.002724468 0.03889203 0.00807029 -0.004741609 0.03886502 0.007458746 -0.00553888 0.03883755 0.006837546 -0.006335914 0.04080402 0.00830084 -0.003882229 0.04082548 0.008788168 -0.002720057 0.04078203 0.007802665 -0.004724502 0.04075628 0.007219672 -0.005541205 0.04040133 0.006363987 -0.006491839 0.04516124 0.008122384 -0.003881812 0.0451821 0.008584856 -0.002714812 0.04513972 0.007646799 -0.004748284 0.0451135 0.007066011 -0.005574047 0.04507201 0.006153583 -0.006491124 0.04441004 -0.008555531 -0.002702474 0.04444581 -0.007760524 -0.004503786 0.04448395 -0.006911277 -0.00572431 0.04451304 -0.006257772 -0.006433904 0.04742729 0.006141185 -0.006374716 0.0468629 -0.006329059 -0.006360292 0.04839545 0.005609214 -0.006088435 0.04835301 -0.00555551 -0.006352365 0.05023533 0.002524435 -0.006294906 0.05006653 -0.003857731 -0.006382644 0.05126065 7.8465e-4 -0.006371676 0.05104297 -0.001378893 -0.0062927 0.04669183 0.008561313 -0.002573609 0.04648727 -0.008705019 -0.002513051 0.0492441 0.007653295 -0.002569556 0.0485177 -0.008041262 -0.002468585 0.05183947 0.005219876 -0.002573549 0.05132651 -0.005877792 -0.0024634 0.05310088 0.001197397 -0.002614319 0.05295908 -0.001996874 -0.002604305 0.0504958 -0.002037942 -0.006295025 0.05093735 0.00152558 -0.006487905 0.05285662 -0.003252267 -0.00260502 0.0531252 0.002459526 -0.002629041 0.04669886 0.008714735 -0.001991868 0.04504132 -0.007787048 -0.004503548 0.04575568 -0.00696814 -0.005723655 0.04667812 -0.008714616 -0.001900851 0.04926234 0.00768429 -0.002001702 0.04941791 -0.007536292 -0.001951456 0.05179399 0.005187869 -0.001989841 0.05131524 -0.005873441 -0.00201863 0.0530287 0.001200675 -0.001987516 0.05288416 -0.001993417 -0.001985847 0.05282735 -0.00324887 -0.001985192 0.0530855 0.002456188 -0.001988172 0.04611444 0.008086442 -0.003868043 0.04929405 3.76704e-6 -0.001703023 0.04582524 0.007616102 -0.004748582 0.04624426 0.007014989 -0.005574882 0.0117318 -5.8625e-4 -0.008952021 0.01179569 -0.003355205 -0.00852853 0.01168972 -0.005732774 -0.007324218 0.01407819 0.009929716 -0.002821683 0.01199585 0.008467018 -0.005663037 0.01292961 0.006465852 -0.007455289 0.01215845 0.003775417 -0.008689105 0.01154482 -0.003341257 -0.005790412 0.01166892 -5.86671e-4 -0.005791842 0.01150494 -0.007944881 -0.005035281 0.01135736 -0.009054422 -0.002780854 0.01158863 -0.009377002 -0.001586794 0.0463503 -1.08158e-4 -0.008923292 0.04611843 -8.81607e-4 -0.00890851 0.04554438 -0.001483619 -0.008904099 0.04480308 -0.001785457 -0.008896887 0.04400974 -0.001749634 -0.008874237 0.04331189 -0.001344978 -0.008881092 0.04285275 -7.11263e-4 -0.008881747 0.04268717 6.6867e-5 -0.008877277 0.0428813 8.29392e-4 -0.0088858 0.04341822 0.001455485 -0.00890088 0.04415524 0.001784741 -0.008913993 0.04495412 0.001786708 -0.008922696 0.04570937 0.001374781 -0.008933484 0.04618543 7.20141e-4 -0.008934736 0.04648017 -3.87187e-4 -0.005608618 0.0462535 -9.82428e-4 -0.005830407 0.04568314 -0.00124824 -0.005513012 0.04445201 -0.001976311 -0.005783736 0.04317641 -0.001134335 -0.005537211 0.04263085 -8.241e-4 -0.005828261 0.04246002 -1.92562e-4 -0.005598306 0.04271084 9.50192e-4 -0.005256116 0.04329121 0.001426458 -0.005199134 0.04462605 0.001943349 -0.005784511 0.04462605 0.001943349 -0.005784511 0.04579675 0.001284182 -0.005198061 0.04633712 8.6941e-4 -0.005268216 0.01047664 -0.003441631 -0.005790472 -0.006575047 -0.002387106 -0.004908084 -0.006494581 2.96344e-4 -0.005103707 -0.007634997 0.003714978 -0.00287038 -0.005817651 0.005637884 -0.005797445 -0.004755854 0.005590021 -0.005797266 -0.00571829 0.007398486 -0.005787134 -0.004676342 0.00735569 -0.00579822 -0.003774642 0.008570432 -0.00578463 0.01205235 0.008019804 -0.005796432 -0.00196886 0.009116291 -0.005798816 -0.001991331 0.008617639 -0.005798578 4.23442e-4 0.009377241 -0.005798637 3.84405e-4 0.008510589 -0.005798161 0.002793133 0.008901774 -0.005798101 0.002770662 0.008403122 -0.005797803 0.00425291 0.008336305 -0.005797564 -0.003645718 0.004113078 -0.001496434 0.004843533 0.009058415 -0.005342006 -0.00569427 0.008375644 -0.00509262 0.003082573 0.009850025 -0.005224645 -0.003899097 0.009579241 -0.005153179 -0.002120852 0.01013058 -0.005180954 2.29703e-4 0.01015442 -0.00510466 -0.006547033 0.009127795 -0.003148794 -0.007527112 0.005714833 -0.002904415 -0.007395148 0.007471084 -0.002905786 -0.00475341 0.01045876 -0.003210723 -0.003056645 0.01097208 -0.003231048 0.01163578 0.009979605 -0.002974629 0.004523634 0.01057308 -0.002993226 0.002875149 0.0107221 -0.003183722 1.38282e-4 0.01088505 -0.003001809 -0.001999199 0.01127171 -0.001398444 0.003366947 0.01099592 -0.001221895 -0.001195669 0.00400269 -0.001496076 0.0015347 0.003879725 -0.001495659 0.007658958 0.003603816 -0.001494705 0.01189249 0.003678798 -0.001519083 -0.004771471 0.00515598 -0.002112746 -0.004662632 0.007629096 -0.002202451 -0.003773987 0.008525848 -0.001519441 0.01195389 0.007843673 -0.001520097 -0.001994907 0.008599877 -0.001519381 3.8095e-4 0.008494377 -0.001519381 0.002767324 0.0083884 -0.001519381 0.004249632 0.008322596 -0.001519381 0.002311646 -1.20958e-4 0.00791651 0.002044081 -0.001083493 0.007910132 0.001345753 -0.001885473 0.007914781 4.22199e-4 -0.002276659 0.007912933 -6.05551e-4 -0.002243578 0.007896184 -0.001548349 -0.001726031 0.007921397 -0.002133429 -9.23673e-4 0.007902443 -0.002321243 1.28994e-4 0.007916271 -0.002051651 0.001090586 0.007908403 -0.001354098 0.001891732 0.007912218 -4.33384e-4 0.002283692 0.007909238 5.94995e-4 0.002249956 0.00789386 0.001537263 0.001732289 0.007919073 0.002123534 9.31913e-4 0.007901847 0.002507865 -1.09003e-4 0.005993306 0.002218425 -0.001192986 0.00599271 0.00147891 -0.002039194 0.005992352 4.45459e-4 -0.002480745 0.005992293 -6.77246e-4 -0.0024302 0.005992472 -0.001666784 -0.001897454 0.005992829 -0.002327263 -9.882e-4 0.005993425 -0.002527773 1.17616e-4 0.005994021 -0.002228617 0.001200914 0.005994617 -0.001489102 0.002047121 0.005994975 -4.55664e-4 0.002488672 0.005995035 6.67039e-4 0.002438127 0.005994856 0.001656591 0.001905381 0.005994439 0.002317011 9.96128e-4 0.005993902 0.007348835 -0.003340959 0.00578612 0.005759596 -0.003266334 0.005791187 0.003603458 -0.004963994 0.005787491 0.001087248 -0.006023824 0.005771458 -0.001633942 -0.005898296 0.005766808 -0.003785192 -0.004769861 0.005791604 -0.006182372 -0.002456307 0.005793154 -0.006059169 2.76759e-4 0.005794584 -0.005876481 0.004332125 0.00579673 -0.003641724 0.004139661 0.005796372 -0.001191675 0.004029273 0.005795955 0.001538693 0.00390625 0.005795538 0.007662951 0.00363034 0.005794644 0.007572233 0.001616835 0.005793571 -0.004291474 -0.005460739 0.00522691 -0.004325687 -0.005500257 0.004016816 0.004691243 -0.005616068 0.004795849 0.003540635 -0.005947649 0.005234122 0.00102365 -0.006891965 0.005259692 -0.001648366 -0.006765842 0.005262315 0.007045984 -0.005880236 0.004312098 0.003558397 -0.005979716 0.003990054 0.001024544 -0.006895065 0.003989875 -0.00165075 -0.006774961 0.003990292 0.004685103 -0.0056535 0.003923714 0.005477011 -0.00585097 0.004383742 0.005758643 -0.006296157 0.0023247 0.006911933 -0.007555902 0.001595497 0.006912171 -0.00755614 7.14165e-4 0.006182193 -0.006758213 0 0.006912171 -0.00755614 0 0.01150321 -0.007765591 0.001560688 0.01150351 -0.007764399 0 0.009193718 -0.007662653 0.001589357 0.01034855 -0.007714331 0.001588165 0.008038818 -0.007611036 0.001590609 0.01147538 -0.006344318 0.004451632 0.008704006 -0.006194174 0.004101455 0.01022344 -0.006192088 0.004221141 -0.006550371 -0.002421379 0.005214452 0.01193463 0.003685176 0.005819976 0.01145601 -0.005312085 0.005789339 0.01423156 -7.01578e-4 0.008986353 0.01410704 -0.003455698 0.008520662 0.01400232 -0.005793035 0.00725919 0.01390326 -0.007992744 0.004987597 0.01385056 -0.009164512 0.00277841 0.01383012 -0.009618282 0 0.01819443 0.008378684 0.00539571 0.018444 0.00970447 0.002809345 0.01827591 0.01020175 0 0.01738256 -0.009507894 0 0.01740956 -0.00893408 0.003545522 0.01747876 -0.007496118 0.005942225 0.01754856 -0.005947768 0.007338404 0.01766258 -0.003420054 0.008593201 0.01778727 -6.46315e-4 0.008990943 0.01473009 0.01036018 0 0.01470947 0.009901404 0.002821266 0.01464915 0.008544027 0.005402445 0.01455616 0.006498098 0.007372677 0.01444077 0.003952801 0.008600831 0.01810234 0.006344199 0.007371127 0.01897919 0.004023194 0.008638501 0.02031278 -0.009424507 0 0.02033501 -0.008858561 0.0034886 0.0204131 -0.007619619 0.005937814 0.020473 -0.006110012 0.007319509 0.02029365 -0.004433572 0.008267045 0.02009832 0.009106814 0.005334734 0.02051985 0.0103864 0.002901852 0.02063208 0.01085513 0 0.01953977 0.007182955 0.007233798 0.01881837 0.004690825 0.008399903 0.02545821 0.01023679 0.004303514 0.02599149 0.01060688 0.002786755 0.02601218 0.01108258 0 0.02490621 0.009154975 0.005495369 0.02444583 0.008072674 0.006925404 0.03121644 0.01010227 0.003828287 0.03124958 0.01067376 0.002251803 0.03126257 0.01097404 0 0.03062093 0.009564459 0.004915237 0.03040468 0.008919358 0.005780875 0.03564679 0.009605228 0.00356096 0.03572297 0.009973108 0.002513587 0.03573918 0.01034718 0 0.0353623 0.009174883 0.004493534 0.03520739 0.008697688 0.00526303 0.03811651 0.009001255 0.003944933 0.03797668 0.0095492 0.002652764 0.03785622 0.00998491 0 0.03823614 0.008434891 0.004888713 0.0384438 0.007730722 0.00574696 0.01911985 0.00366342 0.008734345 0.02478003 0.006656527 0.007677078 0.0305491 0.007805645 0.006879925 0.03532606 0.007695853 0.00636363 0.03857934 0.007077515 0.006421148 0.02367639 -0.009328842 0 0.02370297 -0.008767426 0.003435015 0.02377289 -0.007556676 0.005815148 0.02385509 -0.006456077 0.007154941 0.02363139 -0.005708754 0.007682204 0.02882999 -0.009182155 0 0.0288403 -0.008638978 0.003323316 0.02888387 -0.007460892 0.005628407 0.02890378 -0.006865441 0.0064013 0.02885138 -0.006318151 0.007007241 0.03403133 -0.009034097 0 0.0340538 -0.008504509 0.003221213 0.03404468 -0.008196234 0.003974735 0.03407591 -0.007062792 0.005846738 0.03410553 -0.006368517 0.00661993 0.0414831 -0.008856475 0 0.04150217 -0.008433997 0.002702713 0.0415399 -0.007633805 0.004508852 0.04157638 -0.006783366 0.00573033 0.04161322 -0.00601381 0.006485044 0.0389139 0.008565723 0.003892779 0.038935 0.009045422 0.002724468 0.03890758 0.009554445 0 0.03889203 0.00807029 0.004741609 0.03886502 0.007458746 0.00553888 0.03883755 0.006837546 0.006335914 0.04080402 0.00830084 0.003882229 0.04082548 0.008788168 0.002720057 0.04078108 0.009324073 0 0.04078203 0.007802665 0.004724562 0.04075628 0.007219672 0.005541205 0.04040133 0.006363987 0.006491839 0.04516124 0.008122384 0.003881812 0.0451821 0.008584856 0.002714872 0.04519712 0.009003877 0 0.04513972 0.007646799 0.004748344 0.0451135 0.007066011 0.005574047 0.04507201 0.006153583 0.006491124 0.04438972 -0.008970737 0 0.04441004 -0.008555531 0.002702474 0.04444581 -0.007760524 0.004503846 0.04448395 -0.006911277 0.00572431 0.04451298 -0.006257772 0.006433904 0.04742729 0.006141185 0.006374716 0.0468629 -0.006329059 0.006360292 0.04839545 0.005609214 0.006088435 0.04835301 -0.00555551 0.006352365 0.05023533 0.002524435 0.006294906 0.05006653 -0.003857731 0.006382644 0.05126065 7.84649e-4 0.006371736 0.05104297 -0.001378893 0.0062927 0.04669183 0.008561313 0.002573609 0.04648727 -0.008705019 0.002513051 0.0492441 0.007653295 0.002569615 0.0485177 -0.008041262 0.002468585 0.05183947 0.005219876 0.002573549 0.05132651 -0.005877792 0.0024634 0.05310088 0.001197397 0.002614319 0.05295908 -0.001996874 0.002604365 0.05049574 -0.002037942 0.006295025 0.05093735 0.00152558 0.006487905 0.05285662 -0.003252267 0.00260502 0.0531252 0.002459526 0.002629101 0.04669886 0.008714735 0.001991868 0.04504132 -0.007787048 0.004503548 0.04575568 -0.00696814 0.005723655 0.04495728 -0.008962333 0 0.04667812 -0.008714616 0.001900851 0.04926234 0.00768429 0.002001702 0.04941791 -0.007536292 0.001951456 0.05179399 0.005187869 0.001989841 0.05131524 -0.005873441 0.00201863 0.0530287 0.001200675 0.001987576 0.05288416 -0.001993417 0.001985847 0.05282735 -0.00324887 0.001985192 0.0530855 0.002456188 0.001988232 0.04649275 -0.008757591 0 0.04937988 -0.007559299 0 0.04669958 0.008765041 0 0.04926276 0.007685005 0 0.04611444 0.008086442 0.003868103 0.04929405 3.76513e-6 0.001703023 0.04582524 0.007616102 0.004748582 0.04624426 0.007014989 0.005574882 0.04929792 9.75248e-5 0 0.01173174 -5.86254e-4 0.008952021 0.01179569 -0.003355205 0.00852853 0.01168972 -0.005732774 0.007324218 0.01407819 0.009929716 0.002821683 0.01199585 0.008467018 0.005663037 0.01292961 0.006465852 0.007455229 0.01215845 0.003775417 0.008689105 0.01154482 -0.003341257 0.005790412 0.01166886 -5.86673e-4 0.005791842 0.01150494 -0.007944881 0.005035281 0.01135736 -0.009054422 0.002780854 0.01158863 -0.009377002 0.001586794 0.0463503 -1.0816e-4 0.008923292 0.04611843 -8.81611e-4 0.00890851 0.04554438 -0.001483619 0.008904099 0.04480308 -0.001785457 0.008896887 0.04400974 -0.001749634 0.008874297 0.04331189 -0.001344978 0.008881092 0.04285275 -7.11266e-4 0.008881747 0.04268717 6.68649e-5 0.008877277 0.0428813 8.29391e-4 0.0088858 0.04341816 0.001455426 0.00890088 0.04415524 0.001784741 0.008913993 0.04495406 0.001786708 0.008922696 0.04570937 0.001374781 0.008933484 0.04618543 7.20137e-4 0.008934795 0.04648017 -3.87189e-4 0.005608618 0.0462535 -9.82429e-4 0.005830407 0.04568314 -0.00124824 0.005513012 0.04445201 -0.001976311 0.005783736 0.001550436 0.01119595 0 0.04317641 -0.001134335 0.005537211 0.04263085 -8.24102e-4 0.005828261 0.04246002 -1.92564e-4 0.005598306 0.04271084 9.50192e-4 0.005256116 0.04329121 0.001426458 0.005199193 0.04462605 0.001943349 0.005784511 0.04462605 0.001943349 0.005784511 0.04579675 0.001284182 0.005198061 0.04633712 8.6941e-4 0.005268216 0.01047664 -0.003441631 0.005790472 -0.006575047 -0.002387106 0.004908084 -0.006494581 2.96342e-4 0.005103647 -0.007634997 0.003714978 0.002870321 -0.005817651 0.005637884 0.005797445 -0.004755914 0.005590021 0.005797266 -0.00571829 0.007398486 0.005787134 -0.004676342 0.00735569 0.00579822 -0.003774642 0.008570432 0.00578463 0.01205235 0.008019804 0.005796432 -0.00196892 0.009116291 0.005798816 -0.001991331 0.008617639 0.005798518 4.23438e-4 0.009377241 0.005798637 3.84401e-4 0.008510589 0.005798161 0.002793133 0.008901774 0.005798101 0.002770662 0.008403122 0.005797803 0.00425291 0.008336305 0.005797564 -0.003645718 0.004113078 0.001496434 0.004843533 0.009058356 0.005342006 -0.00569427 0.008375644 0.00509262 0.003082573 0.009850025 0.005224645 -0.003899097 0.009579241 0.005153179 -0.002120852 0.01013058 0.005180954 2.29698e-4 0.01015442 0.00510466 -0.006547033 0.009127795 0.003148794 -0.007527112 0.005714833 0.002904415 -0.007395148 0.007471084 0.002905786 -0.00475341 0.01045876 0.003210663 -0.003056645 0.01097208 0.003231048 0.01163578 0.009979665 0.002974629 0.004523634 0.01057308 0.002993166 0.002875149 0.01072204 0.003183722 1.38282e-4 0.01088505 0.003001809 -0.001999199 0.01127171 0.001398384 -0.007623553 0.004195988 0 0.003366947 0.01099592 0.001221835 -0.001919806 0.01134335 0 0.003073632 0.0110833 0 -0.006600677 0.009171485 0 -0.007567465 0.00484538 0 -0.007137 0.008328497 0 -0.004756987 0.01046693 0 -0.003091454 0.0110774 0 0.01164793 0.0101515 0 0.01238596 0.01046437 0 0.004524111 0.01057428 0 -0.001195669 0.00400269 0.001496016 0.0015347 0.003879725 0.001495599 0.007658958 0.003603816 0.001494705 0.01189249 0.003678798 0.001519083 -0.004771471 0.00515598 0.002112686 -0.004662632 0.007629096 0.002202451 -0.003773987 0.008525848 0.001519441 0.01195389 0.007843673 0.001520097 -0.001994907 0.008599877 0.001519381 3.8095e-4 0.008494377 0.001519381 0.002767324 0.0083884 0.001519381 0.004249632 0.008322596 0.001519381</float_array>
          <technique_common>
            <accessor source="#Circle_015-mesh-positions-array" count="581" stride="3">
              <param name="X" type="float"/>
              <param name="Y" type="float"/>
              <param name="Z" type="float"/>
            </accessor>
          </technique_common>
        </source>
        <source id="Circle_015-mesh-normals">
          <float_array id="Circle_015-mesh-normals-array" count="1731">0.6797261 0.2908185 -0.6733477 0.5764796 0.240065 -0.7810506 0.7138694 -0.03500527 -0.6994034 0.4690216 0.5350351 -0.702678 0.4095103 0.474059 -0.7794675 0.1936479 0.7198393 -0.6665822 0.1611107 0.6384611 -0.7526028 -0.1302546 0.7030332 -0.6991268 -0.1044983 0.6512531 -0.7516314 -0.4166522 0.5747737 -0.7042984 -0.3680076 0.5182564 -0.7719979 -0.6289128 0.3412371 -0.6985886 -0.5531829 0.296917 -0.7783502 -0.7132257 0.03656154 -0.6999804 -0.6309853 0.0265212 -0.7753413 -0.6808574 -0.289507 -0.6727697 -0.5800424 -0.2476304 -0.7760348 -0.4707669 -0.5351331 -0.7014351 -0.4136298 -0.4801927 -0.7735149 -0.1940111 -0.7210488 -0.665168 -0.1698685 -0.6133395 -0.7713361 0.1305925 -0.7037166 -0.6983757 0.1117917 -0.625887 -0.7718602 0.4170429 -0.5757725 -0.7032506 0.3709366 -0.5135552 -0.7737358 0.6303169 -0.3399554 -0.6979478 0.5516043 -0.2997292 -0.7783927 0.6323038 -0.02517861 -0.7743112 0.001586973 -0.2638401 -0.9645652 0.02121084 0.7064287 -0.7074664 0.03402924 0.7533137 -0.6567804 0.2632604 0.5631746 -0.7832805 -0.5022576 0.03116029 -0.8641565 -0.5519976 -0.2705512 -0.7887336 -0.09177011 -0.3148018 -0.9447106 0.06534093 -0.3244464 -0.9436446 0.1873589 -0.2944211 -0.9371302 0.0544458 -0.2479665 -0.9672375 -6.10384e-5 -0.6885738 -0.7251663 -0.06326615 -0.8151358 -0.5758047 0.1311102 -0.8720541 -0.4715208 0.3387989 -0.7846915 -0.5191093 -0.2220861 -0.268719 -0.9372662 -0.2117397 -0.8547108 -0.4739576 0.1495424 -0.9887502 -0.003204464 0.3133418 -0.9493033 -0.0253005 -0.5680814 -0.6792927 -0.4645913 -0.6238729 -0.78065 -0.03698921 0.01910513 -0.001678526 -0.9998161 -0.6969738 0.03582984 -0.716201 -0.08273714 -0.1637957 -0.9830186 -0.6631183 -0.7461912 -0.0589323 -0.4247693 -0.9052975 -0.002777218 -0.4237824 -0.9057641 0 -0.1767359 -0.7345331 -0.655153 -0.8757518 -0.2324962 -0.4230893 -0.05087602 -0.9693921 -0.2401887 -0.04730528 -0.9653329 -0.2566998 -0.06027472 -0.7322694 -0.6783425 -0.1944349 -0.9800485 -0.04123079 -0.8075044 -0.5712562 -0.1469799 -0.7731285 -0.5210956 -0.3615685 0.2681077 -0.8058491 -0.5279448 -0.6260334 -0.4479863 -0.6382715 -0.6738533 -0.591758 -0.4424299 -0.001220762 0.2635046 -0.9646575 0.1849135 0.3315259 -0.9251474 -0.00891143 -0.04525911 -0.9989356 0.02285909 0.5719968 -0.8199374 -0.09845644 0.5760589 -0.811457 0.03738611 0.8026266 -0.5953091 -0.1176812 0.794562 -0.5956697 0.04455816 0.9465256 -0.3195371 -0.1383435 0.940663 -0.3098615 0.04446625 0.999011 0 -0.1087096 0.9940736 0 -0.01767075 -0.9498274 -0.3122754 -0.003326594 -0.9372463 -0.348652 0.01492369 -0.9998887 0 -0.02038693 -0.8162098 -0.5773958 -0.05487293 -0.7631245 -0.6439177 -0.01486265 -0.6011294 -0.7990135 -0.04178035 -0.5666752 -0.8228815 -0.009033679 -0.3199023 -0.9474076 2.13634e-4 -0.2853537 -0.9584223 0.07858753 -0.03872913 -0.9961547 -0.01889139 -0.5891749 -0.8077846 0.01049858 -0.791424 -0.6111776 0.02984744 -0.9995545 0 0.03079408 -0.9506496 -0.3087345 0.05365186 -0.2840376 -0.9573109 0.009491503 -0.6717306 -0.7407348 0.02111881 -0.8303498 -0.5568422 0.02871829 -0.9995877 0 0.03061038 -0.950021 -0.3106818 0.05343848 -0.3393084 -0.9391562 0.03720307 -0.7679896 -0.6393809 0.04556518 -0.8397977 -0.5409839 0.02841335 -0.9995964 0 0.02847439 -0.9995946 0 0.06650221 -0.4194616 -0.9053339 0.03759962 -0.8043332 -0.5929878 0.02273714 -0.8957228 -0.4440312 0.03045773 -0.9497761 -0.3114445 0.02417105 -0.9595495 -0.2805006 0.02630746 -0.9996539 0 0.05044817 -0.4099944 -0.9106919 0.008362114 -0.3649125 -0.9310044 -4.27267e-4 -0.7648083 -0.6442579 -0.004211544 -0.8698124 -0.4933647 -0.009552419 -0.9999545 0 0.3378844 0.4232176 -0.840667 0.09228873 0.4284529 -0.8988386 -0.02734506 0.142005 -0.9894883 0.07162779 0.2674065 -0.960918 0.07437431 0.4012612 -0.9129393 0.3489892 0.4057858 -0.8447157 0.3755961 0.7317212 -0.5687808 0.002929806 0.3687619 -0.9295193 0.2833418 0.9194875 -0.2725074 0.2598388 0.9656521 0 0.08597272 0.9531776 -0.289933 0.2949104 0.8556766 -0.4252594 0.08215832 0.8901302 -0.4482392 0.3129423 0.7897414 -0.5276133 0.07556635 0.8353504 -0.5444992 0.05957376 0.7711026 -0.633918 0.03228884 0.7655947 -0.6425124 0.08975696 0.9959637 0 0.04632747 0.9634465 -0.2638651 0.03821039 0.9038049 -0.4262355 -0.03119045 -0.7742996 -0.6320502 -0.03631746 -0.8715591 -0.4889435 -0.005829155 -0.9599868 -0.2799847 -0.04098767 -0.9577624 -0.2846247 0.03250283 0.374134 -0.926805 -0.001586973 -0.4070099 -0.9134224 0.3034247 0.4776605 -0.824484 0.6255757 0.01434385 -0.7800317 0.9854943 -0.03247237 -0.1665735 0.9820139 -0.06747776 -0.1763395 0.4443302 -0.2037162 -0.8723936 0.9176438 -0.3061355 -0.2533988 0.7289534 -0.6354728 -0.2545614 0.3274424 0.2132388 -0.9204949 0.952555 0.2125944 -0.2178131 0.5338963 -0.2063683 -0.8199799 0.4998063 0.41414 -0.7607114 0.5133372 0.7961609 -0.3203322 0.2767482 0.3037577 -0.9116698 0.5088793 -0.2592312 -0.8208783 0.4077966 -0.9051973 -0.1196655 0.2068297 0.9147264 -0.3471272 0.3251796 -0.4380388 -0.8380814 0.1700202 -0.9444043 -0.2814139 0.1902868 -0.5117754 -0.8377809 0.7723825 0.5773337 -0.2647855 0.0612815 -0.7880839 -0.61251 0.5927206 0.4214754 0.6863242 -0.02813804 -0.9996041 0 0.6943789 -0.03903436 0.7185503 0.6960471 -0.02493399 0.717563 0.5775446 -0.4956312 0.6486847 0.6794187 0.7258079 0.1076717 0.162211 0.9799497 -0.1156993 0.7273773 -0.6862061 0.006592214 0.2686935 -0.9618521 -0.05142527 0.2556619 -0.9667663 0 0.05075347 -0.9987112 0 0.233441 0.972371 0 0.1144468 0.9934295 0 0.09912741 0.8454824 -0.5247222 0.1761881 0.8796282 -0.4418283 0.1345292 0.7856593 -0.6038556 0.03268593 0.8477904 -0.5293235 0.7382311 0.007446706 0.6745069 0.8319564 0.5548411 0 0.9999511 0.009888112 0 0.7375951 0.1512241 0.6580918 0.7220941 -0.217849 0.6565989 -0.6834689 -5.49339e-4 -0.7299796 -0.6150295 0.2223042 -0.7565181 -0.03259456 0.6827774 -0.7298991 0.03964394 0.9460533 -0.3215769 -0.6348881 -0.225017 -0.7391107 -0.6808507 0.01745688 -0.7322143 -0.7329146 -0.6424257 -0.2238876 -0.8876967 0.3311695 -0.3198772 -0.3782526 -0.906323 -0.1884244 -0.4773761 -0.8786991 0 0.6683332 0.3009468 -0.6802661 0.8335418 0.5501706 -0.05020415 0.7321905 -0.04074335 -0.6798803 0.4877002 0.5649143 -0.6655979 0.5742182 0.8183104 -0.0253309 0.1920558 0.7254662 -0.6609186 0.3478618 0.719712 0.6008384 -0.173348 0.7187228 -0.673341 -0.2693922 0.7012986 0.6600063 -0.4517797 0.5957706 -0.6640427 -0.5364033 0.8435168 -0.02740609 -0.6618494 0.3435599 -0.6662747 -0.8219975 0.5667369 -0.05594122 -0.7408377 0.02029478 -0.6713775 -0.997307 0.03598213 -0.0639072 -0.6651096 -0.318287 -0.6755167 -0.7821724 -0.6179494 -0.07965469 -0.5044186 -0.5678678 -0.6504523 -0.5407439 -0.8410555 -0.01489347 0.09964436 0.9486817 -0.3001233 0.04611432 0.9725522 -0.2280692 0.1870522 0.9800632 -0.06698966 -0.1644057 0.9517952 -0.2589535 0.04718232 0.9988864 0 0.4165292 -0.6365134 -0.6491179 0.4800412 -0.8771913 -0.009796738 0.1462774 -0.7302579 -0.6673278 0.6356467 -0.3976606 -0.6616792 0.7199506 -0.6919032 -0.05423277 0.9964979 -0.07312285 -0.04055935 -0.04480171 -0.9919859 0.1181386 -0.8437123 -0.4026441 -0.3550032 -0.5098544 0.02661275 -0.859849 -0.9405497 0.04635906 -0.3364774 -0.8438315 0.05527067 -0.5337542 -0.4964581 0.02621608 -0.8676648 0.5852272 0.1815559 -0.7902826 0.5865222 -0.2013671 -0.7845018 -0.2024639 0.5349088 -0.8202933 -0.8283545 -0.1430744 -0.5416258 -0.007996022 -0.6957484 -0.7182411 -0.0604887 0.2761362 -0.9592132 0.04339778 0.3801732 -0.9238967 -0.03158754 -0.7051804 -0.708324 -0.03158682 -0.7053182 -0.7081869 -0.5031106 0.2047539 -0.8396164 0.1388305 -0.2370404 -0.961529 0.05514806 0.2762897 -0.9594908 0.05273789 -0.5413571 -0.8391371 -0.9652659 0.06909579 -0.2519677 0.1033384 0.6883634 -0.7179672 -0.1048029 0.7486969 -0.6545757 -0.3160842 0.6658613 -0.6758104 0.05877977 0.82896 -0.5562107 -0.5962952 0.5386434 -0.5952271 -0.7428635 0.6112655 -0.2729622 -0.4421664 0.8562853 -0.266954 0.1190868 0.9482082 -0.294482 0.1774375 0.7581533 -0.6274709 -0.7386004 0.6741434 0 -0.4553132 0.8903313 0 -0.9972599 0.07397735 0 -0.2454951 -0.7344101 -0.6327512 -0.01532053 -0.9998653 0.00589013 -0.9460253 0.2301126 -0.2282204 -0.04056024 0.9926431 -0.1140815 -0.08417189 0.9964513 0 0.1841816 0.9828922 0 -0.9288089 0.3705591 0 0.04455745 0.9519125 -0.3031129 -0.1630923 0.9866108 0 0.2001113 0.9797733 0 -0.1409385 0.9900184 0 -0.04586935 -0.9989024 -0.009491264 -0.0444051 -0.999008 -0.003357052 0.34395 -0.9389197 0.01132255 -0.0444355 -0.9990055 -0.003692746 -0.001464903 -0.9999909 -0.003997981 -0.702063 0.7120428 -0.01013231 0.8793395 0.4724622 0.05951172 0.3505114 0.935989 0.03265535 0.01492398 0.9998765 0.004944086 0.04498451 0.9989686 0.006195247 0.6797261 0.2908185 0.6733477 0.7138694 -0.03500527 0.6994034 0.5764796 0.240065 0.7810506 0.4690216 0.5350351 0.702678 0.1936436 0.719854 0.6665676 0.1611107 0.6384611 0.7526028 -0.1302546 0.7030332 0.6991268 -0.4166522 0.5747737 0.7042984 -0.1044983 0.6512531 0.7516314 -0.6289128 0.3412371 0.6985886 -0.553196 0.296924 0.7783382 -0.7132257 0.03656154 0.6999804 -0.6808574 -0.289507 0.6727697 -0.5800424 -0.2476304 0.7760348 -0.4707669 -0.5351331 0.7014351 -0.1940111 -0.7210488 0.665168 -0.1698685 -0.6133395 0.7713361 0.1305925 -0.7037166 0.6983757 0.4170429 -0.5757725 0.7032506 0.3709366 -0.5135552 0.7737358 0.6303169 -0.3399554 0.6979478 0.5516043 -0.2997292 0.7783927 0.6323038 -0.02517861 0.7743112 0.001586973 -0.2638401 0.9645652 0.01910513 -0.001678526 0.9998161 0.02121084 0.7064287 0.7074664 0.03402924 0.7533137 0.6567804 0.2632604 0.5631746 0.7832805 -0.3680076 0.5182564 0.7719979 -0.5022576 0.03116029 0.8641565 -0.6309858 0.02649068 0.775342 -0.509877 0.02661234 0.8598356 -0.5519976 -0.2705512 0.7887336 -0.4136298 -0.4801927 0.7735149 -0.2220861 -0.268719 0.9372662 -0.09177011 -0.3148018 0.9447106 0.06534093 -0.3244464 0.9436446 0.1117917 -0.625887 0.7718602 0.1873589 -0.2944211 0.9371302 0.0544458 -0.2479665 0.9672375 0.4095103 0.474059 0.7794675 -0.06326615 -0.8151358 0.5758047 -0.2117397 -0.8547108 0.4739576 0.1311102 -0.8720541 0.4715208 0.3387989 -0.7846915 0.5191093 -0.5680814 -0.6792927 0.4645913 -0.241739 -0.9703133 0.007385492 0.1495424 -0.9887502 0.003204464 0.3133418 -0.9493033 0.0253005 -0.6238729 -0.78065 0.03698921 -0.08273714 -0.1637957 0.9830186 -0.6631183 -0.7461912 0.0589323 -0.4247693 -0.9052975 0.002777218 -0.7378277 -0.6749891 0 -0.1767359 -0.7345331 0.655153 -0.8757518 -0.2324962 0.4230893 -0.05087602 -0.9693921 0.2401887 -0.06027597 -0.7322845 0.6783261 -0.1944349 -0.9800485 0.04123079 -0.8074938 -0.5712702 0.1469835 -0.7731285 -0.5210956 0.3615685 0.2681077 -0.8058491 0.5279448 -0.6260334 -0.4479863 0.6382715 -0.001220762 0.2635046 0.9646575 -0.00891143 -0.04525911 0.9989356 0.1849482 0.3315334 0.9251378 0.02285909 0.5719968 0.8199374 0.03738611 0.8026266 0.5953091 -0.1176834 0.7945765 0.5956501 0.04455816 0.9465256 0.3195371 -0.1383435 0.940663 0.3098615 -0.01767075 -0.9498274 0.3122754 -0.003326594 -0.9372463 0.348652 -0.02038693 -0.8162098 0.5773958 -0.05487293 -0.7631245 0.6439177 -0.01486265 -0.6011294 0.7990135 -0.04178035 -0.5666752 0.8228815 -0.009033679 -0.3199023 0.9474076 2.13634e-4 -0.2853537 0.9584223 0.07858753 -0.03872913 0.9961547 -0.01889139 -0.5891749 0.8077846 0.01049858 -0.791424 0.6111776 0.03079408 -0.9506496 0.3087345 0.009491503 -0.6717306 0.7407348 0.05365186 -0.2840376 0.9573109 0.02111881 -0.8303498 0.5568422 0.03061038 -0.950021 0.3106818 0.03720307 -0.7679896 0.6393809 0.05343902 -0.3392814 0.9391658 0.04556518 -0.8397977 0.5409839 0.03045773 -0.9497761 0.3114445 0.03759962 -0.8043332 0.5929878 0.06650221 -0.4194616 0.9053339 0.02273714 -0.8957228 0.4440312 0.02417105 -0.9595495 0.2805006 -4.27267e-4 -0.7648083 0.6442579 0.008362114 -0.3649125 0.9310044 -0.004211604 -0.8698254 0.4933416 -0.005829155 -0.9599868 0.2799847 0.3379114 0.4232133 0.8406584 0.09228873 0.4284529 0.8988386 -0.02737551 0.1420049 0.9894874 0.07162779 0.2674065 0.960918 0.07437431 0.4012612 0.9129393 0.3489892 0.4057858 0.8447157 0.002929806 0.3687619 0.9295193 0.3755961 0.7317212 0.5687808 0.2833418 0.9194875 0.2725074 0.08597272 0.9531776 0.289933 0.2949104 0.8556766 0.4252594 0.08215832 0.8901302 0.4482392 0.3129423 0.7897414 0.5276133 0.07556635 0.8353504 0.5444992 0.05957376 0.7711026 0.633918 0.03250283 0.374134 0.926805 0.03228884 0.7655947 0.6425124 0.04632747 0.9634465 0.2638651 0.03821039 0.9038049 0.4262355 0.03268593 0.8477904 0.5293235 -0.03119045 -0.7742996 0.6320502 -0.03631746 -0.8715591 0.4889435 -0.04098767 -0.9577624 0.2846247 -0.001586973 -0.4070354 0.913411 0.1902868 -0.5117754 0.8377809 0.3034247 0.4776605 0.824484 0.6255757 0.01434385 0.7800317 0.5338745 -0.2063717 0.8199932 0.9820139 -0.06747776 0.1763395 0.4443302 -0.2037162 0.8723936 0.5089059 -0.2591986 0.820872 0.7289534 -0.6354728 0.2545614 0.3274424 0.2132388 0.9204949 0.952555 0.2125944 0.2178131 0.4998063 0.41414 0.7607114 0.2767482 0.3037577 0.9116698 0.5133372 0.7961609 0.3203322 0.3251796 -0.4380388 0.8380814 0.4077966 -0.9051973 0.1196655 0.2068297 0.9147264 0.3471272 0.1700202 -0.9444043 0.2814139 0.9176438 -0.3061355 0.2533988 0.7723825 0.5773337 0.2647855 0.02032595 -0.8727054 0.4878239 0.0612815 -0.7880839 0.61251 0.7375951 0.1512241 -0.6580918 0.5927206 0.4214754 -0.6863242 0.7220941 -0.217849 -0.6565989 0.6943789 -0.03903436 -0.7185503 0.9854943 -0.03247237 0.1665735 0.6960471 -0.02493399 -0.717563 0.577565 -0.4956225 -0.6486734 0.6794187 0.7258079 -0.1076717 0.7273773 -0.6862061 -0.006592214 0.162211 0.9799497 0.1156993 0.2686935 -0.9618521 0.05142527 0.09912741 0.8454824 0.5247222 0.1345292 0.7856593 0.6038556 0.1761881 0.8796282 0.4418283 0.7382311 0.007446706 -0.6745069 0.8305495 -0.5569449 0 -0.6150295 0.2223042 0.7565181 -0.6834689 -5.49339e-4 0.7299796 -0.2024639 0.5349088 0.8202933 -0.03259456 0.6827774 0.7298991 0.03964394 0.9460533 0.3215769 -0.6348881 -0.225017 0.7391107 -0.6969738 0.03582984 0.716201 -0.6808507 0.01745688 0.7322143 -0.7329146 -0.6424257 0.2238876 -0.6738624 -0.5917659 0.4424054 -0.8876967 0.3311695 0.3198772 -0.3782526 -0.906323 0.1884244 0.6683332 0.3009468 0.6802661 0.7321905 -0.04074335 0.6798803 0.8335418 0.5501706 0.05020415 0.4877002 0.5649143 0.6655979 0.5742182 0.8183104 0.0253309 0.1920558 0.7254662 0.6609186 -0.173352 0.7186785 0.6733872 -0.2511751 0.7512975 0.6102976 -0.4517797 0.5957706 0.6640427 -0.5364033 0.8435168 0.02740609 -0.6618494 0.3435599 0.6662747 -0.7408239 0.02029526 0.6713926 -0.8220117 0.5667163 0.05594217 -0.6651096 -0.318287 0.6755167 -0.9973059 0.03601258 0.06390714 -0.5044186 -0.5678678 0.6504523 -0.5407439 -0.8410555 0.01489347 0.09964436 0.9486817 0.3001233 0.1870522 0.9800632 0.06698966 0.04611432 0.9725522 0.2280692 -0.1644057 0.9517952 0.2589535 0.4165292 -0.6365134 0.6491179 0.1462774 -0.7302579 0.6673278 0.4800412 -0.8771913 0.009796738 0.6356595 -0.3976687 0.6616621 0.9964979 -0.07312285 0.04055935 -0.04730528 -0.9653329 0.2566998 -6.10384e-5 -0.6885738 0.7251663 -0.04480189 -0.9919896 -0.1181085 -0.8437123 -0.4026441 0.3550032 -0.9405497 0.04635906 0.3364774 -0.8438403 0.05526924 0.5337404 0.5852272 0.1815559 0.7902826 -0.4964581 0.02621608 0.8676648 0.5865222 -0.2013671 0.7845018 -0.8283545 -0.1430744 0.5416258 -0.007996022 -0.6957484 0.7182411 -0.03158754 -0.7051804 0.708324 0.04339778 0.3801732 0.9238967 -0.03158682 -0.7053182 0.7081869 0.1388305 -0.2370404 0.961529 -0.5031106 0.2047539 0.8396164 0.05273789 -0.5413571 0.8391371 0.05514806 0.2762897 0.9594908 -0.0604887 0.2761362 0.9592132 -0.9460253 0.2301126 0.2282204 -0.9652659 0.06909579 0.2519677 0.1033384 0.6883634 0.7179672 0.1774375 0.7581533 0.6274709 0.05877977 0.82896 0.5562107 -0.1048029 0.7486969 0.6545757 -0.3160842 0.6658613 0.6758104 -0.4421664 0.8562853 0.266954 -0.7428635 0.6112655 0.2729622 -0.5963149 0.5386337 0.5952163 0.04455745 0.9519125 0.3031129 0.1190868 0.9482082 0.294482 -0.2833723 0.95901 0 -0.9948908 0.100957 0 -0.2454951 -0.7344101 0.6327512 -0.01532053 -0.9998653 -0.00589013 -0.04056024 0.9926431 0.1140815 -0.04586935 -0.9989024 0.009491264 -0.0444051 -0.999008 0.003357052 0.8812211 -0.4715878 -0.03247278 0.34395 -0.9389197 -0.01132255 -0.0444355 -0.9990055 0.003692746 -0.001464903 -0.9999909 0.003997981 -0.7374992 -0.6738665 0.04471075 -0.702063 0.7120428 0.01013231 0.8793395 0.4724622 -0.05951172 0.3505114 0.935989 -0.03265535 0.01492398 0.9998765 -0.004944086 0.04498451 0.9989686 -0.006195247 -0.241739 -0.9703133 -0.007385492 0.02032595 -0.8727054 -0.4878239 -0.5553039 -0.8236627 -0.1149673 -0.8105956 -0.5856065 2.13636e-4 -0.7374982 -0.6738655 -0.04474121 0.8812211 -0.4715878 0.03247278 -0.09845644 0.5760589 0.811457 0.05044817 -0.4099944 0.9106919 -0.5553039 -0.8236627 0.1149673 0.3746548 0.6704478 0.6404168 -0.7821724 -0.6179494 0.07965469 0.7199653 -0.6918881 0.05423158 -0.8105956 -0.5856065 -2.13636e-4 -0.1616269 0.9868519 0 -0.167948 0.9392026 -0.2994864 -0.1637035 0.8084768 -0.565302 -0.4265694 0.2455894 -0.8704738 -0.008697926 0.9999622 0 -0.02539181 0.977128 -0.2111307 -0.1010498 0.583623 -0.8057128 -0.04016321 0.8920145 -0.4502189 -0.0428487 0.7658145 -0.6416324 -0.1227504 0.6811702 -0.7217614 0.04877048 0.8463422 -0.5304021 0.04422283 0.7501099 -0.659833 0.1326992 0.8571125 -0.4977442 0.1525638 0.9575909 -0.2444257 0.155157 0.9878898 0 0.3030557 0.9203677 -0.2471445 0.1450598 0.9073488 -0.3945578 0.3109604 0.8584753 -0.4078284 0.326586 0.7920343 -0.5157745 0.1231756 0.7924627 -0.5973531 0.3945519 0.7240675 -0.565734 0.2790353 0.9602808 0 -0.167948 0.9392026 0.2994864 -0.1637035 0.8084768 0.565302 -0.1010498 0.583623 0.8057128 -0.4265694 0.2455894 0.8704738 -0.02539181 0.977128 0.2111307 -0.04016268 0.8920022 0.4502432 -0.0428487 0.7658145 0.6416324 -0.1227477 0.6811552 0.7217761 0.04422283 0.7501099 0.659833 0.04877048 0.8463422 0.5304021 0.1231756 0.7924627 0.5973531 0.1326992 0.8571125 0.4977442 0.1525638 0.9575909 0.2444257 0.3030557 0.9203677 0.2471445 0.1450598 0.9073488 0.3945578 0.3109604 0.8584753 0.4078284 0.326586 0.7920343 0.5157745 0.3945777 0.7240588 0.5657272 0.07571858 0.9971293 0 0.07892251 0.9705699 -0.2275202 0.08523964 0.9040348 -0.4188737 0.07892251 0.9705699 0.2275202 0.08523964 0.9040348 0.4188737</float_array>
          <technique_common>
            <accessor source="#Circle_015-mesh-normals-array" count="577" stride="3">
              <param name="X" type="float"/>
              <param name="Y" type="float"/>
              <param name="Z" type="float"/>
            </accessor>
          </technique_common>
        </source>
        <vertices id="Circle_015-mesh-vertices">
          <input semantic="POSITION" source="#Circle_015-mesh-positions"/>
        </vertices>
        <polylist material="Metall_Alu_013_001-material" count="966">
          <input semantic="VERTEX" source="#Circle_015-mesh-vertices" offset="0"/>
          <input semantic="NORMAL" source="#Circle_015-mesh-normals" offset="1"/>
          <vcount>3 3 3 3 3 3 3 3 3 3 3 3 3 3 3 3 3 3 3 3 3 3 3 3 3 3 3 3 3 3 3 3 3 3 3 3 3 3 3 3 3 3 3 3 3 3 3 3 3 3 3 3 3 3 3 3 3 3 3 3 3 3 3 3 3 3 3 3 3 3 3 3 3 3 3 3 3 3 3 3 3 3 3 3 3 3 3 3 3 3 3 3 3 3 3 3 3 3 3 3 3 3 3 3 3 3 3 3 3 3 3 3 3 3 3 3 3 3 3 3 3 3 3 3 3 3 3 3 3 3 3 3 3 3 3 3 3 3 3 3 3 3 3 3 3 3 3 3 3 3 3 3 3 3 3 3 3 3 3 3 3 3 3 3 3 3 3 3 3 3 3 3 3 3 3 3 3 3 3 3 3 3 3 3 3 3 3 3 3 3 3 3 3 3 3 3 3 3 3 3 3 3 3 3 3 3 3 3 3 3 3 3 3 3 3 3 3 3 3 3 3 3 3 3 3 3 3 3 3 3 3 3 3 3 3 3 3 3 3 3 3 3 3 3 3 3 3 3 3 3 3 3 3 3 3 3 3 3 3 3 3 3 3 3 3 3 3 3 3 3 3 3 3 3 3 3 3 3 3 3 3 3 3 3 3 3 3 3 3 3 3 3 3 3 3 3 3 3 3 3 3 3 3 3 3 3 3 3 3 3 3 3 3 3 3 3 3 3 3 3 3 3 3 3 3 3 3 3 3 3 3 3 3 3 3 3 3 3 3 3 3 3 3 3 3 3 3 3 3 3 3 3 3 3 3 3 3 3 3 3 3 3 3 3 3 3 3 3 3 3 3 3 3 3 3 3 3 3 3 3 3 3 3 3 3 3 3 3 3 3 3 3 3 3 3 3 3 3 3 3 3 3 3 3 3 3 3 3 3 3 3 3 3 3 3 3 3 3 3 3 3 3 3 3 3 3 3 3 3 3 3 3 3 3 3 3 3 3 3 3 3 3 3 3 3 3 3 3 3 3 3 3 3 3 3 3 3 3 3 3 3 3 3 3 3 3 3 3 3 3 3 3 3 3 3 3 3 3 3 3 3 3 3 3 3 3 3 3 3 3 3 3 3 3 3 3 3 3 3 3 3 3 3 3 3 3 3 3 3 3 3 3 3 3 3 3 3 3 3 3 3 3 3 3 3 3 3 3 3 3 3 3 3 3 3 3 3 3 3 3 3 3 3 3 3 3 3 3 3 3 3 3 3 3 3 3 3 3 3 3 3 3 3 3 3 3 3 3 3 3 3 3 3 3 3 3 3 3 3 3 3 3 3 3 3 3 3 3 3 3 3 3 3 3 3 3 3 3 3 3 3 3 3 3 3 3 3 3 3 3 3 3 3 3 3 3 3 3 3 3 3 3 3 3 3 3 3 3 3 3 3 3 3 3 3 3 3 3 3 3 3 3 3 3 3 3 3 3 3 3 3 3 3 3 3 3 3 3 3 3 3 3 3 3 3 3 3 3 3 3 3 3 3 3 3 3 3 3 3 3 3 3 3 3 3 3 3 3 3 3 3 3 3 3 3 3 3 3 3 3 3 3 3 3 3 3 3 3 3 3 3 3 3 3 3 3 3 3 3 3 3 3 3 3 3 3 3 3 3 3 3 3 3 3 3 3 3 3 3 3 3 3 3 3 3 3 3 3 3 3 3 3 3 3 3 3 3 3 3 3 3 3 3 3 3 3 3 3 3 3 3 3 3 3 3 3 3 3 3 3 3 3 3 3 3 3 3 3 3 3 3 3 3 3 3 3 3 3 3 3 3 3 3 3 3 3 3 3 3 3 3 3 3 3 3 3 3 3 3 3 3 3 3 3 3 3 3 3 3 3 3 3 3 3 3 3 3 3 3 3 3 3 3 3 3 3 3 3 3 3 3 3 3 3 3 3 3 3 3 3 3 3 3 3 3 3 3 3 3 3 3 3 3 3 3 3 3 3 3 3 3 3 3 3 3 3 3 3 3 3 3 3 3 3 3 3 3 3 3 3 3 3 3 3 3 3 3 3 3 3 3 3 3 3 3 3 3 3 3 3 3 3 3 3 3 3 3 3 3 3 3 3 3 3 3 3 3 3 3 3 3 3 3 3 3 3 3 3 3 3 3 3 3 3 3 3 3 3 3 3 3 3 3 3 3 3 </vcount>
          <p>13 0 27 1 0 2 12 3 26 4 27 1 11 5 25 6 12 3 10 7 24 8 25 6 9 9 23 10 24 8 8 11 22 12 9 9 7 13 21 14 22 12 6 15 20 16 7 13 5 17 19 18 20 16 4 19 18 20 5 17 3 21 17 22 18 20 2 23 16 24 3 21 1 25 15 26 2 23 0 2 14 27 15 26 14 27 27 1 28 28 27 1 26 4 40 29 5 17 3 21 4 19 25 6 24 8 39 30 24 8 23 10 37 31 23 10 22 12 36 32 22 12 21 14 36 32 21 14 20 16 34 33 20 16 19 18 34 33 19 18 18 20 32 34 18 20 17 22 31 35 17 22 16 24 30 36 16 24 15 26 29 37 15 26 14 27 28 28 26 4 25 6 40 29 28 28 48 38 53 39 32 34 31 35 46 40 31 35 30 36 46 40 30 36 29 37 45 41 33 42 32 34 47 43 47 43 46 40 50 44 46 40 45 41 49 45 42 46 47 43 43 47 41 48 193 49 224 50 54 51 53 39 56 52 54 51 56 52 329 53 63 54 224 50 66 55 59 56 58 57 62 58 49 45 45 41 52 59 57 60 59 56 61 61 61 61 63 54 66 55 52 59 44 62 54 51 44 62 29 37 53 39 187 63 194 64 61 61 82 65 84 66 67 67 81 68 83 69 84 66 80 70 72 71 81 68 79 72 73 73 80 70 356 74 349 75 73 73 71 76 74 77 346 78 70 79 75 80 71 76 69 81 76 82 70 79 68 83 77 84 69 81 67 67 78 85 68 83 76 82 77 84 87 86 75 80 76 82 86 87 74 77 75 80 86 87 350 88 74 77 85 89 87 86 88 90 116 91 86 87 87 86 115 92 85 89 86 87 115 92 363 93 85 89 114 94 116 91 117 95 120 96 115 92 116 91 119 97 114 94 115 92 119 97 398 98 114 94 403 99 120 96 121 100 124 101 119 97 120 96 123 102 118 103 119 97 122 104 403 99 118 103 408 105 124 101 125 106 129 107 123 102 124 101 128 108 122 104 123 102 127 109 408 105 122 104 413 110 78 85 88 90 77 84 113 111 129 107 112 112 84 66 109 113 78 85 110 114 88 90 78 85 88 90 110 114 117 95 111 115 121 100 117 95 112 112 125 106 121 100 134 116 133 117 139 118 131 119 420 120 136 121 130 122 131 119 135 123 132 124 130 122 137 125 133 117 132 124 138 126 139 118 138 126 143 127 136 121 426 128 141 129 135 123 136 121 141 129 137 125 135 123 140 130 138 126 137 125 143 127 128 108 129 107 147 131 127 109 128 108 146 132 126 133 127 109 146 132 413 110 126 133 145 134 144 135 148 136 139 118 134 116 139 118 129 107 113 111 134 116 129 107 148 136 144 135 149 137 155 138 163 139 164 140 165 141 167 142 162 143 166 144 168 145 155 138 156 146 165 141 155 138 151 147 159 148 153 149 154 150 162 143 160 151 149 137 157 152 151 147 152 153 160 151 158 154 149 137 151 147 150 155 156 146 164 140 167 142 153 149 161 156 166 144 154 150 152 153 151 147 154 150 153 149 165 141 145 134 146 132 158 154 146 132 147 131 171 157 168 145 161 156 175 158 147 131 148 136 150 155 150 155 158 154 171 157 436 159 145 134 158 154 167 142 164 140 178 160 163 139 168 145 177 161 162 143 167 142 176 162 164 140 163 139 178 160 161 156 159 148 173 163 160 151 162 143 176 162 159 148 157 152 169 164 158 154 160 151 174 165 172 166 174 165 474 167 158 154 172 166 464 168 173 163 169 164 476 169 432 170 476 169 141 129 169 164 157 152 141 129 144 135 143 127 149 137 183 171 181 172 184 173 142 174 140 130 181 172 143 127 142 174 184 173 140 130 141 129 157 152 157 152 149 137 181 172 182 175 173 163 477 176 174 165 182 175 482 177 178 160 177 161 182 175 177 161 180 178 182 175 178 160 182 175 179 179 174 165 176 162 182 175 173 163 182 175 175 158 82 65 67 67 185 180 81 68 82 65 191 181 80 70 81 68 189 182 79 72 80 70 189 182 68 83 69 81 187 63 67 67 68 83 185 180 356 74 79 72 188 183 185 180 186 184 192 185 186 184 187 63 66 55 71 76 346 78 195 186 70 79 71 76 195 186 191 181 185 180 65 187 69 81 70 79 194 64 61 61 194 64 57 60 329 53 56 52 57 60 56 52 55 188 57 60 57 60 195 186 331 189 210 190 223 191 197 192 209 193 222 194 210 190 208 195 221 196 222 194 207 197 220 198 221 196 206 199 219 200 207 197 205 201 218 202 219 200 204 203 217 204 218 202 203 205 216 206 217 204 202 207 215 208 203 205 255 209 256 210 258 211 256 210 252 212 513 213 199 214 213 215 200 216 198 217 212 218 213 215 197 192 211 219 198 217 209 193 207 197 208 195 58 57 60 220 48 38 60 220 55 188 53 39 224 50 193 49 192 185 192 185 66 55 224 50 63 54 62 58 28 28 62 58 48 38 28 28 40 29 65 187 193 49 42 46 43 47 64 221 36 32 35 222 227 223 33 42 42 46 64 221 35 222 34 33 226 224 37 31 36 32 228 225 229 226 228 225 231 227 190 228 191 181 233 229 235 230 234 231 236 232 237 233 236 232 239 234 231 227 230 235 232 236 239 234 238 237 240 238 232 236 234 231 235 230 230 235 228 225 249 239 189 182 233 229 240 238 242 240 240 238 238 237 236 232 234 231 246 241 234 231 232 236 246 241 232 236 230 235 245 242 238 237 236 232 247 243 245 242 243 244 248 245 228 225 36 32 227 223 246 241 245 242 251 246 243 244 230 235 248 245 189 182 242 240 254 247 242 240 244 248 255 209 247 243 256 210 244 248 247 243 246 241 252 212 251 246 248 245 561 249 252 212 251 246 564 250 255 209 258 211 254 247 249 239 227 223 557 251 201 252 214 253 215 208 200 216 214 253 201 252 248 245 250 254 561 249 513 213 257 255 559 256 258 211 513 213 560 257 250 254 249 239 563 258 257 255 252 212 559 256 189 182 253 259 188 183 253 259 254 247 566 260 188 183 253 259 356 74 254 247 258 211 568 261 253 259 566 260 567 262 189 182 190 228 233 229 240 238 233 229 270 263 239 234 240 238 269 264 231 227 232 236 265 265 232 236 235 230 265 265 237 233 239 234 268 266 235 230 237 233 267 267 233 229 65 187 262 268 229 226 231 227 263 269 37 31 229 226 241 270 65 187 40 29 261 271 40 29 39 30 260 272 39 30 38 30 259 272 38 30 37 31 241 270 284 273 271 274 298 275 283 276 284 273 298 275 282 277 283 276 296 278 281 279 282 277 296 278 280 280 281 279 295 281 279 282 280 280 293 283 278 284 279 282 293 283 277 285 278 284 291 286 276 287 277 285 291 286 275 288 276 287 289 289 274 290 275 288 289 289 273 291 274 290 287 292 272 293 273 291 286 294 271 274 272 293 286 294 285 295 299 296 298 275 298 275 312 297 311 298 274 290 276 287 275 288 296 278 310 299 295 281 295 281 309 299 308 300 294 301 308 300 307 302 293 283 307 302 292 303 292 303 306 304 305 305 291 286 305 305 290 306 290 306 304 307 303 308 289 289 303 308 302 309 288 310 302 309 301 311 287 292 301 311 300 312 286 294 300 312 299 296 297 313 311 298 296 278 299 296 300 312 324 314 303 308 318 315 317 316 302 309 317 316 301 311 301 311 316 317 300 312 304 307 313 318 318 315 318 315 322 319 321 320 317 316 321 320 320 321 313 318 314 322 318 315 312 297 299 296 523 323 325 324 327 325 324 314 325 324 328 326 329 53 337 327 340 328 523 323 333 329 337 327 336 330 320 321 323 331 316 317 330 332 335 333 333 329 335 333 340 328 337 327 323 331 325 324 315 334 315 334 324 314 300 312 485 335 340 328 335 333 360 336 341 337 362 338 359 339 360 336 362 338 358 340 359 339 347 341 357 342 358 340 348 343 356 74 357 342 348 343 345 344 346 78 351 345 344 346 345 344 352 347 343 348 344 346 353 349 342 350 343 348 354 351 341 337 342 350 355 352 353 349 366 353 354 351 352 347 365 354 353 349 351 345 364 355 365 354 350 88 363 93 364 355 366 353 401 356 367 357 365 354 400 358 366 353 364 355 399 359 400 358 363 93 398 98 399 359 401 356 406 360 402 361 400 358 405 362 401 356 399 359 404 363 405 362 398 98 403 99 399 359 406 360 411 364 407 365 405 362 410 366 406 360 404 363 409 367 405 362 403 99 408 105 404 363 411 364 416 368 417 369 410 366 415 370 416 368 409 367 414 371 415 370 408 105 413 110 409 367 355 352 354 351 367 357 397 372 396 373 417 369 362 338 355 352 393 374 394 375 393 374 355 352 367 357 402 361 394 375 395 376 394 375 402 361 396 373 395 376 407 365 423 377 429 378 422 379 419 380 425 381 420 120 418 382 424 383 419 380 421 384 427 385 418 382 422 379 428 386 421 384 429 378 435 387 434 388 425 381 431 389 426 128 424 383 430 390 431 389 427 385 433 391 430 390 428 386 434 388 427 385 416 368 439 392 417 369 415 370 438 393 416 368 414 371 437 394 438 393 413 110 436 159 437 394 435 387 429 378 440 395 423 377 417 369 429 378 397 372 417 369 423 377 440 395 442 396 441 397 447 398 448 399 456 400 457 401 446 402 454 403 458 404 447 398 460 405 448 399 447 398 457 401 443 406 445 407 451 408 446 402 444 409 452 410 441 397 443 406 449 411 444 409 442 396 450 412 441 397 442 396 443 406 448 399 457 401 459 413 445 407 458 404 453 414 446 402 445 407 443 406 446 402 457 401 445 407 437 394 450 412 438 393 438 393 462 415 463 416 460 405 473 417 468 418 439 392 463 416 442 396 442 396 463 416 450 412 436 159 464 168 450 412 459 413 472 419 471 420 455 421 470 422 460 405 454 403 469 423 459 413 456 400 471 420 455 421 453 414 468 418 466 424 452 410 467 425 469 423 451 408 466 424 461 426 450 412 465 427 467 425 465 427 474 167 467 425 450 412 464 168 465 427 466 424 477 176 476 169 432 170 431 389 476 169 461 426 431 389 449 411 435 387 441 397 434 388 480 428 481 429 478 430 433 391 480 428 478 430 434 388 481 429 433 391 430 390 478 430 449 411 449 411 478 430 441 397 479 431 482 177 477 176 467 425 475 432 482 177 471 420 479 431 470 422 470 422 479 431 473 417 471 420 472 419 479 431 467 425 479 431 469 423 466 424 468 418 479 431 360 336 489 433 483 434 359 339 488 435 489 433 358 340 487 436 359 339 357 342 486 437 487 436 342 350 484 438 485 335 341 337 483 434 342 350 356 74 486 437 357 342 483 434 491 439 490 440 484 438 490 440 340 328 345 344 493 441 346 78 344 346 492 442 493 441 489 433 339 443 483 434 343 348 485 335 492 442 335 333 330 332 492 442 329 53 331 189 330 332 327 325 330 332 326 444 330 332 331 189 493 441 508 445 495 446 522 447 507 448 508 445 521 449 506 450 507 448 521 449 505 451 506 450 519 452 504 453 505 451 518 454 503 455 504 453 518 454 502 456 503 455 517 457 501 458 502 456 516 459 500 460 501 458 514 461 554 462 558 463 555 464 555 464 513 213 551 465 497 466 498 467 511 468 496 469 497 466 511 468 495 446 496 469 509 470 505 451 507 448 506 450 332 471 336 330 319 472 334 473 319 472 324 314 523 323 490 440 491 439 490 440 523 323 340 328 337 327 523 323 299 296 336 330 299 296 319 472 311 298 312 297 491 439 313 318 338 474 314 322 307 302 526 475 306 304 304 307 305 305 338 474 306 304 525 476 305 305 308 300 528 477 527 478 528 477 530 479 527 478 488 435 532 480 489 433 534 481 536 482 535 483 536 482 538 484 535 483 530 479 531 485 529 486 538 484 539 487 537 488 531 485 534 481 533 489 529 486 549 490 548 491 487 436 541 492 539 487 541 492 543 493 537 488 535 483 546 494 545 495 533 489 545 495 531 485 531 485 544 496 529 486 537 488 543 493 546 494 544 496 550 497 547 498 527 478 548 491 526 475 545 495 551 465 550 497 542 499 547 498 529 486 487 436 552 500 553 501 541 492 553 501 554 462 546 494 543 493 555 464 546 494 555 464 551 465 550 497 564 250 561 249 551 465 565 502 564 250 554 462 553 501 558 463 548 491 562 503 557 251 499 504 500 460 514 461 498 467 499 504 512 505 547 498 561 249 549 490 513 213 559 256 556 506 558 463 560 257 513 213 549 490 563 258 548 491 556 506 559 256 551 465 487 436 486 437 552 500 552 500 566 260 553 501 486 437 356 74 552 500 553 501 568 261 558 463 552 500 567 262 566 260 487 436 532 480 488 435 539 487 580 507 532 480 538 484 579 508 539 487 530 479 574 509 575 510 531 485 575 510 534 481 536 482 578 511 538 484 534 481 577 512 536 482 532 480 576 513 572 514 528 477 573 515 530 479 308 300 540 516 528 477 339 443 572 514 571 517 311 298 571 517 570 518 310 299 570 518 569 518 309 299 569 518 540 516 27 1 14 27 0 2 13 0 12 3 27 1 25 6 26 4 12 3 11 5 10 7 25 6 10 7 9 9 24 8 22 12 23 10 9 9 8 11 7 13 22 12 20 16 21 14 7 13 6 15 5 17 20 16 18 20 19 18 5 17 4 19 3 21 18 20 16 24 17 22 3 21 15 26 16 24 2 23 1 25 0 2 15 26 27 1 41 48 28 28 41 48 27 1 40 29 12 3 10 7 11 5 1 25 2 23 3 21 1 25 3 21 5 17 13 0 0 2 12 3 12 3 0 2 10 7 10 7 8 11 9 9 10 7 0 2 8 11 7 13 5 17 6 15 1 25 5 17 7 13 0 2 1 25 7 13 8 11 0 2 7 13 24 8 38 30 39 30 38 30 24 8 37 31 37 31 23 10 36 32 21 14 35 222 36 32 35 222 21 14 34 33 19 18 33 42 34 33 33 42 19 18 32 34 32 34 18 20 31 35 31 35 17 22 30 36 30 36 16 24 29 37 29 37 15 26 28 28 25 6 39 30 40 29 29 37 28 28 53 39 47 43 32 34 46 40 30 36 45 41 46 40 29 37 44 62 45 41 42 46 33 42 47 43 51 519 47 43 50 44 50 44 46 40 49 45 47 43 51 519 43 47 28 28 41 48 224 50 53 39 55 188 56 52 328 326 54 51 329 53 63 54 59 56 62 58 45 41 44 62 52 59 59 56 63 54 61 61 44 62 53 39 54 51 66 55 187 63 61 61 84 66 78 85 67 67 82 65 81 68 84 66 72 71 83 69 81 68 73 73 72 71 80 70 79 72 356 74 73 73 74 77 350 88 346 78 75 80 74 77 71 76 76 82 75 80 70 79 77 84 76 82 69 81 78 85 77 84 68 83 77 84 88 90 87 86 76 82 87 86 86 87 85 89 74 77 86 87 363 93 350 88 85 89 88 90 117 95 116 91 87 86 116 91 115 92 114 94 85 89 115 92 398 98 363 93 114 94 117 95 121 100 120 96 116 91 120 96 119 97 118 103 114 94 119 97 114 94 118 103 403 99 121 100 125 106 124 101 120 96 124 101 123 102 119 97 123 102 122 104 118 103 122 104 408 105 128 108 124 101 129 107 127 109 123 102 128 108 126 133 122 104 127 109 122 104 126 133 413 110 129 107 125 106 112 112 109 113 110 114 78 85 110 114 111 115 117 95 111 115 112 112 121 100 133 117 138 126 139 118 420 120 426 128 136 121 131 119 136 121 135 123 130 122 135 123 137 125 132 124 137 125 138 126 144 135 139 118 143 127 426 128 432 170 141 129 140 130 135 123 141 129 142 174 137 125 140 130 137 125 142 174 143 127 129 107 148 136 147 131 128 108 147 131 146 132 145 134 126 133 146 132 436 159 413 110 145 134 148 136 129 107 139 118 150 155 148 136 149 137 156 146 155 138 164 140 154 150 165 141 162 143 168 145 163 139 155 138 165 141 166 144 155 138 159 148 161 156 153 149 152 153 154 150 160 151 157 152 159 148 151 147 150 155 152 153 158 154 151 147 152 153 150 155 165 141 156 146 167 142 161 156 168 145 166 144 153 149 154 150 151 147 153 149 166 144 165 141 146 132 170 520 158 154 170 520 146 132 171 157 180 178 168 145 175 158 171 157 147 131 150 155 158 154 170 520 171 157 464 168 436 159 158 154 179 179 167 142 178 160 168 145 180 178 177 161 167 142 179 179 176 162 163 139 177 161 178 160 175 158 161 156 173 163 174 165 160 151 176 162 173 163 159 148 169 164 172 166 158 154 174 165 174 165 475 432 474 167 172 166 474 167 464 168 477 176 173 163 476 169 476 169 169 164 141 129 143 127 184 173 149 137 183 171 142 174 181 172 142 174 183 171 184 173 181 172 140 130 157 152 149 137 184 173 181 172 482 177 182 175 477 176 475 432 174 165 482 177 176 162 179 179 182 175 182 175 180 178 175 158 191 181 82 65 185 180 190 228 81 68 191 181 81 68 190 228 189 182 188 183 79 72 189 182 186 184 68 83 187 63 68 83 186 184 185 180 193 49 185 180 192 185 192 185 186 184 66 55 346 78 196 521 195 186 194 64 70 79 195 186 185 180 193 49 65 187 187 63 69 81 194 64 194 64 195 186 57 60 331 189 329 53 57 60 55 188 60 220 57 60 60 220 58 57 57 60 58 57 59 56 57 60 195 186 196 521 331 189 223 191 211 219 197 192 222 194 223 191 210 190 209 193 208 195 222 194 208 195 207 197 221 196 219 200 220 198 207 197 206 199 205 201 219 200 205 201 204 203 218 202 204 203 203 205 217 204 215 208 216 206 203 205 256 210 513 213 258 211 252 212 257 255 513 213 213 215 214 253 200 216 199 214 198 217 213 215 211 219 212 218 198 217 202 207 200 216 201 252 197 192 198 217 210 190 198 217 199 214 210 190 205 201 203 205 204 203 206 199 203 205 205 201 207 197 203 205 206 199 209 193 203 205 207 197 210 190 199 214 209 193 209 193 199 214 203 205 199 214 200 216 202 207 203 205 199 214 202 207 62 58 58 57 48 38 48 38 60 220 53 39 224 50 63 54 28 28 41 48 40 29 193 49 43 47 225 522 64 221 35 222 226 224 227 223 34 33 33 42 64 221 34 33 64 221 226 224 229 226 37 31 228 225 228 225 230 235 231 227 191 181 65 187 233 229 237 233 235 230 236 232 236 232 238 237 239 234 250 254 230 235 249 239 242 240 189 182 240 238 244 248 242 240 238 237 247 243 236 232 246 241 232 236 245 242 246 241 230 235 243 244 245 242 244 248 238 237 247 243 251 246 245 242 248 245 249 239 228 225 227 223 252 212 246 241 251 246 230 235 250 254 248 245 253 259 189 182 254 247 254 247 242 240 255 209 256 210 255 209 244 248 256 210 247 243 252 212 564 250 251 246 561 249 565 502 252 212 564 250 562 503 249 239 557 251 202 207 201 252 215 208 250 254 563 258 561 249 249 239 562 503 563 258 252 212 565 502 559 256 254 247 568 261 566 260 253 259 567 262 356 74 258 211 560 257 568 261 233 229 266 523 270 263 240 238 270 263 269 264 264 524 231 227 265 265 235 230 267 267 265 265 239 234 269 264 268 266 237 233 268 266 267 267 266 523 233 229 262 268 231 227 264 524 263 269 229 226 263 269 241 270 262 268 65 187 261 271 261 271 40 29 260 272 260 272 39 30 259 272 259 272 38 30 241 270 271 274 285 295 298 275 297 313 283 276 298 275 283 276 297 313 296 278 295 281 281 279 296 278 294 301 280 280 295 281 280 280 294 301 293 283 292 303 278 284 293 283 278 284 292 303 291 286 290 306 276 287 291 286 276 287 290 306 289 289 288 310 274 290 289 289 274 290 288 310 287 292 273 291 287 292 286 294 285 295 271 274 286 294 299 296 312 297 298 275 297 313 298 275 311 298 281 279 283 276 282 277 273 291 272 293 274 290 274 290 272 293 276 287 271 274 284 273 283 276 271 274 283 276 281 279 279 282 281 279 280 280 271 274 281 279 279 282 276 287 278 284 277 285 276 287 272 293 278 284 272 293 271 274 278 284 271 274 279 282 278 284 310 299 309 299 295 281 294 301 295 281 308 300 293 283 294 301 307 302 307 302 306 304 292 303 291 286 292 303 305 305 305 305 304 307 290 306 289 289 290 306 303 308 288 310 289 289 302 309 287 292 288 310 301 311 286 294 287 292 300 312 285 295 286 294 299 296 311 298 310 299 296 278 319 472 299 296 324 314 302 309 303 308 317 316 317 316 316 317 301 311 316 317 315 334 300 312 303 308 304 307 318 315 317 316 318 315 321 320 316 317 317 316 320 321 314 322 322 319 318 315 491 439 312 297 523 323 327 325 326 444 324 314 327 325 325 324 329 53 332 471 333 329 336 330 323 331 315 334 316 317 335 333 337 327 333 329 325 324 324 314 315 334 492 442 485 335 335 333 341 337 355 352 362 338 361 525 359 339 362 338 359 339 361 525 347 341 358 340 347 341 348 343 349 75 356 74 348 343 346 78 350 88 351 345 345 344 351 345 352 347 344 346 352 347 353 349 343 348 353 349 354 351 342 350 354 351 355 352 366 353 367 357 354 351 365 354 366 353 353 349 352 347 351 345 365 354 351 345 350 88 364 355 401 356 402 361 367 357 400 358 401 356 366 353 365 354 364 355 400 358 364 355 363 93 399 359 406 360 407 365 402 361 405 362 406 360 401 356 400 358 399 359 405 362 403 99 404 363 399 359 411 364 412 526 407 365 410 366 411 364 406 360 409 367 410 366 405 362 408 105 409 367 404 363 412 526 411 364 417 369 411 364 410 366 416 368 410 366 409 367 415 370 413 110 414 371 409 367 396 373 412 526 417 369 367 357 394 375 355 352 407 365 395 376 402 361 412 526 396 373 407 365 429 378 428 386 422 379 425 381 426 128 420 120 424 383 425 381 419 380 427 385 424 383 418 382 428 386 427 385 421 384 428 386 429 378 434 388 431 389 432 170 426 128 425 381 424 383 431 389 424 383 427 385 430 390 434 388 433 391 427 385 439 392 440 395 417 369 438 393 439 392 416 368 415 370 414 371 438 393 414 371 413 110 437 394 429 378 417 369 440 395 435 387 440 395 441 397 455 421 447 398 456 400 459 413 457 401 454 403 447 398 455 421 460 405 447 398 458 404 457 401 445 407 453 414 451 408 454 403 446 402 452 410 443 406 451 408 449 411 452 410 444 409 450 412 442 396 444 409 443 406 456 400 448 399 459 413 458 404 460 405 453 414 444 409 446 402 443 406 457 401 458 404 445 407 450 412 462 415 438 393 439 392 438 393 463 416 453 414 460 405 468 418 440 395 439 392 442 396 463 416 462 415 450 412 437 394 436 159 450 412 456 400 459 413 471 420 470 422 473 417 460 405 469 423 472 419 459 413 471 420 470 422 455 421 451 408 453 414 466 424 454 403 452 410 469 423 449 411 451 408 461 426 452 410 450 412 467 425 474 167 475 432 467 425 464 168 474 167 465 427 461 426 466 424 476 169 431 389 461 426 476 169 441 397 481 429 434 388 430 390 433 391 478 430 481 429 480 428 433 391 431 389 430 390 449 411 478 430 481 429 441 397 466 424 479 431 477 176 479 431 467 425 482 177 479 431 472 419 469 423 468 418 473 417 479 431 341 337 360 336 483 434 360 336 359 339 489 433 487 436 488 435 359 339 358 340 357 342 487 436 343 348 342 350 485 335 483 434 484 438 342 350 484 438 483 434 490 440 485 335 484 438 340 328 493 441 494 527 346 78 345 344 344 346 493 441 339 443 491 439 483 434 344 346 343 348 492 442 330 332 493 441 492 442 327 325 329 53 330 332 330 332 333 329 332 471 326 444 330 332 334 473 330 332 332 471 334 473 331 189 494 527 493 441 495 446 509 470 522 447 508 445 522 447 521 449 520 528 506 450 521 449 506 450 520 528 519 452 505 451 519 452 518 454 517 457 503 455 518 454 516 459 502 456 517 457 515 529 501 458 516 459 501 458 515 529 514 461 558 463 513 213 555 464 513 213 556 506 551 465 498 467 512 505 511 468 510 530 496 469 511 468 496 469 510 530 509 470 498 467 500 460 499 504 496 469 495 446 508 445 497 466 496 469 508 445 501 458 503 455 502 456 501 458 504 453 503 455 501 458 505 451 504 453 501 458 507 448 505 451 497 466 508 445 507 448 497 466 507 448 501 458 498 467 497 466 500 460 497 466 501 458 500 460 334 473 332 471 319 472 326 444 334 473 324 314 336 330 337 327 299 296 339 443 311 298 491 439 338 474 524 531 314 322 526 475 525 476 306 304 313 318 304 307 338 474 525 476 338 474 305 305 307 302 308 300 527 478 530 479 529 486 527 478 532 480 339 443 489 433 533 489 534 481 535 483 538 484 537 488 535 483 527 478 529 486 548 491 532 480 487 436 539 487 539 487 541 492 537 488 533 489 535 483 545 495 545 495 544 496 531 485 544 496 542 499 529 486 535 483 537 488 546 494 542 499 544 496 547 498 307 302 527 478 526 475 544 496 545 495 550 497 547 498 549 490 529 486 541 492 487 436 553 501 543 493 541 492 554 462 543 493 554 462 555 464 545 495 546 494 551 465 547 498 550 497 561 249 550 497 551 465 564 250 526 475 548 491 557 251 512 505 499 504 514 461 561 249 563 258 549 490 563 258 562 503 548 491 559 256 565 502 551 465 566 260 568 261 553 501 356 74 567 262 552 500 568 261 560 257 558 463 580 507 576 513 532 480 579 508 580 507 539 487 531 485 530 479 575 510 575 510 577 512 534 481 578 511 579 508 538 484 577 512 578 511 536 482 339 443 532 480 572 514 573 515 574 509 530 479 540 516 573 515 528 477 311 298 339 443 571 517 310 299 311 298 570 518 309 299 310 299 569 518 308 300 309 299 540 516</p>
        </polylist>
        <polylist material="Kunststoff_druckteile_010_001-material" count="94">
          <input semantic="VERTEX" source="#Circle_015-mesh-vertices" offset="0"/>
          <input semantic="NORMAL" source="#Circle_015-mesh-normals" offset="1"/>
          <vcount>3 3 3 3 3 3 3 3 3 3 3 3 3 3 3 3 3 3 3 3 3 3 3 3 3 3 3 3 3 3 3 3 3 3 3 3 3 3 3 3 3 3 3 3 3 3 3 3 3 3 3 3 3 3 3 3 3 3 3 3 3 3 3 3 3 3 3 3 3 3 3 3 3 3 3 3 3 3 3 3 3 3 3 3 3 3 3 3 3 3 3 3 3 3 </vcount>
          <p>73 73 349 75 370 532 72 71 73 73 90 533 83 69 72 71 89 534 84 66 83 69 92 535 90 533 370 532 375 536 89 534 90 533 94 537 91 538 89 534 93 539 92 535 91 538 95 540 96 541 95 540 99 542 100 543 99 542 103 544 102 545 385 546 106 547 101 548 102 545 105 549 103 544 101 548 107 550 104 551 103 544 108 552 104 551 108 552 113 111 100 543 104 551 112 112 96 541 100 543 110 114 92 535 96 541 109 113 92 535 109 113 84 66 113 111 108 552 134 116 106 547 390 553 131 119 105 549 106 547 130 122 107 550 105 549 132 124 108 552 107 550 133 117 348 343 369 554 370 532 347 341 368 555 369 554 361 525 371 556 368 555 362 338 372 557 361 525 369 554 374 558 375 536 368 555 373 559 374 558 371 556 376 560 373 559 372 557 377 561 376 560 377 561 382 562 381 563 382 562 387 564 386 565 384 566 389 567 385 546 383 568 388 569 384 566 386 565 391 570 383 568 387 564 392 571 386 565 387 564 396 373 397 372 382 562 395 376 396 373 377 561 394 375 382 562 372 557 393 374 377 561 372 557 362 338 393 374 397 372 423 377 392 571 389 567 419 380 390 553 388 569 418 382 389 567 391 570 421 384 388 569 392 571 422 379 391 570 90 533 73 73 370 532 89 534 72 71 90 533 91 538 83 69 89 534 83 69 91 538 92 535 94 537 90 533 375 536 93 539 89 534 94 537 95 540 91 538 93 539 96 541 92 535 95 540 100 543 96 541 99 542 104 551 100 543 103 544 385 546 390 553 106 547 102 545 106 547 105 549 101 548 105 549 107 550 103 544 107 550 108 552 112 112 104 551 113 111 111 115 100 543 112 112 100 543 111 115 110 114 96 541 110 114 109 113 108 552 133 117 134 116 390 553 420 120 131 119 106 547 131 119 130 122 105 549 130 122 132 124 107 550 132 124 133 117 349 75 348 343 370 532 348 343 347 341 369 554 347 341 361 525 368 555 372 557 371 556 361 525 370 532 369 554 375 536 369 554 368 555 374 558 368 555 371 556 373 559 371 556 372 557 376 560 376 560 377 561 381 563 381 563 382 562 386 565 389 567 390 553 385 546 388 569 389 567 384 566 391 570 388 569 383 568 392 571 391 570 386 565 392 571 387 564 397 372 387 564 382 562 396 373 394 375 395 376 382 562 393 374 394 375 377 561 423 377 422 379 392 571 419 380 420 120 390 553 418 382 419 380 389 567 421 384 418 382 388 569 422 379 421 384 391 570</p>
        </polylist>
        <polylist material="Gummi_014_001-material" count="24">
          <input semantic="VERTEX" source="#Circle_015-mesh-vertices" offset="0"/>
          <input semantic="NORMAL" source="#Circle_015-mesh-normals" offset="1"/>
          <vcount>3 3 3 3 3 3 3 3 3 3 3 3 3 3 3 3 3 3 3 3 3 3 3 3 </vcount>
          <p>94 537 375 536 380 572 93 539 94 537 98 573 95 540 93 539 97 574 98 573 380 572 102 545 97 574 98 573 101 548 99 542 97 574 101 548 374 558 379 575 380 572 373 559 378 576 379 575 376 560 381 563 378 576 379 575 384 566 380 572 378 576 383 568 379 575 381 563 386 565 383 568 98 573 94 537 380 572 97 574 93 539 98 573 99 542 95 540 97 574 380 572 385 546 102 545 98 573 102 545 101 548 103 544 99 542 101 548 375 536 374 558 380 572 374 558 373 559 379 575 373 559 376 560 378 576 384 566 385 546 380 572 383 568 384 566 379 575 378 576 381 563 383 568</p>
        </polylist>
      </mesh>
    </geometry>
  </library_geometries>
  <library_controllers/>
  <library_visual_scenes>
    <visual_scene id="Scene" name="Scene">
      <node id="COL_hollie_left_hand_i" name="COL_hollie_left_hand_i" type="NODE">
        <instance_geometry url="#Circle_015-mesh" name="COL_hollie_left_hand_i">
          <bind_material>
            <technique_common>
              <instance_material symbol="Metall_Alu_013_001-material" target="#Metall_Alu_013_001-material"/>
              <instance_material symbol="Kunststoff_druckteile_010_001-material" target="#Kunststoff_druckteile_010_001-material"/>
              <instance_material symbol="Gummi_014_001-material" target="#Gummi_014_001-material"/>
            </technique_common>
          </bind_material>
        </instance_geometry>
      </node>
    </visual_scene>
  </library_visual_scenes>
  <scene>
    <instance_visual_scene url="#Scene"/>
  </scene>
</COLLADA>