<?xml version="1.0" encoding="utf-8"?>
<COLLADA xmlns="http://www.collada.org/2005/11/COLLADASchema" version="1.4.1">
  <asset>
    <contributor>
      <author>Blender User</author>
      <authoring_tool>Blender 2.78.0 commit date:2017-02-24, commit time:14:33, hash:e92f2352830</authoring_tool>
    </contributor>
    <created>2017-07-14T10:06:19</created>
    <modified>2017-07-14T10:06:19</modified>
    <unit name="meter" meter="1"/>
    <up_axis>Z_UP</up_axis>
  </asset>
  <library_images/>
  <library_effects/>
  <library_geometries>
    <geometry id="Arm_6_Link_001-mesh" name="Arm 6 Link.001">
      <mesh>
        <source id="Arm_6_Link_001-mesh-positions">
          <float_array id="Arm_6_Link_001-mesh-positions-array" count="1101">0.02128297 0.02456182 0.04743415 0.02308404 0.02267289 0.04743415 0.02565163 0.02268475 0.04619133 -0.007662117 -0.03158384 0.04743415 -0.009770989 -0.03085398 0.04743415 -0.009502351 -0.03286039 0.04621845 -0.03632819 -0.01965981 0.03999996 -0.0343995 -0.02261197 0.03999996 -0.03574758 -0.01722061 0.04161494 -0.02797627 -0.03039038 0.03999996 -0.02786231 -0.03047907 0.03999996 -0.02872782 -0.02791595 0.04125112 -0.02259266 -0.03458064 0.03999996 -0.02222895 -0.03477746 0.03999996 -0.02290815 -0.03286039 0.04125112 0.03632819 0.01965981 0.03999996 0.0343995 0.02261197 0.03999996 0.03574758 0.01722061 0.04161494 0.03259682 0.02537113 0.03999996 0.03027683 0.02789133 0.03999996 0.02872782 0.02791595 0.04125112 0.02786231 0.03047907 0.03999996 0.0248245 0.03284353 0.03999996 0.02290815 0.03286039 0.04125112 -0.04074335 0.006798863 0.03999996 -0.03727495 0.005819678 0.04339301 -0.03669971 0.01157963 0.04272335 -0.03574758 0.01722061 0.04161494 -0.03906863 0.01341223 0.03999996 -0.03953611 0.01156616 0.03999996 -0.0343995 0.02261197 0.03999996 -0.03632819 0.01965981 0.03999996 -0.03740835 0.01719737 0.03999996 -0.0313521 0.01722061 0.04501932 -0.03019499 0.02268475 0.0433579 -0.03027683 0.02789133 0.03999996 -0.03259682 0.02537113 0.03999996 -0.03436964 0.02265763 0.03999996 -0.02797627 0.03039038 0.03999996 -0.02872782 0.02791595 0.04125112 -0.02786231 0.03047907 0.03999996 -0.02440518 0.02791595 0.04394692 -0.0248245 0.03284353 0.03999996 -0.02259266 0.03458064 0.03999996 -0.02290815 0.03286039 0.04125112 -0.02222895 0.03477746 0.03999996 -0.01861536 0.03286039 0.0433579 -0.01726424 0.0374642 0.03999996 -0.01719319 0.03750264 0.03999996 -0.01720768 0.03746736 0.04007911 -0.01659274 0.03782761 0.03999996 -0.01306283 0.03746736 0.04161494 -0.01259738 0.03919923 0.03999996 -0.01014018 0.04004275 0.03999996 -0.008783757 0.03746736 0.04272335 -0.008247852 0.04035854 0.03999996 -0.004414558 0.03746736 0.04339301 -0.004074633 0.04105496 0.03999996 -0.003411054 0.04116564 0.03999996 0 0.03746736 0.04361701 0 0.04116564 0.03999996 0.003411054 0.04116564 0.03999996 0.004414558 0.03746736 0.04339301 0.004074633 0.04105496 0.03999996 0.008783757 0.03746736 0.04272335 0.008247852 0.04035854 0.03999996 0.01014018 0.04004275 0.03999996 0.01306283 0.03746736 0.04161494 0.01259738 0.03919923 0.03999996 0.02222895 0.03477746 0.03999996 0.01726424 0.0374642 0.03999996 0.01720768 0.03746736 0.04007911 0.01719319 0.03750264 0.03999996 0.01659274 0.03782761 0.03999996 0.03669971 0.01157963 0.04272335 0.03906863 0.01341223 0.03999996 0.03740835 0.01719737 0.03999996 0.03727495 -0.005819678 0.04339301 0.04130673 0 0.03999996 0.03746736 0 0.04361701 0.04082477 0.005816757 0.03999996 0.03727495 0.005819678 0.04339301 0.04074335 0.006798863 0.03999996 0.03953611 0.01156616 0.03999996 0.03669971 -0.01157963 0.04272335 0.04074335 -0.006798863 0.03999996 0.04082477 -0.005816757 0.03999996 0.03632819 -0.01965981 0.03999996 0.03740835 -0.01719737 0.03999996 0.03574758 -0.01722061 0.04161494 0.03906863 -0.01341223 0.03999996 0.03953611 -0.01156616 0.03999996 0.03259682 -0.02537113 0.03999996 0.03436964 -0.02265763 0.03999996 0.03019499 -0.02268475 0.0433579 0.0343995 -0.02261197 0.03999996 0.0313521 -0.01722061 0.04501932 0.03027683 -0.02789133 0.03999996 0.02872782 -0.02791595 0.04125112 0.02797627 -0.03039038 0.03999996 0.02786231 -0.03047907 0.03999996 0.0248245 -0.03284353 0.03999996 0.02440518 -0.02791595 0.04394692 0.02259266 -0.03458064 0.03999996 0.02290815 -0.03286039 0.04125112 0.02222895 -0.03477746 0.03999996 0.01861536 -0.03286039 0.0433579 0.01726424 -0.0374642 0.03999996 0.01719319 -0.03750264 0.03999996 0.01720768 -0.03746736 0.04007911 0.01659274 -0.03782761 0.03999996 0.01306283 -0.03746736 0.04161494 0.01259738 -0.03919923 0.03999996 0.01014018 -0.04004275 0.03999996 0.008783757 -0.03746736 0.04272335 0.008247852 -0.04035854 0.03999996 0.004414558 -0.03746736 0.04339301 0.004074633 -0.04105496 0.03999996 0.003411054 -0.04116564 0.03999996 0 -0.03746736 0.04361701 0 -0.04116564 0.03999996 -0.003411054 -0.04116564 0.03999996 -0.004414558 -0.03746736 0.04339301 -0.004074633 -0.04105496 0.03999996 -0.008783757 -0.03746736 0.04272335 -0.008247852 -0.04035854 0.03999996 -0.01014018 -0.04004275 0.03999996 -0.01306283 -0.03746736 0.04161494 -0.01259738 -0.03919923 0.03999996 -0.01720768 -0.03746736 0.04007911 -0.01719319 -0.03750264 0.03999996 -0.01659274 -0.03782761 0.03999996 -0.03019499 -0.02268475 0.0433579 -0.03259682 -0.02537113 0.03999996 -0.03027683 -0.02789133 0.03999996 -0.03669971 -0.01157963 0.04272335 -0.03906863 -0.01341223 0.03999996 -0.03740835 -0.01719737 0.03999996 -0.04082477 0.005816757 0.03999996 -0.04130673 0 0.03999996 -0.03746736 0 0.04361701 -0.04082477 -0.005816757 0.03999996 -0.03727495 -0.005819678 0.04339301 -0.04074335 -0.006798863 0.03999996 -0.03953611 -0.01156616 0.03999996 -0.03191268 -0.006150662 0.04743415 -0.03269165 -0.005819678 0.04694288 -0.03031963 -0.01157599 0.04743415 -0.03218716 -0.01157963 0.04621845 -0.03017193 -0.012079 0.04743415 -0.0275231 -0.01721698 0.04743415 -0.0313521 -0.01722061 0.04501932 -0.02734071 -0.01757079 0.04743415 -0.02636337 -0.01881361 0.04743415 -0.02565163 -0.02268475 0.04619133 -0.0235213 -0.02242755 0.04743415 -0.02322733 -0.0226823 0.04743415 -0.01413142 -0.03286039 0.04501932 -0.01350098 -0.029563 0.04743415 -0.01491141 -0.02874869 0.04743415 -0.01861536 -0.03286039 0.0433579 -0.01636141 -0.02791154 0.04743415 -0.01983189 -0.02791595 0.04619133 -0.01885181 -0.0264737 0.04743415 -0.02039325 -0.02513802 0.04743415 -0.004835844 -0.03199023 0.04743415 -0.004775702 -0.03286039 0.04694288 -0.001546382 -0.03246319 0.04743415 0 -0.03286039 0.04718518 0 -0.03238952 0.04743415 0.004625201 -0.03216916 0.04743415 0.004775702 -0.03286039 0.04694288 0.004827022 -0.03212022 0.04743415 0.009502351 -0.03286039 0.04621845 0.009762406 -0.03092288 0.04743415 0.01062965 -0.03071248 0.04743415 0.01413142 -0.03286039 0.04501932 0.01491099 -0.02875733 0.04743415 0.01624995 -0.02814579 0.04743415 0.01657485 -0.02791446 0.04743415 0.02038609 -0.02520048 0.04743415 0.01983189 -0.02791595 0.04619133 0.02128297 -0.02456182 0.04743415 0.02308404 -0.02267289 0.04743415 0.02565163 -0.02268475 0.04619133 0.02554666 -0.02009016 0.04743415 0.02635776 -0.01882815 0.04743415 0.03218716 -0.01157963 0.04621845 0.03021883 -0.0115658 0.04743415 0.02888715 -0.01489233 0.04743415 0.03286039 0 0.04718518 0.0323528 -0.003089308 0.04743415 0.03269165 -0.005819678 0.04694288 0.03182816 -0.005811333 0.04743415 0.03118348 -0.009156286 0.04743415 0.03269165 0.005819678 0.04694288 0.0323528 0.003089308 0.04743415 0.0323528 0 0.04743415 0.03218716 0.01157963 0.04621845 0.03118348 0.009156286 0.04743415 0.03182816 0.005811333 0.04743415 0.02635776 0.01882815 0.04743415 0.02740061 0.01720535 0.04743415 0.0313521 0.01722061 0.04501932 0.02888715 0.01489233 0.04743415 0.03021883 0.0115658 0.04743415 0.03019499 0.02268475 0.0433579 0.02554666 0.02009016 0.04743415 0.01624995 0.02814579 0.04743415 0.01657485 0.02791446 0.04743415 0.01983189 0.02791595 0.04619133 0.02038609 0.02520048 0.04743415 0.02440518 0.02791595 0.04394692 0.009762406 0.03092288 0.04743415 0.01062965 0.03071248 0.04743415 0.01413142 0.03286039 0.04501932 0.01491099 0.02875733 0.04743415 0.01861536 0.03286039 0.0433579 0.009502351 0.03286039 0.04621845 0.004775702 0.03286039 0.04694288 0.004827022 0.03212022 0.04743415 -0.004775702 0.03286039 0.04694288 -0.001546382 0.03246319 0.04743415 0 0.03286039 0.04718518 0 0.03238952 0.04743415 0.004625201 0.03216916 0.04743415 -0.009502351 0.03286039 0.04621845 -0.007662117 0.03158384 0.04743415 -0.004835844 0.03199023 0.04743415 -0.01413142 0.03286039 0.04501932 -0.01350098 0.029563 0.04743415 -0.009770989 0.03085398 0.04743415 -0.01636141 0.02791154 0.04743415 -0.01491141 0.02874869 0.04743415 -0.01885181 0.0264737 0.04743415 -0.01983189 0.02791595 0.04619133 -0.02039325 0.02513802 0.04743415 -0.02322733 0.0226823 0.04743415 -0.03218716 0.01157963 0.04621845 -0.03017193 0.012079 0.04743415 -0.0275231 0.01721698 0.04743415 -0.02734071 0.01757079 0.04743415 -0.02565163 0.02268475 0.04619133 -0.02636337 0.01881361 0.04743415 -0.0235213 0.02242755 0.04743415 -0.03194433 -0.005818784 0.04743415 -0.03249996 0 0.04743415 -0.03286039 0 0.04718518 -0.03194433 0.005818784 0.04743415 -0.03269165 0.005819678 0.04694288 -0.03191268 0.006150662 0.04743415 -0.03031963 0.01157599 0.04743415 -0.02440518 -0.02791595 0.04394692 -0.01726424 -0.0374642 0.03999996 -0.0248245 -0.03284353 0.03999996 0.02740061 -0.01720535 0.04743415 -0.03436964 -0.02265763 0.03999996 0.03436964 0.02265763 0.03999996 0.02797627 0.03039038 0.03999996 0.02259266 0.03458064 0.03999996 -0.02279758 0.02173745 0.08074998 -0.0235213 0.02242755 0.08074998 -0.02649945 0.01703017 0.08074998 -0.02734071 0.01757079 0.08074998 -0.02924358 0.01170736 0.08074998 -0.03017193 0.012079 0.08074998 -0.03093069 0.005961358 0.08074998 -0.03191268 0.006150662 0.08074998 -0.03149998 0 0.08074998 -0.03249996 0 0.08074998 -0.03093069 -0.005961358 0.08074998 -0.03191268 -0.006150662 0.08074998 -0.02924358 -0.01170736 0.08074998 -0.03017193 -0.012079 0.08074998 -0.02649945 -0.01703017 0.08074998 -0.02734071 -0.01757079 0.08074998 -0.02279758 -0.02173745 0.08074998 -0.0235213 -0.02242755 0.08074998 -0.01827174 -0.02565914 0.08074998 -0.01885181 -0.0264737 0.08074998 -0.01308554 -0.02865338 0.08074998 -0.01350098 -0.029563 0.08074998 -0.007426381 -0.03061205 0.08074998 -0.007662117 -0.03158384 0.08074998 -0.001498818 -0.03146427 0.08074998 -0.001546382 -0.03246319 0.08074998 0.004482865 -0.03117936 0.08074998 0.004625201 -0.03216916 0.08074998 0.0103026 -0.02976751 0.08074998 0.01062965 -0.03071248 0.08074998 0.01574999 -0.02727979 0.08074998 0.01624995 -0.02814579 0.08074998 0.02062809 -0.02380609 0.08074998 0.02128297 -0.02456182 0.08074998 0.02476066 -0.019472 0.08074998 0.02554666 -0.02009016 0.08074998 0.02799826 -0.01443409 0.08074998 0.02888715 -0.01489233 0.08074998 0.03022402 -0.008874535 0.08074998 0.03118348 -0.009156286 0.08074998 0.03135734 -0.002994239 0.08074998 0.0323528 -0.003089308 0.08074998 0.03149998 0 0.08074998 0.03249996 0 0.08074998 0.03135734 0.002994239 0.08074998 0.0323528 0.003089308 0.08074998 0.03022402 0.008874535 0.08074998 0.03118348 0.009156286 0.08074998 0.02799826 0.01443409 0.08074998 0.02888715 0.01489233 0.08074998 0.02476066 0.019472 0.08074998 0.02554666 0.02009016 0.08074998 0.02062809 0.02380609 0.08074998 0.02128297 0.02456182 0.08074998 0.01574999 0.02727979 0.08074998 0.01624995 0.02814579 0.08074998 0.0103026 0.02976751 0.08074998 0.01062965 0.03071248 0.08074998 0.004482865 0.03117936 0.08074998 0.004625201 0.03216916 0.08074998 -0.001498818 0.03146427 0.08074998 -0.001546382 0.03246319 0.08074998 -0.007426381 0.03061205 0.08074998 -0.007662117 0.03158384 0.08074998 -0.01308554 0.02865338 0.08074998 -0.01350098 0.029563 0.08074998 -0.01827174 0.02565914 0.08074998 -0.01885181 0.0264737 0.08074998 0.03249996 0 0.08074998 -0.03249996 0 0.04743415 0.03135734 0.002994239 0.08399999 0.03149998 0 0.08399999 0.03149998 0 0.08074998 0.03022402 0.008874535 0.08399999 0.02799826 0.01443409 0.08399999 0.02476066 0.019472 0.08399999 0.02062809 0.02380609 0.08399999 0.01574999 0.02727979 0.08399999 0.0103026 0.02976751 0.08399999 0.004482865 0.03117936 0.08399999 -0.001498818 0.03146427 0.08399999 -0.007426381 0.03061205 0.08399999 -0.01308554 0.02865338 0.08399999 -0.01827174 0.02565914 0.08399999 -0.02279758 0.02173745 0.08399999 -0.02649945 0.01703017 0.08399999 -0.02924358 0.01170736 0.08399999 -0.03093069 0.005961358 0.08399999 -0.03149998 0 0.08399999 -0.03093069 -0.005961358 0.08399999 -0.02924358 -0.01170736 0.08399999 -0.02649945 -0.01703017 0.08399999 -0.02279758 -0.02173745 0.08399999 -0.01827174 -0.02565914 0.08399999 -0.01308554 -0.02865338 0.08399999 -0.007426381 -0.03061205 0.08399999 -0.001498818 -0.03146427 0.08399999 0.004482865 -0.03117936 0.08399999 0.0103026 -0.02976751 0.08399999 0.01574999 -0.02727979 0.08399999 0.02062809 -0.02380609 0.08399999 0.02476066 -0.019472 0.08399999 0.02799826 -0.01443409 0.08399999 0.03022402 -0.008874535 0.08399999 0.03135734 -0.002994239 0.08399999 0.03149998 0 0.08399999 0.04130673 0 0.03999996</float_array>
          <technique_common>
            <accessor source="#Arm_6_Link_001-mesh-positions-array" count="367" stride="3">
              <param name="X" type="float"/>
              <param name="Y" type="float"/>
              <param name="Z" type="float"/>
            </accessor>
          </technique_common>
        </source>
        <source id="Arm_6_Link_001-mesh-normals">
          <float_array id="Arm_6_Link_001-mesh-normals-array" count="1866">0.401122 0.3824676 0.832358 -0.182485 -0.5272568 0.8298792 -0.5556163 -0.3630008 0.7480114 -0.394792 -0.507257 0.7660481 -0.3218766 -0.5947993 0.7366202 0.5556163 0.3630008 0.7480114 0.547533 0.5040405 0.6679453 0.4497459 0.5778344 0.6810552 -0.6690633 0.1514096 0.727619 -0.6405087 0.2507387 0.7258642 -0.6825942 0.1728549 0.7100608 -0.6825943 0.1728562 0.7100604 -0.5556176 0.3630005 0.7480106 -0.6686121 0.2932793 0.6833338 -0.6686143 0.2932817 0.6833307 -0.5890096 0.3466877 0.7299832 -0.5028406 0.4628974 0.7299846 -0.581304 0.3797864 0.7196165 -0.5813072 0.3797299 0.7196438 -0.394792 0.507257 0.7660481 -0.4551827 0.5099878 0.7298776 -0.4234989 0.544112 0.7242866 -0.3218766 0.5947993 0.7366202 -0.353815 0.5958735 0.7209367 -0.3341519 0.6174587 0.7121007 -0.4552865 0.8411896 0.2917438 -0.2714213 0.6242892 0.7325254 -0.2388749 0.695818 0.6773302 -0.2388746 0.6958189 0.6773294 -0.1871663 0.6654988 0.7225511 -0.1155323 0.6923424 0.7122601 -0.10933 0.6922236 0.7133538 -0.1148583 0.6883107 0.7162653 -0.1148518 0.6883099 0.7162671 -0.0371049 0.6810244 0.7313201 0 0.699207 0.7149193 0.0371049 0.6810244 0.7313201 0.1148518 0.6883099 0.7162671 0.1098757 0.6884506 0.7169122 0.1155316 0.6923425 0.7122601 0.1155323 0.6923424 0.7122601 0.1871663 0.6654988 0.7225511 0.2388769 0.6958181 0.6773294 0.4552631 0.8411967 0.2917597 0.4552786 0.8411922 0.2917485 0.14131 0.9135685 0.3813452 0.2992922 0.5530397 0.7775418 0.2388741 0.6958179 0.6773306 0.6405084 0.2507382 0.7258647 0.6686143 0.2932817 0.6833307 0.6686121 0.2932793 0.6833338 0.6848362 -0.05061799 0.7269369 0.6846103 0.05672866 0.7266985 0.690103 0.05060017 0.7219401 0.6898605 0.05715984 0.7216823 0.6690633 0.1514098 0.727619 0.6825943 0.1728562 0.7100604 0.6825942 0.1728549 0.7100608 0.6690633 -0.1514093 0.7276191 0.6898605 -0.05715984 0.7216823 0.6898605 -0.05716407 0.721682 0.6686126 -0.2932791 0.6833334 0.6686143 -0.2932817 0.6833307 0.6405087 -0.2507387 0.7258642 0.6825942 -0.1728549 0.7100608 0.6825943 -0.1728562 0.7100604 0.5813037 -0.3797866 0.7196167 0.5813072 -0.3797299 0.7196438 0.5890096 -0.3466881 0.729983 0.5475322 -0.5040388 0.6679472 0.394792 -0.507257 0.7660481 0.4234988 -0.5441119 0.7242866 0.4551823 -0.5099879 0.7298777 0.4751644 -0.4401164 0.7619162 0.56863 -0.4395144 0.6953324 0.5028406 -0.4628974 0.7299846 0.3218766 -0.5947993 0.7366202 0.353815 -0.5958735 0.7209367 0.3341519 -0.6174587 0.7121007 0.4552865 -0.8411896 0.2917438 0.2714213 -0.6242892 0.7325254 0.2388749 -0.695818 0.6773302 0.2388746 -0.6958189 0.6773294 0.1871663 -0.6654988 0.7225511 0.1155323 -0.6923424 0.7122601 0.10933 -0.6922236 0.7133538 0.1148583 -0.6883107 0.7162653 0.1148518 -0.6883099 0.7162671 0.0371049 -0.6810244 0.7313201 0 -0.699207 0.7149193 -0.0371049 -0.6810244 0.7313201 -0.1148518 -0.6883099 0.7162671 -0.1098757 -0.6884506 0.7169122 -0.1155316 -0.6923425 0.7122601 -0.1155323 -0.6923424 0.7122601 -0.1871663 -0.6654988 0.7225511 -0.2388769 -0.6958181 0.6773294 -0.14131 -0.9135685 0.3813452 -0.2992922 -0.5530397 0.7775418 -0.2388741 -0.6958179 0.6773306 -0.5252032 -0.4405236 0.7280801 -0.5475322 -0.5040408 0.6679457 -0.5475324 -0.5040391 0.6679469 -0.6405084 -0.2507382 0.7258647 -0.6686143 -0.2932817 0.6833307 -0.6686121 -0.2932793 0.6833338 -0.6898604 0.05715984 0.7216824 -0.6898605 0.05716407 0.721682 -0.6848362 0.05061799 0.7269369 -0.6846103 -0.05672866 0.7266985 -0.690103 -0.05060017 0.7219401 -0.6898605 -0.05715984 0.7216823 -0.6690633 -0.1514098 0.727619 -0.6825943 -0.1728562 0.7100604 -0.6825942 -0.1728549 0.7100608 -0.5761598 -0.1691783 0.7996366 -0.539061 -0.1514195 0.8285442 -0.5384787 -0.1581081 0.827673 -0.5458341 -0.2813996 0.7892271 -0.5162597 -0.2505122 0.8189748 -0.5141808 -0.2650698 0.8156936 -0.5057216 -0.3472207 0.7897364 -0.4733073 -0.3722143 0.7983964 -0.4410321 -0.3468324 0.8277669 -0.403371 -0.46551 0.7877768 -0.2131095 -0.5270089 0.8227065 -0.1923009 -0.5556148 0.808896 -0.3029339 -0.524698 0.7955647 -0.2957459 -0.5248575 0.7981598 -0.300785 -0.520974 0.7988208 -0.2856273 -0.5284277 0.7994881 -0.2907138 -0.5035273 0.8136005 -0.3818085 -0.4406278 0.8124467 -0.08869498 -0.61689 0.7820358 -0.1317003 -0.4942306 0.8592969 -0.07103991 -0.4940984 0.8664989 -0.03912079 -0.6355662 0.7710546 0.02226299 -0.4672948 0.8838213 0.02225941 -0.4672918 0.8838229 0.04153561 -0.5727958 0.8186451 0.1344815 -0.5544311 0.8212923 0.1260568 -0.5546395 0.8224869 0.1308726 -0.5394662 0.8317744 0.1308797 -0.5394674 0.8317726 0.2074062 -0.5620383 0.8006845 0.2401462 -0.5258483 0.8159739 0.2401463 -0.5258494 0.8159731 0.2931233 -0.5369041 0.7910833 0.3573284 -0.5018014 0.7877259 0.3186345 -0.4474668 0.835611 0.3903654 -0.4636027 0.7954166 0.4011194 -0.3824679 0.8323591 0.538625 -0.3461557 0.7681534 0.5074801 -0.2503829 0.8244831 0.5643969 -0.2259493 0.7939794 0.6694815 -0.05026763 0.7411261 0.4916 -0.09474945 0.8656512 0.4877553 -0.1508625 0.8598462 0.6323662 -0.1218785 0.7650221 0.5132341 -0.205466 0.8332915 0.6694815 0.05026763 0.7411261 0.4403849 0 0.8978091 0.5926601 0.1514044 0.7910947 0.4916024 0.09474772 0.8656501 0.4916 0.09474945 0.8656512 0.4936255 0.3172351 0.8097505 0.4936249 0.317234 0.8097513 0.5461578 0.25075 0.7992722 0.5132331 0.2054666 0.8332919 0.5132341 0.205466 0.8332915 0.4964237 0.3470602 0.7956839 0.496236 0.3472723 0.7957085 0.5386284 0.3461548 0.7681514 0.4011204 0.3824678 0.8323587 0.3186336 0.4474602 0.8356149 0.3186405 0.4474655 0.8356093 0.3939357 0.4477685 0.8026942 0.1504656 0.6202178 0.7698636 0.2401461 0.525848 0.8159741 0.2955798 0.5256317 0.7977117 0.2111063 0.5396894 0.814966 0.1275663 0.5393815 0.8323427 0.1345043 0.554427 0.8212913 -0.03912091 0.6355677 0.7710534 0.02226138 0.4672965 0.8838204 0.04480677 0.4669424 0.8831518 0.02739793 0.5751292 0.8176037 0.1344789 0.5544307 0.8212929 -0.12277 0.5858782 0.8010458 -0.07104218 0.4940987 0.8664984 -0.07103991 0.4940984 0.8664989 -0.209191 0.5514178 0.8075752 -0.1824839 0.5272552 0.8298806 -0.1824864 0.5272565 0.8298792 -0.296077 0.5233095 0.799053 -0.3029344 0.5246961 0.7955657 -0.3029339 0.524698 0.7955647 -0.3818087 0.4406281 0.8124464 -0.3955263 0.4404878 0.805934 -0.3887809 0.448678 0.8046972 -0.5448454 0.2507464 0.8001686 -0.514176 0.2650768 0.8156945 -0.5000326 0.3471274 0.7933916 -0.5697891 0.2937411 0.7675004 -0.494497 0.3560221 0.7929193 -0.441029 0.3468331 0.8277684 -0.441032 0.3468325 0.827767 -0.5485163 -0.05237567 0.8344979 -0.5485222 -0.05237817 0.8344939 -0.5676389 -0.05067002 0.8217169 -0.5675311 0.05419224 0.8215666 -0.5485769 0.0506531 0.8345643 -0.5485184 0.05237561 0.8344966 -0.5725188 0.1514856 0.8057757 -0.5384792 0.1581118 0.8276719 -0.5384789 0.1581081 0.8276728 0.4552921 -0.8411856 0.2917461 0.6912338 -0.5471642 0.4720248 0.274827 -0.6118412 0.7417012 0.2748267 -0.6118404 0.7417019 0.198345 -0.6118408 0.7657089 0.1983464 -0.6118404 0.7657089 0.1198281 -0.6118409 0.7818517 0.1198276 -0.6118408 0.7818519 0.04008024 -0.6118406 0.789965 0.04008078 -0.61184 0.7899655 -0.04008024 -0.6118405 0.7899651 -0.04008078 -0.6118401 0.7899655 -0.119827 -0.6118409 0.7818518 -0.1198285 -0.6118403 0.7818521 -0.1983449 -0.6118403 0.7657095 -0.1983464 -0.6118406 0.7657088 -0.2748259 -0.6118409 0.7417018 -0.2748278 -0.6118409 0.7417011 -0.403371 -0.4655141 0.7877745 -0.3958277 -0.4401211 0.8059863 -0.3955263 -0.4404878 0.805934 -0.3739674 -0.5286808 0.7620008 -0.3739675 -0.5286794 0.7620016 -0.353815 -0.5958732 0.720937 -0.3391472 -0.6120613 0.7143949 -0.4552685 -0.8411936 0.2917605 -0.4552786 -0.8411922 0.2917485 0.4497474 -0.5778332 0.6810552 0.4675099 -0.5280673 0.7089285 0.3739681 -0.5286803 0.7620008 0.3739668 -0.5286801 0.7620015 0.302356 -0.5288441 0.7930352 0.3186405 -0.4474654 0.8356093 -0.4963369 -0.3467594 0.7958692 -0.475163 -0.4401166 0.7619171 -0.4751639 -0.4401158 0.7619168 -0.4551823 -0.5099879 0.7298777 -0.4378445 -0.5289346 0.7269941 -0.4497451 -0.5778346 0.6810555 -0.4497485 -0.5778328 0.6810548 0.4936251 -0.3172338 0.8097512 0.4936257 -0.3172347 0.8097505 0.4964237 -0.3470602 0.7956839 0.4962359 -0.3472722 0.7957085 0.4751625 -0.4401161 0.7619176 0.3895967 -0.4399714 0.809098 0.4387779 -0.4183736 0.7952595 -0.5704936 0.3632981 0.736581 -0.5928172 0.2504575 0.7654011 -0.5928155 0.2504571 0.7654026 -0.6052824 0.151304 0.7814989 -0.6052835 0.1513028 0.7814982 -0.6115472 0.05060678 0.7895879 -0.6115485 0.05060505 0.789587 -0.6115484 -0.05060654 0.7895869 -0.6115472 -0.05060529 0.789588 -0.6052835 -0.1513033 0.7814981 -0.6052823 -0.1513039 0.7814989 -0.5928176 -0.2504568 0.7654011 -0.5928151 -0.250458 0.7654026 -0.5704935 -0.3632981 0.7365811 -0.5890096 -0.3466877 0.7299832 -0.5813072 -0.3797299 0.7196438 -0.581304 -0.3797864 0.7196165 0.5813049 0.3797278 0.7196468 0.5890098 0.3466877 0.729983 0.5704936 0.3632981 0.736581 0.592815 0.250458 0.7654026 0.5928176 0.2504565 0.7654011 0.6052824 0.1513035 0.781499 0.6052834 0.1513032 0.7814982 0.6115472 0.05060547 0.789588 0.6115484 0.05060678 0.7895869 0.6115485 -0.05060529 0.789587 0.6115472 -0.05060702 0.7895879 0.6052835 -0.1513028 0.7814981 0.6052823 -0.1513039 0.7814989 0.5928155 -0.2504571 0.7654026 0.5928173 -0.2504574 0.7654012 0.5704935 -0.3632981 0.7365811 0.5556175 -0.3630005 0.7480107 -0.403371 0.46551 0.7877768 -0.4092211 0.4403712 0.7991316 -0.4751626 0.4401161 0.7619177 -0.4751645 0.4401165 0.7619162 -0.56863 0.4395144 0.6953324 -0.5475322 0.5040388 0.6679472 0.5813034 0.3797867 0.7196169 0.5252032 0.4405236 0.7280801 0.4751629 0.440117 0.7619168 0.4751639 0.4401158 0.7619168 0.415628 0.4404559 0.7957713 0.3531842 0.4959754 0.7932649 -0.2907128 0.5035275 0.8136008 -0.2856276 0.5284276 0.7994881 -0.3739668 0.5286801 0.7620016 -0.3739681 0.5286802 0.7620008 -0.4675095 0.5280671 0.7089288 -0.4497482 0.5778325 0.6810551 0.5475322 0.5040388 0.6679472 0.3947961 0.507256 0.7660466 0.4551821 0.5099881 0.7298777 0.4378445 0.5289346 0.7269941 0.3739674 0.528681 0.7620007 0.3739675 0.5286794 0.7620016 0.3082788 0.5289528 0.7906789 0.2541232 0.5564534 0.7910633 0.4497482 0.5778325 0.6810551 0.3218702 0.5948007 0.7366219 0.3538152 0.5958732 0.720937 0.3391472 0.6120613 0.7143949 0.2748277 0.6118406 0.7417014 0.2748259 0.6118412 0.7417015 0.1983464 0.6118406 0.7657088 0.1983449 0.6118402 0.7657095 0.1198286 0.6118409 0.7818516 0.119827 0.611841 0.7818518 0.04008078 0.6118401 0.7899655 0.04008024 0.6118405 0.7899651 -0.04008078 0.61184 0.7899655 -0.04008024 0.6118406 0.789965 -0.1198276 0.6118408 0.7818519 -0.1198281 0.6118404 0.7818521 -0.1983464 0.6118404 0.7657089 -0.198345 0.6118409 0.7657089 -0.2748267 0.6118404 0.7417019 -0.274827 0.6118412 0.7417011 -0.6912475 0.5471523 0.4720183 -0.4553101 0.8411875 0.2917128 0 0 1 -9.76406e-6 0 1 9.46362e-6 0 1 9.46363e-6 0 1 -9.76406e-6 0 1 -4.88207e-6 0 1 2.36591e-6 0 1 -9.46363e-6 0 1 9.76407e-6 0 1 -9.76408e-6 0 1 -4.88203e-6 0 1 9.76408e-6 0 1 -9.46362e-6 0 1 -0.9954721 -0.09505552 0 -0.9954726 -0.09504944 0 -0.9594928 -0.2817335 0 -0.9594931 -0.2817325 0 -0.9594928 -0.2817335 0 -0.8888356 -0.4582265 0 -0.8888354 -0.4582268 0 -0.7860533 -0.6181587 0 -0.7860532 -0.6181588 0 -0.786052 -0.6181604 0 -0.8888375 -0.4582229 0 -0.6548641 -0.7557466 0 -0.6548603 -0.7557501 0 -0.654861 -0.7557494 0 -0.4999996 -0.8660257 0 -0.5 -0.8660255 1.41386e-7 -0.5000007 -0.8660252 0 -0.6548601 -0.7557502 0 -0.5000004 -0.8660252 0 -0.3270681 -0.9450008 0 -0.327068 -0.9450008 0 -0.3270675 -0.9450011 0 -0.1423146 -0.9898215 0 -0.142315 -0.9898215 -1.41386e-7 0.04758226 -0.9988673 0 0.04758203 -0.9988674 1.41386e-7 0.04758131 -0.9988674 0 -0.1423154 -0.9898214 0 0.2357635 -0.9718105 0 0.2357587 -0.9718117 -1.72012e-7 0.2357589 -0.9718116 1.23713e-7 0.2357597 -0.9718114 0 0.4154152 -0.909632 0 0.4154149 -0.9096321 0 0.5800567 -0.8145761 0 0.5800566 -0.8145762 -1.41386e-7 0.58006 -0.8145738 0 0.4154152 -0.9096319 0 0.7237343 -0.6900788 0 0.7237342 -0.6900789 0 0.7237347 -0.6900783 0 0.5800576 -0.8145754 0 0.8412536 -0.5406408 0 0.8412533 -0.5406413 0 0.8412536 -0.5406408 0 0.8412538 -0.5406406 0 0.9283684 -0.3716614 0 0.9283679 -0.3716629 0 0.9283679 -0.3716626 0 0.9819288 -0.1892506 0 0.9819287 -0.1892513 0 0.9819286 -0.1892523 0 0.9988673 -0.04758292 0 0.9999904 0 -0.004417061 0.9988576 0.04758244 -0.004412055 1 0 0 0.9819286 0.1892523 0 0.9819287 0.1892513 0 0.9819288 0.1892506 0 0.9283679 0.3716626 0 0.9283679 0.3716629 0 0.8412533 0.5406413 0 0.8412536 0.5406407 0 0.8412538 0.5406406 0 0.9283684 0.3716614 0 0.7237347 0.6900783 0 0.7237342 0.6900789 0 0.7237343 0.6900788 0 0.8412536 0.5406408 0 0.5800576 0.8145754 0 0.5800567 0.8145761 0 0.5800566 0.8145762 0 0.58006 0.8145738 0 0.4154152 0.9096319 0 0.4154149 0.9096321 0 0.2357587 0.9718117 -1.72012e-7 0.2357589 0.9718116 1.41386e-7 0.2357597 0.9718114 0 0.4154152 0.909632 0 0.2357635 0.9718105 0 0.04758226 0.9988673 0 0.04758203 0.9988674 2.12079e-7 0.04758131 0.9988674 0 -0.1423154 0.9898214 0 -0.142315 0.9898215 -1.41386e-7 -0.1423146 0.9898215 0 -0.3270675 0.9450011 0 -0.327068 0.9450008 0 -0.4999985 0.8660264 -2.60881e-7 -0.5000002 0.8660254 1.41386e-7 -0.5000004 0.8660252 0 -0.3270681 0.9450008 0 -0.6548603 0.7557501 0 -0.654861 0.7557494 0 -0.6548601 0.7557502 0 -0.5000007 0.8660252 0 -0.6548641 0.7557466 0 -0.7860533 0.6181587 0 -0.7860533 0.6181589 0 -0.786052 0.6181604 0 -0.8888375 0.4582229 0 -0.8888353 0.4582268 0 -0.8888356 0.4582265 0 -0.9594928 0.2817335 0 -0.9594931 0.2817325 0 -0.9594928 0.2817335 0 -0.9954726 0.09504944 0 -0.9954721 0.09505552 0 -0.995472 0.09505581 0 -0.995472 -0.09505581 0 0.9988673 0.04758244 0 0.9988673 -0.04758214 0 0.9988673 0.04758214 0 0.9819289 0.1892507 0 0.9819287 0.1892512 0 0.9283683 0.3716616 0 0.9283679 0.3716627 0 0.8412535 0.540641 0 0.723735 0.6900781 0 0.7237336 0.6900796 0 0.5800575 0.8145756 0 0.5800578 0.8145754 0 0.4154165 0.9096313 0 0.4154139 0.9096325 0 0.2357592 0.9718116 0 0.2357585 0.9718117 0 0.04758173 0.9988673 0 0.04758137 0.9988675 0 -0.1423146 0.9898216 0 -0.1423146 0.9898215 0 -0.3270691 0.9450005 0 -0.3270664 0.9450014 0 -0.5000016 0.8660246 0 -0.4999993 0.8660259 0 -0.6548618 0.7557488 0 -0.6548614 0.7557491 0 -0.7860535 0.6181585 0 -0.7860521 0.6181604 0 -0.8888354 0.4582266 0 -0.8888351 0.4582272 0 -0.9594931 0.2817322 0 -0.9594929 0.281733 0 -0.9954721 0.09505546 0 -0.995472 0.09505677 0 -0.995472 -0.09505617 0 -0.995472 -0.09505599 0 -0.9594931 -0.2817322 0 -0.9594929 -0.281733 0 -0.8888357 -0.458226 0 -0.8888348 -0.4582279 0 -0.7860532 -0.6181589 0 -0.7860524 -0.6181599 0 -0.6548614 -0.7557491 0 -0.6548618 -0.7557488 0 -0.5000016 -0.8660246 0 -0.4999993 -0.8660259 0 -0.3270691 -0.9450005 0 -0.3270664 -0.9450014 0 -0.1423146 -0.9898215 0 -0.1423146 -0.9898216 0 0.04758173 -0.9988673 0 0.04758137 -0.9988675 0 0.2357592 -0.9718115 0 0.2357585 -0.9718117 0 0.4154164 -0.9096314 0 0.4154141 -0.9096325 0 0.5800578 -0.8145754 0 0.5800575 -0.8145756 0 0.723735 -0.6900781 0 0.7237336 -0.6900796 0 0.8412535 -0.540641 0 0.9283683 -0.3716616 0 0.9283679 -0.3716627 0 0.9819289 -0.1892507 0 0.9819287 -0.1892512 0 0.9988673 -0.04758244 0 -3.20782e-7 0 1 1.43586e-6 0 1 -9.79249e-7 0 1 -2.18704e-7 0 1 -3.58964e-7 0 1 1.44681e-6 0 1 5.36018e-7 0 1 -9.05919e-7 0 1 -2.4911e-6 0 1 1.84659e-6 0 1 7.23353e-7 0 1 -2.50617e-7 0 1 1.86743e-6 0 1 -2.07964e-6 0 1 4.35942e-6 0 1 -2.71776e-6 0 1 5.89378e-6 0 1 -8.57633e-6 0 1 0 0 -1 2.00151e-6 0 -1 -2.02437e-6 0 -1 1.48727e-6 0 -1 -2.21782e-5 0 -1 0 0 -1 9.07986e-7 0 -1 -1.0953e-5 0 -1 8.80866e-6 0 -1 -3.87288e-5 0 -1 0 0 -1 1.06178e-6 0 -1 -3.13649e-5 0 -1 -1.47047e-6 0 -1 2.19278e-5 0 -1 0 0 -1 -1.02558e-6 0 -1 3.02959e-5 0 -1 -1.36027e-6 0 -1 8.77924e-7 0 -1 1.52643e-5 0 -1 -1.44143e-6 0 -1 3.65187e-6 0 -1 -4.1988e-6 0 -1 -1.44283e-6 0 -1 1.19736e-5 0 -1 -1.00123e-5 0 -1 1.59207e-6 0 -1 2.09838e-6 0 -1 -2.54529e-6 0 -1 -9.14459e-6 0 -1 4.34651e-6 0 -1 3.95556e-6 0 -1 5.85696e-6 0 -1 -1.03571e-5 0 -1 5.29815e-6 0 -1 0.001204431 0 -0.9999993 -9.32407e-6 0 -1 8.82902e-7 0 -1 -1.40953e-6 0 -1 1.49529e-6 0 -1 -7.77639e-6 0 -1 3.87288e-5 0 -1 2.2536e-6 0 -1 -1.4661e-6 0 -1 1.16784e-6 0 -1 -7.59614e-5 0 -1 4.39792e-6 0 -1 -3.74797e-5 0 -1 -3.0935e-6 0 -1 6.71132e-5 0 -1 -4.1226e-7 0 -1 7.66319e-6 0 -1 -3.48835e-6 0 -1 2.50944e-6 0 -1 1.44283e-6 0 -1 1.00123e-5 0 -1 -1.20649e-6 0 -1 4.54863e-6 0 -1 -8.72219e-5 0 -1 2.74179e-6 0 -1 1.26146e-5 0 -1 -1.24805e-6 0 -1 -1.07649e-5 0 -1 -1.95269e-6 0 -1 3.88277e-6 0 -1 -1.19736e-5 0 -1 -3.51102e-6 0 -1 2.54529e-6 0 -1 -1.00465e-6 0 -1</float_array>
          <technique_common>
            <accessor source="#Arm_6_Link_001-mesh-normals-array" count="622" stride="3">
              <param name="X" type="float"/>
              <param name="Y" type="float"/>
              <param name="Z" type="float"/>
            </accessor>
          </technique_common>
        </source>
        <vertices id="Arm_6_Link_001-mesh-vertices">
          <input semantic="POSITION" source="#Arm_6_Link_001-mesh-positions"/>
        </vertices>
        <polylist count="720">
          <input semantic="VERTEX" source="#Arm_6_Link_001-mesh-vertices" offset="0"/>
          <input semantic="NORMAL" source="#Arm_6_Link_001-mesh-normals" offset="1"/>
          <vcount>3 3 3 3 3 3 3 3 3 3 3 3 3 3 3 3 3 3 3 3 3 3 3 3 3 3 3 3 3 3 3 3 3 3 3 3 3 3 3 3 3 3 3 3 3 3 3 3 3 3 3 3 3 3 3 3 3 3 3 3 3 3 3 3 3 3 3 3 3 3 3 3 3 3 3 3 3 3 3 3 3 3 3 3 3 3 3 3 3 3 3 3 3 3 3 3 3 3 3 3 3 3 3 3 3 3 3 3 3 3 3 3 3 3 3 3 3 3 3 3 3 3 3 3 3 3 3 3 3 3 3 3 3 3 3 3 3 3 3 3 3 3 3 3 3 3 3 3 3 3 3 3 3 3 3 3 3 3 3 3 3 3 3 3 3 3 3 3 3 3 3 3 3 3 3 3 3 3 3 3 3 3 3 3 3 3 3 3 3 3 3 3 3 3 3 3 3 3 3 3 3 3 3 3 3 3 3 3 3 3 3 3 3 3 3 3 3 3 3 3 3 3 3 3 3 3 3 3 3 3 3 3 3 3 3 3 3 3 3 3 3 3 3 3 3 3 3 3 3 3 3 3 3 3 3 3 3 3 3 3 3 3 3 3 3 3 3 3 3 3 3 3 3 3 3 3 3 3 3 3 3 3 3 3 3 3 3 3 3 3 3 3 3 3 3 3 3 3 3 3 3 3 3 3 3 3 3 3 3 3 3 3 3 3 3 3 3 3 3 3 3 3 3 3 3 3 3 3 3 3 3 3 3 3 3 3 3 3 3 3 3 3 3 3 3 3 3 3 3 3 3 3 3 3 3 3 3 3 3 3 3 3 3 3 3 3 3 3 3 3 3 3 3 3 3 3 3 3 3 3 3 3 3 3 3 3 3 3 3 3 3 3 3 3 3 3 3 3 3 3 3 3 3 3 3 3 3 3 3 3 3 3 3 3 3 3 3 3 3 3 3 3 3 3 3 3 3 3 3 3 3 3 3 3 3 3 3 3 3 3 3 3 3 3 3 3 3 3 3 3 3 3 3 3 3 3 3 3 3 3 3 3 3 3 3 3 3 3 3 3 3 3 3 3 3 3 3 3 3 3 3 3 3 3 3 3 3 3 3 3 3 3 3 3 3 3 3 3 3 3 3 3 3 3 3 3 3 3 3 3 3 3 3 3 3 3 3 3 3 3 3 3 3 3 3 3 3 3 3 3 3 3 3 3 3 3 3 3 3 3 3 3 3 3 3 3 3 3 3 3 3 3 3 3 3 3 3 3 3 3 3 3 3 3 3 3 3 3 3 3 3 3 3 3 3 3 3 3 3 3 3 3 3 3 3 3 3 3 3 3 3 3 3 3 3 3 3 3 3 3 3 3 3 3 3 3 3 3 3 3 3 3 3 3 3 3 3 3 3 3 3 3 3 3 3 3 3 3 3 3 3 3 3 3 3 3 3 3 3 3 3 3 3 3 3 3 3 3 3 3 3 3 3 3 3 3 3 3 3 3 3 3 3 3 3 3 3 3 3 3 3 3 3 3 3 3 3 3 3 3 3 3 3 3 3 3 3 3 3 3 3 3 3 3 3 3 3 3 3 3 3 3 3 3 3 3 3 3 3 3 3 3 3 3 3 3 3 3 3 3 </vcount>
          <p>0 0 1 0 2 0 3 1 4 1 5 1 6 2 7 2 8 2 9 3 10 3 11 3 12 4 13 4 14 4 15 5 16 5 17 5 18 6 19 6 20 6 21 7 22 7 23 7 24 8 25 8 26 8 27 9 28 9 26 9 26 10 28 10 29 10 26 11 29 11 24 11 30 12 31 12 27 12 27 13 31 13 32 13 27 14 32 14 28 14 33 15 34 15 30 15 35 16 36 16 34 16 34 17 36 17 37 17 34 18 37 18 30 18 38 19 39 19 40 19 40 20 39 20 41 20 40 21 41 21 42 21 43 22 44 22 45 22 45 23 44 23 46 23 45 24 46 24 47 24 48 25 49 25 50 25 50 26 49 26 51 26 50 27 51 27 52 27 52 28 51 28 53 28 53 29 51 29 54 29 53 30 54 30 55 30 55 31 54 31 56 31 55 32 56 32 57 32 57 33 56 33 58 33 58 34 56 34 59 34 58 35 59 35 60 35 60 35 59 35 61 35 61 36 59 36 62 36 61 37 62 37 63 37 63 38 62 38 64 38 63 39 64 39 65 39 65 40 64 40 66 40 66 41 64 41 67 41 66 42 67 42 68 42 69 43 70 43 71 43 71 44 70 44 72 44 71 45 72 45 67 45 67 46 72 46 73 46 67 47 73 47 68 47 74 48 75 48 17 48 17 49 75 49 76 49 17 50 76 50 15 50 77 51 78 51 79 51 79 52 78 52 80 52 79 53 80 53 81 53 81 54 80 54 82 54 81 55 82 55 74 55 74 56 82 56 83 56 74 57 83 57 75 57 84 58 85 58 77 58 77 59 85 59 86 59 77 60 86 60 78 60 87 61 88 61 89 61 89 62 88 62 90 62 89 63 90 63 84 63 84 64 90 64 91 64 84 65 91 65 85 65 92 66 93 66 94 66 94 67 93 67 95 67 94 68 95 68 96 68 97 69 98 69 99 69 99 70 98 70 100 70 101 71 100 71 102 71 102 72 100 72 98 72 102 73 98 73 94 73 94 74 98 74 97 74 94 75 97 75 92 75 103 76 104 76 105 76 105 77 104 77 106 77 105 78 106 78 107 78 108 79 109 79 110 79 110 80 109 80 111 80 110 81 111 81 112 81 112 82 111 82 113 82 113 83 111 83 114 83 113 84 114 84 115 84 115 85 114 85 116 85 115 86 116 86 117 86 117 87 116 87 118 87 118 88 116 88 119 88 118 89 119 89 120 89 120 89 119 89 121 89 121 90 119 90 122 90 121 91 122 91 123 91 123 92 122 92 124 92 123 93 124 93 125 93 125 94 124 94 126 94 126 95 124 95 127 95 126 96 127 96 128 96 129 97 130 97 127 97 127 98 130 98 131 98 127 99 131 99 128 99 132 100 133 100 11 100 11 101 133 101 134 101 11 102 134 102 9 102 135 103 136 103 8 103 8 104 136 104 137 104 8 105 137 105 6 105 24 106 138 106 25 106 25 107 138 107 139 107 25 108 139 108 140 108 140 109 139 109 141 109 140 110 141 110 142 110 142 111 141 111 143 111 142 112 143 112 135 112 135 113 143 113 144 113 135 114 144 114 136 114 145 115 146 115 147 115 147 116 146 116 148 116 147 117 148 117 149 117 149 118 148 118 150 118 150 119 148 119 151 119 150 120 151 120 152 120 152 121 151 121 132 121 152 122 132 122 153 122 153 123 154 123 155 123 155 124 154 124 156 124 5 125 4 125 157 125 4 126 158 126 157 126 157 127 158 127 159 127 157 128 159 128 160 128 160 129 159 129 161 129 160 130 161 130 162 130 162 131 161 131 163 131 162 132 163 132 164 132 3 133 5 133 165 133 165 134 5 134 166 134 165 135 166 135 167 135 167 136 166 136 168 136 167 137 168 137 169 137 169 138 168 138 170 138 170 139 168 139 171 139 170 140 171 140 172 140 172 141 171 141 173 141 172 142 173 142 174 142 174 143 173 143 175 143 175 144 173 144 176 144 175 145 176 145 177 145 177 146 176 146 178 146 178 147 176 147 106 147 178 148 106 148 179 148 180 149 181 149 182 149 182 150 181 150 102 150 183 151 184 151 185 151 185 152 184 152 186 152 187 153 188 153 96 153 96 154 188 154 189 154 190 155 191 155 192 155 192 156 191 156 193 156 192 157 193 157 187 157 187 158 193 158 194 158 187 159 194 159 188 159 195 160 196 160 190 160 190 161 196 161 197 161 190 161 197 161 191 161 198 162 199 162 195 162 195 163 199 163 200 163 195 164 200 164 196 164 201 165 202 165 203 165 203 166 202 166 204 166 203 167 204 167 198 167 198 168 204 168 205 168 198 169 205 169 199 169 203 170 206 170 201 170 201 171 206 171 2 171 201 172 2 172 207 172 207 173 2 173 1 173 208 174 209 174 210 174 210 175 209 175 211 175 210 176 211 176 212 176 213 177 214 177 215 177 215 178 214 178 216 178 215 179 216 179 217 179 215 180 218 180 213 180 213 181 218 181 219 181 213 182 219 182 220 182 221 183 222 183 223 183 223 184 222 184 224 184 223 185 224 185 219 185 219 186 224 186 225 186 219 187 225 187 220 187 226 188 227 188 221 188 221 189 227 189 228 189 221 190 228 190 222 190 229 191 230 191 226 191 226 192 230 192 231 192 226 193 231 193 227 193 46 194 232 194 229 194 229 195 232 195 233 195 229 196 233 196 230 196 234 197 235 197 236 197 236 198 235 198 41 198 236 199 41 199 237 199 238 200 239 200 33 200 33 201 239 201 240 201 33 202 240 202 34 202 34 203 240 203 241 203 34 204 241 204 242 204 242 205 241 205 243 205 242 206 243 206 244 206 145 207 245 207 146 207 146 208 245 208 246 208 146 209 246 209 247 209 247 210 246 210 248 210 247 211 248 211 249 211 249 212 248 212 250 212 249 213 250 213 238 213 238 214 250 214 251 214 238 215 251 215 239 215 108 216 107 216 109 216 109 217 107 217 106 217 109 218 106 218 111 218 111 219 106 219 176 219 111 220 176 220 114 220 114 221 176 221 173 221 114 222 173 222 116 222 116 223 173 223 171 223 116 224 171 224 119 224 119 225 171 225 168 225 119 226 168 226 122 226 122 227 168 227 166 227 122 228 166 228 124 228 124 229 166 229 5 229 124 230 5 230 127 230 127 231 5 231 157 231 127 232 157 232 129 232 129 233 157 233 160 233 156 234 154 234 164 234 164 235 154 235 252 235 164 236 252 236 162 236 162 237 252 237 14 237 162 238 14 238 160 238 160 239 14 239 13 239 160 240 13 240 129 240 129 241 13 241 253 241 129 242 253 242 130 242 103 243 101 243 104 243 104 244 101 244 102 244 104 245 102 245 106 245 106 246 102 246 181 246 106 247 181 247 179 247 179 248 181 248 180 248 153 249 132 249 154 249 154 250 132 250 11 250 154 251 11 251 252 251 252 252 11 252 10 252 252 253 10 253 14 253 14 254 10 254 254 254 14 255 254 255 12 255 189 256 255 256 96 256 96 257 255 257 186 257 96 258 186 258 94 258 94 259 186 259 184 259 94 260 184 260 102 260 102 261 184 261 183 261 102 262 183 262 182 262 30 263 27 263 33 263 33 264 27 264 26 264 33 265 26 265 238 265 238 266 26 266 25 266 238 267 25 267 249 267 249 268 25 268 140 268 249 269 140 269 247 269 247 270 140 270 142 270 247 271 142 271 146 271 146 272 142 272 135 272 146 273 135 273 148 273 148 274 135 274 8 274 148 275 8 275 151 275 151 276 8 276 7 276 151 277 7 277 132 277 132 278 7 278 256 278 132 279 256 279 133 279 257 280 206 280 16 280 16 281 206 281 203 281 16 282 203 282 17 282 17 283 203 283 198 283 17 284 198 284 74 284 74 285 198 285 195 285 74 286 195 286 81 286 81 287 195 287 190 287 81 288 190 288 79 288 79 289 190 289 192 289 79 290 192 290 77 290 77 291 192 291 187 291 77 292 187 292 84 292 84 293 187 293 96 293 84 294 96 294 89 294 89 295 96 295 95 295 89 296 95 296 87 296 244 297 237 297 242 297 242 298 237 298 41 298 242 299 41 299 34 299 34 300 41 300 39 300 34 301 39 301 35 301 35 302 39 302 38 302 257 303 18 303 206 303 206 304 18 304 20 304 206 305 20 305 2 305 2 306 20 306 212 306 212 307 0 307 2 307 0 308 212 308 211 308 234 309 232 309 235 309 235 310 232 310 46 310 235 311 46 311 41 311 41 312 46 312 44 312 41 313 44 313 42 313 42 314 44 314 43 314 19 315 258 315 20 315 20 316 258 316 21 316 20 317 21 317 212 317 212 318 21 318 23 318 212 319 23 319 210 319 210 320 23 320 217 320 210 321 217 321 208 321 208 322 217 322 216 322 22 323 259 323 23 323 23 324 259 324 69 324 23 325 69 325 217 325 217 326 69 326 71 326 217 327 71 327 215 327 215 328 71 328 67 328 215 329 67 329 218 329 218 330 67 330 64 330 218 331 64 331 219 331 219 332 64 332 62 332 219 333 62 333 223 333 223 334 62 334 59 334 223 335 59 335 221 335 221 336 59 336 56 336 221 337 56 337 226 337 226 338 56 338 54 338 226 339 54 339 229 339 229 340 54 340 51 340 229 341 51 341 46 341 46 342 51 342 49 342 46 343 49 343 47 343 47 344 49 344 48 344 260 345 261 345 262 345 262 345 261 345 263 345 262 346 263 346 264 346 264 345 263 345 265 345 264 345 265 345 266 345 266 347 265 347 267 347 266 345 267 345 268 345 268 345 267 345 269 345 268 345 269 345 270 345 270 345 269 345 271 345 270 345 271 345 272 345 272 348 271 348 273 348 272 349 273 349 274 349 274 345 273 345 275 345 274 345 275 345 276 345 276 345 275 345 277 345 276 345 277 345 278 345 278 345 277 345 279 345 278 345 279 345 280 345 280 345 279 345 281 345 280 345 281 345 282 345 282 345 281 345 283 345 282 345 283 345 284 345 284 345 283 345 285 345 284 345 285 345 286 345 286 345 285 345 287 345 286 350 287 350 288 350 288 351 287 351 289 351 288 345 289 345 290 345 290 345 289 345 291 345 290 345 291 345 292 345 292 345 291 345 293 345 292 345 293 345 294 345 294 345 293 345 295 345 294 345 295 345 296 345 296 345 295 345 297 345 296 345 297 345 298 345 298 352 297 352 299 352 298 345 299 345 300 345 300 345 299 345 301 345 300 345 301 345 302 345 302 345 301 345 303 345 302 345 303 345 304 345 304 345 303 345 305 345 304 353 305 353 306 353 306 345 305 345 307 345 306 354 307 354 308 354 308 345 307 345 309 345 308 345 309 345 310 345 310 345 309 345 311 345 310 345 311 345 312 345 312 345 311 345 313 345 312 355 313 355 314 355 314 345 313 345 315 345 314 355 315 355 316 355 316 345 315 345 317 345 316 345 317 345 318 345 318 345 317 345 319 345 318 345 319 345 320 345 320 345 319 345 321 345 320 345 321 345 322 345 322 351 321 351 323 351 322 345 323 345 324 345 324 345 323 345 325 345 324 345 325 345 326 345 326 345 325 345 327 345 326 356 327 356 260 356 260 357 327 357 261 357 245 358 271 358 269 358 245 359 145 359 271 359 271 360 145 360 147 360 271 361 147 361 273 361 147 362 149 362 273 362 273 363 149 363 150 363 273 364 150 364 275 364 155 365 277 365 153 365 153 366 277 366 275 366 153 367 275 367 152 367 152 368 275 368 150 368 155 369 156 369 277 369 277 370 156 370 164 370 277 371 164 371 279 371 159 372 281 372 161 372 161 373 281 373 279 373 161 374 279 374 163 374 163 375 279 375 164 375 159 376 158 376 281 376 281 377 158 377 4 377 281 378 4 378 283 378 4 379 3 379 283 379 283 380 3 380 165 380 283 381 165 381 285 381 170 382 287 382 169 382 169 383 287 383 285 383 169 384 285 384 167 384 167 385 285 385 165 385 170 386 172 386 287 386 287 387 172 387 174 387 287 388 174 388 289 388 174 389 175 389 289 389 289 390 175 390 177 390 289 391 177 391 291 391 180 392 293 392 179 392 179 393 293 393 291 393 179 394 291 394 178 394 178 395 291 395 177 395 185 396 295 396 183 396 183 397 295 397 293 397 183 398 293 398 182 398 182 399 293 399 180 399 185 400 186 400 295 400 295 401 186 401 255 401 295 402 255 402 297 402 255 403 189 403 297 403 297 404 189 404 188 404 297 405 188 405 299 405 188 406 194 406 299 406 299 407 194 407 193 407 299 408 193 408 301 408 301 409 193 409 191 409 301 410 191 410 328 410 328 411 191 411 197 411 328 412 197 412 305 412 197 413 196 413 305 413 305 414 196 414 200 414 305 415 200 415 307 415 200 416 199 416 307 416 307 417 199 417 205 417 307 418 205 418 309 418 201 419 311 419 202 419 202 420 311 420 309 420 202 421 309 421 204 421 204 422 309 422 205 422 0 423 313 423 1 423 1 424 313 424 311 424 1 425 311 425 207 425 207 426 311 426 201 426 0 427 211 427 313 427 313 428 211 428 209 428 313 429 209 429 315 429 209 430 208 430 315 430 315 431 208 431 216 431 315 432 216 432 317 432 220 433 319 433 213 433 213 434 319 434 317 434 213 435 317 435 214 435 214 436 317 436 216 436 220 437 225 437 319 437 319 438 225 438 224 438 319 439 224 439 321 439 224 440 222 440 321 440 321 441 222 441 228 441 321 442 228 442 323 442 228 443 227 443 323 443 323 444 227 444 231 444 323 445 231 445 325 445 232 446 327 446 233 446 233 447 327 447 325 447 233 448 325 448 230 448 230 449 325 449 231 449 237 450 261 450 236 450 236 451 261 451 327 451 236 452 327 452 234 452 234 453 327 453 232 453 237 454 244 454 261 454 261 455 244 455 243 455 261 456 243 456 263 456 243 457 241 457 263 457 263 458 241 458 240 458 263 459 240 459 265 459 240 460 239 460 265 460 265 461 239 461 251 461 265 462 251 462 267 462 251 463 250 463 267 463 267 464 250 464 248 464 267 465 248 465 269 465 269 466 248 466 329 466 269 467 329 467 245 467 330 468 331 468 332 468 332 469 331 469 300 469 332 470 304 470 330 470 330 471 304 471 306 471 330 472 306 472 333 472 333 473 306 473 308 473 333 474 308 474 334 474 334 475 308 475 310 475 334 475 310 475 335 475 335 476 310 476 312 476 335 477 312 477 336 477 336 478 312 478 314 478 336 479 314 479 337 479 337 480 314 480 316 480 337 481 316 481 338 481 338 482 316 482 318 482 338 483 318 483 339 483 339 484 318 484 320 484 339 485 320 485 340 485 340 486 320 486 322 486 340 487 322 487 341 487 341 488 322 488 324 488 341 489 324 489 342 489 342 490 324 490 326 490 342 491 326 491 343 491 343 492 326 492 260 492 343 493 260 493 344 493 344 494 260 494 262 494 344 495 262 495 345 495 345 496 262 496 264 496 345 497 264 497 346 497 346 498 264 498 266 498 346 499 266 499 347 499 347 500 266 500 268 500 347 501 268 501 348 501 348 502 268 502 270 502 348 503 270 503 349 503 349 504 270 504 272 504 349 505 272 505 350 505 350 506 272 506 274 506 350 507 274 507 351 507 351 508 274 508 276 508 351 509 276 509 352 509 352 510 276 510 278 510 352 511 278 511 353 511 353 512 278 512 280 512 353 513 280 513 354 513 354 514 280 514 282 514 354 515 282 515 355 515 355 516 282 516 284 516 355 517 284 517 356 517 356 518 284 518 286 518 356 519 286 519 357 519 357 520 286 520 288 520 357 521 288 521 358 521 358 522 288 522 290 522 358 523 290 523 359 523 359 524 290 524 292 524 359 525 292 525 360 525 360 526 292 526 294 526 360 527 294 527 361 527 361 528 294 528 296 528 361 528 296 528 362 528 362 529 296 529 298 529 362 530 298 530 363 530 363 531 298 531 300 531 363 532 300 532 364 532 364 533 300 533 331 533 349 345 364 345 348 345 348 345 364 345 365 345 348 345 365 345 330 345 330 345 333 345 348 345 348 534 333 534 334 534 348 345 334 345 335 345 335 535 336 535 348 535 348 536 336 536 337 536 348 537 337 537 338 537 349 345 350 345 364 345 364 345 350 345 351 345 364 538 351 538 352 538 359 539 356 539 358 539 358 540 356 540 357 540 359 345 360 345 356 345 356 541 360 541 361 541 356 542 361 542 362 542 362 543 363 543 356 543 356 544 363 544 364 544 356 345 364 345 355 345 352 345 353 345 364 345 364 537 353 537 354 537 364 545 354 545 355 545 338 345 339 345 348 345 348 546 339 546 340 546 348 547 340 547 341 547 341 345 342 345 348 345 348 548 342 548 343 548 348 549 343 549 344 549 344 550 345 550 348 550 348 345 345 345 346 345 348 551 346 551 347 551 47 552 48 552 141 552 259 553 22 553 13 553 12 554 254 554 70 554 141 552 48 552 143 552 254 555 10 555 70 555 70 556 10 556 9 556 70 557 9 557 134 557 12 552 70 552 13 552 13 558 70 558 69 558 13 559 69 559 259 559 86 552 85 552 91 552 131 560 130 560 16 560 16 561 130 561 253 561 16 562 253 562 13 562 134 552 133 552 70 552 70 563 133 563 256 563 70 564 256 564 7 564 22 565 21 565 13 565 13 566 21 566 258 566 13 567 258 567 19 567 19 552 18 552 13 552 13 568 18 568 257 568 13 569 257 569 16 569 137 552 48 552 6 552 6 552 48 552 7 552 137 552 136 552 48 552 48 570 136 570 144 570 48 571 144 571 143 571 48 572 50 572 7 572 7 573 50 573 52 573 7 574 52 574 53 574 53 575 55 575 7 575 7 576 55 576 57 576 7 577 57 577 58 577 58 552 60 552 7 552 7 552 60 552 61 552 7 578 61 578 63 578 63 579 65 579 7 579 7 580 65 580 66 580 7 581 66 581 68 581 88 552 16 552 90 552 90 582 16 582 91 582 97 552 16 552 92 552 92 552 16 552 93 552 105 552 16 552 103 552 103 583 16 583 101 583 139 584 138 584 37 584 37 585 138 585 24 585 29 552 28 552 32 552 24 586 29 586 37 586 37 587 29 587 32 587 37 588 32 588 30 588 30 589 32 589 31 589 139 552 37 552 141 552 141 590 37 590 36 590 141 591 36 591 35 591 68 592 73 592 7 592 7 593 73 593 72 593 7 594 72 594 70 594 16 552 15 552 91 552 91 595 15 595 76 595 91 596 76 596 75 596 83 552 82 552 80 552 88 552 87 552 16 552 16 597 87 597 95 597 16 598 95 598 93 598 97 599 99 599 16 599 16 600 99 600 100 600 16 601 100 601 101 601 105 552 107 552 16 552 16 602 107 602 108 602 16 603 108 603 112 603 112 604 108 604 110 604 112 605 113 605 16 605 16 606 113 606 115 606 16 607 115 607 117 607 121 608 123 608 16 608 16 609 123 609 125 609 35 610 38 610 141 610 141 611 38 611 40 611 141 612 40 612 42 612 42 552 43 552 141 552 141 613 43 613 45 613 141 614 45 614 47 614 75 615 83 615 91 615 91 616 83 616 80 616 91 617 80 617 86 617 86 552 80 552 366 552 117 618 118 618 16 618 16 552 118 552 120 552 16 552 120 552 121 552 125 619 126 619 16 619 16 620 126 620 128 620 16 621 128 621 131 621</p>
        </polylist>
      </mesh>
    </geometry>
  </library_geometries>
  <library_controllers/>
  <library_visual_scenes>
    <visual_scene id="Scene" name="Scene">
      <node id="COL_hollie_left_arm_6_link" name="COL_hollie_left_arm_6_link" type="NODE">
        <instance_geometry url="#Arm_6_Link_001-mesh" name="COL_hollie_left_arm_6_link"/>
      </node>
    </visual_scene>
  </library_visual_scenes>
  <scene>
    <instance_visual_scene url="#Scene"/>
  </scene>
</COLLADA>