<?xml version="1.0" encoding="utf-8"?>
<COLLADA xmlns="http://www.collada.org/2005/11/COLLADASchema" version="1.4.1">
  <asset>
    <contributor>
      <author>Blender User</author>
      <authoring_tool>Blender 2.78.0 commit date:2017-02-24, commit time:14:33, hash:e92f2352830</authoring_tool>
    </contributor>
    <created>2017-07-14T10:06:20</created>
    <modified>2017-07-14T10:06:20</modified>
    <unit name="meter" meter="1"/>
    <up_axis>Z_UP</up_axis>
  </asset>
  <library_images/>
  <library_effects>
    <effect id="Metall_Alu_010_003-effect">
      <profile_COMMON>
        <technique sid="common">
          <phong>
            <emission>
              <color sid="emission">0 0 0 1</color>
            </emission>
            <ambient>
              <color sid="ambient">0 0 0 1</color>
            </ambient>
            <diffuse>
              <color sid="diffuse">0.45 0.45 0.45 1</color>
            </diffuse>
            <specular>
              <color sid="specular">0.325 0.325 0.325 1</color>
            </specular>
            <shininess>
              <float sid="shininess">70</float>
            </shininess>
            <index_of_refraction>
              <float sid="index_of_refraction">1</float>
            </index_of_refraction>
          </phong>
        </technique>
      </profile_COMMON>
    </effect>
    <effect id="Metall_goeldlich_004_003-effect">
      <profile_COMMON>
        <technique sid="common">
          <phong>
            <emission>
              <color sid="emission">0 0 0 1</color>
            </emission>
            <ambient>
              <color sid="ambient">0 0 0 1</color>
            </ambient>
            <diffuse>
              <color sid="diffuse">0.831 0.686 0.216 1</color>
            </diffuse>
            <specular>
              <color sid="specular">0.075 0.075 0.075 1</color>
            </specular>
            <shininess>
              <float sid="shininess">80</float>
            </shininess>
            <index_of_refraction>
              <float sid="index_of_refraction">1</float>
            </index_of_refraction>
          </phong>
        </technique>
      </profile_COMMON>
    </effect>
  </library_effects>
  <library_materials>
    <material id="Metall_Alu_010_003-material" name="Metall_Alu_010_003">
      <instance_effect url="#Metall_Alu_010_003-effect"/>
    </material>
    <material id="Metall_goeldlich_004_003-material" name="Metall_goeldlich_004_003">
      <instance_effect url="#Metall_goeldlich_004_003-effect"/>
    </material>
  </library_materials>
  <library_geometries>
    <geometry id="Cylinder_035-mesh" name="Cylinder.035">
      <mesh>
        <source id="Cylinder_035-mesh-positions">
          <float_array id="Cylinder_035-mesh-positions-array" count="525">0.003964602 0.001666188 0.001249969 0.004005193 0.001680374 0.003249704 0.00325191 0.001368343 0.001241028 0.003042757 0.003038525 0.001249611 0.003075182 0.003072261 0.003249585 0.006844103 0.002856791 0.003366708 0.002509117 0.002504348 0.001241385 0.003090322 0.001307308 6.80798e-5 -0.003021419 0.001299798 8.00472e-5 -0.002295315 0.00239706 7.33843e-5 -0.001229047 0.003098964 8.16382e-5 6.02261e-5 0.003353059 6.49038e-5 0.001294255 0.003099143 6.96421e-5 0.002386331 0.002372503 7.64933e-5 0.00166428 0.003959119 0.001249969 0.001683294 0.004002273 0.003249466 0.005253851 0.005245923 0.003367543 0.006968915 0.002908051 0.005206704 0.00137031 0.003246665 0.001240968 -0.003173768 0.001370191 0.001241147 -0.002416312 0.002496302 0.001241087 -0.001293599 0.003259658 0.001241147 4.0915e-5 0.003536999 0.001241087 4.22639e-5 0.00428766 0.001249969 4.1494e-5 0.004328906 0.003249466 0.002859294 0.006842851 0.003369688 0.005340874 0.005338072 0.005206763 0.01064103 0.004430353 0.005499899 -0.003879427 0.001664102 0.00124979 -0.00296235 0.003039598 0.001249611 -0.001582324 0.003958284 0.001249969 -0.001600325 0.004002273 0.003249466 5.03471e-5 0.0074054 0.003366231 0.002909064 0.006961345 0.005206763 0.008153378 0.0081501 0.005499005 0.01064413 0.0044806 0.007801771 0.01111066 0.002293407 0.006326377 -0.003922224 0.001680433 0.003249704 -0.002992212 0.003072261 0.003249585 -0.002777636 0.00683856 0.003376424 4.11467e-5 0.007537841 0.005206763 0.004435539 0.0106427 0.005498707 0.008163869 0.008163452 0.0159623 0.00966227 0.00617659 0.01401644 0.009656608 0.00617057 0.01174288 0.00995928 0.005607008 0.009435653 -0.004942238 0.002941846 0.003249585 -0.004784524 0.005761682 0.003499925 -0.00282222 0.00695157 0.005206763 4.28667e-5 0.01153606 0.005499839 0.004417121 0.01063102 0.01825284 -0.004955768 0.002941727 0.003763437 -0.004925012 0.005987167 0.005249261 -0.004899978 0.01041126 0.005498766 4.28761e-4 0.01129901 0.01922506 -0.004932641 0.01039528 0.02043044 -0.007924497 0.006088137 0.007599174 -0.007816731 0.006087005 0.02102196 -0.007963955 0.008185148 0.02102136 -0.004956007 0.006066918 0.007599174 -0.004927098 0.01038455 0.007601559 -0.006871342 0.006088793 0.02215099 -0.007912635 0.008185327 0.007598936 -0.006849944 0.008514702 0.02211904 -0.004973411 0.00608921 0.02257084 -0.004974842 0.008521914 0.0225659 0.002515196 0.008050203 0.02082449 0.002503097 0.009237945 0.02082246 0.005070745 0.006904482 0.01944643 0.004568159 0.00923568 0.01979237 0.005999386 0.006287336 0.01855576 0.006824493 0.009319126 0.01756429 0.005951106 0.004488587 0.007809579 0.005950629 0.002289831 0.006327211 0.005951225 0.006156504 0.01174378 0.005950629 0.005595624 0.009449422 0.005018889 0.006005465 0.007575273 0.005224406 0.002941906 0.003249585 0.004823744 0.005198597 0.005592167 0.004284262 3.86083e-5 0.001249969 0.004331767 3.86083e-5 0.003249883 0.003522813 3.86083e-5 0.001241147 0.003964602 -0.00158894 0.001249969 0.004005193 -0.001603186 0.003249704 0.007408201 3.86083e-5 0.003369987 0.00325191 -0.001291096 0.001241028 0.003356695 3.86083e-5 7.49185e-5 0.003042757 -0.002961337 0.001249611 0.003075182 -0.002995073 0.003249585 0.006844103 -0.002779603 0.003366708 0.007534265 3.86088e-5 0.005206763 0.002509117 -0.00242716 0.001241385 0.003090322 -0.001230061 6.80798e-5 -0.003273725 3.86075e-5 7.49063e-5 -0.003021419 -0.00122261 8.00472e-5 -0.002295315 -0.002319872 7.33843e-5 -0.001229047 -0.003021776 8.16382e-5 6.02263e-5 -0.003275811 6.49038e-5 0.001294255 -0.003021895 6.96421e-5 0.002386331 -0.002295315 7.64933e-5 0.00166428 -0.003881931 0.001249969 0.001683294 -0.003925085 0.003249466 0.005253851 -0.005168735 0.003367543 0.006968915 -0.002830803 0.005206704 0.01152545 3.86088e-5 0.005500197 0.00137031 -0.003169476 0.001240968 -0.003439843 3.86078e-5 0.001241147 -0.003173768 -0.001292943 0.001241147 -0.002416312 -0.002419114 0.001241087 -0.001293599 -0.003182411 0.001241147 4.09155e-5 -0.003459811 0.001241087 4.2265e-5 -0.004210412 0.001249969 4.1495e-5 -0.004251658 0.003249466 0.002859294 -0.006765663 0.003369688 0.005340874 -0.005260884 0.005206763 0.01064103 -0.004353165 0.005499899 0.01153194 3.86088e-5 0.005801379 0.01153194 3.86088e-5 0.005801379 -0.004201233 3.86078e-5 0.001249969 -0.003879427 -0.001586854 0.00124979 -0.00296235 -0.00296235 0.001249611 -0.001582324 -0.003881037 0.001249969 -0.001600325 -0.003925085 0.003249466 5.03481e-5 -0.007328152 0.003366231 0.002909064 -0.006884157 0.005206763 0.008153378 -0.008072853 0.005499005 0.01064413 -0.004403352 0.007801771 0.01111066 -0.002216219 0.006326377 -0.004248797 3.86078e-5 0.003249883 -0.003922224 -0.001603186 0.003249704 -0.002992212 -0.002995073 0.003249585 -0.002777636 -0.006761372 0.003376424 4.11472e-5 -0.007460653 0.005206763 0.004435539 -0.01056545 0.005498707 0.008163869 -0.008086204 0.0159623 0.00966227 -0.006099343 0.01401644 0.009656608 -0.006093323 0.01174288 0.00995928 -0.00552982 0.009435653 -0.004956483 3.86078e-5 0.003249883 -0.004942238 -0.002864599 0.003249585 -0.004784524 -0.005684494 0.003499925 -0.00282222 -0.006874322 0.005206763 4.28687e-5 -0.01145887 0.005499839 0.004417121 -0.01055383 0.01825284 -0.00495243 3.86078e-5 0.003756046 -0.004955768 -0.00286448 0.003763437 -0.004925012 -0.005909919 0.005249261 -0.004899978 -0.01033401 0.005498766 4.28762e-4 -0.01122182 0.01922506 -0.004932641 -0.0103181 0.02043044 -0.007924497 -0.00601089 0.007599174 -0.007816731 -0.006009757 0.02102196 -0.007963955 -0.0081079 0.02102136 -0.004956007 -0.00598967 0.007599174 -0.004927039 -0.01030737 0.007601559 -0.006871342 -0.006011605 0.02215099 -0.007912635 -0.008108079 0.007598936 -0.006849944 -0.008437514 0.02211904 -0.004973411 -0.006012022 0.02257084 -0.004974842 -0.008444666 0.0225659 0.002515196 -0.007972955 0.02082449 0.002503097 -0.009160697 0.02082246 0.005070745 -0.006827235 0.01944643 0.004568159 -0.009158492 0.01979237 0.005999386 -0.006210088 0.01855576 0.006824493 -0.009241878 0.01756429 0.005950927 3.86083e-5 0.005901992 0.005951106 -0.004411399 0.007809579 0.005950629 -0.002212643 0.006327211 0.005951225 -0.006079316 0.01174378 0.005950629 -0.005518376 0.009449422 0.005018889 -0.005928277 0.007575273 0.005224406 3.86083e-5 0.003249883 0.005224466 -0.002864718 0.003249585 0.004823744 -0.005121409 0.005592167</float_array>
          <technique_common>
            <accessor source="#Cylinder_035-mesh-positions-array" count="175" stride="3">
              <param name="X" type="float"/>
              <param name="Y" type="float"/>
              <param name="Z" type="float"/>
            </accessor>
          </technique_common>
        </source>
        <source id="Cylinder_035-mesh-normals">
          <float_array id="Cylinder_035-mesh-normals-array" count="522">0.6860442 0.2846539 -0.6695638 0.6146935 0.2546243 -0.7465378 0.6654146 0 -0.7464741 0.7413181 0 -0.6711539 0.6062079 0 -0.7953064 0.5240795 0.5248119 -0.6707558 0.4701216 0.4700911 -0.7469941 0.7352713 0 -0.6777729 0.5633753 0.2312402 -0.7931812 0.91389 0.3788927 -0.1457585 0.2847719 0.6846613 -0.6709278 0.2549288 0.6145697 -0.7465357 0.5198664 0.5192866 -0.6782923 0.6775351 0.2801699 -0.6800377 0.662959 0 -0.7486557 0.237469 0.5656104 -0.7897426 0.4259302 0.4260827 -0.7981461 -0.6084046 0 -0.793627 -0.5620141 0.2332289 -0.7935644 -0.9899532 0 -0.1413957 -0.4326688 0.4326383 -0.7909626 -0.6970519 0.704346 -0.1342222 -0.2347803 0.5578817 -0.7960191 -0.3790137 0.9141924 -0.1435301 0 0.600825 -0.7993807 0.003875911 0.9883283 -0.1522899 0.3799337 0.9135013 -0.1454851 0 0.7429405 -0.6693576 2.13633e-4 0.6658344 -0.7460995 0.4686499 0.468711 -0.748784 0.6108647 0.2528484 -0.7502747 0.7609453 0 -0.6488162 -0.7416074 0 -0.6708342 -0.6856193 0.2835867 -0.6704512 -0.5249548 0.5247717 -0.6701024 -0.2843165 0.6846058 -0.6711774 -0.2558682 0.6149809 -0.7458753 0.2813258 0.6783499 -0.6787467 0.2540994 0.6123291 -0.7486565 0.7035301 0.2951213 -0.6464896 -0.6484056 0 -0.7612951 -0.5979259 0.2629201 -0.7572039 -0.4868479 0.4739076 -0.7337511 -8.85041e-4 0.7337903 -0.6793755 -0.002044737 0.6611093 -0.7502868 0.2928015 0.7096942 -0.6407818 0.5390681 0.5429136 -0.6439335 0.8166654 -0.1141726 0.5657054 -0.6608913 0.06106871 -0.7479929 -0.6657696 0.4059013 -0.6260951 -0.2452203 0.6763929 -0.6945213 -0.2174496 0.6502737 -0.7279147 -0.01159715 0.775365 -0.631407 0.5101875 0.3701965 0.7763139 0.7331449 0.5393751 0.4142137 0.3651968 0.878566 0.30782 -0.7096962 0 -0.704508 -0.7568768 -0.1417313 0.6380044 -0.9686734 -0.2480585 0.01178032 -0.6317185 0.5318594 -0.5639657 0.05700916 0.9229808 0.3806002 -0.7016101 0.3543605 -0.6182006 -0.5834374 -0.5732745 -0.5752888 -0.7042366 -0.6543068 0.2755602 0.7781423 -0.1086475 0.6186196 -0.5713777 0.8026816 -0.1709677 -0.2630754 0.905138 0.3339409 -0.8732366 0.3651279 0.3227066 -0.3145887 -0.9020162 -0.2956364 0.04651117 -0.6669043 0.7436905 0.3163593 -0.5235524 0.7910814 0.3081501 0.3976011 0.8642668 0.2199243 -0.6826933 0.6968238 0.2378067 -0.7787315 0.5805389 0.8803367 -0.4452498 0.1635848 0.83514 0.4343558 0.3374559 -0.01681596 0.3849055 0.9228028 -0.4944384 0.4440516 0.7472274 -0.5350025 -0.6348004 0.5574951 0.8698863 -0.2771746 0.40801 -0.3164582 -0.9047549 0.285084 0.9370341 -0.3405954 0.07721382 0.404294 -0.9018867 0.1521405 0.803335 0 0.5955275 -0.6598351 -0.2924699 0.6921554 -0.4026758 -0.6362424 0.6580639 -0.4495833 -0.8569276 0.2520914 -0.5506694 -0.3084029 0.7756616 -0.6867401 0 0.7269031 -0.5863683 0 0.8100446 -0.6470689 0 0.7624316 -0.474782 -0.7398994 0.4765826 0.6860442 -0.2846539 -0.6695638 0.5633544 -0.2312442 -0.7931948 0.5240795 -0.5248119 -0.6707558 0.6146935 -0.2546243 -0.7465378 0.4259302 -0.4260827 -0.7981461 0.91389 -0.3788927 -0.1457585 0.2847719 -0.6846613 -0.6709278 0.2549288 -0.6145697 -0.7465357 0.6775351 -0.2801699 -0.6800377 0.5198664 -0.5192866 -0.6782923 0.237469 -0.5656104 -0.7897426 0.7004128 -0.6972082 -0.1527174 -0.5620141 -0.2332289 -0.7935644 -0.9153255 -0.3765127 -0.1428899 -0.697049 -0.704343 -0.1342521 -0.4326688 -0.4326383 -0.7909626 -0.3790137 -0.9141924 -0.1435301 -0.2347803 -0.5578817 -0.7960191 0.003875911 -0.9883283 -0.1522899 0 -0.600825 -0.7993807 0.3799337 -0.9135013 -0.1454851 0 -0.7429405 -0.6693576 0.4701216 -0.4700911 -0.7469941 0.6108647 -0.2528484 -0.7502747 0.4686499 -0.468711 -0.748784 -0.6856193 -0.2835867 -0.6704512 -0.5249548 -0.5247717 -0.6701024 -0.2843165 -0.6846058 -0.6711774 -0.2558682 -0.6149809 -0.7458753 0.2813258 -0.6783499 -0.6787467 2.13633e-4 -0.6658344 -0.7460995 0.2540994 -0.6123291 -0.7486565 0.7035301 -0.2951213 -0.6464896 -0.4868479 -0.4739076 -0.7337511 -8.85041e-4 -0.7337903 -0.6793755 -0.002044737 -0.6611093 -0.7502868 0.5390681 -0.5429136 -0.6439335 0.2928015 -0.7096942 -0.6407818 0.8166654 0.1141726 0.5657054 -0.5979259 -0.2629201 -0.7572039 -0.6608913 -0.06106871 -0.7479929 -0.6657696 -0.4059013 -0.6260951 -0.2452203 -0.6763929 -0.6945213 -0.2174496 -0.6502737 -0.7279147 -0.01159715 -0.775365 -0.631407 0.5101875 -0.3701965 0.7763139 0.3651968 -0.878566 0.30782 0.7331449 -0.5393751 0.4142137 -0.7568768 0.1417313 0.6380044 -0.9686734 0.2480585 0.01178032 -0.6317185 -0.5318594 -0.5639657 0.05700916 -0.9229808 0.3806002 -0.7016101 -0.3543605 -0.6182006 -0.8732366 -0.3651279 0.3227066 -0.7042366 0.6543068 0.2755602 0.7781423 0.1086475 0.6186196 -0.5713777 -0.8026816 -0.1709677 -0.2630754 -0.905138 0.3339409 -0.3145887 0.9020162 -0.2956364 -0.5834374 0.5732745 -0.5752888 0.04651117 0.6669043 0.7436905 -0.01681596 -0.3849055 0.9228028 0.3081501 -0.3976011 0.8642668 0.3163593 0.5235524 0.7910814 0.2199243 0.6826933 0.6968238 0.2378067 0.7787315 0.5805389 0.83514 -0.4343558 0.3374559 -0.4944384 -0.4440516 0.7472274 -0.6598351 0.2924699 0.6921554 -0.5350025 0.6348004 0.5574951 -0.3164582 0.9047549 0.285084 0.8698863 0.2771746 0.40801 0.404294 0.9018867 0.1521405 -0.4495833 0.8569276 0.2520914 -0.4026758 0.6362424 0.6580639 -0.474782 0.7398994 0.4765826 -0.5506694 0.3084029 0.7756616 0.9370341 0.3405954 0.07721382 0.9900099 0 -0.1409983 0.7004128 0.6972082 -0.1527174 -0.9153255 0.3765127 -0.1428899 0.8803367 0.4452498 0.1635848</float_array>
          <technique_common>
            <accessor source="#Cylinder_035-mesh-normals-array" count="174" stride="3">
              <param name="X" type="float"/>
              <param name="Y" type="float"/>
              <param name="Z" type="float"/>
            </accessor>
          </technique_common>
        </source>
        <vertices id="Cylinder_035-mesh-vertices">
          <input semantic="POSITION" source="#Cylinder_035-mesh-positions"/>
        </vertices>
        <lines count="1">
          <input semantic="VERTEX" source="#Cylinder_035-mesh-vertices" offset="0"/>
          <p>116 117</p>
        </lines>
        <polylist material="Metall_Alu_010_003-material" count="322">
          <input semantic="VERTEX" source="#Cylinder_035-mesh-vertices" offset="0"/>
          <input semantic="NORMAL" source="#Cylinder_035-mesh-normals" offset="1"/>
          <vcount>3 3 3 3 3 3 3 3 3 3 3 3 3 3 3 3 3 3 3 3 3 3 3 3 3 3 3 3 3 3 3 3 3 3 3 3 3 3 3 3 3 3 3 3 3 3 3 3 3 3 3 3 3 3 3 3 3 3 3 3 3 3 3 3 3 3 3 3 3 3 3 3 3 3 3 3 3 3 3 3 3 3 3 3 3 3 3 3 3 3 3 3 3 3 3 3 3 3 3 3 3 3 3 3 3 3 3 3 3 3 3 3 3 3 3 3 3 3 3 3 3 3 3 3 3 3 3 3 3 3 3 3 3 3 3 3 3 3 3 3 3 3 3 3 3 3 3 3 3 3 3 3 3 3 3 3 3 3 3 3 3 3 3 3 3 3 3 3 3 3 3 3 3 3 3 3 3 3 3 3 3 3 3 3 3 3 3 3 3 3 3 3 3 3 3 3 3 3 3 3 3 3 3 3 3 3 3 3 3 3 3 3 3 3 3 3 3 3 3 3 3 3 3 3 3 3 3 3 3 3 3 3 3 3 3 3 3 3 3 3 3 3 3 3 3 3 3 3 3 3 3 3 3 3 3 3 3 3 3 3 3 3 3 3 3 3 3 3 3 3 3 3 3 3 3 3 3 3 3 3 3 3 3 3 3 3 3 3 3 3 3 3 3 3 3 3 3 3 3 3 3 3 3 3 3 3 3 3 3 3 3 3 3 3 3 3 3 3 3 3 3 3 </vcount>
          <p>0 0 1 1 80 2 0 0 79 3 81 4 3 5 4 6 1 1 80 2 1 1 84 7 3 5 0 0 2 8 2 8 81 4 7 9 14 10 15 11 3 5 1 1 4 6 16 12 84 7 5 13 90 14 14 10 3 5 18 15 6 16 2 8 7 9 106 17 19 18 93 19 19 18 20 20 9 21 20 20 21 22 10 23 21 22 22 24 11 25 22 24 18 15 12 26 18 15 6 16 12 26 23 27 24 28 15 11 4 6 15 11 16 12 5 13 16 12 26 29 90 14 17 30 104 31 23 27 14 10 18 15 118 32 28 33 106 17 28 33 29 34 20 20 29 34 30 35 21 22 30 35 23 27 21 22 30 35 31 36 23 27 15 11 24 28 25 37 16 12 25 37 33 38 17 30 26 29 27 39 118 32 128 40 28 33 28 33 37 41 38 42 29 34 38 42 31 36 24 28 31 36 32 43 25 37 32 43 40 44 26 29 33 38 41 45 27 39 34 46 35 47 37 41 128 40 46 48 38 42 37 41 47 49 31 36 38 42 39 50 32 43 39 50 48 51 33 38 40 44 49 52 69 53 71 54 50 55 46 48 138 56 51 57 47 49 46 48 52 58 39 50 47 49 52 58 40 44 48 51 53 59 41 45 49 52 54 60 62 61 56 62 57 63 48 51 52 58 53 59 27 39 35 47 36 64 53 59 52 58 60 65 54 60 60 65 55 66 55 66 60 65 58 67 59 68 56 62 60 65 64 69 66 70 67 71 66 70 68 72 67 71 68 72 70 73 71 54 70 73 43 74 42 75 54 60 55 66 67 71 50 55 54 60 69 53 34 46 41 45 42 75 65 76 55 66 63 77 55 66 58 67 63 77 36 64 35 47 72 78 35 47 45 79 75 80 45 79 44 81 74 82 68 72 74 82 70 73 116 83 36 64 73 84 75 80 74 82 68 72 56 62 59 68 61 85 61 85 59 68 64 69 76 86 72 78 75 80 66 70 76 86 68 72 66 70 64 69 76 86 52 58 51 57 77 87 51 57 144 88 172 89 73 84 77 87 166 90 72 78 78 91 77 87 72 78 76 86 78 91 52 58 78 91 76 86 44 81 43 74 70 73 82 92 79 3 80 2 82 92 85 93 81 4 87 94 82 92 83 95 80 2 84 7 83 95 87 94 91 96 85 93 85 93 92 97 81 4 100 98 87 94 101 99 83 95 89 100 102 101 84 7 90 14 89 100 100 98 105 102 87 94 91 96 99 103 92 97 106 17 93 19 107 104 107 104 94 105 95 106 108 107 95 106 96 108 109 109 96 108 97 110 110 111 97 110 98 112 105 102 98 112 91 96 111 113 100 98 101 99 88 114 102 101 101 99 89 100 103 115 114 116 90 14 104 31 103 115 111 113 110 111 105 102 118 32 106 17 119 117 119 117 107 104 108 107 120 118 108 107 109 109 121 119 109 109 111 113 121 119 111 113 122 120 101 99 113 121 112 122 102 101 114 116 124 123 103 115 115 124 114 116 118 32 119 117 128 40 119 117 120 118 130 125 120 118 121 119 122 120 112 122 123 126 122 120 113 121 124 123 132 127 114 116 125 128 133 129 115 124 126 130 125 128 129 131 139 132 128 40 130 125 140 133 129 131 122 120 131 134 130 125 123 126 132 127 141 135 124 123 133 129 142 136 163 137 143 138 165 139 139 132 145 140 138 56 140 133 146 141 139 132 131 134 141 135 146 141 132 127 142 136 147 142 133 129 143 138 148 143 156 144 152 145 151 146 141 135 147 142 146 141 115 124 127 147 126 130 147 142 154 148 146 141 148 143 149 149 154 148 149 149 152 145 154 148 153 150 154 148 150 151 158 152 159 153 161 154 160 155 161 154 162 156 162 156 163 137 165 139 164 157 165 139 134 158 148 143 161 154 149 149 143 138 163 137 148 143 125 128 134 158 133 129 159 153 157 159 149 149 149 149 157 159 152 145 127 147 168 160 167 161 126 130 167 161 170 162 137 163 170 162 169 164 162 156 164 157 169 164 116 83 166 90 168 160 170 162 171 165 162 156 150 151 151 146 155 166 155 166 158 152 153 150 171 165 170 162 167 161 160 155 162 156 171 165 160 155 171 165 158 152 146 141 174 167 173 168 145 140 173 168 172 89 168 160 166 90 173 168 167 161 168 160 173 168 167 161 174 167 171 165 146 141 153 150 171 165 136 169 169 164 164 157 79 3 0 0 80 2 2 8 0 0 81 4 0 0 3 5 1 1 1 1 5 13 84 7 6 16 3 5 2 8 81 4 86 170 7 9 15 11 4 6 3 5 5 13 1 1 16 12 5 13 17 30 90 14 3 5 6 16 18 15 13 171 6 16 7 9 19 18 8 172 93 19 8 172 19 18 9 21 9 21 20 20 10 23 10 23 21 22 11 25 11 25 22 24 12 26 6 16 13 171 12 26 14 10 23 27 15 11 15 11 25 37 16 12 17 30 5 13 26 29 17 30 27 39 104 31 22 24 23 27 18 15 28 33 19 18 106 17 19 18 28 33 20 20 20 20 29 34 21 22 23 27 22 24 21 22 31 36 24 28 23 27 24 28 32 43 25 37 26 29 16 12 33 38 26 29 34 46 27 39 128 40 37 41 28 33 29 34 28 33 38 42 30 35 29 34 31 36 31 36 39 50 32 43 33 38 25 37 40 44 34 46 26 29 41 45 35 47 34 46 45 79 34 46 42 75 45 79 42 75 43 74 44 81 45 79 42 75 44 81 128 40 138 56 46 48 37 41 46 48 47 49 38 42 47 49 39 50 40 44 32 43 48 51 41 45 33 38 49 52 138 56 144 88 51 57 46 48 51 57 52 58 48 51 39 50 52 58 49 52 40 44 53 59 50 55 41 45 54 60 58 67 62 61 57 63 104 31 27 39 116 83 27 39 36 64 116 83 52 58 59 68 60 65 49 52 53 59 54 60 53 59 60 65 54 60 60 65 62 61 58 67 56 62 62 61 60 65 65 76 64 69 67 71 68 72 69 53 67 71 69 53 68 72 71 54 71 54 70 73 42 75 55 66 65 76 67 71 54 60 67 71 69 53 41 45 50 55 71 54 42 75 41 45 71 54 73 84 36 64 72 78 72 78 35 47 75 80 75 80 45 79 74 82 166 90 116 83 73 84 76 86 75 80 68 72 57 63 56 62 61 85 64 69 59 68 76 86 78 91 52 58 77 87 77 87 51 57 172 89 77 87 172 89 166 90 73 84 72 78 77 87 59 68 52 58 76 86 74 82 44 81 70 73 83 95 82 92 80 2 79 3 82 92 81 4 88 114 87 94 83 95 84 7 89 100 83 95 82 92 87 94 85 93 92 97 86 170 81 4 87 94 88 114 101 99 88 114 83 95 102 101 90 14 103 115 89 100 105 102 91 96 87 94 85 93 91 96 92 97 93 19 94 105 107 104 108 107 107 104 95 106 109 109 108 107 96 108 110 111 109 109 97 110 105 102 110 111 98 112 98 112 99 103 91 96 112 122 111 113 101 99 102 101 113 121 101 99 102 101 89 100 114 116 104 31 115 124 103 115 100 98 111 113 105 102 106 17 107 104 119 117 120 118 119 117 108 107 121 119 120 118 109 109 109 109 110 111 111 113 111 113 112 122 122 120 113 121 123 126 112 122 113 121 102 101 124 123 115 124 125 128 114 116 119 117 129 131 128 40 129 131 119 117 130 125 130 125 120 118 122 120 123 126 131 134 122 120 123 126 113 121 132 127 124 123 114 116 133 129 126 130 137 163 125 128 125 128 137 163 134 158 137 163 136 169 134 158 136 169 135 173 134 158 139 132 138 56 128 40 140 133 139 132 129 131 131 134 140 133 130 125 131 134 123 126 141 135 132 127 124 123 142 136 145 140 144 88 138 56 146 141 145 140 139 132 140 133 131 134 146 141 141 135 132 127 147 142 142 136 133 129 148 143 150 151 156 144 151 146 104 31 116 83 115 124 116 83 127 147 115 124 154 148 153 150 146 141 142 136 148 143 147 142 148 143 154 148 147 142 152 145 156 144 154 148 154 148 156 144 150 151 160 155 158 152 161 154 161 154 163 137 162 156 164 157 162 156 165 139 135 173 164 157 134 158 161 154 159 153 149 149 163 137 161 154 148 143 134 158 165 139 133 129 165 139 143 138 133 129 126 130 127 147 167 161 137 163 126 130 170 162 136 169 137 163 169 164 127 147 116 83 168 160 169 164 170 162 162 156 153 150 150 151 155 166 171 165 153 150 158 152 145 140 146 141 173 168 144 88 145 140 172 89 166 90 172 89 173 168 174 167 167 161 173 168 174 167 146 141 171 165 135 173 136 169 164 157</p>
        </polylist>
        <polylist material="Metall_goeldlich_004_003-material" count="8">
          <input semantic="VERTEX" source="#Cylinder_035-mesh-vertices" offset="0"/>
          <input semantic="NORMAL" source="#Cylinder_035-mesh-normals" offset="1"/>
          <vcount>3 3 3 3 3 3 3 3 </vcount>
          <p>57 63 61 85 63 77 61 85 64 69 65 76 151 146 152 145 157 159 155 166 157 159 159 153 58 67 57 63 63 77 63 77 61 85 65 76 155 166 151 146 157 159 158 152 155 166 159 153</p>
        </polylist>
      </mesh>
    </geometry>
  </library_geometries>
  <library_controllers/>
  <library_visual_scenes>
    <visual_scene id="Scene" name="Scene">
      <node id="COL_hollie_right_hand_virtual_j" name="COL_hollie_right_hand_virtual_j" type="NODE">
        <instance_geometry url="#Cylinder_035-mesh" name="COL_hollie_right_hand_virtual_j">
          <bind_material>
            <technique_common>
              <instance_material symbol="Metall_Alu_010_003-material" target="#Metall_Alu_010_003-material"/>
              <instance_material symbol="Metall_goeldlich_004_003-material" target="#Metall_goeldlich_004_003-material"/>
            </technique_common>
          </bind_material>
        </instance_geometry>
      </node>
    </visual_scene>
  </library_visual_scenes>
  <scene>
    <instance_visual_scene url="#Scene"/>
  </scene>
</COLLADA>