<?xml version="1.0" encoding="utf-8"?>
<COLLADA xmlns="http://www.collada.org/2005/11/COLLADASchema" version="1.4.1">
  <asset>
    <contributor>
      <author>Blender User</author>
      <authoring_tool>Blender 2.77.0 commit date:2016-04-05, commit time:18:12, hash:abf6f08</authoring_tool>
    </contributor>
    <created>2017-08-03T15:13:47</created>
    <modified>2017-08-03T15:13:47</modified>
    <unit name="meter" meter="1"/>
    <up_axis>Z_UP</up_axis>
  </asset>
  <library_images>
    <image id="PBRFULL_ConcretePylon-material_Base_Color_jpg" name="PBRFULL_ConcretePylon-material_Base_Color_jpg">
      <init_from>PBRFULL_ConcretePylon-material_Base_Color.jpg</init_from>
    </image>
  </library_images>
  <library_effects>
    <effect id="PBRFULL_ConcretePylon-effect">
      <profile_COMMON>
        <newparam sid="PBRFULL_ConcretePylon-material_Base_Color_jpg-surface">
          <surface type="2D">
            <init_from>PBRFULL_ConcretePylon-material_Base_Color_jpg</init_from>
          </surface>
        </newparam>
        <newparam sid="PBRFULL_ConcretePylon-material_Base_Color_jpg-sampler">
          <sampler2D>
            <source>PBRFULL_ConcretePylon-material_Base_Color_jpg-surface</source>
          </sampler2D>
        </newparam>
        <technique sid="common">
          <phong>
            <emission>
              <color sid="emission">0 0 0 1</color>
            </emission>
            <ambient>
              <color sid="ambient">0 0 0 1</color>
            </ambient>
            <diffuse>
              <texture texture="PBRFULL_ConcretePylon-material_Base_Color_jpg-sampler"/>
            </diffuse>
            <specular>
              <color sid="specular">0.5 0.5 0.5 1</color>
            </specular>
            <shininess>
              <float sid="shininess">50</float>
            </shininess>
            <index_of_refraction>
              <float sid="index_of_refraction">1</float>
            </index_of_refraction>
          </phong>
        </technique>
      </profile_COMMON>
    </effect>
  </library_effects>
  <library_materials>
    <material id="PBRFULL_ConcretePylon-material" name="PBRFULL_ConcretePylon">
      <instance_effect url="#PBRFULL_ConcretePylon-effect"/>
    </material>
  </library_materials>
  <library_geometries>
    <geometry id="Cylinder_001-mesh" name="Cylinder.001">
      <mesh>
        <source id="Cylinder_001-mesh-positions">
          <float_array id="Cylinder_001-mesh-positions-array" count="384">0 0.5 0 0 0.5 6 0.09754514 0.4903926 0 0.09754514 0.4903926 6 0.1913417 0.4619398 0 0.1913417 0.4619398 6 0.2777851 0.4157348 0 0.2777851 0.4157348 6 0.3535534 0.3535534 0 0.3535534 0.3535534 6 0.4157348 0.2777851 0 0.4157348 0.2777851 6 0.4619398 0.1913417 0 0.4619398 0.1913417 6 0.4903926 0.09754514 0 0.4903926 0.09754514 6 0.5 0 0 0.5 0 6 0.4903926 -0.09754508 0 0.4903926 -0.09754508 6 0.4619398 -0.1913416 0 0.4619398 -0.1913416 6 0.4157348 -0.2777851 0 0.4157348 -0.2777851 6 0.3535534 -0.3535534 0 0.3535534 -0.3535534 6 0.2777851 -0.4157348 0 0.2777851 -0.4157348 6 0.1913416 -0.4619398 0 0.1913416 -0.4619398 6 0.09754502 -0.4903926 0 0.09754502 -0.4903926 6 -1.62921e-7 -0.5 0 -1.62921e-7 -0.5 6 -0.09754532 -0.4903926 0 -0.09754532 -0.4903926 6 -0.1913419 -0.4619396 0 -0.1913419 -0.4619396 6 -0.2777854 -0.4157347 0 -0.2777854 -0.4157347 6 -0.3535536 -0.3535532 0 -0.3535536 -0.3535532 6 -0.415735 -0.2777848 0 -0.415735 -0.2777848 6 -0.4619399 -0.1913413 0 -0.4619399 -0.1913413 6 -0.4903927 -0.09754472 0 -0.4903927 -0.09754472 6 -0.5 4.828e-7 0 -0.5 4.828e-7 6 -0.4903925 0.09754568 0 -0.4903925 0.09754568 6 -0.4619395 0.1913422 0 -0.4619395 0.1913422 6 -0.4157345 0.2777856 0 -0.4157345 0.2777856 6 -0.3535529 0.3535538 0 -0.3535529 0.3535538 6 -0.2777845 0.4157352 0 -0.2777845 0.4157352 6 -0.191341 0.4619401 0 -0.191341 0.4619401 6 -0.09754437 0.4903928 0 -0.09754437 0.4903928 6 0 0.5 0 0.09754514 0.4903926 0 0.09754514 0.4903926 6 0 0.5 6 0.1913417 0.4619398 0 0.1913417 0.4619398 6 0.2777851 0.4157348 0 0.2777851 0.4157348 6 0.3535534 0.3535534 0 0.3535534 0.3535534 6 0.4157348 0.2777851 0 0.4157348 0.2777851 6 0.4619398 0.1913417 0 0.4619398 0.1913417 6 0.4903926 0.09754514 0 0.4903926 0.09754514 6 0.5 0 0 0.5 0 6 0.4903926 -0.09754508 0 0.4903926 -0.09754508 6 0.4619398 -0.1913416 0 0.4619398 -0.1913416 6 0.4157348 -0.2777851 0 0.4157348 -0.2777851 6 0.3535534 -0.3535534 0 0.3535534 -0.3535534 6 0.2777851 -0.4157348 0 0.2777851 -0.4157348 6 0.1913416 -0.4619398 0 0.1913416 -0.4619398 6 0.09754502 -0.4903926 0 0.09754502 -0.4903926 6 -1.62921e-7 -0.5 0 -1.62921e-7 -0.5 6 -0.09754532 -0.4903926 0 -0.09754532 -0.4903926 6 -0.1913419 -0.4619396 0 -0.1913419 -0.4619396 6 -0.2777854 -0.4157347 0 -0.2777854 -0.4157347 6 -0.3535536 -0.3535532 0 -0.3535536 -0.3535532 6 -0.415735 -0.2777848 0 -0.415735 -0.2777848 6 -0.4619399 -0.1913413 0 -0.4619399 -0.1913413 6 -0.4903927 -0.09754472 0 -0.4903927 -0.09754472 6 -0.5 4.828e-7 0 -0.5 4.828e-7 6 -0.4903925 0.09754568 0 -0.4903925 0.09754568 6 -0.4619395 0.1913422 0 -0.4619395 0.1913422 6 -0.4157345 0.2777856 0 -0.4157345 0.2777856 6 -0.3535529 0.3535538 0 -0.3535529 0.3535538 6 -0.2777845 0.4157352 0 -0.2777845 0.4157352 6 -0.191341 0.4619401 0 -0.191341 0.4619401 6 -0.09754437 0.4903928 0 -0.09754437 0.4903928 6</float_array>
          <technique_common>
            <accessor source="#Cylinder_001-mesh-positions-array" count="128" stride="3">
              <param name="X" type="float"/>
              <param name="Y" type="float"/>
              <param name="Z" type="float"/>
            </accessor>
          </technique_common>
        </source>
        <source id="Cylinder_001-mesh-normals">
          <float_array id="Cylinder_001-mesh-normals-array" count="111">0 1 0 0.1950772 0.9807879 0 0.3826816 0.9238803 0 0.5555732 0.8314677 0 0.7071068 0.7071068 0 0.8314677 0.5555732 0 0.9238803 0.3826816 0 0.9807879 0.1950772 0 1 0 0 0.9807879 -0.1950772 0 0.9238803 -0.3826816 0 0.8314677 -0.5555732 0 0.7071068 -0.7071068 0 0.5555732 -0.8314677 0 0.3826816 -0.9238803 0 0.1950772 -0.9807879 0 0 -1 0 -0.1950772 -0.9807879 0 -0.3826816 -0.9238803 0 -0.5555732 -0.8314677 0 -0.7071068 -0.7071068 0 -0.8314677 -0.5555732 0 -0.9238803 -0.3826816 0 -0.9807879 -0.1950772 0 -1 0 0 -0.9807879 0.1950772 0 -0.9238803 0.3826816 0 -0.8314677 0.5555732 0 -0.7071068 0.7071068 0 -0.5555732 0.8314677 0 -0.3826816 0.9238803 0 0 0 1 -0.1950772 0.9807879 0 0 0 -1 -6.10389e-5 0 1 3.05185e-5 0 1 6.10389e-5 0 1</float_array>
          <technique_common>
            <accessor source="#Cylinder_001-mesh-normals-array" count="37" stride="3">
              <param name="X" type="float"/>
              <param name="Y" type="float"/>
              <param name="Z" type="float"/>
            </accessor>
          </technique_common>
        </source>
        <source id="Cylinder_001-mesh-map-0">
          <float_array id="Cylinder_001-mesh-map-0-array" count="744">0.2108001 0.9895915 0.1937114 0.01057386 0.2108001 0.01055538 0.1937114 0.9896101 0.1766225 0.01059228 0.1937114 0.01057386 0.1766225 0.9896286 0.1595337 0.01061069 0.1766225 0.01059228 0.1595337 0.989647 0.1424449 0.01062923 0.1595337 0.01061069 0.1424449 0.9896656 0.125356 0.01064765 0.1424449 0.01062923 0.1253561 0.989684 0.1082673 0.01066613 0.125356 0.01064765 0.1082673 0.9897026 0.09117841 0.01068449 0.1082673 0.01066613 0.09117841 0.9897211 0.07408958 0.01070302 0.09117841 0.01068449 0.07408964 0.9897395 0.05700075 0.01072144 0.07408958 0.01070302 0.05700075 0.989758 0.03991198 0.01073986 0.05700075 0.01072144 0.03991198 0.9897766 0.02282309 0.01075834 0.03991198 0.01073986 0.02282315 0.989795 0.005734264 0.01077681 0.02282309 0.01075834 0.5525763 0.9892213 0.5354875 0.01020485 0.5525763 0.01018631 0.5354875 0.9892398 0.5183987 0.01022326 0.5354875 0.01020485 0.5183987 0.9892582 0.5013099 0.01024168 0.5183987 0.01022326 0.5013099 0.9892768 0.4842212 0.0102601 0.5013099 0.01024168 0.4842211 0.9892953 0.4671323 0.01027864 0.4842212 0.0102601 0.4671323 0.9893138 0.4500435 0.01029706 0.4671323 0.01027864 0.4500435 0.9893323 0.4329547 0.01031547 0.4500435 0.01029706 0.4329547 0.9893507 0.415866 0.01033395 0.4329547 0.01031547 0.415866 0.9893693 0.3987771 0.01035243 0.415866 0.01033395 0.3987771 0.9893879 0.3816882 0.01037085 0.3987771 0.01035243 0.3816882 0.9894065 0.3645995 0.01038932 0.3816882 0.01037085 0.3645995 0.9894248 0.3475107 0.01040774 0.3645995 0.01038932 0.3475107 0.9894434 0.3304218 0.01042622 0.3475107 0.01040774 0.3304218 0.989462 0.313333 0.0104447 0.3304218 0.01042622 0.313333 0.9894804 0.2962443 0.01046311 0.313333 0.0104447 0.2962442 0.989499 0.2791554 0.01048153 0.2962443 0.01046311 0.2791554 0.9895173 0.2620666 0.01050001 0.2791554 0.01048153 0.2620666 0.9895359 0.2449778 0.01051849 0.2620666 0.01050001 0.7233372 0.5702457 0.9748577 0.7046869 0.5888978 0.8217659 0.2449778 0.9895545 0.227889 0.0105369 0.2449778 0.01051849 0.227889 0.9895729 0.2108001 0.01055538 0.227889 0.0105369 0.8001195 0.4087783 0.5966652 0.2418078 0.9670895 0.2053244 0.2108001 0.9895915 0.1937114 0.9896101 0.1937114 0.01057386 0.1937114 0.9896101 0.1766225 0.9896286 0.1766225 0.01059228 0.1766225 0.9896286 0.1595337 0.989647 0.1595337 0.01061069 0.1595337 0.989647 0.1424449 0.9896656 0.1424449 0.01062923 0.1424449 0.9896656 0.1253561 0.989684 0.125356 0.01064765 0.1253561 0.989684 0.1082673 0.9897026 0.1082673 0.01066613 0.1082673 0.9897026 0.09117841 0.9897211 0.09117841 0.01068449 0.09117841 0.9897211 0.07408964 0.9897395 0.07408958 0.01070302 0.07408964 0.9897395 0.05700075 0.989758 0.05700075 0.01072144 0.05700075 0.989758 0.03991198 0.9897766 0.03991198 0.01073986 0.03991198 0.9897766 0.02282315 0.989795 0.02282309 0.01075834 0.02282315 0.989795 0.005734324 0.9898136 0.005734264 0.01077681 0.5525763 0.9892213 0.5354875 0.9892398 0.5354875 0.01020485 0.5354875 0.9892398 0.5183987 0.9892582 0.5183987 0.01022326 0.5183987 0.9892582 0.5013099 0.9892768 0.5013099 0.01024168 0.5013099 0.9892768 0.4842211 0.9892953 0.4842212 0.0102601 0.4842211 0.9892953 0.4671323 0.9893138 0.4671323 0.01027864 0.4671323 0.9893138 0.4500435 0.9893323 0.4500435 0.01029706 0.4500435 0.9893323 0.4329547 0.9893507 0.4329547 0.01031547 0.4329547 0.9893507 0.415866 0.9893693 0.415866 0.01033395 0.415866 0.9893693 0.3987771 0.9893879 0.3987771 0.01035243 0.3987771 0.9893879 0.3816882 0.9894065 0.3816882 0.01037085 0.3816882 0.9894065 0.3645995 0.9894248 0.3645995 0.01038932 0.3645995 0.9894248 0.3475107 0.9894434 0.3475107 0.01040774 0.3475107 0.9894434 0.3304218 0.989462 0.3304218 0.01042622 0.3304218 0.989462 0.313333 0.9894804 0.313333 0.0104447 0.313333 0.9894804 0.2962442 0.989499 0.2962443 0.01046311 0.2962442 0.989499 0.2791554 0.9895173 0.2791554 0.01048153 0.2791554 0.9895173 0.2620666 0.9895359 0.2620666 0.01050001 0.2620666 0.9895359 0.2449778 0.9895545 0.2449778 0.01051849 0.8404166 0.9562045 0.8016433 0.963917 0.7621105 0.9639167 0.7621105 0.9639167 0.7233376 0.9562044 0.8404166 0.9562045 0.686814 0.9410757 0.6539434 0.9191126 0.6259896 0.8911588 0.6259896 0.8911588 0.6040264 0.8582891 0.5888978 0.8217659 0.5888978 0.8217659 0.5811851 0.782993 0.5811849 0.7434599 0.5811849 0.7434599 0.5888972 0.7046864 0.5888978 0.8217659 0.6040259 0.6681622 0.6259893 0.6352918 0.7233372 0.5702457 0.6539431 0.6073378 0.6868137 0.5853743 0.7233372 0.5702457 0.7233372 0.5702457 0.7621108 0.5625332 0.8016439 0.5625332 0.8016439 0.5625332 0.8404173 0.5702458 0.8769413 0.5853746 0.8769413 0.5853746 0.9098118 0.6073381 0.9377658 0.6352923 0.9377658 0.6352923 0.9597292 0.668163 0.9748577 0.7046869 0.9748577 0.7046869 0.98257 0.7434601 0.9825697 0.7829927 0.9825697 0.7829927 0.974857 0.8217659 0.9748577 0.7046869 0.9597283 0.8582891 0.937765 0.8911594 0.9098108 0.919113 0.9098108 0.919113 0.8769404 0.941076 0.8404166 0.9562045 0.8404166 0.9562045 0.7233376 0.9562044 0.686814 0.9410757 0.686814 0.9410757 0.6259896 0.8911588 0.8404166 0.9562045 0.5888978 0.8217659 0.5888972 0.7046864 0.6040259 0.6681622 0.6259893 0.6352918 0.6539431 0.6073378 0.7233372 0.5702457 0.7233372 0.5702457 0.8016439 0.5625332 0.9748577 0.7046869 0.8769413 0.5853746 0.9377658 0.6352923 0.9748577 0.7046869 0.9748577 0.7046869 0.974857 0.8217659 0.9597283 0.8582891 0.9597283 0.8582891 0.9098108 0.919113 0.9748577 0.7046869 0.8404166 0.9562045 0.6259896 0.8911588 0.5888978 0.8217659 0.5888978 0.8217659 0.6040259 0.6681622 0.7233372 0.5702457 0.8016439 0.5625332 0.8769413 0.5853746 0.9748577 0.7046869 0.9748577 0.7046869 0.9098108 0.919113 0.8404166 0.9562045 0.8404166 0.9562045 0.5888978 0.8217659 0.9748577 0.7046869 0.2449778 0.9895545 0.227889 0.9895729 0.227889 0.0105369 0.227889 0.9895729 0.2108001 0.9895915 0.2108001 0.01055538 0.7636358 0.03835475 0.800119 0.03835481 0.8359014 0.04547238 0.8359014 0.04547238 0.869608 0.05943405 0.8999429 0.07970321 0.8999429 0.07970321 0.9257409 0.105501 0.9460099 0.1358358 0.9460099 0.1358358 0.9599717 0.1695419 0.8999429 0.07970321 0.9670895 0.2053244 0.9670896 0.2418077 0.9599722 0.27759 0.9599722 0.27759 0.9460107 0.3112966 0.9670895 0.2053244 0.9257416 0.3416316 0.8999439 0.3674295 0.8001195 0.4087783 0.8696089 0.3876989 0.8359023 0.4016607 0.8001195 0.4087783 0.8001195 0.4087783 0.7636358 0.4087783 0.727853 0.4016607 0.727853 0.4016607 0.6941465 0.387699 0.6638114 0.3674299 0.6638114 0.3674299 0.6380136 0.341632 0.6177443 0.3112968 0.6177443 0.3112968 0.6037827 0.2775903 0.5966652 0.2418078 0.5966652 0.2418078 0.5966653 0.2053242 0.6037828 0.1695419 0.6037828 0.1695419 0.6177446 0.1358356 0.6380139 0.1055008 0.6380139 0.1055008 0.6638116 0.07970309 0.7636358 0.03835475 0.6941467 0.05943387 0.7278532 0.04547226 0.7636358 0.03835475 0.7636358 0.03835475 0.8359014 0.04547238 0.9670895 0.2053244 0.8999429 0.07970321 0.9599717 0.1695419 0.9670895 0.2053244 0.9670895 0.2053244 0.9460107 0.3112966 0.9257416 0.3416316 0.8999439 0.3674295 0.8696089 0.3876989 0.8001195 0.4087783 0.8001195 0.4087783 0.727853 0.4016607 0.5966652 0.2418078 0.6638114 0.3674299 0.6177443 0.3112968 0.5966652 0.2418078 0.5966652 0.2418078 0.6037828 0.1695419 0.7636358 0.03835475 0.6638116 0.07970309 0.6941467 0.05943387 0.7636358 0.03835475 0.8359014 0.04547238 0.8999429 0.07970321 0.9670895 0.2053244 0.9670895 0.2053244 0.9257416 0.3416316 0.8001195 0.4087783 0.727853 0.4016607 0.6638114 0.3674299 0.5966652 0.2418078 0.6037828 0.1695419 0.6380139 0.1055008 0.7636358 0.03835475 0.7636358 0.03835475 0.9670895 0.2053244 0.5966652 0.2418078</float_array>
          <technique_common>
            <accessor source="#Cylinder_001-mesh-map-0-array" count="372" stride="2">
              <param name="S" type="float"/>
              <param name="T" type="float"/>
            </accessor>
          </technique_common>
        </source>
        <vertices id="Cylinder_001-mesh-vertices">
          <input semantic="POSITION" source="#Cylinder_001-mesh-positions"/>
        </vertices>
        <polylist material="PBRFULL_ConcretePylon-material" count="124">
          <input semantic="VERTEX" source="#Cylinder_001-mesh-vertices" offset="0"/>
          <input semantic="NORMAL" source="#Cylinder_001-mesh-normals" offset="1"/>
          <input semantic="TEXCOORD" source="#Cylinder_001-mesh-map-0" offset="2" set="0"/>
          <vcount>3 3 3 3 3 3 3 3 3 3 3 3 3 3 3 3 3 3 3 3 3 3 3 3 3 3 3 3 3 3 3 3 3 3 3 3 3 3 3 3 3 3 3 3 3 3 3 3 3 3 3 3 3 3 3 3 3 3 3 3 3 3 3 3 3 3 3 3 3 3 3 3 3 3 3 3 3 3 3 3 3 3 3 3 3 3 3 3 3 3 3 3 3 3 3 3 3 3 3 3 3 3 3 3 3 3 3 3 3 3 3 3 3 3 3 3 3 3 3 3 3 3 3 3 </vcount>
          <p>67 0 0 65 1 1 64 0 2 66 1 3 68 2 4 65 1 5 69 2 6 70 3 7 68 2 8 71 3 9 72 4 10 70 3 11 73 4 12 74 5 13 72 4 14 75 5 15 76 6 16 74 5 17 77 6 18 78 7 19 76 6 20 79 7 21 80 8 22 78 7 23 81 8 24 82 9 25 80 8 26 83 9 27 84 10 28 82 9 29 85 10 30 86 11 31 84 10 32 87 11 33 88 12 34 86 11 35 89 12 36 90 13 37 88 12 38 91 13 39 92 14 40 90 13 41 93 14 42 94 15 43 92 14 44 95 15 45 96 16 46 94 15 47 97 16 48 98 17 49 96 16 50 99 17 51 100 18 52 98 17 53 101 18 54 102 19 55 100 18 56 103 19 57 104 20 58 102 19 59 105 20 60 106 21 61 104 20 62 107 21 63 108 22 64 106 21 65 109 22 66 110 23 67 108 22 68 111 23 69 112 24 70 110 23 71 113 24 72 114 25 73 112 24 74 115 25 75 116 26 76 114 25 77 117 26 78 118 27 79 116 26 80 119 27 81 120 28 82 118 27 83 121 28 84 122 29 85 120 28 86 123 29 87 124 30 88 122 29 89 37 31 90 21 31 91 53 31 92 125 30 93 126 32 94 124 30 95 63 32 96 64 0 97 126 32 98 30 33 99 46 33 100 14 33 101 67 0 102 66 1 103 65 1 104 66 1 105 69 2 106 68 2 107 69 2 108 71 3 109 70 3 110 71 3 111 73 4 112 72 4 113 73 4 114 75 5 115 74 5 116 75 5 117 77 6 118 76 6 119 77 6 120 79 7 121 78 7 122 79 7 123 81 8 124 80 8 125 81 8 126 83 9 127 82 9 128 83 9 129 85 10 130 84 10 131 85 10 132 87 11 133 86 11 134 87 11 135 89 12 136 88 12 137 89 12 138 91 13 139 90 13 140 91 13 141 93 14 142 92 14 143 93 14 144 95 15 145 94 15 146 95 15 147 97 16 148 96 16 149 97 16 150 99 17 151 98 17 152 99 17 153 101 18 154 100 18 155 101 18 156 103 19 157 102 19 158 103 19 159 105 20 160 104 20 161 105 20 162 107 21 163 106 21 164 107 21 165 109 22 166 108 22 167 109 22 168 111 23 169 110 23 170 111 23 171 113 24 172 112 24 173 113 24 174 115 25 175 114 25 176 115 25 177 117 26 178 116 26 179 117 26 180 119 27 181 118 27 182 119 27 183 121 28 184 120 28 185 121 28 186 123 29 187 122 29 188 123 29 189 125 30 190 124 30 191 5 31 192 3 31 193 1 31 194 1 31 195 127 31 196 5 31 197 61 31 198 59 31 199 57 31 200 57 31 201 55 31 202 53 31 203 53 31 204 51 34 205 49 35 206 49 35 207 47 31 208 53 31 209 45 31 210 43 31 211 37 31 212 41 31 213 39 31 214 37 31 215 37 31 216 35 31 217 33 31 218 33 31 219 31 31 220 29 31 221 29 31 222 27 31 223 25 31 224 25 31 225 23 31 226 21 31 227 21 31 228 19 36 229 17 31 230 17 31 231 15 31 232 21 31 233 13 31 234 11 31 235 9 31 236 9 31 237 7 31 238 5 31 239 5 31 240 127 31 241 61 31 242 61 31 243 57 31 244 5 31 245 53 31 246 47 31 247 45 31 248 43 31 249 41 31 250 37 31 251 37 31 252 33 31 253 21 31 254 29 31 255 25 31 256 21 31 257 21 31 258 15 31 259 13 31 260 13 31 261 9 31 262 21 31 263 5 31 264 57 31 265 53 31 266 53 31 267 45 31 268 37 31 269 33 31 270 29 31 271 21 31 272 21 31 273 9 31 274 5 31 275 5 31 276 53 31 277 21 31 278 125 30 279 63 32 280 126 32 281 63 32 282 67 0 283 64 0 284 62 33 285 0 33 286 2 33 287 2 33 288 4 33 289 6 33 290 6 33 291 8 33 292 10 33 293 10 33 294 12 33 295 6 33 296 14 33 297 16 33 298 18 33 299 18 33 300 20 33 301 14 33 302 22 33 303 24 33 304 30 33 305 26 33 306 28 33 307 30 33 308 30 33 309 32 33 310 34 33 311 34 33 312 36 33 313 38 33 314 38 33 315 40 33 316 42 33 317 42 33 318 44 33 319 46 33 320 46 33 321 48 33 322 50 33 323 50 33 324 52 33 325 54 33 326 54 33 327 56 33 328 62 33 329 58 33 330 60 33 331 62 33 332 62 33 333 2 33 334 14 33 335 6 33 336 12 33 337 14 33 338 14 33 339 20 33 340 22 33 341 24 33 342 26 33 343 30 33 344 30 33 345 34 33 346 46 33 347 38 33 348 42 33 349 46 33 350 46 33 351 50 33 352 62 33 353 56 33 354 58 33 355 62 33 356 2 33 357 6 33 358 14 33 359 14 33 360 22 33 361 30 33 362 34 33 363 38 33 364 46 33 365 50 33 366 54 33 367 62 33 368 62 33 369 14 33 370 46 33 371</p>
        </polylist>
      </mesh>
    </geometry>
  </library_geometries>
  <library_controllers/>
  <library_visual_scenes>
    <visual_scene id="Scene" name="Scene">
      <node id="ConcretePylon" name="ConcretePylon" type="NODE">
        <matrix sid="transform">1 0 0 0 0 1 0 0 0 0 1 0 0 0 0 1</matrix>
        <instance_geometry url="#Cylinder_001-mesh" name="ConcretePylon">
          <bind_material>
            <technique_common>
              <instance_material symbol="PBRFULL_ConcretePylon-material" target="#PBRFULL_ConcretePylon-material"/>
            </technique_common>
          </bind_material>
        </instance_geometry>
      </node>
    </visual_scene>
  </library_visual_scenes>
  <scene>
    <instance_visual_scene url="#Scene"/>
  </scene>
</COLLADA>